sentiment,review
positive,Museu
positive,"Ao lado esta o museu, o que vale uma visita. Conta muito da historia da rainha e da epoca. Ha muita historia."
positive,Simples mas bonita
positive,"Esta no centro da cidade, numa praca  perto do Teatro. Simples, mas bonita. Vale a pena passar por la."
negative,A rainha
positive,"Uma das principais figuras de Beja, que aproveitou o reinado do irmao para tornar a cidade importante."
negative,A rainha o museu e nomeado apos
positive,"A estatua esta na entrada do museu fantastico, razao pela qual classifiquei a estatua tao bem. Ha estacionamento e ha banheiros logo abaixo da estatua. Ela tem vista para uma grande praca Mas veja o museu."
