Expressao, Frequencia
"servico prestado", 0.04095355783423742
"simpatia de proximidade", 0.06644376942871778
"proximidade no servico", 0.06644376942871778
"calmo", 0.15761666443703867
"acolhedor", 0.15761666443703867
"prestado", 0.15761666443703867
"costa Vicentina", 0.18739729533590513
"simpatia", 0.24960779891306456
"proximidade", 0.24960779891306456
"servico", 0.24960779891306456
"Proximo da costa", 0.2676324577589267
"planicies alentejanas", 0.2676324577589267
"permite planear", 0.2676324577589267
"Vicentina", 0.2944325169342264
"passeios", 0.30192649741172073
"passeios pedestres", 0.3120701406155726
"Proximo", 0.39388000969958387
"alentejanas", 0.39388000969958387
"permite", 0.39388000969958387
"pedestres", 0.39388000969958387
"tranquilidade existe", 0.025746405363484395
"silencio tranquilo optimo", 0.0943790734984977
"optimo para descansar", 0.14716233122309752
"tranquilidade", 0.15843032003708177
"existe", 0.15843032003708177
"produtos do Alentejo", 0.15928018011039283
"jardim super convidativo", 0.1761585660570348
"silencio tranquilo", 0.18524761365131232
"tranquilo optimo", 0.18524761365131232
"monte", 0.2455318720013837
"tamanho ideal", 0.25134175526431646
"super convidativo", 0.25134175526431646
"Luis", 0.2781759033577806
"Alentejo", 0.2816311593610182
"jardim super", 0.31234378354998626
"pequeno-almoco com produtos", 0.31234378354998626
"proprio monte", 0.3150435860632315
"descansar", 0.32448902673488567
"ambiente familiar", 0.39396545465499316
"silencio", 0.395340917894962
"Monte da Floresta", 0.003030297223765355
"experiencia no Monte", 0.00712059109653827
"passo a mencionar", 0.015175548848434113
"muita competencia carregada", 0.046189990727158764
"Floresta", 0.05224421813631976
"Monte", 0.057827303623625585
"dedicacao e amor", 0.09263852916250559
"encontra-se serenidade", 0.09486322671137339
"espaco singular", 0.10487710049318216
"qualidade e muita", 0.10616178546083826
"espaco", 0.10749207166831401
"muita competencia", 0.11895224864316614
"competencia carregada", 0.11895224864316614
"passo", 0.12226485271426726
"mencionar", 0.12226485271426726
"sera", 0.12226485271426726
"descrever", 0.12226485271426726
"experiencia", 0.12226485271426726
"dedicacao", 0.1440177869021688
"imensa dedicacao", 0.1540576918586242
"Jose Luis", 0.0037595128573179523
"Luis e mesmo", 0.00825025189590087
"extremamente limpo", 0.015588765423412032
"mesmo muito simpatico", 0.015588765423412032
"atento e cuidadoso", 0.015588765423412032
"espaco e extremamente", 0.03002661509434403
"espaco", 0.04442497350566344
"Jose", 0.06119993348110152
"Luis", 0.06119993348110152
"limpo", 0.11480106437076765
"simpatico", 0.11480106437076765
"atento", 0.11480106437076765
"hospedes", 0.11480106437076765
"casa tem historia", 0.12154407125623351
"jardim e fenomenal", 0.12154407125623351
"extremamente", 0.13370508342111107
"mesmo", 0.13370508342111107
"cuidadoso", 0.13370508342111107
"imensos recantos lindos", 0.14248881443089198
"Alentejo", 0.1521706933073458
"servicos necessarios", 0.012549093303732713
"localizacao isolada", 0.01596275864979965
"muitas sombras tranquilas", 0.0971393612326796
"comecando", 0.09887378958139469
"minutos", 0.09887378958139469
"necessarios", 0.09887378958139469
"impecavelmente limpo", 0.1009531788947472
"localizacao", 0.12534732762780282
"isolada", 0.12534732762780282
"povoacao", 0.12534732762780282
"servicos", 0.12534732762780282
"sombras tranquilas", 0.1765544247020677
"jardim e bonito", 0.21460669356157294
"muitas sombras", 0.21460669356157294
"acolhedor", 0.2759254721637399
"limpo", 0.2759254721637399
"mergulho refrescante", 0.2843547520874094
"espaco a volta", 0.2843547520874094
"alto nivel", 0.32085259419870454
"enorme", 0.33232220036314214
"Simpatia do proprietario", 0.012293379733106572
"pequeno almoco,tudo", 0.04288530796176138
"Simpatia", 0.07526550314924853
"limpeza", 0.07877215228985654
"espaco", 0.07877215228985654
"proprietario", 0.16134998560465696
"pequeno", 0.16134998560465696
"almoco,tudo", 0.2548608063968106
"Recomendavel para qualquer", 0.2779125234321224
"tipo de estadia", 0.2779125234321224
"otimo", 0.28599404573057385
"Recomendavel", 0.4005485444770613
"estadia", 0.4005485444770613
"familia", 0.4005485444770613
"qualquer tipo", 0.41800493518380183
"sentir a natureza", 0.4548474866753232
"natureza", 0.49328918231958546
"qualquer", 0.5429399936007562
"tipo", 0.5429399936007562
"animais", 0.5429399936007562
"simpatia da funcionaria", 0.019307502113616534
"fizeram-nos sentir", 0.019307502113616534
"restantes zonas sao", 0.09233125933995448
"zonas sao limpas", 0.09233125933995448
"funcionaria", 0.12050728723429749
"fizeram-nos", 0.12050728723429749
"limpas e cuidadas", 0.14514751320159514
"simpatia", 0.15718371910694154
"sentir", 0.15718371910694154
"restantes zonas", 0.1827717645421203
"zonas sao", 0.1827717645421203
"sao limpas", 0.1827717645421203
"almoco e simples", 0.2481137259978544
"carregamento", 0.2672525754861547
"pequeno almoco", 0.30842728345280707
"cuidadas", 0.32243641739271917
"precisa de descansar", 0.3268727819719073
"Informacao imprecisa", 0.389179949219794
"eletrico de automoveis", 0.389179949219794
"restantes", 0.39310093622479525
"facil encontrar palavras", 0.0016905012960894358
"encontrar palavras suficientes", 0.0016905012960894358
"permitam exprimir fielmente", 0.0016905012960894358
"Monte da Floresta", 0.003019739229833767
"passagem no Monte", 0.0070594846475436745
"Nao e facil", 0.011328288735211718
"facil encontrar", 0.014020763182989051
"encontrar palavras", 0.014020763182989051
"palavras suficientes", 0.014020763182989051
"suficientes e significativas", 0.014020763182989051
"permitam exprimir", 0.014020763182989051
"exprimir fielmente", 0.014020763182989051
"Jose Luis sao", 0.042027801144673166
"Floresta", 0.050501524695519426
"Monte", 0.05961498937982928
"Jose Luis", 0.07525341351557051
"idilico e romantico", 0.09255722316419689
"Nao", 0.09525981883631914
"tracos intimamente ligados", 0.1014179257780223
"calor humano impera", 0.1014179257780223
"condicoes fisicas", 0.01911893411113409
"qualidade do acolhimento", 0.03107735477427921
"a-vontade do anfitriao", 0.03107735477427921
"sobretudo as camas", 0.03107735477427921
"camas e comodas", 0.03107735477427921
"termos de qualidade", 0.050888965170882816
"Excepcional", 0.06588837669267192
"amigo Jose Luis", 0.13042127890930078
"acolhimento", 0.13696809108329627
"anfitriao", 0.13696809108329627
"condicoes", 0.13696809108329627
"fisicas", 0.13696809108329627
"moveis", 0.13696809108329627
"sobretudo", 0.13696809108329627
"comodas", 0.13696809108329627
"Jose Luis", 0.15223759369061343
"Rapidamente", 0.19677146788549632
"agruras da vida", 0.21339268578732606
"termos", 0.2200560909321288
"qualidade", 0.2200560909321288
"descontraido e sossegado", 0.052723425289126664
"Monte da Floresta", 0.07293041886137067
"Floresta preencheu", 0.15001383821963782
"Queriamos", 0.1557771210632246
"ferias", 0.1557771210632246
"descontraido", 0.2237920554699524
"sossegado", 0.2237920554699524
"ultimos", 0.2237920554699524
"piscina", 0.23599880288686553
"Monte", 0.26071653452996163
"Floresta", 0.26071653452996163
"sossegado para passar", 0.28987734144103106
"passar os ultimos", 0.28987734144103106
"passar", 0.30788058002563073
"patas", 0.344347038900227
"requisitos", 0.39056148834349086
"espetacular", 0.4828523529590491
"preencheu", 0.5003336148208131
"Podemos respirar", 0.5202642533774509
"respirar ar puro", 0.5202642533774509
"super prestavel", 0.12843896684609835
"recuperada", 0.14185848192791986
"dono esta presente", 0.15343779516874423
"restantes zonas sao", 0.16472098858318046
"zonas sao limpas", 0.16472098858318046
"limpas e cuidadas", 0.2213651473270724
"restantes zonas", 0.25886107769945466
"zonas sao", 0.25886107769945466
"sao limpas", 0.26176436406150533
"almoco e simples", 0.292861604120355
"prestavel", 0.3120682914347624
"Zona envolvente", 0.3405612541272772
"pequeno almoco", 0.3445091820612922
"precisa de descansar", 0.34959327570272314
"dono", 0.36472798357471015
"presente", 0.36472798357471015
"super", 0.36472798357471015
"calma e relaxante", 0.3960475175638645
"cuidadas", 0.3979216688912639
"simples", 0.44749880978401396
"Jose Luis Martinho", 0.06188450683791923
"Parabens Jose Luis", 0.1183956961509301
"Fantastico", 0.12522046607710577
"Luis Martinho", 0.13698670270148444
"Jose Luis", 0.15496064787981884
"sido dito", 0.19111666188475288
"mobilias sao lindas", 0.19754797320949333
"anfitriao", 0.201247746315131
"envolvencia linda", 0.21086743471445707
"sao lindas", 0.23770323144877992
"Excelentes condicoes", 0.2426169774601468
"Parabens Jose", 0.2477071619949686
"relaxar e apreciar", 0.27304673178011346
"excelente pequeno-almoco", 0.27862563927504946
"Martinho", 0.32892426165773925
"Confirmo", 0.3455447796328653
"alojamento", 0.3455447796328653
"linda", 0.3530181063920496
"lindas", 0.3530181063920496
"Jose", 0.3662917340132098
"Simpatia e disponibilidade", 0.025453241917698242
"disponibilidade do anfitriao", 0.025453241917698242
"pronto a agradar", 0.025453241917698242
"pequenos mimos", 0.06700297751570544
"Simpatia", 0.13513714135194813
"anfitriao", 0.13513714135194813
"agradar", 0.13513714135194813
"mimos", 0.13513714135194813
"Limpeza excelente", 0.18246651224212898
"disponibilidade", 0.18367604316709257
"pronto", 0.18367604316709257
"Tranquilidade e bonita", 0.3073118659405305
"bonita vista", 0.3073118659405305
"Limpeza", 0.3517756575168456
"exterior", 0.3517756575168456
"Pequeno almoco simpatico", 0.3627451453217407
"Pequeno almoco", 0.37114135787074926
"simpatico e agradavel", 0.40185557102067726
"doce caseiro", 0.40185557102067726
"excelente", 0.4386605078508577
"espaco envolvente", 0.021605014754401988
"ate ao espaco", 0.029730546344811294
"excelentes condicoes", 0.05439632465450019
"Mesmo", 0.12446060395599318
"envolvente", 0.12446060395599318
"condicoes", 0.16991810150085523
"ate", 0.16991810150085523
"espaco", 0.16991810150085523
"Jose e Raquel", 0.1902648668013862
"Pequeno almoco formidavel", 0.20356977626110836
"vista muito bonita", 0.208694724613944
"excelente para relaxar", 0.22583638258243555
"Raquel muito prestaveis", 0.23585542092395603
"Pequeno almoco", 0.270424279884099
"bonita e excelente", 0.28230972202286464
"excelentes", 0.30361695939142513
"excelente", 0.30361695939142513
"Piscina", 0.3305246067997519
"relaxar", 0.3305246067997519
"Raquel", 0.34118996414065245
"Jose super prestaveis", 0.005574269600526471
"Raquel e Jose", 0.01934131091973425
"disponiveis e simpaticos", 0.030279710150228397
"Jose super", 0.030676564394014665
"super prestaveis", 0.048329512655254245
"Jose", 0.11067970628271942
"Raquel", 0.17143452294208072
"prestaveis", 0.17143452294208072
"disponiveis", 0.17143452294208072
"simpaticos", 0.17143452294208072
"pequeno almoco excelente", 0.17939422645525013
"excelente", 0.2105964835746426
"piscina tudo perfeito", 0.2118748029396727
"limpeza", 0.24206578597461495
"super", 0.2689158003805059
"pequeno almoco", 0.30640105278791635
"almoco excelente", 0.3093403907697266
"pequeno", 0.4181294699612383
"piscina", 0.4181294699612383
"perfeito", 0.4181294699612383
"Ferreira do Alentejo", 0.005022155577969405
"Monte em Ferreira", 0.00680383915336335
"surpresa agradavel", 0.020818845797234226
"Alentejo", 0.0607868920252255
"Monte", 0.08220620270100175
"Ferreira", 0.08220620270100175
"agradavel", 0.11797671014185607
"lareira alentejana", 0.1539412127363319
"surpresa", 0.17286683788205306
"semana para comemorar", 0.21489669178785997
"comemorar o aniversario", 0.21489669178785997
"vontade de voltar", 0.21489669178785997
"voltar para experimentar", 0.21489669178785997
"experimentar a lareira", 0.21489669178785997
"Jose", 0.31187474598968257
"Ficamos", 0.3171947781126727
"amigo", 0.3171947781126727
"alentejana", 0.3171947781126727
"Adoramos", 0.31813151393529204
"hospitaleiro", 0.4036310100959565
"Ferreira do Alentejo", 0.004264747658160558
"vila ds Ferreira", 0.01143354430345338
"chama Mkntw", 0.01143354430345338
"Mkntw da Floresta.Tudo", 0.01143354430345338
"Pertinho da vila", 0.015099935621315529
"existe uma perola", 0.015099935621315529
"enfim mesmo", 0.015099935621315529
"Jose Martinho", 0.0521883172778223
"Alentejo", 0.05572221155747183
"Ferreira", 0.07621084492189614
"Mkntw", 0.07621084492189614
"parabens ao Jose", 0.0916308214273787
"Martinho pela dedicacao", 0.0916308214273787
"Pertinho", 0.10028582371075691
"existe", 0.10028582371075691
"espaco", 0.10028582371075691
"piscina", 0.10028582371075691
"atendimento", 0.10028582371075691
"enfim", 0.10028582371075691
"receber os hospedes", 0.11755105063023073
"fantastico e hospitalidade", 0.02313991771129883
"Vila de Beja", 0.07690837286383125
"destacadas de Ferreira", 0.08316175093400771
"Centro da Vila", 0.09136090675029432
"recepcao calorosa espera", 0.11754916488996883
"bela Pousada", 0.12048751300557961
"hospitalidade", 0.13193912755855217
"fantastico", 0.17141671703181607
"carro do Centro", 0.17367408442263607
"Ferreira", 0.18363320352487983
"Kristina E Kelly", 0.20291871713279105
"recepcao calorosa", 0.211837347348492
"calorosa espera", 0.211837347348492
"espera por voce", 0.211837347348492
"casas de cidade", 0.211837347348492
"cidade mais destacadas", 0.211837347348492
"Pousada", 0.2184081341310951
"Jos Kristina", 0.2371134641368942
"Beja", 0.24683052415911205
"Localizada numa zona", 0.2859097329012125
