Expressao, Frequencia
'staff muito simpatico', 0.03107735477427921
'comida e staff', 0.050888965170882816
'simpatico', 0.13696809108329627
'servico muito rapido', 0.21339268578732606
'comida', 0.2200560909321288
'staff', 0.2200560909321288
'precos sao', 0.32441639786848336
'sao bastante acessiveis', 0.32441639786848336
'duvida a repetir', 0.35487136790899465
'rapido', 0.3553358554145339
'repetir', 0.44538603402402266
'precos', 0.4949246952252326
'sao', 0.4949246952252326
'acessiveis', 0.4949246952252326
'servico', 0.4949246952252326
'duvida', 0.5880798524606783
'grelhada', 0.11142476118001256
'Recomendo tambem', 0.14005713113751553
'carne', 0.16383273847958243
'atendimento', 0.16383273847958243
'tambem o vinho', 0.19613242932716538
'Recomendo', 0.3033846052649951
'sobremesas', 0.3033846052649951
'duvida a voltar', 0.3295258815075752
'recomendar', 0.3881970960906714
'tambem', 0.4049347717850166
'vinho', 0.4049347717850166
'duvida', 0.49784754196738834
'voltar', 0.49784754196738834
'Comida realmente saborosa', 0.022604239483217055
'realmente saborosa', 0.033624655485339
'Porco preto divinal', 0.1173939295747088
'Comida realmente', 0.13186985090940745
'saborosa', 0.15535464803425306
'Comida', 0.18546289589444853
'realmente', 0.20939713327595844
'Porco preto', 0.2296544098804564
'preto divinal', 0.2296544098804564
'Provamos as costelas', 0.3027135960382855
'Porco', 0.38979627031486735
'divinal', 0.38979627031486735
'Setembro', 0.44942239522591754
'incio de Setembro', 0.46031980040743997
'preto', 0.4791307434634947
'Provamos', 0.48204933794902066
'costelas', 0.48204933794902066
'plumas', 0.48204933794902066
'Vinho branco', 0.4951822428439717
'Vinho', 0.5328319772946751
'Atendimento espectacular', 0.02541909697430123
'Toi', 0.06588837669267192
'Atendimento', 0.12363091320521931
'funcionarios', 0.12363091320521931
'Excelente comida', 0.18075564686791562
'precos acessiveis', 0.18075564686791562
'espectacular', 0.2005079697193566
'comida a precos', 0.2766850298235749
'Excelente', 0.32883716426354986
'acessiveis', 0.32883716426354986
'comida', 0.46553351027698087
'precos', 0.46553351027698087
'Casa simples', 0.015099935621315529
'atendimento familiar', 0.015099935621315529
'simples e atendimento', 0.02249651976012989
'Casa', 0.10028582371075691
'familiar', 0.10028582371075691
'Provamos o ensopado', 0.11755105063023073
'ensopado de borrego', 0.11755105063023073
'preciso encomendar', 0.11755105063023073
'simples', 0.14832923246533666
'atendimento', 0.14832923246533666
'Provamos', 0.2790829227183407
'borrego', 0.2790829227183407
'encomendar', 0.2790829227183407
'ensopado', 0.37689977775222827
'preciso', 0.37689977775222827
'gostamos', 0.37689977775222827
'simplicidade e sabor', 0.05372504787820842
'sabor supremo', 0.05372504787820842
'excelentes carnes', 0.10932422194732569
'simplicidade', 0.18087033619667015
'supremo', 0.18087033619667015
'excelentes', 0.21178928326651927
'carnes', 0.21178928326651927
'sabor', 0.28189161752425324
'porco preto', 0.3340084487023314
'preto', 0.4340307474356052
'Recomendado', 0.5276993038251123
'alguma', 0.5276993038251123
'Recomendado sem duvida', 0.5408147854492137
'duvida alguma', 0.5408147854492137
'porco', 0.5768705597222936
'carnes de porco', 0.5783892440545336
'duvida', 0.6651377514055722
'genial', 0.12762544885024293
'Alentejo', 0.25465524943398554
'fantastico', 0.33691300306840244
'preciso aguardar', 0.38678692672062065
'Paciencia', 0.3904620527534316
'espera sempre alcanca', 0.458624670128347
'aguardar', 0.4756703201763729
'alcanca', 0.5087394527589804
'mundo', 0.5504659446213761
'preto do mundo', 0.5662149570081038
'preciso', 0.5863487364692137
'espera', 0.6180426404313532
'provarao', 0.6567491425756187
'melhor', 0.6567491425756187
'carne', 0.6567491425756187
'porco', 0.6567491425756187
'preto', 0.6567491425756187
'provarao a melhor', 0.7584564407259813
'melhor carne', 0.7584564407259813
'carne de porco', 0.7584564407259813
'Excelente', 0.06588837669267192
'Qualidade maxima', 0.21339268578732606
'maxima nos produtos', 0.21339268578732606
'Qualidade', 0.3553358554145339
'produtos', 0.3553358554145339
'ambiente', 0.3553358554145339
'maxima', 0.4949246952252326
'servico', 0.4949246952252326
'vivesse', 0.5880798524606783
'tinha', 0.5880798524606783
'felizmente enganei-me', 0.01604814544997088
'entrei pensei', 0.01935661552809481
'simpaticas comida simples', 0.06417024963636146
'ementa tambem vitela', 0.06417024963636146
'Espaco', 0.09279593831032255
'tasca', 0.11461960970627136
'vida', 0.11461960970627136
'enganei-me', 0.11461960970627136
'tendo na ementa', 0.12449445391654367
'vitela e peixe', 0.12449445391654367
'parecido', 0.13780076833620558
'entrei', 0.13780076833620558
'pensei', 0.13780076833620558
'barrete', 0.13780076833620558
'felizmente', 0.13780076833620558
'simpaticas comida', 0.1460151195687718
'comida simples', 0.1460151195687718
'gostem de comer', 0.1460151195687718
'ementa tambem', 0.1460151195687718
'tambem vitela', 0.1460151195687718
'Excelente carne', 0.014462827749006226
'selecao variada', 0.024877696141696323
'presa', 0.0860571528960486
'plumas', 0.0860571528960486
'abanicos', 0.0860571528960486
'lagartos', 0.0860571528960486
'Excelente', 0.11940115774748415
'carne', 0.11940115774748415
'certo', 0.11940115774748415
'encontramos', 0.11940115774748415
'comeram melhor', 0.14292563482009873
'selecao', 0.15580057585750773
'variada', 0.15580057585750773
'Melhores grelhados', 0.1730157868699164
'salada de tomate', 0.1800404691692788
'tomate acreditem', 0.1800404691692788
'sul Atendimento', 0.2080700435926821
'preco', 0.21385837491081156
'simplicidade vence', 0.24455066854242635
'Melhores', 0.2763780450814723
'confeccao paladar unico', 0.0016012214736657916
'manjar dos deuses', 0.00899321792126428
'staff simpatico', 0.013527995261974615
'confeccao paladar', 0.013527995261974615
'paladar unico', 0.013527995261974615
'preco acessivel', 0.013527995261974615
'acessivel deve marcar', 0.013527995261974615
'marcar mesa', 0.013527995261974615
'mesa para garantir', 0.013527995261974615
'garantir um manjar', 0.013527995261974615
'deuses', 0.0771485953923296
'staff', 0.1155310835876123
'simpatico', 0.1155310835876123
'confeccao', 0.1155310835876123
'paladar', 0.1155310835876123
'unico', 0.1155310835876123
'preco', 0.1155310835876123
'acessivel', 0.1155310835876123
'marcar', 0.1155310835876123
'mesa', 0.1155310835876123
'impossivel nao ficar', 0.002313665618900312
'nao ficar gravado', 0.0032173869679631944
'impossivel nao', 0.015465128052409167
'gravado na memoria', 0.015465128052409167
'comer e chorar', 0.02140921543860024
'nao ficar', 0.02140921543860024
'ficar gravado', 0.02140921543860024
'porco preto assada', 0.07353467526306731
'impossivel', 0.10519328464496844
'memoria', 0.10519328464496844
'Salada de tomate', 0.12025258825090053
'tomate divina', 0.12025258825090053
'carne de porco', 0.12025258825090053
'comer', 0.1447773057422032
'chorar', 0.1447773057422032
'nao', 0.1447773057422032
'ficar', 0.1447773057422032
'gravado', 0.1447773057422032
'porco preto', 0.1588666998905099
'preto assada', 0.1588666998905099
'Trata-se do melhor', 0.01859446618045681
'entrecosto do mundo', 0.01859446618045681
'melhor entrecosto', 0.027581485432184485
'tambem sao excelentes', 0.072115470298114
'porco preto tambem', 0.10360454189614123
'preto tambem sao', 0.10360454189614123
'Trata-se', 0.11142476118001256
'mundo', 0.11142476118001256
'sao excelentes', 0.14005713113751553
'melhor', 0.16383273847958243
'entrecosto', 0.16383273847958243
'iguarias de porco', 0.19613242932716538
'porco preto', 0.19613242932716538
'preto tambem', 0.19613242932716538
'tambem sao', 0.19613242932716538
'excelentes', 0.3033846052649951
'salada de tomate', 0.3295258815075752
'comer e chorar', 0.3295258815075752
'iguarias', 0.4049347717850166
'porco', 0.4049347717850166
'quiser comer', 0.06700577021681149
'Toi', 0.07459883109391804
'qualidade', 0.1430164761977166
'muita qualidade', 0.18160570368225948
'Servico esmerado', 0.18502185387940306
'carne', 0.2370366908187126
'quiser', 0.2505951825352756
'comer', 0.2505951825352756
'comer boa carne', 0.2604765769292645
'Servico', 0.3951375787241905
'esmerado', 0.3951375787241905
'sobremesas', 0.3951375787241905
'generosas', 0.3951375787241905
'muita', 0.5373296883685575
'carne de muita', 0.6127324443692569
'cadeiras para jantar', 0.1897510795045097
'Toy', 0.20650324638366122
'min', 0.2636039614990146
'Venham', 0.2928755258650458
'Toy Farois', 0.3443458107510736
'cadeiras', 0.39935954962042997
'jantar', 0.39935954962042997
'Farois', 0.4134620631818762
'Demoramos', 0.46446534779861504
'passadas', 0.4920508646828281
'Passados', 0.5207405325166271
'qualquer modo', 0.5208114643321748
'estamos com fome', 0.5208114643321748
'Rest', 0.5325773449672673
'modo', 0.5427829891739769
'estamos', 0.5427829891739769
'pressa', 0.5427829891739769
'comentamos', 0.5509915319699226
'Ate', 0.6157388585258177
'toca', 0.6293191021078177
'simpatico nem atencioso', 0.018522847584207115
'casa cheia', 0.02191577287111085
'servir nao', 0.04496712503356489
'Norte para Sul', 0.06415226492449244
'doses nao sao', 0.08386393241027891
'Gerente Sr. Toi', 0.08846860468524503
'ate', 0.08990724321760611
'mesa ate chegar', 0.09609806055753911
'dono que ate', 0.12080438102627498
'atencioso', 0.12418413977836498
'mesa ate', 0.13487577227973302
'comida sao grelhados', 0.13491385077804915
'nao sao', 0.1364090518079329
'bruto no atendimento', 0.1405140951214197
'casa', 0.14644375097135962
'cheia', 0.14644375097135962
'dono', 0.14644375097135962
'servir', 0.14644375097135962
'simpatico', 0.14644375097135962
'mesa', 0.14687518580361023
'Porco preto grelhada', 0.007083338975836491
'Porco preto', 0.011914936566631153
'Porco', 0.06706507660688493
'carne de Porco', 0.08407349135578121
'preto grelhada', 0.10158951183608085
'delas a melhor', 0.10577166065067527
'excelente', 0.10759579660126942
'melhor', 0.11249117163795394
'salada de tomate', 0.11527270071734562
'melhor carne', 0.12334605632142909
'Salada', 0.14428067198990507
'comi', 0.1564823791578631
'carne', 0.16268294026544208
'sao', 0.16749853279102478
'Beja', 0.175440720124409
'preto', 0.17557040183192205
'lagartos e presas', 0.1813847574964502
'pessoas e comemos', 0.19989580465732165
'comemos entrecosto', 0.19989580465732165
'frita excelente sao', 0.2093343104967003
'porco preto', 0.00899321792126428
'otimas batatas', 0.00899321792126428
'salada de tomate', 0.00899321792126428
'carne de porco', 0.013527995261974615
'batatas e excelente', 0.013527995261974615
'excelente salada', 0.013527995261974615
'vontade de voltar', 0.013527995261974615
'Fica', 0.04776309965539685
'preto', 0.0771485953923296
'otimas', 0.0771485953923296
'tomate', 0.0771485953923296
'carne', 0.1155310835876123
'porco', 0.1155310835876123
'batatas', 0.1155310835876123
'excelente', 0.1155310835876123
'salada', 0.1155310835876123
'vontade', 0.1155310835876123
'voltar', 0.1155310835876123
'Ambiente acolhedor', 0.01911893411113409
'simpatico e atencioso', 0.03107735477427921
'staff simpatico', 0.050888965170882816
'Ambiente', 0.13696809108329627
'acolhedor', 0.13696809108329627
'atencioso', 0.13696809108329627
'Carne de porco', 0.21339268578732606
'duvida que voltaremos', 0.21339268578732606
'staff', 0.2200560909321288
'simpatico', 0.2200560909321288
'porco preto', 0.32441639786848336
'preto do melhor', 0.32441639786848336
'Carne', 0.3553358554145339
'voltaremos', 0.3553358554145339
'porco', 0.4949246952252326
'preto', 0.4949246952252326
'melhor', 0.4949246952252326
'duvida', 0.4949246952252326
'caso contrario nao', 0.015490243210982909
'caso contrario', 0.02717069913336569
'restaurantes que vale', 0.03420832470809317
'vale a pena', 0.03420832470809317
'contrario nao', 0.09809362355545997
'nao', 0.12279467336775174
'tripadvisor', 0.145444165042728
'caso', 0.145444165042728
'encontraria', 0.145444165042728
'salada de tomate', 0.15289795453475966
'restaurantes', 0.18187034403512756
'vale', 0.18187034403512756
'pena', 0.18187034403512756
'contrario', 0.18187034403512756
'excelente', 0.18659926093182383
'Carne de porco', 0.1931194010956411
'especialidade da casa', 0.1931194010956411
'nao o encontraria', 0.20751703533391042
'porco preto', 0.2342970579238924
'Excelente qualidade', 0.23705736535599595
'porco preto', 0.02541909697430123
'satisfacao comer', 0.04188746641162499
'comer uma refeicao', 0.04188746641162499
'refeicao neste restaurante', 0.04188746641162499
'restaurante especializado', 0.04188746641162499
'especializado em carne', 0.04188746641162499
'carne de porco', 0.04188746641162499
'preto', 0.12363091320521931
'Aconselho a marcar', 0.18075564686791562
'marcar previamente', 0.18075564686791562
'satisfacao', 0.2005079697193566
'comer', 0.2005079697193566
'refeicao', 0.2005079697193566
'restaurante', 0.2005079697193566
'especializado', 0.2005079697193566
'carne', 0.2005079697193566
'porco', 0.2005079697193566
'Aconselho', 0.32883716426354986
'previamente', 0.32883716426354986
'marcar', 0.46553351027698087
'carne bem grelhada', 0.04188746641162499
'salada de tomate', 0.07796891081290885
'tomate magnifica', 0.07796891081290885
'atendimento', 0.17881754828257995
'estrelas', 0.17881754828257995
'recomendo', 0.17881754828257995
'agradavel', 0.2005079697193566
'comida', 0.2005079697193566
'carne', 0.2005079697193566
'grelhada', 0.2005079697193566
'salada', 0.2005079697193566
'magnifica', 0.2005079697193566
'tomate', 0.36073110501666333
'restaurante e mesmo', 0.015182204378765869
'almocar ou jantar', 0.09667870557746086
'estranha mas vale', 0.11899639845920473
'vale a pena', 0.11899639845920473
'restaurante', 0.12229125971027831
'mesmo', 0.12229125971027831
'ambos estavam super', 0.17955671161222628
'estavam super tenros', 0.17955671161222628
'salada de tomate', 0.2062405690335538
'tomate e efectivamente', 0.2062405690335538
'Comemos plumas', 0.22630503838095226
'tenros e suculentos', 0.22630503838095226
'jantar', 0.2703328680552898
'plumas e lagartos', 0.2736409981269629
'lagartos e ambos', 0.2736409981269629
'ambos estavam', 0.2736409981269629
'estavam super', 0.2736409981269629
'super tenros', 0.2736409981269629
'entrada', 0.3261013256329346
'estranha', 0.3261013256329346
'quiser comer', 0.023831873812256835
'Beja mas vale', 0.08371213931784265
'recomendo este restaurante', 0.08705228928649088
'recomendo', 0.12453561975559539
'comer uma carne', 0.14276307487309842
'quiser', 0.15256846346267214
'comer', 0.15256846346267214
'restaurante', 0.15340046953425793
'batatas feitas caseiras', 0.1686608856163936
'grelhada', 0.16899737648606789
'carne grelhada', 0.17129691328502925
'espaco Restaurante simples', 0.18009071917815223
'Beja', 0.20078396674669996
'espaco Restaurante', 0.20759592996225823
'Restaurante simples', 0.20759592996225823
'carne', 0.21634286882243603
'porco grelhada', 0.24571685155452486
'feitas caseiras', 0.2492508172488215
'salada de tomate', 0.29408508259223004
'tomate e fantastica', 0.29408508259223004
'entrecosto maravilhoso', 0.23338172234549467
'Salada', 0.27573389687933125
'proposito para comer', 0.35350894161299157
'comer este entrecosto', 0.35350894161299157
'Venho', 0.3702539456099092
'maravilhoso', 0.3702539456099092
'venham a Beja', 0.3737565631155434
'Beja conhecer', 0.3737565631155434
'Beja', 0.4178540393604482
'conhecer e provar', 0.500279879713408
'proposito', 0.5110573480904945
'comer', 0.5110573480904945
'entrecosto', 0.5110573480904945
'Aconselho', 0.5121371841744414
'provar', 0.5121371841744414
'venham', 0.6511101154454433
'conhecer', 0.6511101154454433
'Apos chegada tardia', 0.00834079071638706
'Apos chegada', 0.03595186509426148
'chegada tardia', 0.04896029154379126
'tardia para almocar', 0.04896029154379126
'almocar e mesmo', 0.04896029154379126
'porco preto', 0.07581975786759422
'estrelas', 0.1449405956803817
'preto', 0.14671778514517544
'salada de tomate', 0.155383903888804
'Apos', 0.16063470324348134
'recebidos', 0.16063470324348134
'chegada', 0.21604413130589328
'tardia', 0.21604413130589328
'almocar', 0.21604413130589328
'mesmo', 0.21604413130589328
'porco', 0.22436394985061378
'quilometros de Beja', 0.22967150523083396
'Beja fica', 0.22967150523083396
'tomate unica', 0.24133423622385933
'salada', 0.24345860718462714
'melhores sitios pars', 0.014324834009635256
'sitios pars comer', 0.014324834009635256
'porco preto', 0.03465229800090378
'melhores sitios', 0.0565406034156422
'sitios pars', 0.0565406034156422
'pars comer', 0.0565406034156422
'preto', 0.1447773057422032
'melhores', 0.23133275159292982
'sitios', 0.23133275159292982
'pars', 0.23133275159292982
'comer', 0.23133275159292982
'porco', 0.23133275159292982
'Atendimento tipico', 0.23338172234549467
'tipico e simpatico', 0.23338172234549467
'Atendimento', 0.3702539456099092
'simpatico', 0.3702539456099092
'Comida de chorar', 0.38599679376725615
'Comida', 0.4613789858464135
'aconselho vivamente', 0.500279879713408
'vivamente este espaco', 0.500279879713408
'tipico alentejano', 0.02432114973172299
'alentejano', 0.14095484065013467
'humilde', 0.14095484065013467
'tipico', 0.1684488174901236
'nao', 0.1751878827172597
'tratava das bebidas', 0.1763558533885077
'nao adianta pedir', 0.18970200582379085
'Vivo em Beja', 0.20077359796248087
'menina do tratava', 0.2056323921681007
'pedir', 0.23745535265438508
'adianta pedir', 0.24398659761275832
'porco', 0.2531854307134237
'esperar', 0.25398909550358395
'comida', 0.2658472017428337
'reserva', 0.2706342495615531
'nao adianta', 0.27722389701039396
'pedir reserva', 0.34599321552018053
'funcao', 0.36300520394485
'bebidas', 0.36300520394485
'balcao e Vivo', 0.3644640553351616
'higiene meu Deus', 0.009108237309423345
'aspectos ao contrario', 0.02570861714399338
'contrario da dona', 0.02570861714399338
'dona maria', 0.02570861714399338
'Deus', 0.057012387690331526
'confianca', 0.09568045026443411
'aspectos', 0.15831692877998726
'contrario', 0.15831692877998726
'dona', 0.15831692877998726
'maria', 0.15831692877998726
'higiene', 0.15831692877998726
'mundo Salada tomate', 0.0019309623667654765
'gentileza Porco preto', 0.0032177430778693138
'Salada tomate', 0.010309039981220859
'gentileza Porco', 0.016986990148931156
'Porco preto', 0.016986990148931156
'mundo Salada', 0.016986990148931156
'simplicidade e gentileza', 0.033892441937102495
'Atendimento do melhor', 0.06727892794511338
'Porco', 0.09225444226215379
'Salada', 0.09225444226215379
'melhor com simplicidade', 0.10882816095144712
'preto o melhor', 0.10882816095144712
'melhor deste mundo', 0.10882816095144712
'Atendimento', 0.11060549338282699
'tomate', 0.11060549338282699
'melhor', 0.13023752997463905
'simplicidade', 0.18105634546484617
'gentileza', 0.18105634546484617
'preto', 0.18105634546484617
'mundo', 0.18105634546484617
'Norte e viemos', 0.017417093148234735
'porco preto grelhada', 0.029054243994585317
'porco preto', 0.02948530518567841
'carne de porco', 0.036889582576012644
'viemos ca experimentar', 0.05064217117241901
'experimentar a tao', 0.05064217117241901
'tao bem falada', 0.05064217117241901
'porco', 0.07630803853981649
'Norte', 0.07797365653336172
'preto grelhada', 0.07825630651456504
'carne', 0.08425364070580797
'preto', 0.08874921115992472
'falada carne', 0.10191433051349959
'top', 0.1322785388450293
'grelhada', 0.16943064245084322
'porco grelhada', 0.18363791956683007
'viemos', 0.21954762532931027
'experimentar', 0.21954762532931027
'tao', 0.21954762532931027
'falada', 0.21954762532931027
'Convem marcar mesa', 0.0019285276874561766
'carne grelhada fora', 0.005365976126778563
'Convem marcar', 0.01065644397336218
'Restaurante informal', 0.018818151346519908
'fora do normal', 0.018818151346519908
'batatas fritas', 0.018818151346519908
'salada de tomate', 0.018818151346519908
'mesa com antecedencia', 0.018818151346519908
'carne grelhada', 0.02925982339430117
'grelhada fora', 0.031283437983838376
'vinho da casa', 0.031283437983838376
'casa podia', 0.031283437983838376
'fritas e salada', 0.031283437983838376
'marcar mesa', 0.031283437983838376
'Convem', 0.060539738489479474
'carne', 0.0816109565613552
'Restaurante', 0.10605034052066013
'normal', 0.10605034052066013
'melhor', 0.10605034052066013
'batatas', 0.10605034052066013
'refeicoes a base', 0.025400426479116313
'salientando-se o entrecosto', 0.025400426479116313
'base de grelhados', 0.03114839973242416
'grelhados salientando-se', 0.03114839973242416
'Restaurante informal', 0.06453506104956389
'porco preto', 0.10967241329247401
'amigo Toy Farois', 0.11652336717946664
'preto e achiga', 0.13090776786104083
'Toy Farois', 0.13499318966751575
'Restaurante', 0.14178303531818207
'informal', 0.1425247313952041
'refeicoes', 0.1425247313952041
'entrecosto', 0.1425247313952041
'achiga', 0.1425247313952041
'Porto Peles', 0.14422038699159212
'melhor porco preto', 0.1617252316572252
'Beja restaurante', 0.16276026017303116
'Beja', 0.16454423657545914
'Toy', 0.16888263878288662
'base', 0.17380300606522506
'porco preto grelhado', 0.009001679881101624
'grelhado e rei', 0.02541909697430123
'porco preto', 0.04188746641162499
'preto grelhado', 0.04188746641162499
'Servico algo lento', 0.12124452117740256
'rei', 0.12363091320521931
'tempo da grelha', 0.18075564686791562
'porco', 0.2005079697193566
'preto', 0.2005079697193566
'grelhado', 0.2005079697193566
'muita qualidade', 0.2766850298235749
'qualidade na carne', 0.2766850298235749
'Servico', 0.32883716426354986
'lento', 0.32883716426354986
'grelha', 0.32883716426354986
'muita', 0.46553351027698087
'qualidade', 0.46553351027698087
'carne', 0.46553351027698087
'tempo', 0.46553351027698087
'Casa pequena', 0.03107735477427921
'geralmente cheia', 0.03107735477427921
'pequena e geralmente', 0.050888965170882816
'Casa', 0.13696809108329627
'cheia', 0.13696809108329627
'pequena', 0.2200560909321288
'geralmente', 0.2200560909321288
'sabores estao', 0.32441639786848336
'tomate sao obrigatorios', 0.35136518550240553
'sao obrigatorios', 0.35487136790899465
'certo', 0.3553358554145339
'obrigatorios', 0.44538603402402266
'sabores', 0.4949246952252326
'estao', 0.4949246952252326
'entrecosto na brasa', 0.5286731219590494
'salada de tomate', 0.5286731219590494
'tomate sao', 0.5286731219590494
'entrecosto', 0.5880798524606783
'brasa', 0.5880798524606783
'salada', 0.5880798524606783
'Servico lento', 0.01552184797949213
'Servico', 0.12363091320521931
'lento', 0.12363091320521931
'comida', 0.12363091320521931
'chega a carne', 0.2766850298235749
'carne grelhada', 0.2766850298235749
'esquece', 0.32883716426354986
'espera', 0.46553351027698087
'longa', 0.46553351027698087
'chega', 0.46553351027698087
'carne', 0.46553351027698087
'grelhada', 0.46553351027698087
'melhor porco preto', 0.0025258761156662004
'repetir.Convem usar gps', 0.0042542192213185686
'Excelente qualidade', 0.015380821171891606
'preco muito acessivel', 0.015380821171891606
'muita simpatia', 0.015380821171891606
'simpatia no servico', 0.015380821171891606
'melhor porco', 0.015380821171891606
'experiencia a repetir.Convem', 0.015380821171891606
'porco preto', 0.02570861714399338
'repetir.Convem usar', 0.02570861714399338
'usar gps', 0.02570861714399338
'chegar mas vale', 0.02570861714399338
'Excelente', 0.09568045026443411
'acessivel', 0.09568045026443411
'muita', 0.09568045026443411
'servico', 0.09568045026443411
'melhor', 0.09568045026443411
'comi', 0.09568045026443411
'experiencia', 0.09568045026443411
'esforco', 0.09568045026443411
'simples restaurante bejense', 0.004737258569048452
'serve carne porco', 0.004737258569048452
'carne porco preto', 0.004737258569048452
'Almoco de amigos', 0.01859446618045681
'preto de excelencia', 0.01859446618045681
'amigos neste simples', 0.027581485432184485
'simples restaurante', 0.027581485432184485
'restaurante bejense', 0.027581485432184485
'bejense que serve', 0.027581485432184485
'serve carne', 0.027581485432184485
'carne porco', 0.027581485432184485
'porco preto', 0.027581485432184485
'batata frita tradicional', 0.072115470298114
'Almoco', 0.11142476118001256
'excelencia', 0.11142476118001256
'Costelinhas e plumas', 0.14005713113751553
'plumas divinais', 0.14005713113751553
'salada de tomate', 0.14005713113751553
'frita tradicional', 0.14005713113751553
'amigos', 0.16383273847958243
'mesmo com mesa', 0.02541909697430123
'mesa marcada', 0.02541909697430123
'levou cerca', 0.02541909697430123
'minutos para sermos', 0.02541909697430123
'sermos atendidos', 0.02541909697430123
'mesmo', 0.12363091320521931
'marcada', 0.12363091320521931
'levou', 0.12363091320521931
'minutos', 0.12363091320521931
'atendidos', 0.12363091320521931
'compensou a espera', 0.18075564686791562
'plumas e entrecosto', 0.18075564686791562
'mesa', 0.2005079697193566
'cerca', 0.2005079697193566
'sermos', 0.2005079697193566
'deliciosas plumas', 0.2766850298235749
'compensou', 0.32883716426354986
'entrecosto', 0.32883716426354986
'pronto', 0.46553351027698087
'semana', 0.46553351027698087
'esperarmos pelo jantar', 0.051491129497897706
'arrependidos por esperarmos', 0.0828618673769873
'jantar', 0.17702556015875678
'arrependidos', 0.2766246184740657
'esperarmos', 0.2766246184740657
'melhor', 0.35465310259395444
'recebidos', 0.42761382206433557
'carta', 0.42761382206433557
'alem disso foi-nos', 0.47001163338396357
'disso foi-nos explicado', 0.47001163338396357
'alem disso', 0.48244015062619355
'disso foi-nos', 0.48244015062619355
'foi-nos explicado', 0.48244015062619355
'Carne', 0.5211727681420214
'comemos', 0.5211727681420214
'Carne divinal', 0.5234635292157129
'alguma vez comemos', 0.5234635292157129
'alem', 0.5704704296998718
'disso', 0.5704704296998718
'foi-nos', 0.5704704296998718
'restaurante Toy Farois', 0.001831890293693541
'Toy Farois', 0.009015036465623754
'restaurante Toy', 0.013295181874148576
'Porco Preto', 0.018385171558834644
'carne porco preto', 0.0230206476315832
'Toi Farois', 0.023785871589235973
'porco preto grelhada', 0.02443635846685995
'comemos presa Iberica', 0.03160800185706925
'preto grelhada fantastica', 0.03683413132874955
'apesar de nao', 0.04250361297657649
'nao ser facil', 0.051417185550991534
'restaurante', 0.06529152996667653
'Farois', 0.06668983593659729
'Toy', 0.0669854076839089
'nao', 0.07002129972325799
'Porco', 0.07621052957688389
'Preto', 0.07621052957688389
'presa Iberica', 0.08214270878455279
'carne porco', 0.09003171419397622
'preto grelhada', 0.0952373789013221
'Apesar do caminho', 0.015465128052409167
'caminho muito defeituoso', 0.015465128052409167
'isolado surpreendeu', 0.015465128052409167
'Apesar', 0.10519328464496844
'defeituoso', 0.10519328464496844
'surpreendeu', 0.10519328464496844
'caminho', 0.1447773057422032
'isolado', 0.1447773057422032
'carne e divinal', 0.20785651292262122
'simpatico', 0.2899204041465753
'dono', 0.3702539456099092
'divinal', 0.37298424001381364
'carne', 0.4613789858464135
'comida e simples', 0.04459743505557188
'simples', 0.09298880279203464
'espaco e simples', 0.10446126264178342
'caseira', 0.1601553947452947
'saborosa', 0.1601553947452947
'tomate', 0.18962163298192125
'comida', 0.22956214529085409
'cheio de gente', 0.25411283615039915
'salada', 0.2863552763596103
'Sinceramente', 0.35181659096255696
'salada de tomate', 0.3544339508418797
'gente', 0.39842433796902926
'nao', 0.4910760580871238
'cebola', 0.4910760580871238
'comi', 0.4910760580871238
'espaco', 0.508562262727327
'cheio', 0.508562262727327
'melhor salada', 0.525157591507468
'magia', 0.6012287525049483
'melhor', 0.6012287525049483
'Restaurante Toy Farois', 0.034746280769062755
'porco preto', 0.06762568352088517
'restaurante', 0.09550456961139805
'Restaurante Toy', 0.1038773714945726
'Toy Farois', 0.10485769556163145
'Beja', 0.11784199316148404
'melhor restaurante', 0.13636944361428052
'qualidade', 0.14871925981307724
'restaurante onde comi', 0.15014701414988285
'Entrecosto', 0.1621258567130832
'porco', 0.1621258567130832
'Restaurante tipico', 0.16809920727403999
'comemos presa Iberica', 0.17045711658035934
'comi', 0.17529357109383156
'cheguei', 0.17529357109383156
'cheguei a Beja', 0.1772839147879815
'tenha tido', 0.18113639007752846
'carne grelhada.', 0.18113639007752846
'preto', 0.1837119278012997
'melhor', 0.20942191143350078
'batata frita caseira', 0.004188927753014003
'Foi-nos recomendado', 0.02326532809019462
'frita caseira', 0.02326532809019462
'batata frita', 0.030434590744267943
'Toy', 0.0609030632649808
'Foi-nos', 0.1322962103612527
'caseira', 0.1322962103612527
'recomendado', 0.17185948993532188
'batata', 0.17185948993532188
'frita', 0.17185948993532188
'entrecosto', 0.21337544597341182
'cafe modesto', 0.28711854312818974
'excelente', 0.29471972857389367
'Valeu', 0.34620350708650965
'ossinho', 0.34620350708650965
'atendimento simpatico', 0.355681373326891
'modesto', 0.435502796370132
'mundo', 0.435502796370132
'voltar sem duvida', 0.4468173119421121
'salada de tomate', 0.4633926342274253
'Restaurante sensacional', 0.07276023643026674
'voltando para Lisboa', 0.08596962276553936
'indo para Algarve', 0.0953486659618935
'Algarve ou voltando', 0.0953486659618935
'Restaurante', 0.11127853641369861
'porco grelhado', 0.13147840345587986
'porco', 0.13149741487916014
'atendimento IMPECAVEL', 0.14895261705114593
'sensacional', 0.15237721720024058
'entrecosto', 0.1655675859181325
'Lisboa', 0.18570568275677637
'Algarve', 0.20420204511896042
'plumas', 0.22173281352664334
'pena a parada', 0.222076555648302
'parada quando estiver', 0.222076555648302
'estiver indo', 0.222076555648302
'salada de tomate', 0.2377284850698589
'Vale', 0.24341000877228505
'porco grelhado excelente', 0.24444865072505587
'IMPECAVEL', 0.2493983522852843
'nao', 0.11748136304827876
'Restaurante', 0.14130483540343197
'manta Tasca', 0.15512262948661776
'pretensoes', 0.1829939934751783
'Tasca com barulho', 0.1862711520655046
'variados comensais', 0.1892320598814713
'pequeno cafe', 0.2367673226457989
'cafe de bairro', 0.2367673226457989
'bairro e apos', 0.2367673226457989
'apos uma porta', 0.2367673226457989
'porta entra-se', 0.2367673226457989
'entra-se numa sala', 0.2367673226457989
'sala simples', 0.2367673226457989
'simples com mesas', 0.2367673226457989
'mesas e cadeiras', 0.2367673226457989
'cadeiras preparadas', 0.2367673226457989
'preparadas para acolher', 0.2367673226457989
'pretensoes a nao', 0.2554115023440965
'Comida tipica portuguesa', 0.2609057774698655
'Tasca', 0.29556930407677273
'sugestao do Patrao', 0.08778811954721781
'plumas excelentemente grelhadas', 0.0997050015458478
'comemos lombinhos', 0.13523623261350304
'Pessoa espectacular', 0.1381823287486808
'presas e plumas', 0.1749847360239984
'excelentemente grelhadas', 0.1749847360239984
'jantar', 0.17933825448423205
'Patrao', 0.18703673094402834
'plumas excelentemente', 0.22877038268730962
'espectacular', 0.3451464493487638
'comemos', 0.3451464493487638
'lombinhos', 0.3451464493487638
'presas', 0.3451464493487638
'grelhadas', 0.3451464493487638
'Pessoa', 0.3517525535853033
'Pessoas', 0.3517525535853033
'tomate unica', 0.38688374479323895
'Sala muito simples', 0.4150063018121461
'sugestao', 0.431483836803597
'plumas', 0.431483836803597
'Chegar', 0.11142476118001256
'qualque sitio', 0.14005713113751553
'conseguir', 0.16383273847958243
'comida do toi', 0.19613242932716538
'nao se encontra', 0.19613242932716538
'encontra em qualque', 0.19613242932716538
'sao exelentes', 0.23956129807083346
'sitio', 0.3033846052649951
'aproveitar a qualidade', 0.3295258815075752
'qualidade da carne', 0.3295258815075752
'salada de tomate', 0.3295258815075752
'tomate que sao', 0.3295258815075752
'exelentes', 0.3881970960906714
'comida', 0.4049347717850166
'toi', 0.4049347717850166
'nao', 0.4049347717850166
'encontra', 0.4049347717850166
'qualque', 0.4049347717850166
'aproveitar', 0.49784754196738834
'qualidade', 0.49784754196738834
'restaurante comi', 0.17756077014849755
'comi o melhor', 0.17756077014849755
'melhor entrecosto', 0.17756077014849755
'entrecosto dos ultimos', 0.17756077014849755
'Adorei', 0.26303348124903125
'restaurante', 0.38831292435681075
'comi', 0.38831292435681075
'melhor', 0.38831292435681075
'entrecosto', 0.38831292435681075
'ultimos', 0.38831292435681075
'Casa', 0.4949246952252326
'magnifica', 0.4949246952252326
'Casa muito simples', 0.5162806230574593
'simpatia magnifica', 0.5162806230574593
'simples', 0.68796622281612
'qualidade', 0.68796622281612
'simpatia', 0.68796622281612
'qualidade e simpatia', 0.8986050855370177
'Chegamos eram', 0.02295415349700563
'serviam carne grelhada', 0.0956902953380306
'Chegamos', 0.12394452752391977
'muitas mesas', 0.16387777840995654
'carne grelhada', 0.16699178627058067
'eram', 0.18104133988084595
'lagartos e presas', 0.2107521992789367
'serviam carne', 0.232481537497522
'Apos optarmos', 0.28251706682704775
'aspecto muito apetitoso', 0.28251706682704775
'porco preto', 0.28251706682704775
'passando pelo bacalhau', 0.28251706682704775
'bacalhau assado', 0.28251706682704775
'dificil de escolher', 0.28251706682704775
'plumas', 0.28708442060682393
'abanicos', 0.28708442060682393
'piano', 0.28708442060682393
'carne,com rapidez surgiram', 0.32132431561966557
'mesas', 0.32419675836232426
'mesa', 0.32419675836232426
'baratinha frita caseira', 0.0010606143890052174
'tava tudo top', 0.005987543063120938
'Fantastico come', 0.00899321792126428
'plumas um prato', 0.00899321792126428
'frita caseira', 0.00899321792126428
'salada de tomate', 0.013527995261974615
'tomate formidavel', 0.013527995261974615
'baratinha frita', 0.013527995261974615
'Fantastico', 0.0771485953923296
'grelhados', 0.0771485953923296
'plumas', 0.0771485953923296
'caseira', 0.0771485953923296
'tava', 0.0771485953923296
'top', 0.0771485953923296
'come', 0.1155310835876123
'prato', 0.1155310835876123
'salada', 0.1155310835876123
'tomate', 0.1155310835876123
'formidavel', 0.1155310835876123
'baratinha', 0.1155310835876123
'tipicamente alentejana', 0.009239332327148086
'saladinha de tomate', 0.015380821171891606
'super bem temperada', 0.015380821171891606
'pena estar tao', 0.015380821171891606
'tomate super', 0.02570861714399338
'Lisboa', 0.057012387690331526
'Carne', 0.09568045026443411
'grelhada', 0.09568045026443411
'saladinha', 0.09568045026443411
'temperada', 0.09568045026443411
'tipicamente', 0.09568045026443411
'alentejana', 0.09568045026443411
'pena', 0.09568045026443411
'tomate', 0.15831692877998726
'super', 0.15831692877998726
'tao', 0.15831692877998726
'pequenas dimensoes', 0.02528378123863945
'sala de pequenas', 0.03302909516771414
'dimensoes', 0.137913212613562
'cheia', 0.137913212613562
'carne de porco', 0.1551364077132228
'sala', 0.1788101063149675
'pequenas', 0.1788101063149675
'Atendimento simpatico', 0.18174797344939522
'simpatico e eficiente', 0.18174797344939522
'Marcacao quase obrigatoria', 0.19403753591425515
'grelhada e Espectaculoooooo', 0.23988473953937253
'carne', 0.24331058462289745
'porco', 0.24331058462289745
'comer', 0.28638283494354233
'Marcacao quase', 0.3063555161176314
'quase obrigatoria', 0.3063555161176314
'Espectaculoooooo', 0.31899650384103256
'porco preto', 0.3198469329325603
'Atendimento', 0.35716419287219686
'eficiente', 0.35716419287219686
'grelhada e maravilhosa', 0.01859446618045681
'qualidade da carne', 0.027581485432184485
'carne grelhada', 0.027581485432184485
'maravilhosa', 0.11142476118001256
'antiga portuguesa', 0.14005713113751553
'qualidade', 0.16383273847958243
'carne', 0.16383273847958243
'grelhada', 0.16383273847958243
'restaurante familiar', 0.19613242932716538
'consegue comer', 0.19613242932716538
'comer a antiga', 0.19613242932716538
'Vale a pena', 0.23956129807083346
'pequeno desvio', 0.23956129807083346
'portuguesa', 0.3033846052649951
'pena o pequeno', 0.3295258815075752
'Vale', 0.3881970960906714
'desvio', 0.3881970960906714
'restaurante', 0.4049347717850166
'familiar', 0.4049347717850166
'consegue', 0.4049347717850166
'vinho de jarro', 0.015099935621315529
'povo gosta', 0.015099935621315529
'sala com mesas', 0.02249651976012989
'pessoas a fumar', 0.02249651976012989
'carne de porco', 0.02249651976012989
'porco preto', 0.02249651976012989
'preto e salada', 0.02249651976012989
'salada de tomate', 0.02249651976012989
'tomate vinho', 0.02249651976012989
'Pergunto', 0.10028582371075691
'jarro', 0.10028582371075691
'gosta', 0.10028582371075691
'sala', 0.14832923246533666
'mesas', 0.14832923246533666
'pessoas', 0.14832923246533666
'fumar', 0.14832923246533666
'carne', 0.14832923246533666
'porco', 0.14832923246533666
'preto', 0.14832923246533666
'salada', 0.14832923246533666
'Preto do Alentejo', 0.007467805400473707
'Porco Preto', 0.010879665783271309
'carnes de Porco', 0.024589231605270833
'simples que serve', 0.0565406034156422
'melhores carnes', 0.0565406034156422
'Alentejo', 0.07145025265006083
'Porco', 0.10374281946485873
'Preto', 0.10374281946485873
'simples', 0.23133275159292982
'serve', 0.23133275159292982
'melhores', 0.23133275159292982
'carnes', 0.23133275159292982
'Porcoes muito fartas', 0.23338172234549467
'atendimento rapido', 0.23338172234549467
'Recomendo', 0.31813151393529204
'fartas e atendimento', 0.35350894161299157
'Porcoes', 0.3702539456099092
'rapido', 0.3702539456099092
'euros em almoco', 0.38599679376725615
'pessoas com meia', 0.38599679376725615
'clima descontraido', 0.015380821171891606
'almocos de negocios', 0.02570861714399338
'negocios informais', 0.02570861714399338
'informais ou jantares', 0.02570861714399338
'jantares com amigos', 0.02570861714399338
'amigos onde devera', 0.02570861714399338
'devera imperar', 0.02570861714399338
'imperar um clima', 0.02570861714399338
'grelhados', 0.09568045026443411
'descontraido', 0.09568045026443411
'almocos', 0.15831692877998726
'negocios', 0.15831692877998726
'informais', 0.15831692877998726
'jantares', 0.15831692877998726
'amigos', 0.15831692877998726
'devera', 0.15831692877998726
'imperar', 0.15831692877998726
'clima', 0.15831692877998726
'almocar', 0.149905405948569
'Ambiente acolhedor', 0.1685853064821579
'visita', 0.2386710978348089
'simples e tipico', 0.24685590141158925
'tipico alentejano', 0.24685590141158925
'Recomendo', 0.3568200533666425
'Ambiente', 0.3798215915560938
'acolhedor', 0.3798215915560938
'simples', 0.3798215915560938
'alentejano', 0.3798215915560938
'Grelhados de porco', 0.40689615193388323
'Grelhados', 0.4715382012123803
'acompanhamentos', 0.4715382012123803
'tipico', 0.5212518383364516
'Atendimento', 0.5223302035298336
'porco preto', 0.6030568194590986
'porco', 0.6133447588150343
'preto', 0.6133447588150343
'qualidade', 0.6133447588150343
'existente seja pero', 0.0025258761156662004
'unica fruta existente', 0.0042542192213185686
'fruta existente seja', 0.0042542192213185686
'zona de Beja', 0.009108237309423345
'seja pero', 0.015380821171891606
'unica fruta', 0.02570861714399338
'fruta existente', 0.02570861714399338
'existente seja', 0.02570861714399338
'resto encontramos', 0.02570861714399338
'encontramos neste restaurante', 0.02570861714399338
'restaurante o melhor', 0.02570861714399338
'melhor entrecosto', 0.02570861714399338
'entrecosto da zona', 0.02570861714399338
'Beja', 0.057012387690331526
'pero', 0.09568045026443411
'pena', 0.15831692877998726
'unica', 0.15831692877998726
'fruta', 0.15831692877998726
'existente', 0.15831692877998726
'seja', 0.15831692877998726
'limpeza,e claro', 0.015380821171891606
'carne grelhada', 0.015380821171891606
'entrecosto melhor', 0.02570861714399338
'melhor que comi', 0.02570861714399338
'comi ate', 0.02570861714399338
'tao pequeno', 0.02570861714399338
'claro a carne', 0.02570861714399338
'recomendo', 0.04491197687864554
'qualidade', 0.09568045026443411
'servico', 0.09568045026443411
'limpeza,e', 0.09568045026443411
'grelhada', 0.09568045026443411
'entrecosto', 0.15831692877998726
'melhor', 0.15831692877998726
'comi', 0.15831692877998726
'ate', 0.15831692877998726
'diria', 0.15831692877998726
'tao', 0.15831692877998726
'pequeno', 0.15831692877998726
'restaurante', 0.15831692877998726
'salada mesmo maravilhosa.', 0.0020530886296298424
'batata frita magnifica', 0.003234347665512981
'melhor carne grelhada', 0.005807076825314238
'mesmo maravilhosa.', 0.013941255708595121
'brasas com batata', 0.020803568001713568
'batata frita', 0.020803568001713568
'salada mesmo', 0.020803568001713568
'frita magnifica', 0.02183109509090737
'magnifica e salada', 0.02183109509090737
'melhor carne', 0.028371459231552133
'carne grelhada', 0.03879701961722131
'grelhada nas brasas', 0.06604137766970992
'magnifica e grelhada', 0.06907377237740837
'magnifica', 0.07482876671341211
'maravilhosa.', 0.09631441144923199
'carne', 0.09662818877412531
'grelhada', 0.09662818877412531
'carne e magnifica', 0.1108566396787811
'melhor', 0.14275713507656845
'brasas', 0.14275713507656845
'melhor porco Preto', 0.0013202783469493276
'comi melhor porco', 0.0035862224963275763
'porco Preto', 0.008555042099946354
'comi melhor', 0.022988213374765323
'melhor porco', 0.022988213374765323
'Preto', 0.056585512194050044
'comi', 0.149905405948569
'melhor', 0.149905405948569
'porco', 0.149905405948569
'carne e confeccao', 0.1685853064821579
'perder a Tarte', 0.20602387017622315
'Tarte de amendoa', 0.20602387017622315
'Atendimento rapido', 0.22010868773592726
'rapido e simpatico', 0.22010868773592726
'Nao perder', 0.29106528397220843
'medronho como digestivo', 0.29106528397220843
'pretensoes', 0.2983957947604909
'simples', 0.2983957947604909
'Convem reservar mesa', 0.309540889453637
'Tarte', 0.32705176562700716
'Espaco modesto', 0.032523790122822756
'modesto e acolhedor', 0.032523790122822756
'Espaco', 0.14776740576940706
'acolhedor', 0.14776740576940706
'modesto', 0.2131682079098158
'derrete na boca', 0.22280326450836108
'Nao', 0.30342298918561056
'sera', 0.30342298918561056
'casa simples', 0.3072108955925792
'carne de porco', 0.3072108955925792
'porco divinal', 0.3072108955925792
'refeicao barata', 0.3702737388420417
'extraordinariamente caro', 0.3702737388420417
'lugares', 0.3758542649129425
'boca', 0.3758542649129425
'barata', 0.4673347740098512
'caro', 0.4673347740098512
'repetir sem duvida', 0.48102057751182825
'casa', 0.48478087438454154
'simples', 0.48478087438454154
'preto do alentejo', 0.020818845797234226
'melhor assador', 0.030803441134664936
'assador de porco', 0.030803441134664936
'porco preto', 0.030803441134664936
'Porto Peles', 0.11392019075064246
'alentejo', 0.11797671014185607
'Funcionarios simpaticos', 0.1539412127363319
'simpaticos e atenciosos', 0.1539412127363319
'melhor', 0.17286683788205306
'assador', 0.17286683788205306
'porco', 0.17286683788205306
'preto', 0.17286683788205306
'freguesia de Porto', 0.2524461724762004
'Apesar do estacionamento', 0.26176225393615005
'caracteristico da regiao', 0.26176225393615005
'Peles', 0.28639761847540784
'Funcionarios', 0.3171947781126727
'atenciosos', 0.3171947781126727
'site esta errada', 0.34393543650132563
'situa-se na freguesia', 0.34393543650132563
'melhores entrecostos', 0.04691265622014099
'porco preto', 0.098016951822303
'preco nao iguala', 0.10113954483051155
'melhores', 0.13474622383496745
'melhor porco preto', 0.14049828630364977
'entrecostos', 0.1591459003275317
'qualidade', 0.17479248015323537
'venho', 0.17521779142416888
'digo', 0.17521779142416888
'preco nao', 0.18100024091843403
'porco', 0.20242486256485678
'preto', 0.20242486256485678
'nao iguala', 0.21989502646949766
'Algarve', 0.2489916648507888
'melhor', 0.25359646628241433
'melhor porco', 0.2583949403628845
'Simples', 0.28891762713607316
'Pretensoes', 0.28891762713607316
'preco', 0.36097962855161586
'nenhum', 0.36097962855161586
'Carne grelhada', 0.013337874972308723
'preto de sublime', 0.028447326718740094
'grelhada de porco', 0.04177913444538711
'porco preto', 0.04177913444538711
'Carne', 0.06572649526259315
'Positivo', 0.0826914198367652
'sublime', 0.1381234811139426
"caseiras' otimas", 0.1466001304225429
'Atendimento lento', 0.1719538913498549
'Salada de tomate', 0.1995047307435908
'batatas fritas', 0.1995047307435908
'grelhada', 0.20025893017553587
'porco', 0.20025893017553587
'preto', 0.20025893017553587
'Atendimento', 0.2625233599076771
'tomate divinal', 0.2760987008244475
'divinal e batatas', 0.2760987008244475
'cheia', 0.292594858993887
'Negativo', 0.3132528853583751
'Salada', 0.3575700909154904
'Alentejo Plumas', 0.00470321923077159
'batatas fritas fabulosas', 0.005394117426359369
'Toi que continua', 0.01336375086056824
'deliciosos As batatas', 0.021821003289453376
'continua a preparar', 0.030022110095161064
'batatas fritas', 0.030022110095161064
'fritas fabulosas', 0.030022110095161064
'fabulosas sempre frescas', 0.030022110095161064
'frescas e louras', 0.030022110095161064
'melhor porco preto', 0.03104988007008367
'porco preto', 0.03371542036936896
'tomates nao Grelhados', 0.03729234193388284
'preto do Alentejo', 0.04584864703163494
'Plumas', 0.06060266974420628
'Toi', 0.07724416315099963
'Alentejo', 0.07724416315099963
'lagartos', 0.08382874194069141
'piano', 0.08382874194069141
'nao Grelhados', 0.10364033486466646
'Grelhados de carne', 0.10364033486466646
'Comida simplesmente genial', 0.0008205757007965157
'nao espera servico', 0.0020056664065213644
'porco preto', 0.004521499963536906
'Comida simplesmente', 0.007862777223041805
'grelhados de porco', 0.009042999927073811
'grelhados de top', 0.010964130178649377
'simpatia mas informal', 0.013114979378017363
'estavam clintes', 0.013114979378017363
'simplesmente genial', 0.013114979378017363
'servico de top', 0.013327314836657184
'top venha', 0.013327314836657184
'nao espera', 0.015440912987352274
'espera nao', 0.015440912987352274
'espera servico', 0.015819745741616896
'melhores carnes', 0.015819745741616896
'clintes com fatos', 0.016208021264405334
'paragem obrigatorio', 0.016208021264405334
'obrigatorio para comer', 0.016208021264405334
'nao foi Comida', 0.019662453327901862
'carne de porco', 0.027035887436360585
'Staff De Excelencia', 0.09657315024089361
'Parabens', 0.142944254014932
'porco preto grelhada', 0.1995640582450618
'Salada mista', 0.2264078831814434
'mista', 0.2516567440992654
'Staff', 0.2658915901199362
'carne de porco', 0.29150623334036424
'porco preto', 0.29150623334036424
'preto grelhada', 0.29150623334036424
'Excelencia', 0.3312181974006808
'Sensacional sentimos', 0.3518831739429901
'Salada', 0.3667904686888209
'temperada', 0.3667904686888209
'Suzana', 0.36779477594974475
'Sensacional', 0.4576826067733898
'casa', 0.4576826067733898
'carne', 0.47508975977014734
'porco', 0.47508975977014734
'preto', 0.47508975977014734
'grelhada', 0.47508975977014734
'batata frita caseira', 0.004737258569048452
'porco preto', 0.01859446618045681
'servidas com batata', 0.01859446618045681
'salada de tomate', 0.01859446618045681
'grelhadas de porco', 0.027581485432184485
'batata frita', 0.027581485432184485
'frita caseira', 0.027581485432184485
'caseira e salada', 0.027581485432184485
'Ambiente rustico Vinhos', 0.03706156190828014
'Vinhos da vidigueira', 0.07578806246980097
'Serve o proposito', 0.07806185883062657
'rustico Vinhos', 0.10378909220852033
'preto', 0.11142476118001256
'servidas', 0.11142476118001256
'tomate', 0.11142476118001256
'Ambiente rustico', 0.14005713113751553
'grelhadas', 0.16383273847958243
'porco', 0.16383273847958243
'batata', 0.16383273847958243
'frita', 0.16383273847958243
'iindicacao de amigos', 0.0167935311323158
'Toi Farois', 0.07270552413433244
'semana', 0.09775230943124207
'existiam lugares visivelmente', 0.1003903743871381
'pois O Toi', 0.1015473436542351
'nao foi facil', 0.10205108435002959
'facil descobrir', 0.10205108435002959
'lugares visivelmente vagos', 0.12828972018002202
'iindicacao', 0.1285152379216541
'amigos', 0.1285152379216541
'esposa', 0.1285152379216541
'chegamos por volta', 0.12957921353471913
'excelente atendimento', 0.14335958833802853
'existiam lugares', 0.1782920860743219
'aposta ganha', 0.1782920860743219
'melhor carne', 0.1782920860743219
'lugares visivelmente', 0.22339975553391492
'visivelmente vagos', 0.22339975553391492
'carne de porco', 0.22339975553391492
'voltar sem duvida', 0.23754834813203812
'Excelente comida', 0.1106418413292639
'comida', 0.1697603516244247
'variedade', 0.1697603516244247
'problema', 0.1697603516244247
'Excelente', 0.2934128314400869
'pedido previo', 0.30159887479854935
'bacalhau fenomenal', 0.30159887479854935
'previo', 0.4152535518555878
'fenomenal', 0.4152535518555878
'pedido', 0.5580064212301282
'bacalhau', 0.5580064212301282
'salada', 0.647806262736893
'salada e excelente', 1.0422818425487659
'objectivo defenido', 0.00899321792126428
'qualidade o espaco', 0.013527995261974615
'espaco e razoavel', 0.013527995261974615
'razoavel o atendimento', 0.013527995261974615
'grelhados', 0.04491197687864554
'defenido', 0.0771485953923296
'recomendo', 0.0771485953923296
'casa', 0.1155310835876123
'objectivo', 0.1155310835876123
'carne', 0.1155310835876123
'qualidade', 0.1155310835876123
'espaco', 0.1155310835876123
'razoavel', 0.1155310835876123
'atendimento', 0.1155310835876123
'comer grelhados', 0.027581485432184485
'grelhados bem feitos', 0.027581485432184485
'Atendimento simpatico', 0.14005713113751553
'comer', 0.16383273847958243
'grelhados', 0.16383273847958243
'feitos', 0.16383273847958243
'Atendimento', 0.3033846052649951
'ruidoso', 0.3881970960906714
'simpatico', 0.4049347717850166
'caro', 0.4049347717850166
'Beja para Serpa', 0.0034984871723059622
'Porto Peles', 0.0034984871723059622
'saida de Beja', 0.008770122545798259
'desviados para Porto', 0.008770122545798259
'recebemos um sinal', 0.015245615313919516
'sinal de luzes', 0.01881079399997278
'Serpa', 0.05448875786826843
'Peles', 0.05448875786826843
'Beja', 0.0639818297636046
'Porto', 0.0639818297636046
'recebemos', 0.11051393421380186
'Paramos a moto', 0.11916248735918672
'indicar o caminho', 0.11916248735918672
'saida', 0.1358803932048892
'sinal', 0.1358803932048892
'luzes', 0.1358803932048892
'desviados', 0.1358803932048892
'moto e deixamos', 0.14255295390380168
'deixamos o cheiro', 0.14255295390380168
'porta', 0.15340485652587948
'melhor porco preto', 0.012164019732225138
'porco preto grelhado', 0.012164019732225138
'Ambiente acolhedor', 0.01911893411113409
'grelhado que comi', 0.03107735477427921
'melhor porco', 0.050888965170882816
'porco preto', 0.050888965170882816
'preto grelhado', 0.050888965170882816
'Ambiente', 0.13696809108329627
'acolhedor', 0.13696809108329627
'comi', 0.13696809108329627
'ate', 0.13696809108329627
'Vale a pena', 0.1445099069107937
'incluindo o preco', 0.1445099069107937
'simples', 0.2200560909321288
'melhor', 0.2200560909321288
'porco', 0.2200560909321288
'preto', 0.2200560909321288
'grelhado', 0.2200560909321288
'Vale', 0.3553358554145339
'pena', 0.3553358554145339
'Pessoal muito simpatico', 0.014114963311119349
'Cozinha regional alentejana', 0.058999967097321755
'Pessoal', 0.11797671014185607
'simpatico', 0.11797671014185607
'Cozinha regional', 0.1539412127363319
'regional alentejana', 0.1539412127363319
'Preco muito ajustado', 0.25874337996204355
'paladar e quantidade', 0.26176225393615005
'Cozinha', 0.3171947781126727
'alentejana', 0.3171947781126727
'quantidade', 0.4036310100959565
'regional', 0.4205766817284309
'gente', 0.4205766817284309
'Preco', 0.4533838267348932
'ajustado', 0.4533838267348932
'paladar', 0.5139785153975659
'Otimo', 0.149905405948569
'carnivoros', 0.149905405948569
'Atendimento', 0.20954242704085901
'Especialidade em carnes', 0.24685590141158925
'porco preto', 0.24685590141158925
'viciante', 0.28396041294839813
'estrelas', 0.32705176562700716
'carnes de porco', 0.37306711088575134
'Especialidade', 0.3798215915560938
'preto', 0.3798215915560938
'Salada de tomate', 0.40689615193388323
'tempero muito saboroso', 0.40689615193388323
'Salada', 0.4715382012123803
'saboroso', 0.4715382012123803
'carnes', 0.5212518383364516
'porco', 0.5212518383364516
'aconchegante', 0.5223302035298336
'simples e aconchegante', 0.5265028536993026
'rcomendo', 0.5552083007126032
'tomate com tempero', 0.6030568194590986
'Excelente porco preto', 0.0032559149605193957
'Excelente porco', 0.02541909697430123
'porco preto', 0.02541909697430123
'acompanhado de batatas', 0.02541909697430123
'salada de tomate', 0.02541909697430123
'batatas fritas', 0.04188746641162499
'fritas e salada', 0.04188746641162499
'Excelente', 0.12363091320521931
'preto', 0.12363091320521931
'acompanhado', 0.12363091320521931
'tomate', 0.12363091320521931
'Achei', 0.17881754828257995
'porco', 0.2005079697193566
'batatas', 0.2005079697193566
'fritas', 0.2005079697193566
'salada', 0.2005079697193566
'entanto', 0.32883716426354986
'caro', 0.32883716426354986
'melhor entrecosto grelhado', 0.004622789408223327
'batata frita', 0.01765249579972701
'sitio certo', 0.01765249579972701
'entrecosto grelhado', 0.02174448938778977
'tomate e batata', 0.02174448938778977
'melhor entrecosto', 0.03031328144335318
'toi o melhor', 0.08118779288788504
'melhor', 0.10083938839805673
'grelhado com salada', 0.10190919876579374
'salada de tomate', 0.10190919876579374
'frita', 0.1189058330474556
'certo', 0.1189058330474556
'comer Carne', 0.1207422779403223
'quiser', 0.13401357840495515
'melhor no genero', 0.14542380265748
'entrecosto', 0.14588258654196523
'grelhado', 0.14588258654196523
'tomate', 0.14588258654196523
'batata', 0.14588258654196523
'sitio', 0.14588258654196523
'preto no Alentejo', 0.00976037344383583
'sitio onde comi', 0.027581485432184485
'comi a melhor', 0.027581485432184485
'melhor carne', 0.027581485432184485
'carne de porco', 0.027581485432184485
'porco preto', 0.027581485432184485
'Alentejo', 0.05899937629682816
'Atendimento espetacular', 0.10137279574960871
'preco e optima', 0.14005713113751553
'sitio', 0.16383273847958243
'comi', 0.16383273847958243
'melhor', 0.16383273847958243
'carne', 0.16383273847958243
'porco', 0.16383273847958243
'preto', 0.16383273847958243
'qualidade preco', 0.19613242932716538
'repetir seguramente', 0.23956129807083346
'Atendimento', 0.3033846052649951
'espetacular', 0.3033846052649951
'optima', 0.3033846052649951
'comer porco preto', 0.00890736392075363
'Nao e preciso', 0.035509702061911355
'preciso ementa', 0.04471097696802146
'comer porco', 0.05020334799695536
'porco preto', 0.05020334799695536
'porco', 0.07185179793578067
'Nao', 0.1030863610973847
'vieram-nos Nao', 0.11554254626403837
'Nao e necessaria', 0.11554254626403837
'ementa', 0.12865490695544066
'preto com salada', 0.13683647303510235
'salada de tomate', 0.13683647303510235
'divinal', 0.14357474069542264
'necessaria ementa', 0.1484550370748155
'Porco batatas fritas', 0.15920236202567253
'preciso', 0.16632657743747903
'comer', 0.16632657743747903
'preto', 0.16632657743747903
'tomate', 0.16632657743747903
'comida e delicioso', 0.17732490482564214
'bocado aspeto', 0.01674403516535787
'incomoda um bocado', 0.01674403516535787
'aspeto de taberna', 0.022674322328457314
'luz e super', 0.022674322328457314
'super forte', 0.022674322328457314
'forte e incomoda', 0.022674322328457314
'bocado', 0.055299348694962565
'nao', 0.09492421070764662
'nao houve mesa', 0.12088054435867358
'especial', 0.12412160594998181
'limpo', 0.12412160594998181
'ate Cheguei', 0.14054270260151128
'espaco', 0.14890129752635847
'aspeto', 0.14890129752635847
'taberna', 0.14890129752635847
'luz', 0.14890129752635847
'super', 0.14890129752635847
'forte', 0.14890129752635847
'incomoda', 0.14890129752635847
'nao houve', 0.21698049698711883
'Taberna pacata', 0.02077606151597172
'servico humilde', 0.026137115032326477
'humilde mas educado', 0.026137115032326477
'porco preto', 0.11373189778353347
'melhor carne', 0.1344194248391474
'salada de tomate', 0.13652512437055425
'Taberna', 0.1426646492174572
'pacata', 0.1426646492174572
'servico', 0.1426646492174572
'educado', 0.1426646492174572
'porco preto grelhada', 0.14504319584377506
'comi', 0.17017261562235747
'melhor carne grelhada', 0.1743366896110862
'humilde', 0.1785401437788882
'Espaco limpo', 0.1870104588960911
'limpo mas pequeno', 0.1870104588960911
'porco', 0.20129399270233023
'salada', 0.21739473574148124
'melhor', 0.2301509568431739
'carne', 0.2301509568431739
'tomate fantastica', 0.00899321792126428
'degustar a melhor', 0.013527995261974615
'melhor carne', 0.013527995261974615
'carne de porco', 0.013527995261974615
'porco preto', 0.013527995261974615
'acompanhamento de salada', 0.013527995261974615
'salada de tomate', 0.013527995261974615
'Excelente', 0.0771485953923296
'comi', 0.0771485953923296
'fantastica', 0.0771485953923296
'degustar', 0.1155310835876123
'melhor', 0.1155310835876123
'carne', 0.1155310835876123
'porco', 0.1155310835876123
'preto', 0.1155310835876123
'confecionada', 0.1155310835876123
'acompanhamento', 0.1155310835876123
'salada', 0.1155310835876123
'tomate', 0.1155310835876123
'restaurante simples', 0.02541909697430123
'porco preto', 0.02541909697430123
'qualidade na carne', 0.04188746641162499
'carne de porco', 0.04188746641162499
'simples', 0.12363091320521931
'preto', 0.12363091320521931
'especialidade', 0.12363091320521931
'opcao de escolha', 0.18075564686791562
'restaurante', 0.2005079697193566
'qualidade', 0.2005079697193566
'carne', 0.2005079697193566
'porco', 0.2005079697193566
'entrecosto', 0.2005079697193566
'escolha', 0.32883716426354986
'tambem', 0.46553351027698087
'peixe', 0.46553351027698087
'opcao', 0.46553351027698087
'ninguem pela positiva', 0.05739750785935955
'espaco nao impressiona', 0.0875421267210098
'nao impressiona ninguem', 0.0875421267210098
'impressiona ninguem', 0.09199731458656857
'positiva', 0.18701565543086068
'espaco nao', 0.23976850630604424
'nao impressiona', 0.23976850630604424
'espaco', 0.2902530486602021
'impressiona', 0.2902530486602021
'ninguem', 0.2902530486602021
'nao', 0.333153785404378
'comida idem', 0.35248468453882725
'sao', 0.36147362588214765
'idem', 0.4441140115754415
'oferece', 0.5378905270085329
'casa oferece', 0.5689787898407734
'comida', 0.5868315036436504
'eficientes', 0.5878789425628874
'empregados', 0.6741943501991973
'simpaticos', 0.6741943501991973
'Porto Peles', 0.0050189332240748175
'melhor porco preto', 0.008190290411035127
'rustico em Porto', 0.010896660951436035
'porco preto alentejano', 0.01801296508689855
'taverna muito rustico', 0.01813802286960438
'sal na brasa', 0.01813802286960438
'come o melhor', 0.02382101247166565
'alentejo apenas gralhado', 0.02382101247166565
'gralhado com sal', 0.02382101247166565
'porco preto', 0.02537173960551558
'melhor porco', 0.034683042596097516
'salada de tomate', 0.06018223502146434
'Porto', 0.07066731442039442
'Peles', 0.07066731442039442
'Beja', 0.07066731442039442
'preto alentejano', 0.07430168241467996
'preto do alentejo', 0.07907447360491549
'Restaurante', 0.0841074591835294
'porco', 0.10987825993106128
'preto', 0.10987825993106128
'porco preto', 0.02541909697430123
'melhores restaurantes', 0.04188746641162499
'restaurantes a servir', 0.04188746641162499
'servir carne', 0.04188746641162499
'carne de porco', 0.04188746641162499
'preto', 0.12363091320521931
'Simplesmente se derrete', 0.18075564686791562
'derrete na boca', 0.18075564686791562
'recondito', 0.2005079697193566
'mostrou', 0.2005079697193566
'melhores', 0.2005079697193566
'restaurantes', 0.2005079697193566
'servir', 0.2005079697193566
'carne', 0.2005079697193566
'porco', 0.2005079697193566
'Simplesmente', 0.32883716426354986
'boca', 0.32883716426354986
'derrete', 0.46553351027698087
'Toi Farois', 0.0033534403621620196
'restaurante simples', 0.008025058930468495
'organizado e asseado', 0.011154056927717123
'cliente sente', 0.01552184797949213
'sente que entrou', 0.01552184797949213
'entrou num espaco', 0.01552184797949213
'espaco muito organizado', 0.01552184797949213
'frescura sao irrepreensiveis', 0.03520310942691324
'Farois', 0.050725675042371285
'Toi', 0.06588837669267192
'restaurante', 0.08922538916412363
'simples', 0.08922538916412363
'asseado', 0.08922538916412363
'alem da qualidade', 0.09108482621177338
'sao irrepreensiveis', 0.09108482621177338
'comida e feita', 0.12124452117740256
'frescura sao', 0.12124452117740256
'cliente', 0.12363091320521931
'sente', 0.12363091320521931
'entrou', 0.12363091320521931
'causar algum desconforto', 0.006391801907512278
'simplicidade da casa', 0.033533765783679496
'ementa podem causar', 0.033533765783679496
'causar algum', 0.033533765783679496
'algum desconforto', 0.033533765783679496
'batatas fritas', 0.033533765783679496
'tomate fica rendido', 0.0442992853606899
'fica rendido', 0.0809896152755901
'porco preto', 0.1349520021817455
'porco', 0.15214566170720722
'abordagem', 0.15366925757879699
'qualquer', 0.15366925757879699
'escola', 0.15366925757879699
'rendido', 0.15366925757879699
'porco preto grelhado', 0.16289405227608741
'simplicidade', 0.18012700520674182
'casa', 0.18012700520674182
'ementa', 0.18012700520674182
'causar', 0.18012700520674182
'algum', 0.18012700520674182
'Porto Peles', 0.006189776027438582
'comer porco preto', 0.011124971220837622
'Situado no Porto', 0.013617970253390023
'minutos de Beja', 0.013617970253390023
'Beja fica', 0.019757020802166896
'preto da regiao', 0.032829037652584644
'comer porco', 0.048038985121108976
'porco preto', 0.048038985121108976
'Peles', 0.06797957959280194
'Porto', 0.09049332798247946
'Beja', 0.09049332798247946
'melhores restaurantes', 0.1028748444177422
'Situado', 0.1484641238231315
'minutos', 0.1484641238231315
'regiao', 0.1484641238231315
'restaurantes actuais', 0.19662975244990363
'fica', 0.2140958223421446
'melhores', 0.2140958223421446
'comer', 0.2140958223421446
'porco', 0.2140958223421446
'porco preto', 0.017506726138952235
'viva os abanicos', 0.017506726138952235
'casa das avos', 0.017506726138952235
'brasa de porco', 0.02418367819910921
'deliciosamente neste restsurante', 0.02418367819910921
'simplicidade a antiga', 0.02418367819910921
'antiga e sabor', 0.02418367819910921
'sabor do tradicional', 0.02418367819910921
'Verdadeiro grelhado', 0.04190285599380142
'Verdadeira batata frita', 0.06451346877047537
'Verdadeiro', 0.11196838055633765
'preto', 0.11196838055633765
'viva', 0.11196838055633765
'lagartos', 0.11196838055633765
'avos', 0.11196838055633765
'grelhado na brasa', 0.12290236548976018
'Verdadeira batata', 0.13349632084202287
'salada de tomate', 0.13349632084202287
'brasa', 0.15366404187689928
'porco', 0.15366404187689928
"toy farois' nao", 0.003582213397242814
'verdadeiro porco preto', 0.00961572507381801
'Porto Peles fica', 0.019718368217246242
'nao conhece', 0.02197502061807978
"farois' nao", 0.02197502061807978
"toy farois'", 0.027816965593545386
'Toi Farois', 0.03598178507524472
'Peles fica fora', 0.038243677199533345
'Porto Peles', 0.040358525245844996
'porco preto', 0.05179336866528369
'Beja', 0.05208156730192226
'aldeia fora Beja', 0.05246665679614912
'Toi farois leva-lo', 0.0571352911182998
'verdadeiro porco', 0.05763263083096134
'nao', 0.06212509882921826
'porco', 0.0629755076176835
'fora Beja', 0.07866594698942125
'mesmo assim Porto', 0.0903943462226826
'Peles fica', 0.0903943462226826
'restaurante', 0.0917277710235568
