Expressao, Frequencia
'Nao recomendo', 0.0934346755383478
'Nao', 0.2200560909321288
'restaurante', 0.2200560909321288
'recomendo', 0.38831292435681075
'Praticam', 0.4949246952252326
'apresentada', 0.4949246952252326
'Praticam precos', 0.5162806230574593
'qualidade apresentada', 0.5162806230574593
'dececao', 0.5880798524606783
'precos', 0.68796622281612
'elevados', 0.68796622281612
'qualidade', 0.68796622281612
'Praticam precos elevados', 0.7455031627189533
'precos elevados', 0.8986050855370177
'apresentada', 0.13696809108329627
'melhores de Beja', 0.19230474390773872
'simpatico e eficiente', 0.21339268578732606
'comida', 0.2200560909321288
'saborosa', 0.2200560909321288
'Beja', 0.2742624966594226
'eficiente', 0.3553358554145339
'duvida', 0.44538603402402266
'servico', 0.4949246952252326
'simpatico', 0.4949246952252326
'melhores', 0.5880798524606783
'entradas deliciosas', 0.03465229800090378
'deliciosas', 0.1447773057422032
'entradas', 0.23133275159292982
'pratos com requinte', 0.23338172234549467
'requinte', 0.3702539456099092
'Servico amavel', 0.38599679376725615
'amavel e atencioso', 0.38599679376725615
'Servico', 0.4613789858464135
'atencioso', 0.4613789858464135
'tempo intimista', 0.500279879713408
'pratos', 0.5110573480904945
'intimista', 0.5121371841744414
'amavel', 0.6036200563782421
'mesmo tempo intimista', 0.6323037950046478
'espaco', 0.6511101154454433
'grandioso', 0.6511101154454433
'mesmo', 0.6511101154454433
'tempo', 0.6511101154454433
'espaco grandioso', 0.7359434914074432
'mesmo tempo', 0.7359434914074432
'Jantar e pequeno-almoco', 0.015380821171891606
'ambiente historico', 0.015380821171891606
'toque de requinte', 0.015380821171891606
'staff atento', 0.015380821171891606
'atento e simpatico', 0.015380821171891606
'pequeno-almoco num ambiente', 0.02570861714399338
'delicioso', 0.04491197687864554
'Jantar', 0.09568045026443411
'historico', 0.09568045026443411
'servido', 0.09568045026443411
'requinte', 0.09568045026443411
'staff', 0.09568045026443411
'simpatico', 0.09568045026443411
'pequeno-almoco', 0.15831692877998726
'ambiente', 0.15831692877998726
'toque', 0.15831692877998726
'atento', 0.15831692877998726
'unico em Beja', 0.010619629275018815
'Espaco requintado', 0.014114963311119349
'decorado e unico', 0.030803441134664936
'Beja', 0.0607868920252255
'Staff muito atencioso', 0.11186783262129249
'simpatico e profissional', 0.11186783262129249
'Espaco', 0.11797671014185607
'requintado', 0.11797671014185607
'decorado', 0.17286683788205306
'unico', 0.17286683788205306
'Recomendo as bochechas', 0.26176225393615005
'docaria regional', 0.26176225393615005
'Staff', 0.3171947781126727
'atencioso', 0.3171947781126727
'simpatico', 0.3171947781126727
'profissional', 0.3171947781126727
'Carta de vinhos', 0.34393543650132563
'bochechas de porco', 0.359016783205622
'porco preto', 0.359016783205622
'preto com migas', 0.359016783205622
'comentarios e avaliacao', 0.07796891081290885
'Cumprimentos', 0.17881754828257995
'avaliacao', 0.2005079697193566
'comentarios', 0.36073110501666333
'excelente comida', 0.01552184797949213
'ementa diversificada', 0.01552184797949213
'quartel militar', 0.02541909697430123
'antigo convento', 0.04188746641162499
'convento e quartel', 0.04188746641162499
'excelente', 0.12363091320521931
'comida', 0.12363091320521931
'ementa', 0.12363091320521931
'diversificada', 0.12363091320521931
'militar', 0.12363091320521931
'pousada', 0.2005079697193566
'adaptada', 0.2005079697193566
'antigo', 0.2005079697193566
'convento', 0.2005079697193566
'quartel', 0.2005079697193566
'levo convidados', 0.2766850298235749
'levo', 0.46553351027698087
'convidados', 0.46553351027698087
'tratar', 0.46553351027698087
'Exelente confeccao,desdes', 0.03107735477427921
'principais e sobremesas', 0.03107735477427921
'confeccao,desdes as entradas', 0.050888965170882816
'entradas aos pratos', 0.050888965170882816
'pratos principais', 0.050888965170882816
'Exelente', 0.13696809108329627
'sobremesas', 0.13696809108329627
'atentos ao cliente', 0.21339268578732606
'confeccao,desdes', 0.2200560909321288
'entradas', 0.2200560909321288
'pratos', 0.2200560909321288
'principais', 0.2200560909321288
'Apresentacao das mesas', 0.35487136790899465
'mesas e decoracao', 0.35487136790899465
'Atendimento', 0.3553358554145339
'cliente', 0.3553358554145339
'Apresentacao', 0.44538603402402266
'decoracao', 0.44538603402402266
'atentos', 0.4949246952252326
'mesas', 0.5880798524606783
'Restaurante romantico', 0.012571559314626916
'otimo atendimento', 0.01859446618045681
'regiao do Alentejo', 0.07806185883062657
'Restaurante', 0.11142476118001256
'romantico', 0.11142476118001256
'agradavel', 0.11142476118001256
'atendimento', 0.11142476118001256
'visitando Beja', 0.13624076804587806
'otimo', 0.16383273847958243
'Alentejo', 0.17881754828257992
'tipica da regiao', 0.19613242932716538
'Beja', 0.24084650495983298
'comida', 0.4049347717850166
'tipica', 0.4049347717850166
'regiao', 0.4049347717850166
'opcao', 0.49784754196738834
'visitando', 0.49784754196738834
'nao tenha coragem', 0.0171738250374277
'restaurante apresenta-se', 0.030078110632407208
'apresenta-se uma alternativa', 0.030078110632407208
'alternativa eficiente', 0.030078110632407208
'eficiente no inverno', 0.030078110632407208
'tenha coragem', 0.030078110632407208
'nao tenha', 0.09126255320667152
'Integrado na pousada', 0.12192398650665248
'Integrado', 0.13628800890477932
'jantar', 0.13628800890477932
'pousada o restaurante', 0.15377237796976928
'nao', 0.16313678916646476
'bacalhau', 0.16982634040242897
'restaurante', 0.17087959144291082
'apresenta-se', 0.17087959144291082
'alternativa', 0.17087959144291082
'eficiente', 0.17087959144291082
'inverno', 0.17087959144291082
'tenha', 0.17087959144291082
'coragem', 0.17087959144291082
'Pousada Sao Francisco', 0.00021309207338758506
'hotel Pousada Sao', 0.0005202589972565773
'belo hotel Pousada', 0.001023363124265955
'apresenta otimas instalacoes', 0.0011506967844746013
'Sao Francisco', 0.003305819188656541
'Pousada Sao', 0.004113995156683069
'hotel Pousada', 0.008037383282382567
'apresenta otimas', 0.011930190413059379
'otimas instalacoes', 0.011930190413059379
'agradavel esplanada', 0.011930190413059379
'atendimento foi excelente', 0.011930190413059379
'pecou pela confeccao', 0.011930190413059379
'belo hotel', 0.015761113947131537
'salao interno', 0.015761113947131537
'comida pecou', 0.015761113947131537
'Restaurante do belo', 0.039470821161408806
'tratando de restaurante', 0.039470821161408806
'Francisco', 0.05147607051378602
'Pestana', 0.05147607051378602
'Restaurante', 0.06359686972582312
'Alta gastronomia', 0.02541909697430123
'arquitetura gotica', 0.02541909697430123
'ambiente de arquitetura', 0.04188746641162499
'Alta', 0.12363091320521931
'gotica', 0.12363091320521931
'requintado', 0.12363091320521931
'Vale a pena', 0.18075564686791562
'pena conhecer apesar', 0.1829003496708144
'gastronomia', 0.2005079697193566
'ambiente', 0.2005079697193566
'arquitetura', 0.2005079697193566
'servico', 0.2005079697193566
'pena conhecer', 0.2766850298235749
'conhecer apesar', 0.2766850298235749
'apesar do preco', 0.2766850298235749
'Vale', 0.32883716426354986
'habitual', 0.32883716426354986
'pena', 0.46553351027698087
'conhecer', 0.46553351027698087
'apesar', 0.46553351027698087
'ambiente muito agradavel', 0.021248340299531192
'competente e profissional', 0.021248340299531192
'atendimento competente', 0.03142433442165886
'Comida bem confecionada', 0.08905404993923882
'confecionada', 0.1192008334966339
'agradavel', 0.1192008334966339
'profissional', 0.1192008334966339
'fica na memoria', 0.1565870030412261
'Comida', 0.1658975107802271
'ambiente', 0.17454779110930135
'atendimento', 0.17454779110930135
'competente', 0.17454779110930135
'apresentada mas nao', 0.21846569551000553
'nao fica', 0.21846569551000553
'memoria', 0.3197366584666406
'qualidade', 0.42343326428770406
'apresentada', 0.42343326428770406
'nao', 0.42343326428770406
'fica', 0.42343326428770406
'cozinha tipica Alentejana', 0.001488913964133022
'tipica Alentejana', 0.009108237309423345
'restaurante mostra', 0.02570861714399338
'mostra na perfeicao', 0.02570861714399338
'cozinha tipica', 0.02570861714399338
'Alentejana', 0.057012387690331526
'restaurante', 0.15831692877998726
'mostra', 0.15831692877998726
'perfeicao', 0.15831692877998726
'melhor', 0.15831692877998726
'cozinha', 0.15831692877998726
'tipica', 0.15831692877998726
'voltar', 0.15831692877998726
'Comida requintada', 0.01772064172691466
'carta de vinhos', 0.02598463648859588
'provado com cuidado', 0.02598463648859588
'vinhos de qualidade', 0.05683146875893866
'qualidade', 0.06139233303004936
'pratos regionais recomendam-se', 0.11305775726141695
'Comida', 0.13195487239048673
'requintada', 0.13195487239048673
'carta', 0.13195487239048673
'cuidado', 0.13195487239048673
'regionais recomendam-se', 0.1851023950852466
'vinhos', 0.19193331179812048
'provado', 0.19193331179812048
'servico', 0.19193331179812048
'pratos regionais', 0.2568088105270925
'Vale tambem', 0.31115807748767194
'recomendam-se', 0.34553004046702135
'tambem pelo convento', 0.4243822299106687
'convento transformado', 0.4243822299106687
'Vale', 0.43477113491762903
'Estimado Sr.o Daniel', 0.006630750906709008
'recomendo vivamente', 0.010876852839741059
'espadarte era delicioso', 0.013809214992560012
'polvo era satisfatorio', 0.017545853615304974
'bife de espadarte', 0.017545853615304974
'Sr.o Daniel', 0.03248019231286918
'Convento de Beja', 0.03248019231286918
'Pousada Convento', 0.032511059922775726
'Estimado Sr.o', 0.038388600237040514
'restaurante a comida', 0.041890517904256686
'hospedado nesta pousada', 0.05242551063668921
'nivel de restaurante', 0.05242551063668921
'melhor pois existem', 0.052550756536063295
'Agradecemos a preferencia', 0.059687529980057906
'melhoria Excelente confeccao', 0.07053735079688511
'pousada', 0.08188139592845492
'restaurante', 0.08188139592845492
'Pessoal muito profissional', 0.08922336564321129
'melhor atencao', 0.10298498992789058
'comida', 0.10372955153915575
'entradas com pates', 0.04464449207288375
'estavam muito agradaveis', 0.046391222367981266
'pates estavam', 0.06850988752632155
'agradaveis', 0.142944254014932
'estavam', 0.15507615691465626
'castanhas estavam', 0.17281442655835172
'entradas', 0.2067281812210465
'pates', 0.2067281812210465
'pratos de borrego', 0.29150623334036424
'perna de porco', 0.29150623334036424
'porco com castanhas', 0.29150623334036424
'nao perder', 0.3518831739429901
'docaria conventual', 0.3518831739429901
'Recomendo', 0.36779477594974475
'perder', 0.4576826067733898
'conventual', 0.4576826067733898
'pratos', 0.47508975977014734
'borrego', 0.47508975977014734
'perna', 0.47508975977014734
'porco', 0.47508975977014734
'Restaurante espacoso', 0.016765012437207058
'clima agradavel', 0.02191835670202946
'Restaurante', 0.12840787035396065
'espacoso', 0.12840787035396065
'frio', 0.12840787035396065
'agradavel', 0.12840787035396065
'gorjeta que deixamos', 0.161381893792674
'fosse', 0.16703217900866596
'clima', 0.16703217900866596
'comida', 0.16860598436313057
'clientes eramos', 0.2026973964089288
'mereceu a gorjeta', 0.2026973964089288
'anterior das Pousadas', 0.22397194744102208
'Pousadas em relacao', 0.22397194744102208
'Pousadas', 0.3301454874279657
'casal', 0.33848065815176265
'disposto', 0.33848065815176265
'deixamos', 0.33848065815176265
'pratos eram', 0.3398615867456721
'eram bem decorados', 0.3398615867456721
'escolhemos a Pousada', 0.008110157319858034
'Pousada para experimentar', 0.008110157319858034
'entao escolhemos', 0.015593108405785417
'experimentar a comida', 0.015593108405785417
'precisavamos passar', 0.017982651786987436
'Beja', 0.054337957887383645
'Pousada', 0.060529154736971354
'Porcos de Bochechas', 0.08872621117505856
'entao', 0.11551975897156981
'comida', 0.11551975897156981
'sala de jantar', 0.12159455057906389
'precisavamos', 0.13290970036402372
'passar', 0.13290970036402372
'escolhemos', 0.13290970036402372
'experimentar', 0.13290970036402372
'entrar na sala', 0.13726174696476862
'entanto houve pratos', 0.1402505714772051
'seguidas pelos Porcos', 0.16159650417783641
'Bochechas tradicionais', 0.16159650417783641
'menu', 0.18602665576599428
'Place', 0.09550305301570532
'realmente agradavel', 0.11965837733942088
'Place e realmente', 0.13905200527027578
'agradavel', 0.17152949383560356
'realmente', 0.20768135781444844
'comida', 0.22359814507870823
'proporcional a comida', 0.38428946256537544
'lento', 0.4182921112923774
'eram caros', 0.4654362379154225
'caros', 0.5116345873661207
'tinhamos', 0.5116345873661207
'precos eram caros', 0.5275302615592042
'equipe', 0.5290917821653155
'comida que tinhamos', 0.5394438654957137
'euros', 0.5621512530108159
'refrigerante', 0.5621512530108159
'lata de refrigerante', 0.6003757489370862
'precos', 0.6207737884034642
'eram', 0.6207737884034642
'proporcional', 0.6207737884034642
'comida tradicional alentejana', 0.06672462416318604
'tradicional alentejana apresentada', 0.06672462416318604
'Restaurante elegante', 0.07796891081290885
'elegante com comida', 0.1495930091794576
'comida tradicional', 0.1495930091794576
'tradicional alentejana', 0.1495930091794576
'alentejana apresentada', 0.1495930091794576
'Restaurante', 0.2005079697193566
'bonita', 0.2005079697193566
'elegante', 0.36073110501666333
'comida', 0.36073110501666333
'tradicional', 0.36073110501666333
'alentejana', 0.36073110501666333
'apresentada', 0.36073110501666333
'servicos', 0.46553351027698087
'equipe', 0.6621399683957523
'espera', 0.6621399683957523
'equipe em espera', 0.7807198046783035
'pratos classicos internacionais', 0.008316898996140656
'antigo mosteiro', 0.02220734137263637
'classicos internacionais', 0.02220734137263637
'cantina do antigo', 0.030543448443119618
'hospedes podem desfrutar', 0.030543448443119618
'pratos regionais', 0.04499599924909108
'pratos classicos', 0.06240869151053116
'Portugues normas', 0.08163889994510803
'caro para Portugues', 0.10467920966571663
'pratos', 0.1137381935820349
'media qualidade alimentar', 0.11897538736043124
'sala', 0.12619196178933675
'mosteiro', 0.12619196178933675
'regionais', 0.12619196178933675
'internacionais', 0.12619196178933675
'pratos sao', 0.16698895802364658
'desfrutar de pratos', 0.16947949380024774
'cantina', 0.17215747366757
'antigo', 0.17215747366757
'hospedes', 0.17215747366757
