Expressao, Frequencia
"Surpresa maravilhosa", 0.009239332327148086
"Igreja", 0.08596317751626563
"Surpresa", 0.09568045026443411
"maravilhosa", 0.09568045026443411
"guia", 0.09568045026443411
"enorme valor artistico", 0.016559150827736194
"talhas douradas", 0.02570861714399338
"azulejos", 0.04491197687864554
"pinturas", 0.04491197687864554
"Monumento de enorme", 0.04940384002065631
"valor artistico", 0.04940384002065631
"enorme valor", 0.09700399286574239
"Monumento", 0.15831692877998726
"artistico", 0.15831692877998726
"talhas", 0.15831692877998726
"douradas", 0.15831692877998726
"enorme", 0.29736558256021506
"valor", 0.29736558256021506
"Surpreendente ate", 0.04940384002065631
"riqueza interior", 0.04940384002065631
"ate pelo contraste", 0.09700399286574239
"contraste da simplicidade", 0.09700399286574239
"simplicidade exterior", 0.09700399286574239
"Surpreendente", 0.15831692877998726
"interior", 0.15831692877998726
"ate", 0.29736558256021506
"contraste", 0.29736558256021506
"simplicidade", 0.29736558256021506
"exterior", 0.29736558256021506
"riqueza", 0.29736558256021506
"Misterios de Maria", 0.003186830720042235
"Susana aos Prazeres", 0.00444318827900726
"Prazeres e Misterios", 0.00444318827900726
"guiada pela Susana", 0.007743432063478832
"visita nao", 0.013527995261974615
"valiosa viagem guiada", 0.013527995261974615
"Maria", 0.04776309965539685
"Susana", 0.06650965107397505
"Prazeres", 0.06650965107397505
"Misterios", 0.06650965107397505
"visita", 0.1155310835876123
"nao", 0.1155310835876123
"mesma", 0.1155310835876123
"valiosa", 0.1155310835876123
"guiada", 0.1155310835876123
"passarem por Beja", 0.01984585111858601
"Beja visitem", 0.01984585111858601
"visitem esta preciosa", 0.04188746641162499
"Portanto", 0.05899937629682816
"Arte", 0.06588837669267192
"Beja", 0.09705179139403544
"presenca da Susana", 0.10084113441901119
"vao perder", 0.18075564686791562
"artistica e esoterica", 0.18075564686791562
"Susana", 0.19677146788549632
"passarem", 0.2005079697193566
"visitem", 0.2005079697193566
"preciosa", 0.2005079697193566
"exijam a presenca", 0.2766850298235749
"leitura e interpretacao", 0.2766850298235749
"interpretacao artistica", 0.2766850298235749
"perder", 0.32883716426354986
"esoterica", 0.32883716426354986
"exijam", 0.46553351027698087
"presenca", 0.46553351027698087
"Susana", 0.2718250226855089
"dormir", 0.36073110501666333
"Marco episcopal", 0.04940384002065631
"episcopal da cidade", 0.04940384002065631
"Marco", 0.15831692877998726
"cidade", 0.15831692877998726
"episcopal", 0.29736558256021506
"Junto ao arco", 0.04940384002065631
"magnifico altar", 0.04940384002065631
"pequena de dimensao", 0.04940384002065631
"arco dos prazeres", 0.09700399286574239
"prazeres apresenta", 0.09700399286574239
"apresenta um magnifico", 0.09700399286574239
"Junto", 0.15831692877998726
"altar", 0.15831692877998726
"frescos", 0.15831692877998726
"pequena", 0.15831692877998726
"contar", 0.15831692877998726
"arco", 0.29736558256021506
"prazeres", 0.29736558256021506
"apresenta", 0.29736558256021506
"magnifico", 0.29736558256021506
"dimensao", 0.29736558256021506
"historia", 0.29736558256021506
"Surpreendente", 0.04491197687864554
"nao ve coracoes", 0.015380821171891606
"caras nao", 0.02570861714399338
"aplica", 0.09568045026443411
"coracoes", 0.09568045026443411
"caras", 0.15831692877998726
"nao", 0.15831692877998726
"Beja passar", 0.012671152666912374
"visitar obrigatoriamente", 0.02023173178628299
"Beja", 0.07598193161157572
"fora nao gera", 0.10931523508899949
"facto dificil nao", 0.10931523508899949
"obrigatoriamente", 0.1204195159123391
"Efectivamente vista", 0.15070989298999168
"gera grandes expectativas", 0.15070989298999168
"boca aberta", 0.15070989298999168
"igreja", 0.1646786715155717
"beleza", 0.1646786715155717
"passar", 0.1646786715155717
"visitar", 0.1646786715155717
"vista por fora", 0.19785962658599535
"facto dificil", 0.19785962658599535
"ficar de boca", 0.19785962658599535
"fora nao", 0.205105330142926
"nao gera", 0.205105330142926
"dificil nao", 0.205105330142926
"nao", 0.2093853608883364
"Imperdivel", 0.04491197687864554
"Frescos e azulejos", 0.04940384002065631
"azulejos magniificos", 0.04940384002065631
"Frescos", 0.15831692877998726
"magniificos", 0.15831692877998726
"azulejos", 0.29736558256021506
"Jesus Cristo", 0.02140921543860024
"azulejos sobre Jesus", 0.04498862876540802
"Visita muito interessante", 0.04940384002065631
"interessante nao", 0.09700399286574239
"frescos pintados", 0.09700399286574239
"pintados e azulejos", 0.09700399286574239
"Jesus", 0.1447773057422032
"Cristo", 0.1447773057422032
"Visita", 0.15831692877998726
"edificacao", 0.15831692877998726
"interessante", 0.29736558256021506
"nao", 0.29736558256021506
"frescos", 0.29736558256021506
"pintados", 0.29736558256021506
"azulejos", 0.29736558256021506
"historia", 0.29736558256021506
"simples por fora", 0.02570861714399338
"fora e riquissima", 0.02570861714399338
"simples", 0.15831692877998726
"fora", 0.15831692877998726
"riquissima", 0.15831692877998726
"riquissima igreja", 0.0900874491451712
"passa por fora", 0.10495275980198478
"nenhum valor", 0.11500012735698557
"fora nao", 0.12311155138900688
"igreja", 0.17480745739493797
"fora", 0.2009125924670771
"valor", 0.21816265475032826
"passa", 0.2363812358530295
"nenhum", 0.2363812358530295
"riquissima", 0.2363812358530295
"nao", 0.24584753195541195
"nao da nenhum", 0.25277948234433895
"engana as pessoas", 0.26771440070146857
"simplicidade do exterior", 0.3669106105946535
"exterior engana", 0.3669106105946535
"pessoas", 0.40760568355985943
"simplicidade", 0.5180958078613234
"exterior", 0.5180958078613234
"engana", 0.5180958078613234
"especial", 0.5837460669711262
"Igreja de Ouro", 0.012602360123953448
"surpreendente na Igreja", 0.04498862876540802
"Ouro", 0.08596317751626563
"entrada surpreendente", 0.09700399286574239
"Igreja", 0.1447773057422032
"entrada", 0.29736558256021506
"surpreendente", 0.29736558256021506
"tecto sao surpreendentes", 0.016559150827736194
"sao surpreendentes", 0.04940384002065631
"talha dourada", 0.09700399286574239
"tecto sao", 0.09700399286574239
"surpreendentes", 0.15831692877998726
"talha", 0.29736558256021506
"dourada", 0.29736558256021506
"tecto", 0.29736558256021506
"sao", 0.29736558256021506
"visita por Beja", 0.036279739105930055
"Beja", 0.09705179139403544
"incluir num roteiro", 0.1495930091794576
"roteiro de visita", 0.1495930091794576
"Recomendo vivamente", 0.2766850298235749
"incluir", 0.36073110501666333
"roteiro", 0.36073110501666333
"visita", 0.36073110501666333
"Recomendo", 0.46553351027698087
"vivamente", 0.46553351027698087
"Bonita", 0.04491197687864554
"riqueza artistica", 0.01859446618045681
"fachada modesta", 0.027581485432184485
"artistica", 0.11142476118001256
"XVIII e lindas", 0.13624076804587806
"talha dourada", 0.14005713113751553
"azulejos do sec", 0.14005713113751553
"igreja", 0.16383273847958243
"fachada", 0.16383273847958243
"modesta", 0.16383273847958243
"interior", 0.16383273847958243
"riqueza", 0.16383273847958243
"revestida a talha", 0.19613242932716538
"pinturas no tecto", 0.23956129807083346
"XVIII", 0.24084650495983298
"dourada", 0.3033846052649951
"sec", 0.3033846052649951
"lindas pinturas", 0.3295258815075752
"tecto", 0.3881970960906714
"revestida", 0.4049347717850166
"talha", 0.4049347717850166
"Igreja do sec", 0.04188746641162499
"XVII", 0.11555589791117535
"Igreja", 0.2005079697193566
"sec", 0.2005079697193566
"seculo XVIII", 0.026233073037508336
"igreja encontra-se revestido", 0.03339840940482845
"XVIII", 0.08596317751626563
"corpo da igreja", 0.09700399286574239
"igreja encontra-se", 0.09700399286574239
"encontra-se revestido", 0.09700399286574239
"revestido por talha", 0.09700399286574239
"talha barroca", 0.09700399286574239
"barroca e azulejos", 0.09700399286574239
"azulejos do seculo", 0.09700399286574239
"bonitos", 0.15831692877998726
"corpo", 0.29736558256021506
"igreja", 0.29736558256021506
"encontra-se", 0.29736558256021506
"revestido", 0.29736558256021506
"talha", 0.29736558256021506
"barroca", 0.29736558256021506
"azulejos", 0.29736558256021506
"seculo", 0.29736558256021506
"Linda", 0.04491197687864554
"Igreja muito bonita", 0.04188746641162499
"Igreja", 0.2005079697193566
"bonita", 0.2005079697193566
"Altar de particular", 0.4456055016437946
"particular beleza", 0.4456055016437946
"Altar", 0.46553351027698087
"beleza", 0.46553351027698087
"particular", 0.6621399683957523
"facil acesso", 0.04940384002065631
"localizada", 0.15831692877998726
"acesso", 0.15831692877998726
"facil", 0.29736558256021506
"Simpatia do pessoal", 0.02570861714399338
"Simpatia", 0.15831692877998726
"pessoal", 0.15831692877998726
"visitar", 0.15831692877998726
"Magnifico tecto", 0.02570861714399338
"Magnifico", 0.15831692877998726
"tecto", 0.15831692877998726
"historia magnifica", 0.04332186140769263
"retratada em dislumbrantes", 0.04332186140769263
"tecto lindissimo", 0.04332186140769263
"dislumbrantes gravuras", 0.07014832831701948
"turistico", 0.16218180398017965
"magnifica", 0.16218180398017965
"retratada", 0.16218180398017965
"lindissimo", 0.16218180398017965
"Excelente ponto turistico", 0.1661453915004789
"Excelente", 0.24061964277993067
"historia", 0.25602753462690536
"dislumbrantes", 0.25602753462690536
"gravuras", 0.25602753462690536
"tecto", 0.25602753462690536
"entendido na materia", 0.28022264514055883
"excelente profissional entendido", 0.3068941105602323
"Passagem obrigatoria", 0.32423914301524753
"excelente profissional", 0.3550437596421482
"materia", 0.4020223829085479
"profissional entendido", 0.42134036841709727
"Vir a Beja", 0.005157590407455398
"Beja e nao", 0.007743432063478832
"nao visitar", 0.013527995261974615
"visitar este edificio", 0.013527995261974615
"edificio unico", 0.013527995261974615
"unico da arquitectura", 0.013527995261974615
"arquitectura e arte", 0.013527995261974615
"arte portuguesa", 0.013527995261974615
"Beja", 0.06650965107397505
"Vir", 0.0771485953923296
"crime", 0.0771485953923296
"nao", 0.1155310835876123
"visitar", 0.1155310835876123
"edificio", 0.1155310835876123
"unico", 0.1155310835876123
"arquitectura", 0.1155310835876123
"arte", 0.1155310835876123
"portuguesa", 0.1155310835876123
"atendimento de Beja", 0.009108237309423345
"melhor atendimento", 0.02570861714399338
"Beja", 0.057012387690331526
"aberto", 0.09568045026443411
"disponivel", 0.09568045026443411
"melhor", 0.15831692877998726
"atendimento", 0.15831692877998726
"tesouro aqui encontrei", 0.04940384002065631
"encontrei", 0.15831692877998726
"tesouro", 0.29736558256021506
"patrimonio de Beja", 0.026233073037508336
"Beja", 0.08596317751626563
"estrela que guia", 0.09700399286574239
"guia o patrimonio", 0.09700399286574239
"sentidos", 0.15831692877998726
"devia", 0.29736558256021506
"estrela", 0.29736558256021506
"guia", 0.29736558256021506
"patrimonio", 0.29736558256021506
"fal varias linguas", 0.0025258761156662004
"Parabens ao rapaz", 0.015380821171891606
"rapaz que acolhe", 0.015380821171891606
"fal varias", 0.015380821171891606
"varias linguas", 0.02570861714399338
"Parabens", 0.09568045026443411
"acolhe", 0.09568045026443411
"erudito", 0.09568045026443411
"fal", 0.09568045026443411
"encanto", 0.09568045026443411
"rapaz", 0.15831692877998726
"varias", 0.15831692877998726
"linguas", 0.15831692877998726
"Soberba", 0.04491197687864554
"historico da cidade", 0.00899321792126428
"dourada de inegualavel", 0.00899321792126428
"fora do pais", 0.00899321792126428
"patrimonio historico", 0.013527995261974615
"igreja possui", 0.013527995261974615
"possui uma riqueza", 0.013527995261974615
"riqueza azulejar", 0.013527995261974615
"azulejar e dourada", 0.013527995261974615
"pecas de arte", 0.013527995261974615
"arte sacra", 0.013527995261974615
"valor se encontram", 0.013527995261974615
"interior.Por vezes sao", 0.013527995261974615
"sao emprestadas", 0.013527995261974615
"emprestadas para exposicoes", 0.013527995261974615
"Fazendo", 0.0771485953923296
"cidade", 0.0771485953923296
"inegualavel", 0.0771485953923296
"pais", 0.0771485953923296
"patrimonio", 0.1155310835876123
"historico", 0.1155310835876123
"Igreja barroca", 0.02570861714399338
"Igreja", 0.15831692877998726
"barroca", 0.15831692877998726
"seculo XVII", 0.015530258124008545
"pintores consagrados", 0.03107735477427921
"interessante para observar", 0.050888965170882816
"observar pintura", 0.050888965170882816
"pintura e azulejaria", 0.050888965170882816
"azulejaria do seculo", 0.050888965170882816
"XVII", 0.06949481646017519
"consagrados", 0.13696809108329627
"Frescos do teto", 0.21339268578732606
"fora de serie", 0.21339268578732606
"interessante", 0.2200560909321288
"observar", 0.2200560909321288
"pintura", 0.2200560909321288
"azulejaria", 0.2200560909321288
"seculo", 0.2200560909321288
"pintores", 0.2200560909321288
"Talha dourada relevante", 0.22824646536343673
"teto fora", 0.32441639786848336
"Talha dourada", 0.35487136790899465
"dourada relevante", 0.35487136790899465
"Teto lindissimo", 0.02570861714399338
"Teto", 0.15831692877998726
"lindissimo", 0.15831692877998726
"teto lindissimo cheio", 0.01655915082773619
"Recomendado pela simpatica", 0.04940384002065631
"senhora do castelo", 0.04940384002065631
"teto lindissimo", 0.04940384002065631
"cheio de pinturas", 0.04940384002065631
"pena nao", 0.04940384002065631
"tirar fotos", 0.04940384002065631
"simpatica senhora", 0.09700399286574239
"lindissimo cheio", 0.09700399286574239
"Recomendado", 0.15831692877998726
"castelo", 0.15831692877998726
"teto", 0.15831692877998726
"pinturas", 0.15831692877998726
"pena", 0.15831692877998726
"fotos", 0.15831692877998726
"flash", 0.15831692877998726
"simpatica", 0.29736558256021506
"senhora", 0.29736558256021506
"lindissimo", 0.29736558256021506
"cheio", 0.29736558256021506
"Igreja belissima", 0.02570861714399338
"Igreja", 0.15831692877998726
"belissima", 0.15831692877998726
"pena a visita", 0.015099935621315529
"igreja e simplesmente", 0.02249651976012989
"simplesmente linda", 0.02249651976012989
"linda e vale", 0.02249651976012989
"vale a pena", 0.02249651976012989
"Museu estava fechado", 0.06627380602544088
"visita", 0.10028582371075691
"igreja", 0.14832923246533666
"simplesmente", 0.14832923246533666
"linda", 0.14832923246533666
"vale", 0.14832923246533666
"pena", 0.14832923246533666
"Infelizmente", 0.17881754828257995
"Museu", 0.22271009814206713
"fechado", 0.2790829227183407
"proxima", 0.2790829227183407
"ficara", 0.37689977775222827
"Pinturas deslumbrantes", 0.02570861714399338
"Pinturas", 0.15831692877998726
"deslumbrantes", 0.15831692877998726
"Igreja pequena", 0.015380821171891606
"magia tremenda", 0.02570861714399338
"tremenda por dentro.quadros", 0.02570861714399338
"dentro.quadros e frescos", 0.02570861714399338
"frescos no teto", 0.02570861714399338
"qualidade.tivemos o prazer", 0.02570861714399338
"prazer de ouvir", 0.02570861714399338
"ouvir a historia", 0.02570861714399338
"historia associada", 0.02570861714399338
"Igreja", 0.09568045026443411
"pintura", 0.09568045026443411
"recebeu", 0.09568045026443411
"pequena", 0.15831692877998726
"magia", 0.15831692877998726
"tremenda", 0.15831692877998726
"dentro.quadros", 0.15831692877998726
"frescos", 0.15831692877998726
"teto", 0.15831692877998726
"qualidade.tivemos", 0.15831692877998726
"prazer", 0.15831692877998726
"Lindo", 0.04491197687864554
"deslumbrante igreja nao", 0.014324834009635256
"cidade de Beja", 0.016806575801141126
"ficar de fora", 0.03465229800090378
"visitando a cidade", 0.0565406034156422
"deslumbrante igreja", 0.0565406034156422
"igreja nao", 0.0565406034156422
"nao deve ficar", 0.0565406034156422
"Beja", 0.07145025265006083
"fora", 0.1447773057422032
"visitando", 0.23133275159292982
"cidade", 0.23133275159292982
"deslumbrante", 0.23133275159292982
"igreja", 0.23133275159292982
"nao", 0.23133275159292982
"ficar", 0.23133275159292982
"arte sacra", 0.23338172234549467
"euros", 0.27573389687933125
"Recomendo", 0.31813151393529204
"museu vai agradar", 0.35350894161299157
"agradar os amantes", 0.35350894161299157
