sentiment,review
positive,Talha dourada magnífica
positive,"Por fora, ninguém prevê o que vai encontrar por dentro. Não tem muitas obras de arte mas as que tem são de elevado interesse artístico e histórico"
positive,Merece uma visita
positive,"Muito cuidada e com um altar riquíssimo, além dos vitrais e do órgão muito bem cuidada e com excelente som."
positive,Bonita igreja perto do castelo
positive,Não longe do castelo esta igreja tem um belo interior com muitos azulejos azuis intercalados com paredes esculpidas. Muitas estátuas de santos. Você também pode ver as três salas do tesouro.
