mes,ano
abril,2021
outubro,2020
novembro,2019
junho,2019
marco,2019
marco,2018
janeiro,2018
novembro,2017
julho,2017
janeiro,2017
julho,2016
janeiro,2017
outubro,2019
agosto,2019
marco,2019
agosto,2018
abril,2021
outubro,2020
novembro,2019
junho,2019
marco,2019
marco,2018
janeiro,2018
novembro,2017
julho,2017
janeiro,2017
abril,2021
outubro,2020
novembro,2019
junho,2019
marco,2019
marco,2018
janeiro,2018
novembro,2017
julho,2017
janeiro,2017
abril,2021
outubro,2020
novembro,2019
junho,2019
marco,2019
marco,2018
janeiro,2018
novembro,2017
julho,2017
janeiro,2017
abril,2021
outubro,2020
novembro,2019
junho,2019
marco,2019
marco,2018
janeiro,2018
novembro,2017
julho,2017
janeiro,2017
abril,2021
outubro,2020
novembro,2019
junho,2019
marco,2019
marco,2018
janeiro,2018
novembro,2017
julho,2017
janeiro,2017
abril,2021
outubro,2020
novembro,2019
junho,2019
marco,2019
marco,2018
janeiro,2018
novembro,2017
julho,2017
janeiro,2017
abril,2021
outubro,2020
novembro,2019
junho,2019
marco,2019
marco,2018
janeiro,2018
novembro,2017
julho,2017
janeiro,2017
abril,2021
outubro,2020
novembro,2019
junho,2019
marco,2019
marco,2018
janeiro,2018
novembro,2017
julho,2017
janeiro,2017
abril,2021
outubro,2020
novembro,2019
junho,2019
marco,2019
marco,2018
janeiro,2018
novembro,2017
julho,2017
janeiro,2017
abril,2021
outubro,2020
novembro,2019
junho,2019
marco,2019
marco,2018
janeiro,2018
novembro,2017
julho,2017
janeiro,2017
abril,2021
outubro,2020
novembro,2019
junho,2019
marco,2019
marco,2018
janeiro,2018
novembro,2017
julho,2017
janeiro,2017
abril,2021
outubro,2020
novembro,2019
junho,2019
marco,2019
marco,2018
janeiro,2018
novembro,2017
julho,2017
janeiro,2017
abril,2021
outubro,2020
novembro,2019
junho,2019
marco,2019
marco,2018
janeiro,2018
novembro,2017
julho,2017
janeiro,2017
abril,2021
outubro,2020
novembro,2019
junho,2019
marco,2019
marco,2018
janeiro,2018
novembro,2017
julho,2017
janeiro,2017
abril,2021
outubro,2020
novembro,2019
junho,2019
marco,2019
marco,2018
janeiro,2018
novembro,2017
julho,2017
janeiro,2017
abril,2021
outubro,2020
novembro,2019
junho,2019
marco,2019
marco,2018
janeiro,2018
novembro,2017
julho,2017
janeiro,2017
abril,2021
outubro,2020
novembro,2019
junho,2019
marco,2019
marco,2018
janeiro,2018
novembro,2017
julho,2017
janeiro,2017
abril,2021
outubro,2020
novembro,2019
junho,2019
marco,2019
marco,2018
janeiro,2018
novembro,2017
julho,2017
janeiro,2017
abril,2021
outubro,2020
novembro,2019
junho,2019
marco,2019
marco,2018
janeiro,2018
novembro,2017
julho,2017
janeiro,2017
abril,2021
outubro,2020
novembro,2019
junho,2019
marco,2019
marco,2018
janeiro,2018
novembro,2017
julho,2017
janeiro,2017
abril,2021
outubro,2020
novembro,2019
junho,2019
marco,2019
marco,2018
janeiro,2018
novembro,2017
julho,2017
janeiro,2017
abril,2021
outubro,2020
novembro,2019
junho,2019
marco,2019
marco,2018
janeiro,2018
novembro,2017
julho,2017
janeiro,2017
abril,2021
outubro,2020
novembro,2019
junho,2019
marco,2019
marco,2018
janeiro,2018
novembro,2017
julho,2017
janeiro,2017
abril,2021
outubro,2020
novembro,2019
junho,2019
marco,2019
marco,2018
janeiro,2018
novembro,2017
julho,2017
janeiro,2017
abril,2021
outubro,2020
novembro,2019
junho,2019
marco,2019
marco,2018
janeiro,2018
novembro,2017
julho,2017
janeiro,2017
abril,2021
outubro,2020
novembro,2019
junho,2019
marco,2019
marco,2018
janeiro,2018
novembro,2017
julho,2017
janeiro,2017
abril,2021
outubro,2020
novembro,2019
junho,2019
marco,2019
marco,2018
janeiro,2018
novembro,2017
julho,2017
janeiro,2017
abril,2021
outubro,2020
novembro,2019
junho,2019
marco,2019
marco,2018
janeiro,2018
novembro,2017
julho,2017
janeiro,2017
abril,2021
outubro,2020
novembro,2019
junho,2019
marco,2019
marco,2018
janeiro,2018
novembro,2017
julho,2017
janeiro,2017
abril,2021
outubro,2020
novembro,2019
junho,2019
marco,2019
marco,2018
janeiro,2018
novembro,2017
julho,2017
janeiro,2017
abril,2021
outubro,2020
novembro,2019
junho,2019
marco,2019
marco,2018
janeiro,2018
novembro,2017
julho,2017
janeiro,2017
abril,2021
outubro,2020
novembro,2019
junho,2019
marco,2019
marco,2018
janeiro,2018
novembro,2017
julho,2017
janeiro,2017
abril,2021
outubro,2020
novembro,2019
junho,2019
marco,2019
marco,2018
janeiro,2018
novembro,2017
julho,2017
janeiro,2017
abril,2021
outubro,2020
novembro,2019
junho,2019
marco,2019
marco,2018
janeiro,2018
novembro,2017
julho,2017
janeiro,2017
abril,2021
outubro,2020
novembro,2019
junho,2019
marco,2019
marco,2018
janeiro,2018
novembro,2017
julho,2017
janeiro,2017
abril,2021
outubro,2020
novembro,2019
junho,2019
marco,2019
marco,2018
janeiro,2018
novembro,2017
julho,2017
janeiro,2017
abril,2021
outubro,2020
novembro,2019
junho,2019
marco,2019
marco,2018
janeiro,2018
novembro,2017
julho,2017
janeiro,2017
abril,2021
outubro,2020
novembro,2019
junho,2019
marco,2019
marco,2018
janeiro,2018
novembro,2017
julho,2017
janeiro,2017
abril,2021
outubro,2020
novembro,2019
junho,2019
marco,2019
marco,2018
janeiro,2018
novembro,2017
julho,2017
janeiro,2017
abril,2021
outubro,2020
novembro,2019
junho,2019
marco,2019
marco,2018
janeiro,2018
novembro,2017
julho,2017
janeiro,2017
abril,2021
outubro,2020
novembro,2019
junho,2019
marco,2019
marco,2018
janeiro,2018
novembro,2017
julho,2017
janeiro,2017
abril,2021
outubro,2020
novembro,2019
junho,2019
marco,2019
marco,2018
janeiro,2018
novembro,2017
julho,2017
janeiro,2017
abril,2021
outubro,2020
novembro,2019
junho,2019
marco,2019
marco,2018
janeiro,2018
novembro,2017
julho,2017
janeiro,2017
abril,2021
outubro,2020
novembro,2019
junho,2019
marco,2019
marco,2018
janeiro,2018
novembro,2017
julho,2017
janeiro,2017
abril,2021
outubro,2020
novembro,2019
junho,2019
marco,2019
marco,2018
janeiro,2018
novembro,2017
julho,2017
janeiro,2017
abril,2021
outubro,2020
novembro,2019
junho,2019
marco,2019
marco,2018
janeiro,2018
novembro,2017
julho,2017
janeiro,2017
abril,2021
outubro,2020
novembro,2019
junho,2019
marco,2019
marco,2018
janeiro,2018
novembro,2017
julho,2017
janeiro,2017
abril,2021
outubro,2020
novembro,2019
junho,2019
marco,2019
marco,2018
janeiro,2018
novembro,2017
julho,2017
janeiro,2017
abril,2021
outubro,2020
novembro,2019
junho,2019
marco,2019
marco,2018
janeiro,2018
novembro,2017
julho,2017
janeiro,2017
abril,2021
outubro,2020
novembro,2019
junho,2019
marco,2019
marco,2018
janeiro,2018
novembro,2017
julho,2017
janeiro,2017
abril,2021
outubro,2020
novembro,2019
junho,2019
marco,2019
marco,2018
janeiro,2018
novembro,2017
julho,2017
janeiro,2017
abril,2021
outubro,2020
novembro,2019
junho,2019
marco,2019
marco,2018
janeiro,2018
novembro,2017
julho,2017
janeiro,2017
abril,2021
outubro,2020
novembro,2019
junho,2019
marco,2019
marco,2018
janeiro,2018
novembro,2017
julho,2017
janeiro,2017
abril,2021
outubro,2020
novembro,2019
junho,2019
marco,2019
marco,2018
janeiro,2018
novembro,2017
julho,2017
janeiro,2017
abril,2021
outubro,2020
novembro,2019
junho,2019
marco,2019
marco,2018
janeiro,2018
novembro,2017
julho,2017
janeiro,2017
abril,2021
outubro,2020
novembro,2019
junho,2019
marco,2019
marco,2018
janeiro,2018
novembro,2017
julho,2017
janeiro,2017
abril,2021
outubro,2020
novembro,2019
junho,2019
marco,2019
marco,2018
janeiro,2018
novembro,2017
julho,2017
janeiro,2017
abril,2021
outubro,2020
novembro,2019
junho,2019
marco,2019
marco,2018
janeiro,2018
novembro,2017
julho,2017
janeiro,2017
abril,2021
outubro,2020
novembro,2019
junho,2019
marco,2019
marco,2018
janeiro,2018
novembro,2017
julho,2017
janeiro,2017
abril,2021
outubro,2020
novembro,2019
junho,2019
marco,2019
marco,2018
janeiro,2018
novembro,2017
julho,2017
janeiro,2017
abril,2021
outubro,2020
novembro,2019
junho,2019
marco,2019
marco,2018
janeiro,2018
novembro,2017
julho,2017
janeiro,2017
abril,2021
outubro,2020
novembro,2019
junho,2019
marco,2019
marco,2018
janeiro,2018
novembro,2017
julho,2017
janeiro,2017
abril,2021
outubro,2020
novembro,2019
junho,2019
marco,2019
marco,2018
janeiro,2018
novembro,2017
julho,2017
janeiro,2017
abril,2021
outubro,2020
novembro,2019
junho,2019
marco,2019
marco,2018
janeiro,2018
novembro,2017
julho,2017
janeiro,2017
abril,2021
outubro,2020
novembro,2019
junho,2019
marco,2019
marco,2018
janeiro,2018
novembro,2017
julho,2017
janeiro,2017
abril,2021
outubro,2020
novembro,2019
junho,2019
marco,2019
marco,2018
janeiro,2018
novembro,2017
julho,2017
janeiro,2017
abril,2021
outubro,2020
novembro,2019
junho,2019
marco,2019
marco,2018
janeiro,2018
novembro,2017
julho,2017
janeiro,2017
abril,2021
outubro,2020
novembro,2019
junho,2019
marco,2019
marco,2018
janeiro,2018
novembro,2017
julho,2017
janeiro,2017
abril,2021
outubro,2020
novembro,2019
junho,2019
marco,2019
marco,2018
janeiro,2018
novembro,2017
julho,2017
janeiro,2017
abril,2021
outubro,2020
novembro,2019
junho,2019
marco,2019
marco,2018
janeiro,2018
novembro,2017
julho,2017
janeiro,2017
abril,2021
outubro,2020
novembro,2019
junho,2019
marco,2019
marco,2018
janeiro,2018
novembro,2017
julho,2017
janeiro,2017
abril,2021
outubro,2020
novembro,2019
junho,2019
marco,2019
marco,2018
janeiro,2018
novembro,2017
julho,2017
janeiro,2017
abril,2021
outubro,2020
novembro,2019
junho,2019
marco,2019
marco,2018
janeiro,2018
novembro,2017
julho,2017
janeiro,2017
abril,2021
outubro,2020
novembro,2019
junho,2019
marco,2019
marco,2018
janeiro,2018
novembro,2017
julho,2017
janeiro,2017
abril,2021
outubro,2020
novembro,2019
junho,2019
marco,2019
marco,2018
janeiro,2018
novembro,2017
julho,2017
janeiro,2017
abril,2021
outubro,2020
novembro,2019
junho,2019
marco,2019
marco,2018
janeiro,2018
novembro,2017
julho,2017
janeiro,2017
abril,2021
outubro,2020
novembro,2019
junho,2019
marco,2019
marco,2018
janeiro,2018
novembro,2017
julho,2017
janeiro,2017
abril,2021
outubro,2020
novembro,2019
junho,2019
marco,2019
marco,2018
janeiro,2018
novembro,2017
julho,2017
janeiro,2017
abril,2021
outubro,2020
novembro,2019
junho,2019
marco,2019
marco,2018
janeiro,2018
novembro,2017
julho,2017
janeiro,2017
abril,2021
outubro,2020
novembro,2019
junho,2019
marco,2019
marco,2018
janeiro,2018
novembro,2017
julho,2017
janeiro,2017
abril,2021
outubro,2020
novembro,2019
junho,2019
marco,2019
marco,2018
janeiro,2018
novembro,2017
julho,2017
janeiro,2017
abril,2021
outubro,2020
novembro,2019
junho,2019
marco,2019
marco,2018
janeiro,2018
novembro,2017
julho,2017
janeiro,2017
abril,2021
outubro,2020
novembro,2019
junho,2019
marco,2019
marco,2018
janeiro,2018
novembro,2017
julho,2017
janeiro,2017
abril,2021
outubro,2020
novembro,2019
junho,2019
marco,2019
marco,2018
janeiro,2018
novembro,2017
julho,2017
janeiro,2017
abril,2021
outubro,2020
novembro,2019
junho,2019
marco,2019
marco,2018
janeiro,2018
novembro,2017
julho,2017
janeiro,2017
abril,2021
outubro,2020
novembro,2019
junho,2019
marco,2019
marco,2018
janeiro,2018
novembro,2017
julho,2017
janeiro,2017
abril,2021
outubro,2020
novembro,2019
junho,2019
marco,2019
marco,2018
janeiro,2018
novembro,2017
julho,2017
janeiro,2017
abril,2021
outubro,2020
novembro,2019
junho,2019
marco,2019
marco,2018
janeiro,2018
novembro,2017
julho,2017
janeiro,2017
abril,2021
outubro,2020
novembro,2019
junho,2019
marco,2019
marco,2018
janeiro,2018
novembro,2017
julho,2017
janeiro,2017
abril,2021
outubro,2020
novembro,2019
junho,2019
marco,2019
marco,2018
janeiro,2018
novembro,2017
julho,2017
janeiro,2017
abril,2021
outubro,2020
novembro,2019
junho,2019
marco,2019
marco,2018
janeiro,2018
novembro,2017
julho,2017
janeiro,2017
abril,2021
outubro,2020
novembro,2019
junho,2019
marco,2019
marco,2018
janeiro,2018
novembro,2017
julho,2017
janeiro,2017
abril,2021
outubro,2020
novembro,2019
junho,2019
marco,2019
marco,2018
janeiro,2018
novembro,2017
julho,2017
janeiro,2017
abril,2021
outubro,2020
novembro,2019
junho,2019
marco,2019
marco,2018
janeiro,2018
novembro,2017
julho,2017
janeiro,2017
abril,2021
outubro,2020
novembro,2019
junho,2019
marco,2019
marco,2018
janeiro,2018
novembro,2017
julho,2017
janeiro,2017
abril,2021
outubro,2020
novembro,2019
junho,2019
marco,2019
marco,2018
janeiro,2018
novembro,2017
julho,2017
janeiro,2017
abril,2021
outubro,2020
novembro,2019
junho,2019
marco,2019
marco,2018
janeiro,2018
novembro,2017
julho,2017
janeiro,2017
abril,2021
outubro,2020
novembro,2019
junho,2019
marco,2019
marco,2018
janeiro,2018
novembro,2017
julho,2017
janeiro,2017
abril,2021
outubro,2020
novembro,2019
junho,2019
marco,2019
marco,2018
janeiro,2018
novembro,2017
julho,2017
janeiro,2017
abril,2021
outubro,2020
novembro,2019
junho,2019
marco,2019
marco,2018
janeiro,2018
novembro,2017
julho,2017
janeiro,2017
abril,2021
outubro,2020
novembro,2019
junho,2019
marco,2019
marco,2018
janeiro,2018
novembro,2017
julho,2017
janeiro,2017
abril,2021
outubro,2020
novembro,2019
junho,2019
marco,2019
marco,2018
janeiro,2018
novembro,2017
julho,2017
janeiro,2017
abril,2021
outubro,2020
novembro,2019
junho,2019
marco,2019
marco,2018
janeiro,2018
novembro,2017
julho,2017
janeiro,2017
abril,2021
outubro,2020
novembro,2019
junho,2019
marco,2019
marco,2018
janeiro,2018
novembro,2017
julho,2017
janeiro,2017
abril,2021
outubro,2020
novembro,2019
junho,2019
marco,2019
marco,2018
janeiro,2018
novembro,2017
julho,2017
janeiro,2017
abril,2021
outubro,2020
novembro,2019
junho,2019
marco,2019
marco,2018
janeiro,2018
novembro,2017
julho,2017
janeiro,2017
abril,2021
outubro,2020
novembro,2019
junho,2019
marco,2019
marco,2018
janeiro,2018
novembro,2017
julho,2017
janeiro,2017
abril,2021
outubro,2020
novembro,2019
junho,2019
marco,2019
marco,2018
janeiro,2018
novembro,2017
julho,2017
janeiro,2017
abril,2021
outubro,2020
novembro,2019
junho,2019
marco,2019
marco,2018
janeiro,2018
novembro,2017
julho,2017
janeiro,2017
abril,2021
outubro,2020
novembro,2019
junho,2019
marco,2019
marco,2018
janeiro,2018
novembro,2017
julho,2017
janeiro,2017
abril,2021
outubro,2020
novembro,2019
junho,2019
marco,2019
marco,2018
janeiro,2018
novembro,2017
julho,2017
janeiro,2017
abril,2021
outubro,2020
novembro,2019
junho,2019
marco,2019
marco,2018
janeiro,2018
novembro,2017
julho,2017
janeiro,2017
abril,2021
outubro,2020
novembro,2019
junho,2019
marco,2019
marco,2018
janeiro,2018
novembro,2017
julho,2017
janeiro,2017
abril,2021
outubro,2020
novembro,2019
junho,2019
marco,2019
marco,2018
janeiro,2018
novembro,2017
julho,2017
janeiro,2017
abril,2021
outubro,2020
novembro,2019
junho,2019
marco,2019
marco,2018
janeiro,2018
novembro,2017
julho,2017
janeiro,2017
abril,2021
outubro,2020
novembro,2019
junho,2019
marco,2019
marco,2018
janeiro,2018
novembro,2017
julho,2017
janeiro,2017
abril,2021
outubro,2020
novembro,2019
junho,2019
marco,2019
marco,2018
janeiro,2018
novembro,2017
julho,2017
janeiro,2017
abril,2021
outubro,2020
novembro,2019
junho,2019
marco,2019
marco,2018
janeiro,2018
novembro,2017
julho,2017
janeiro,2017
abril,2021
outubro,2020
novembro,2019
junho,2019
marco,2019
marco,2018
janeiro,2018
novembro,2017
julho,2017
janeiro,2017
abril,2021
outubro,2020
novembro,2019
junho,2019
marco,2019
marco,2018
janeiro,2018
novembro,2017
julho,2017
janeiro,2017
abril,2021
outubro,2020
novembro,2019
junho,2019
marco,2019
marco,2018
janeiro,2018
novembro,2017
julho,2017
janeiro,2017
abril,2021
outubro,2020
novembro,2019
junho,2019
marco,2019
marco,2018
janeiro,2018
novembro,2017
julho,2017
janeiro,2017
abril,2021
outubro,2020
novembro,2019
junho,2019
marco,2019
marco,2018
janeiro,2018
novembro,2017
julho,2017
janeiro,2017
abril,2021
outubro,2020
novembro,2019
junho,2019
marco,2019
marco,2018
janeiro,2018
novembro,2017
julho,2017
janeiro,2017
abril,2021
outubro,2020
novembro,2019
junho,2019
marco,2019
marco,2018
janeiro,2018
novembro,2017
julho,2017
janeiro,2017
abril,2021
outubro,2020
novembro,2019
junho,2019
marco,2019
marco,2018
janeiro,2018
novembro,2017
julho,2017
janeiro,2017
abril,2021
outubro,2020
novembro,2019
junho,2019
marco,2019
marco,2018
janeiro,2018
novembro,2017
julho,2017
janeiro,2017
abril,2021
outubro,2020
novembro,2019
junho,2019
marco,2019
marco,2018
janeiro,2018
novembro,2017
julho,2017
janeiro,2017
abril,2021
outubro,2020
novembro,2019
junho,2019
marco,2019
marco,2018
janeiro,2018
novembro,2017
julho,2017
janeiro,2017
abril,2021
outubro,2020
novembro,2019
junho,2019
marco,2019
marco,2018
janeiro,2018
novembro,2017
julho,2017
janeiro,2017
abril,2021
outubro,2020
novembro,2019
junho,2019
marco,2019
marco,2018
janeiro,2018
novembro,2017
julho,2017
janeiro,2017
abril,2021
outubro,2020
novembro,2019
junho,2019
marco,2019
marco,2018
janeiro,2018
novembro,2017
julho,2017
janeiro,2017
abril,2021
outubro,2020
novembro,2019
junho,2019
marco,2019
marco,2018
janeiro,2018
novembro,2017
julho,2017
janeiro,2017
abril,2021
outubro,2020
novembro,2019
junho,2019
marco,2019
marco,2018
janeiro,2018
novembro,2017
julho,2017
janeiro,2017
abril,2021
outubro,2020
novembro,2019
junho,2019
marco,2019
marco,2018
janeiro,2018
novembro,2017
julho,2017
janeiro,2017
abril,2021
outubro,2020
novembro,2019
junho,2019
marco,2019
marco,2018
janeiro,2018
novembro,2017
julho,2017
janeiro,2017
abril,2021
outubro,2020
novembro,2019
junho,2019
marco,2019
marco,2018
janeiro,2018
novembro,2017
julho,2017
janeiro,2017
abril,2021
outubro,2020
novembro,2019
junho,2019
marco,2019
marco,2018
janeiro,2018
novembro,2017
julho,2017
janeiro,2017
abril,2021
outubro,2020
novembro,2019
junho,2019
marco,2019
marco,2018
janeiro,2018
novembro,2017
julho,2017
janeiro,2017
abril,2021
outubro,2020
novembro,2019
junho,2019
marco,2019
marco,2018
janeiro,2018
novembro,2017
julho,2017
janeiro,2017
abril,2021
outubro,2020
novembro,2019
junho,2019
marco,2019
marco,2018
janeiro,2018
novembro,2017
julho,2017
janeiro,2017
abril,2021
outubro,2020
novembro,2019
junho,2019
marco,2019
marco,2018
janeiro,2018
novembro,2017
julho,2017
janeiro,2017
abril,2021
outubro,2020
novembro,2019
junho,2019
marco,2019
marco,2018
janeiro,2018
novembro,2017
julho,2017
janeiro,2017
abril,2021
outubro,2020
novembro,2019
junho,2019
marco,2019
marco,2018
janeiro,2018
novembro,2017
julho,2017
janeiro,2017
abril,2021
outubro,2020
novembro,2019
junho,2019
marco,2019
marco,2018
janeiro,2018
novembro,2017
julho,2017
janeiro,2017
abril,2021
outubro,2020
novembro,2019
junho,2019
marco,2019
marco,2018
janeiro,2018
novembro,2017
julho,2017
janeiro,2017
abril,2021
outubro,2020
novembro,2019
junho,2019
marco,2019
marco,2018
janeiro,2018
novembro,2017
julho,2017
janeiro,2017
abril,2021
outubro,2020
novembro,2019
junho,2019
marco,2019
marco,2018
janeiro,2018
novembro,2017
julho,2017
janeiro,2017
abril,2021
outubro,2020
novembro,2019
junho,2019
marco,2019
marco,2018
janeiro,2018
novembro,2017
julho,2017
janeiro,2017
abril,2021
outubro,2020
novembro,2019
junho,2019
marco,2019
marco,2018
janeiro,2018
novembro,2017
julho,2017
janeiro,2017
abril,2021
outubro,2020
novembro,2019
junho,2019
marco,2019
marco,2018
janeiro,2018
novembro,2017
julho,2017
janeiro,2017
abril,2021
outubro,2020
novembro,2019
junho,2019
marco,2019
marco,2018
janeiro,2018
novembro,2017
julho,2017
janeiro,2017
abril,2021
outubro,2020
novembro,2019
junho,2019
marco,2019
marco,2018
janeiro,2018
novembro,2017
julho,2017
janeiro,2017
abril,2021
outubro,2020
novembro,2019
junho,2019
marco,2019
marco,2018
janeiro,2018
novembro,2017
julho,2017
janeiro,2017
abril,2021
outubro,2020
novembro,2019
junho,2019
marco,2019
marco,2018
janeiro,2018
novembro,2017
julho,2017
janeiro,2017
abril,2021
outubro,2020
novembro,2019
junho,2019
marco,2019
marco,2018
janeiro,2018
novembro,2017
julho,2017
janeiro,2017
abril,2021
outubro,2020
novembro,2019
junho,2019
marco,2019
marco,2018
janeiro,2018
novembro,2017
julho,2017
janeiro,2017
abril,2021
outubro,2020
novembro,2019
junho,2019
marco,2019
marco,2018
janeiro,2018
novembro,2017
julho,2017
janeiro,2017
abril,2021
outubro,2020
novembro,2019
junho,2019
marco,2019
marco,2018
janeiro,2018
novembro,2017
julho,2017
janeiro,2017
abril,2021
outubro,2020
novembro,2019
junho,2019
marco,2019
marco,2018
janeiro,2018
novembro,2017
julho,2017
janeiro,2017
abril,2021
outubro,2020
novembro,2019
junho,2019
marco,2019
marco,2018
janeiro,2018
novembro,2017
julho,2017
janeiro,2017
abril,2021
outubro,2020
novembro,2019
junho,2019
marco,2019
marco,2018
janeiro,2018
novembro,2017
julho,2017
janeiro,2017
abril,2021
outubro,2020
novembro,2019
junho,2019
marco,2019
marco,2018
janeiro,2018
novembro,2017
julho,2017
janeiro,2017
abril,2021
outubro,2020
novembro,2019
junho,2019
marco,2019
marco,2018
janeiro,2018
novembro,2017
julho,2017
janeiro,2017
abril,2021
outubro,2020
novembro,2019
junho,2019
marco,2019
marco,2018
janeiro,2018
novembro,2017
julho,2017
janeiro,2017
abril,2021
outubro,2020
novembro,2019
junho,2019
marco,2019
marco,2018
janeiro,2018
novembro,2017
julho,2017
janeiro,2017
abril,2021
outubro,2020
novembro,2019
junho,2019
marco,2019
marco,2018
janeiro,2018
novembro,2017
julho,2017
janeiro,2017
abril,2021
outubro,2020
novembro,2019
junho,2019
marco,2019
marco,2018
janeiro,2018
novembro,2017
julho,2017
janeiro,2017
abril,2021
outubro,2020
novembro,2019
junho,2019
marco,2019
marco,2018
janeiro,2018
novembro,2017
julho,2017
janeiro,2017
abril,2021
outubro,2020
novembro,2019
junho,2019
marco,2019
marco,2018
janeiro,2018
novembro,2017
julho,2017
janeiro,2017
abril,2021
outubro,2020
novembro,2019
junho,2019
marco,2019
marco,2018
janeiro,2018
novembro,2017
julho,2017
janeiro,2017
abril,2021
outubro,2020
novembro,2019
junho,2019
marco,2019
marco,2018
janeiro,2018
novembro,2017
julho,2017
janeiro,2017
abril,2021
outubro,2020
novembro,2019
junho,2019
marco,2019
marco,2018
janeiro,2018
novembro,2017
julho,2017
janeiro,2017
abril,2021
outubro,2020
novembro,2019
junho,2019
marco,2019
marco,2018
janeiro,2018
novembro,2017
julho,2017
janeiro,2017
abril,2021
outubro,2020
novembro,2019
junho,2019
marco,2019
marco,2018
janeiro,2018
novembro,2017
julho,2017
janeiro,2017
abril,2021
outubro,2020
novembro,2019
junho,2019
marco,2019
marco,2018
janeiro,2018
novembro,2017
julho,2017
janeiro,2017
abril,2021
outubro,2020
novembro,2019
junho,2019
marco,2019
marco,2018
janeiro,2018
novembro,2017
julho,2017
janeiro,2017
abril,2021
outubro,2020
novembro,2019
junho,2019
marco,2019
marco,2018
janeiro,2018
novembro,2017
julho,2017
janeiro,2017
abril,2021
outubro,2020
novembro,2019
junho,2019
marco,2019
marco,2018
janeiro,2018
novembro,2017
julho,2017
janeiro,2017
abril,2021
outubro,2020
novembro,2019
junho,2019
marco,2019
marco,2018
janeiro,2018
novembro,2017
julho,2017
janeiro,2017
abril,2021
outubro,2020
novembro,2019
junho,2019
marco,2019
marco,2018
janeiro,2018
novembro,2017
julho,2017
janeiro,2017
abril,2021
outubro,2020
novembro,2019
junho,2019
marco,2019
marco,2018
janeiro,2018
novembro,2017
julho,2017
janeiro,2017
abril,2021
outubro,2020
novembro,2019
junho,2019
marco,2019
marco,2018
janeiro,2018
novembro,2017
julho,2017
janeiro,2017
abril,2021
outubro,2020
novembro,2019
junho,2019
marco,2019
marco,2018
janeiro,2018
novembro,2017
julho,2017
janeiro,2017
abril,2021
outubro,2020
novembro,2019
junho,2019
marco,2019
marco,2018
janeiro,2018
novembro,2017
julho,2017
janeiro,2017
abril,2021
outubro,2020
novembro,2019
junho,2019
marco,2019
marco,2018
janeiro,2018
novembro,2017
julho,2017
janeiro,2017
abril,2021
outubro,2020
novembro,2019
junho,2019
marco,2019
marco,2018
janeiro,2018
novembro,2017
julho,2017
janeiro,2017
abril,2021
outubro,2020
novembro,2019
junho,2019
marco,2019
marco,2018
janeiro,2018
novembro,2017
julho,2017
janeiro,2017
abril,2021
outubro,2020
novembro,2019
junho,2019
marco,2019
marco,2018
janeiro,2018
novembro,2017
julho,2017
janeiro,2017
abril,2021
outubro,2020
novembro,2019
junho,2019
marco,2019
marco,2018
janeiro,2018
novembro,2017
julho,2017
janeiro,2017
abril,2021
outubro,2020
novembro,2019
junho,2019
marco,2019
marco,2018
janeiro,2018
novembro,2017
julho,2017
janeiro,2017
abril,2021
outubro,2020
novembro,2019
junho,2019
marco,2019
marco,2018
janeiro,2018
novembro,2017
julho,2017
janeiro,2017
abril,2021
outubro,2020
novembro,2019
junho,2019
marco,2019
marco,2018
janeiro,2018
novembro,2017
julho,2017
janeiro,2017
abril,2021
outubro,2020
novembro,2019
junho,2019
marco,2019
marco,2018
janeiro,2018
novembro,2017
julho,2017
janeiro,2017
abril,2021
outubro,2020
novembro,2019
junho,2019
marco,2019
marco,2018
janeiro,2018
novembro,2017
julho,2017
janeiro,2017
abril,2021
outubro,2020
novembro,2019
junho,2019
marco,2019
marco,2018
janeiro,2018
novembro,2017
julho,2017
janeiro,2017
abril,2021
outubro,2020
novembro,2019
junho,2019
marco,2019
marco,2018
janeiro,2018
novembro,2017
julho,2017
janeiro,2017
abril,2021
outubro,2020
novembro,2019
junho,2019
marco,2019
marco,2018
janeiro,2018
novembro,2017
julho,2017
janeiro,2017
abril,2021
outubro,2020
novembro,2019
junho,2019
marco,2019
marco,2018
janeiro,2018
novembro,2017
julho,2017
janeiro,2017
abril,2021
outubro,2020
novembro,2019
junho,2019
marco,2019
marco,2018
janeiro,2018
novembro,2017
julho,2017
janeiro,2017
abril,2021
outubro,2020
novembro,2019
junho,2019
marco,2019
marco,2018
janeiro,2018
novembro,2017
julho,2017
janeiro,2017
abril,2021
outubro,2020
novembro,2019
junho,2019
marco,2019
marco,2018
janeiro,2018
novembro,2017
julho,2017
janeiro,2017
abril,2021
outubro,2020
novembro,2019
junho,2019
marco,2019
marco,2018
janeiro,2018
novembro,2017
julho,2017
janeiro,2017
abril,2021
outubro,2020
novembro,2019
junho,2019
marco,2019
marco,2018
janeiro,2018
novembro,2017
julho,2017
janeiro,2017
abril,2021
outubro,2020
novembro,2019
junho,2019
marco,2019
marco,2018
janeiro,2018
novembro,2017
julho,2017
janeiro,2017
abril,2021
outubro,2020
novembro,2019
junho,2019
marco,2019
marco,2018
janeiro,2018
novembro,2017
julho,2017
janeiro,2017
abril,2021
outubro,2020
novembro,2019
junho,2019
marco,2019
marco,2018
janeiro,2018
novembro,2017
julho,2017
janeiro,2017
abril,2021
outubro,2020
novembro,2019
junho,2019
marco,2019
marco,2018
janeiro,2018
novembro,2017
julho,2017
janeiro,2017
abril,2021
outubro,2020
novembro,2019
junho,2019
marco,2019
marco,2018
janeiro,2018
novembro,2017
julho,2017
janeiro,2017
abril,2021
outubro,2020
novembro,2019
junho,2019
marco,2019
marco,2018
janeiro,2018
novembro,2017
julho,2017
janeiro,2017
abril,2021
outubro,2020
novembro,2019
junho,2019
marco,2019
marco,2018
janeiro,2018
novembro,2017
julho,2017
janeiro,2017
abril,2021
outubro,2020
novembro,2019
junho,2019
marco,2019
marco,2018
janeiro,2018
novembro,2017
julho,2017
janeiro,2017
abril,2021
outubro,2020
novembro,2019
junho,2019
marco,2019
marco,2018
janeiro,2018
novembro,2017
julho,2017
janeiro,2017
abril,2021
outubro,2020
novembro,2019
junho,2019
marco,2019
marco,2018
janeiro,2018
novembro,2017
julho,2017
janeiro,2017
abril,2021
outubro,2020
novembro,2019
junho,2019
marco,2019
marco,2018
janeiro,2018
novembro,2017
julho,2017
janeiro,2017
abril,2021
outubro,2020
novembro,2019
junho,2019
marco,2019
marco,2018
janeiro,2018
novembro,2017
julho,2017
janeiro,2017
abril,2021
outubro,2020
novembro,2019
junho,2019
marco,2019
marco,2018
janeiro,2018
novembro,2017
julho,2017
janeiro,2017
abril,2021
outubro,2020
novembro,2019
junho,2019
marco,2019
marco,2018
janeiro,2018
novembro,2017
julho,2017
janeiro,2017
abril,2021
outubro,2020
novembro,2019
junho,2019
marco,2019
marco,2018
janeiro,2018
novembro,2017
julho,2017
janeiro,2017
abril,2021
outubro,2020
novembro,2019
junho,2019
marco,2019
marco,2018
janeiro,2018
novembro,2017
julho,2017
janeiro,2017
abril,2021
outubro,2020
novembro,2019
junho,2019
marco,2019
marco,2018
janeiro,2018
novembro,2017
julho,2017
janeiro,2017
abril,2021
outubro,2020
novembro,2019
junho,2019
marco,2019
marco,2018
janeiro,2018
novembro,2017
julho,2017
janeiro,2017
abril,2021
outubro,2020
novembro,2019
junho,2019
marco,2019
marco,2018
janeiro,2018
novembro,2017
julho,2017
janeiro,2017
abril,2021
outubro,2020
novembro,2019
junho,2019
marco,2019
marco,2018
janeiro,2018
novembro,2017
julho,2017
janeiro,2017
abril,2021
outubro,2020
novembro,2019
junho,2019
marco,2019
marco,2018
janeiro,2018
novembro,2017
julho,2017
janeiro,2017
abril,2021
outubro,2020
novembro,2019
junho,2019
marco,2019
marco,2018
janeiro,2018
novembro,2017
julho,2017
janeiro,2017
abril,2021
outubro,2020
novembro,2019
junho,2019
marco,2019
marco,2018
janeiro,2018
novembro,2017
julho,2017
janeiro,2017
abril,2021
outubro,2020
novembro,2019
junho,2019
marco,2019
marco,2018
janeiro,2018
novembro,2017
julho,2017
janeiro,2017
abril,2021
outubro,2020
novembro,2019
junho,2019
marco,2019
marco,2018
janeiro,2018
novembro,2017
julho,2017
janeiro,2017
abril,2021
outubro,2020
novembro,2019
junho,2019
marco,2019
marco,2018
janeiro,2018
novembro,2017
julho,2017
janeiro,2017
abril,2021
outubro,2020
novembro,2019
junho,2019
marco,2019
marco,2018
janeiro,2018
novembro,2017
julho,2017
janeiro,2017
abril,2021
outubro,2020
novembro,2019
junho,2019
marco,2019
marco,2018
janeiro,2018
novembro,2017
julho,2017
janeiro,2017
abril,2021
outubro,2020
novembro,2019
junho,2019
marco,2019
marco,2018
janeiro,2018
novembro,2017
julho,2017
janeiro,2017
abril,2021
outubro,2020
novembro,2019
junho,2019
marco,2019
marco,2018
janeiro,2018
novembro,2017
julho,2017
janeiro,2017
abril,2021
outubro,2020
novembro,2019
junho,2019
marco,2019
marco,2018
janeiro,2018
novembro,2017
julho,2017
janeiro,2017
abril,2021
outubro,2020
novembro,2019
junho,2019
marco,2019
marco,2018
janeiro,2018
novembro,2017
julho,2017
janeiro,2017
abril,2021
outubro,2020
novembro,2019
junho,2019
marco,2019
marco,2018
janeiro,2018
novembro,2017
julho,2017
janeiro,2017
abril,2021
outubro,2020
novembro,2019
junho,2019
marco,2019
marco,2018
janeiro,2018
novembro,2017
julho,2017
janeiro,2017
abril,2021
outubro,2020
novembro,2019
junho,2019
marco,2019
marco,2018
janeiro,2018
novembro,2017
julho,2017
janeiro,2017
abril,2021
outubro,2020
novembro,2019
junho,2019
marco,2019
marco,2018
janeiro,2018
novembro,2017
julho,2017
janeiro,2017
abril,2021
outubro,2020
novembro,2019
junho,2019
marco,2019
marco,2018
janeiro,2018
novembro,2017
julho,2017
janeiro,2017
abril,2021
outubro,2020
novembro,2019
junho,2019
marco,2019
marco,2018
janeiro,2018
novembro,2017
julho,2017
janeiro,2017
abril,2021
outubro,2020
novembro,2019
junho,2019
marco,2019
marco,2018
janeiro,2018
novembro,2017
julho,2017
janeiro,2017
abril,2021
outubro,2020
novembro,2019
junho,2019
marco,2019
marco,2018
janeiro,2018
novembro,2017
julho,2017
janeiro,2017
abril,2021
outubro,2020
novembro,2019
junho,2019
marco,2019
marco,2018
janeiro,2018
novembro,2017
julho,2017
janeiro,2017
abril,2021
outubro,2020
novembro,2019
junho,2019
marco,2019
marco,2018
janeiro,2018
novembro,2017
julho,2017
janeiro,2017
abril,2021
outubro,2020
novembro,2019
junho,2019
marco,2019
marco,2018
janeiro,2018
novembro,2017
julho,2017
janeiro,2017
abril,2021
outubro,2020
novembro,2019
junho,2019
marco,2019
marco,2018
janeiro,2018
novembro,2017
julho,2017
janeiro,2017
abril,2021
outubro,2020
novembro,2019
junho,2019
marco,2019
marco,2018
janeiro,2018
novembro,2017
julho,2017
janeiro,2017
abril,2021
outubro,2020
novembro,2019
junho,2019
marco,2019
marco,2018
janeiro,2018
novembro,2017
julho,2017
janeiro,2017
abril,2021
outubro,2020
novembro,2019
junho,2019
marco,2019
marco,2018
janeiro,2018
novembro,2017
julho,2017
janeiro,2017
abril,2021
outubro,2020
novembro,2019
junho,2019
marco,2019
marco,2018
janeiro,2018
novembro,2017
julho,2017
janeiro,2017
abril,2021
outubro,2020
novembro,2019
junho,2019
marco,2019
marco,2018
janeiro,2018
novembro,2017
julho,2017
janeiro,2017
abril,2021
outubro,2020
novembro,2019
junho,2019
marco,2019
marco,2018
janeiro,2018
novembro,2017
julho,2017
janeiro,2017
abril,2021
outubro,2020
novembro,2019
junho,2019
marco,2019
marco,2018
janeiro,2018
novembro,2017
julho,2017
janeiro,2017
abril,2021
outubro,2020
novembro,2019
junho,2019
marco,2019
marco,2018
janeiro,2018
novembro,2017
julho,2017
janeiro,2017
abril,2021
outubro,2020
novembro,2019
junho,2019
marco,2019
marco,2018
janeiro,2018
novembro,2017
julho,2017
janeiro,2017
abril,2021
outubro,2020
novembro,2019
junho,2019
marco,2019
marco,2018
janeiro,2018
novembro,2017
julho,2017
janeiro,2017
abril,2021
outubro,2020
novembro,2019
junho,2019
marco,2019
marco,2018
janeiro,2018
novembro,2017
julho,2017
janeiro,2017
abril,2021
outubro,2020
novembro,2019
junho,2019
marco,2019
marco,2018
janeiro,2018
novembro,2017
julho,2017
janeiro,2017
abril,2021
outubro,2020
novembro,2019
junho,2019
marco,2019
marco,2018
janeiro,2018
novembro,2017
julho,2017
janeiro,2017
abril,2021
outubro,2020
novembro,2019
junho,2019
marco,2019
marco,2018
janeiro,2018
novembro,2017
julho,2017
janeiro,2017
abril,2021
outubro,2020
novembro,2019
junho,2019
marco,2019
marco,2018
janeiro,2018
novembro,2017
julho,2017
janeiro,2017
abril,2021
outubro,2020
novembro,2019
junho,2019
marco,2019
marco,2018
janeiro,2018
novembro,2017
julho,2017
janeiro,2017
abril,2021
outubro,2020
novembro,2019
junho,2019
marco,2019
marco,2018
janeiro,2018
novembro,2017
julho,2017
janeiro,2017
abril,2021
outubro,2020
novembro,2019
junho,2019
marco,2019
marco,2018
janeiro,2018
novembro,2017
julho,2017
janeiro,2017
abril,2021
outubro,2020
novembro,2019
junho,2019
marco,2019
marco,2018
janeiro,2018
novembro,2017
julho,2017
janeiro,2017
abril,2021
outubro,2020
novembro,2019
junho,2019
marco,2019
marco,2018
janeiro,2018
novembro,2017
julho,2017
janeiro,2017
abril,2021
outubro,2020
novembro,2019
junho,2019
marco,2019
marco,2018
janeiro,2018
novembro,2017
julho,2017
janeiro,2017
abril,2021
outubro,2020
novembro,2019
junho,2019
marco,2019
marco,2018
janeiro,2018
novembro,2017
julho,2017
janeiro,2017
abril,2021
outubro,2020
novembro,2019
junho,2019
marco,2019
marco,2018
janeiro,2018
novembro,2017
julho,2017
janeiro,2017
abril,2021
outubro,2020
novembro,2019
junho,2019
marco,2019
marco,2018
janeiro,2018
novembro,2017
julho,2017
janeiro,2017
abril,2021
outubro,2020
novembro,2019
junho,2019
marco,2019
marco,2018
janeiro,2018
novembro,2017
julho,2017
janeiro,2017
abril,2021
outubro,2020
novembro,2019
junho,2019
marco,2019
marco,2018
janeiro,2018
novembro,2017
julho,2017
janeiro,2017
abril,2021
outubro,2020
novembro,2019
junho,2019
marco,2019
marco,2018
janeiro,2018
novembro,2017
julho,2017
janeiro,2017
abril,2021
outubro,2020
novembro,2019
junho,2019
marco,2019
marco,2018
janeiro,2018
novembro,2017
julho,2017
janeiro,2017
abril,2021
outubro,2020
novembro,2019
junho,2019
marco,2019
marco,2018
janeiro,2018
novembro,2017
julho,2017
janeiro,2017
abril,2021
outubro,2020
novembro,2019
junho,2019
marco,2019
marco,2018
janeiro,2018
novembro,2017
julho,2017
janeiro,2017
abril,2021
outubro,2020
novembro,2019
junho,2019
marco,2019
marco,2018
janeiro,2018
novembro,2017
julho,2017
janeiro,2017
abril,2021
outubro,2020
novembro,2019
junho,2019
marco,2019
marco,2018
janeiro,2018
novembro,2017
julho,2017
janeiro,2017
abril,2021
outubro,2020
novembro,2019
junho,2019
marco,2019
marco,2018
janeiro,2018
novembro,2017
julho,2017
janeiro,2017
abril,2021
outubro,2020
novembro,2019
junho,2019
marco,2019
marco,2018
janeiro,2018
novembro,2017
julho,2017
janeiro,2017
abril,2021
outubro,2020
novembro,2019
junho,2019
marco,2019
marco,2018
janeiro,2018
novembro,2017
julho,2017
janeiro,2017
abril,2021
outubro,2020
novembro,2019
junho,2019
marco,2019
marco,2018
janeiro,2018
novembro,2017
julho,2017
janeiro,2017
abril,2021
outubro,2020
novembro,2019
junho,2019
marco,2019
marco,2018
janeiro,2018
novembro,2017
julho,2017
janeiro,2017
abril,2021
outubro,2020
novembro,2019
junho,2019
marco,2019
marco,2018
janeiro,2018
novembro,2017
julho,2017
janeiro,2017
abril,2021
outubro,2020
novembro,2019
junho,2019
marco,2019
marco,2018
janeiro,2018
novembro,2017
julho,2017
janeiro,2017
abril,2021
outubro,2020
novembro,2019
junho,2019
marco,2019
marco,2018
janeiro,2018
novembro,2017
julho,2017
janeiro,2017
abril,2021
outubro,2020
novembro,2019
junho,2019
marco,2019
marco,2018
janeiro,2018
novembro,2017
julho,2017
janeiro,2017
abril,2021
outubro,2020
novembro,2019
junho,2019
marco,2019
marco,2018
janeiro,2018
novembro,2017
julho,2017
janeiro,2017
abril,2021
outubro,2020
novembro,2019
junho,2019
marco,2019
marco,2018
janeiro,2018
novembro,2017
julho,2017
janeiro,2017
abril,2021
outubro,2020
novembro,2019
junho,2019
marco,2019
marco,2018
janeiro,2018
novembro,2017
julho,2017
janeiro,2017
abril,2021
outubro,2020
novembro,2019
junho,2019
marco,2019
marco,2018
janeiro,2018
novembro,2017
julho,2017
janeiro,2017
abril,2021
outubro,2020
novembro,2019
junho,2019
marco,2019
marco,2018
janeiro,2018
novembro,2017
julho,2017
janeiro,2017
abril,2021
outubro,2020
novembro,2019
junho,2019
marco,2019
marco,2018
janeiro,2018
novembro,2017
julho,2017
janeiro,2017
abril,2021
outubro,2020
novembro,2019
junho,2019
marco,2019
marco,2018
janeiro,2018
novembro,2017
julho,2017
janeiro,2017
abril,2021
outubro,2020
novembro,2019
junho,2019
marco,2019
marco,2018
janeiro,2018
novembro,2017
julho,2017
janeiro,2017
abril,2021
outubro,2020
novembro,2019
junho,2019
marco,2019
marco,2018
janeiro,2018
novembro,2017
julho,2017
janeiro,2017
abril,2021
outubro,2020
novembro,2019
junho,2019
marco,2019
marco,2018
janeiro,2018
novembro,2017
julho,2017
janeiro,2017
abril,2021
outubro,2020
novembro,2019
junho,2019
marco,2019
marco,2018
janeiro,2018
novembro,2017
julho,2017
janeiro,2017
abril,2021
outubro,2020
novembro,2019
junho,2019
marco,2019
marco,2018
janeiro,2018
novembro,2017
julho,2017
janeiro,2017
abril,2021
outubro,2020
novembro,2019
junho,2019
marco,2019
marco,2018
janeiro,2018
novembro,2017
julho,2017
janeiro,2017
abril,2021
outubro,2020
novembro,2019
junho,2019
marco,2019
marco,2018
janeiro,2018
novembro,2017
julho,2017
janeiro,2017
abril,2021
outubro,2020
novembro,2019
junho,2019
marco,2019
marco,2018
janeiro,2018
novembro,2017
julho,2017
janeiro,2017
abril,2021
outubro,2020
novembro,2019
junho,2019
marco,2019
marco,2018
janeiro,2018
novembro,2017
julho,2017
janeiro,2017
abril,2021
outubro,2020
novembro,2019
junho,2019
marco,2019
marco,2018
janeiro,2018
novembro,2017
julho,2017
janeiro,2017
abril,2021
outubro,2020
novembro,2019
junho,2019
marco,2019
marco,2018
janeiro,2018
novembro,2017
julho,2017
janeiro,2017
abril,2021
outubro,2020
novembro,2019
junho,2019
marco,2019
marco,2018
janeiro,2018
novembro,2017
julho,2017
janeiro,2017
abril,2021
outubro,2020
novembro,2019
junho,2019
marco,2019
marco,2018
janeiro,2018
novembro,2017
julho,2017
janeiro,2017
abril,2021
outubro,2020
novembro,2019
junho,2019
marco,2019
marco,2018
janeiro,2018
novembro,2017
julho,2017
janeiro,2017
abril,2021
outubro,2020
novembro,2019
junho,2019
marco,2019
marco,2018
janeiro,2018
novembro,2017
julho,2017
janeiro,2017
abril,2021
outubro,2020
novembro,2019
junho,2019
marco,2019
marco,2018
janeiro,2018
novembro,2017
julho,2017
janeiro,2017
abril,2021
outubro,2020
novembro,2019
junho,2019
marco,2019
marco,2018
janeiro,2018
novembro,2017
julho,2017
janeiro,2017
abril,2021
outubro,2020
novembro,2019
junho,2019
marco,2019
marco,2018
janeiro,2018
novembro,2017
julho,2017
janeiro,2017
abril,2021
outubro,2020
novembro,2019
junho,2019
marco,2019
marco,2018
janeiro,2018
novembro,2017
julho,2017
janeiro,2017
abril,2021
outubro,2020
novembro,2019
junho,2019
marco,2019
marco,2018
janeiro,2018
novembro,2017
julho,2017
janeiro,2017
abril,2021
outubro,2020
novembro,2019
junho,2019
marco,2019
marco,2018
janeiro,2018
novembro,2017
julho,2017
janeiro,2017
abril,2021
outubro,2020
novembro,2019
junho,2019
marco,2019
marco,2018
janeiro,2018
novembro,2017
julho,2017
janeiro,2017
abril,2021
outubro,2020
novembro,2019
junho,2019
marco,2019
marco,2018
janeiro,2018
novembro,2017
julho,2017
janeiro,2017
abril,2021
outubro,2020
novembro,2019
junho,2019
marco,2019
marco,2018
janeiro,2018
novembro,2017
julho,2017
janeiro,2017
abril,2021
outubro,2020
novembro,2019
junho,2019
marco,2019
marco,2018
janeiro,2018
novembro,2017
julho,2017
janeiro,2017
abril,2021
outubro,2020
novembro,2019
junho,2019
marco,2019
marco,2018
janeiro,2018
novembro,2017
julho,2017
janeiro,2017
abril,2021
outubro,2020
novembro,2019
junho,2019
marco,2019
marco,2018
janeiro,2018
novembro,2017
julho,2017
janeiro,2017
abril,2021
outubro,2020
novembro,2019
junho,2019
marco,2019
marco,2018
janeiro,2018
novembro,2017
julho,2017
janeiro,2017
abril,2021
outubro,2020
novembro,2019
junho,2019
marco,2019
marco,2018
janeiro,2018
novembro,2017
julho,2017
janeiro,2017
abril,2021
outubro,2020
novembro,2019
junho,2019
marco,2019
marco,2018
janeiro,2018
novembro,2017
julho,2017
janeiro,2017
abril,2021
outubro,2020
novembro,2019
junho,2019
marco,2019
marco,2018
janeiro,2018
novembro,2017
julho,2017
janeiro,2017
abril,2021
outubro,2020
novembro,2019
junho,2019
marco,2019
marco,2018
janeiro,2018
novembro,2017
julho,2017
janeiro,2017
abril,2021
outubro,2020
novembro,2019
junho,2019
marco,2019
marco,2018
janeiro,2018
novembro,2017
julho,2017
janeiro,2017
abril,2021
outubro,2020
novembro,2019
junho,2019
marco,2019
marco,2018
janeiro,2018
novembro,2017
julho,2017
janeiro,2017
abril,2021
outubro,2020
novembro,2019
junho,2019
marco,2019
marco,2018
janeiro,2018
novembro,2017
julho,2017
janeiro,2017
abril,2021
outubro,2020
novembro,2019
junho,2019
marco,2019
marco,2018
janeiro,2018
novembro,2017
julho,2017
janeiro,2017
abril,2021
outubro,2020
novembro,2019
junho,2019
marco,2019
marco,2018
janeiro,2018
novembro,2017
julho,2017
janeiro,2017
abril,2021
outubro,2020
novembro,2019
junho,2019
marco,2019
marco,2018
janeiro,2018
novembro,2017
julho,2017
janeiro,2017
abril,2021
outubro,2020
novembro,2019
junho,2019
marco,2019
marco,2018
janeiro,2018
novembro,2017
julho,2017
janeiro,2017
abril,2021
outubro,2020
novembro,2019
junho,2019
marco,2019
marco,2018
janeiro,2018
novembro,2017
julho,2017
janeiro,2017
abril,2021
outubro,2020
novembro,2019
junho,2019
marco,2019
marco,2018
janeiro,2018
novembro,2017
julho,2017
janeiro,2017
abril,2021
outubro,2020
novembro,2019
junho,2019
marco,2019
marco,2018
janeiro,2018
novembro,2017
julho,2017
janeiro,2017
abril,2021
outubro,2020
novembro,2019
junho,2019
marco,2019
marco,2018
janeiro,2018
novembro,2017
julho,2017
janeiro,2017
abril,2021
outubro,2020
novembro,2019
junho,2019
marco,2019
marco,2018
janeiro,2018
novembro,2017
julho,2017
janeiro,2017
abril,2021
outubro,2020
novembro,2019
junho,2019
marco,2019
marco,2018
janeiro,2018
novembro,2017
julho,2017
janeiro,2017
abril,2021
outubro,2020
novembro,2019
junho,2019
marco,2019
marco,2018
janeiro,2018
novembro,2017
julho,2017
janeiro,2017
abril,2021
outubro,2020
novembro,2019
junho,2019
marco,2019
marco,2018
janeiro,2018
novembro,2017
julho,2017
janeiro,2017
abril,2021
outubro,2020
novembro,2019
junho,2019
marco,2019
marco,2018
janeiro,2018
novembro,2017
julho,2017
janeiro,2017
abril,2021
outubro,2020
novembro,2019
junho,2019
marco,2019
marco,2018
janeiro,2018
novembro,2017
julho,2017
janeiro,2017
abril,2021
outubro,2020
novembro,2019
junho,2019
marco,2019
marco,2018
janeiro,2018
novembro,2017
julho,2017
janeiro,2017
abril,2021
outubro,2020
novembro,2019
junho,2019
marco,2019
marco,2018
janeiro,2018
novembro,2017
julho,2017
janeiro,2017
abril,2021
outubro,2020
novembro,2019
junho,2019
marco,2019
marco,2018
janeiro,2018
novembro,2017
julho,2017
janeiro,2017
abril,2021
outubro,2020
novembro,2019
junho,2019
marco,2019
marco,2018
janeiro,2018
novembro,2017
julho,2017
janeiro,2017
abril,2021
outubro,2020
novembro,2019
junho,2019
marco,2019
marco,2018
janeiro,2018
novembro,2017
julho,2017
janeiro,2017
abril,2021
outubro,2020
novembro,2019
junho,2019
marco,2019
marco,2018
janeiro,2018
novembro,2017
julho,2017
janeiro,2017
abril,2021
outubro,2020
novembro,2019
junho,2019
marco,2019
marco,2018
janeiro,2018
novembro,2017
julho,2017
janeiro,2017
abril,2021
outubro,2020
novembro,2019
junho,2019
marco,2019
marco,2018
janeiro,2018
novembro,2017
julho,2017
janeiro,2017
abril,2021
outubro,2020
novembro,2019
junho,2019
marco,2019
marco,2018
janeiro,2018
novembro,2017
julho,2017
janeiro,2017
abril,2021
outubro,2020
novembro,2019
junho,2019
marco,2019
marco,2018
janeiro,2018
novembro,2017
julho,2017
janeiro,2017
abril,2021
outubro,2020
novembro,2019
junho,2019
marco,2019
marco,2018
janeiro,2018
novembro,2017
julho,2017
janeiro,2017
abril,2021
outubro,2020
novembro,2019
junho,2019
marco,2019
marco,2018
janeiro,2018
novembro,2017
julho,2017
janeiro,2017
abril,2021
outubro,2020
novembro,2019
junho,2019
marco,2019
marco,2018
janeiro,2018
novembro,2017
julho,2017
janeiro,2017
abril,2021
outubro,2020
novembro,2019
junho,2019
marco,2019
marco,2018
janeiro,2018
novembro,2017
julho,2017
janeiro,2017
abril,2021
outubro,2020
novembro,2019
junho,2019
marco,2019
marco,2018
janeiro,2018
novembro,2017
julho,2017
janeiro,2017
abril,2021
outubro,2020
novembro,2019
junho,2019
marco,2019
marco,2018
janeiro,2018
novembro,2017
julho,2017
janeiro,2017
abril,2021
outubro,2020
novembro,2019
junho,2019
marco,2019
marco,2018
janeiro,2018
novembro,2017
julho,2017
janeiro,2017
abril,2021
outubro,2020
novembro,2019
junho,2019
marco,2019
marco,2018
janeiro,2018
novembro,2017
julho,2017
janeiro,2017
abril,2021
outubro,2020
novembro,2019
junho,2019
marco,2019
marco,2018
janeiro,2018
novembro,2017
julho,2017
janeiro,2017
abril,2021
outubro,2020
novembro,2019
junho,2019
marco,2019
marco,2018
janeiro,2018
novembro,2017
julho,2017
janeiro,2017
abril,2021
outubro,2020
novembro,2019
junho,2019
marco,2019
marco,2018
janeiro,2018
novembro,2017
julho,2017
janeiro,2017
abril,2021
outubro,2020
novembro,2019
junho,2019
marco,2019
marco,2018
janeiro,2018
novembro,2017
julho,2017
janeiro,2017
abril,2021
outubro,2020
novembro,2019
junho,2019
marco,2019
marco,2018
janeiro,2018
novembro,2017
julho,2017
janeiro,2017
abril,2021
outubro,2020
novembro,2019
junho,2019
marco,2019
marco,2018
janeiro,2018
novembro,2017
julho,2017
janeiro,2017
abril,2021
outubro,2020
novembro,2019
junho,2019
marco,2019
marco,2018
janeiro,2018
novembro,2017
julho,2017
janeiro,2017
abril,2021
outubro,2020
novembro,2019
junho,2019
marco,2019
marco,2018
janeiro,2018
novembro,2017
julho,2017
janeiro,2017
abril,2021
outubro,2020
novembro,2019
junho,2019
marco,2019
marco,2018
janeiro,2018
novembro,2017
julho,2017
janeiro,2017
abril,2021
outubro,2020
novembro,2019
junho,2019
marco,2019
marco,2018
janeiro,2018
novembro,2017
julho,2017
janeiro,2017
abril,2021
outubro,2020
novembro,2019
junho,2019
marco,2019
marco,2018
janeiro,2018
novembro,2017
julho,2017
janeiro,2017
abril,2021
outubro,2020
novembro,2019
junho,2019
marco,2019
marco,2018
janeiro,2018
novembro,2017
julho,2017
janeiro,2017
abril,2021
outubro,2020
novembro,2019
junho,2019
marco,2019
marco,2018
janeiro,2018
novembro,2017
julho,2017
janeiro,2017
abril,2021
outubro,2020
novembro,2019
junho,2019
marco,2019
marco,2018
janeiro,2018
novembro,2017
julho,2017
janeiro,2017
abril,2021
outubro,2020
novembro,2019
junho,2019
marco,2019
marco,2018
janeiro,2018
novembro,2017
julho,2017
janeiro,2017
abril,2021
outubro,2020
novembro,2019
junho,2019
marco,2019
marco,2018
janeiro,2018
novembro,2017
julho,2017
janeiro,2017
abril,2021
outubro,2020
novembro,2019
junho,2019
marco,2019
marco,2018
janeiro,2018
novembro,2017
julho,2017
janeiro,2017
abril,2021
outubro,2020
novembro,2019
junho,2019
marco,2019
marco,2018
janeiro,2018
novembro,2017
julho,2017
janeiro,2017
abril,2021
outubro,2020
novembro,2019
junho,2019
marco,2019
marco,2018
janeiro,2018
novembro,2017
julho,2017
janeiro,2017
abril,2021
outubro,2020
novembro,2019
junho,2019
marco,2019
marco,2018
janeiro,2018
novembro,2017
julho,2017
janeiro,2017
abril,2021
outubro,2020
novembro,2019
junho,2019
marco,2019
marco,2018
janeiro,2018
novembro,2017
julho,2017
janeiro,2017
abril,2021
outubro,2020
novembro,2019
junho,2019
marco,2019
marco,2018
janeiro,2018
novembro,2017
julho,2017
janeiro,2017
abril,2021
outubro,2020
novembro,2019
junho,2019
marco,2019
marco,2018
janeiro,2018
novembro,2017
julho,2017
janeiro,2017
abril,2021
outubro,2020
novembro,2019
junho,2019
marco,2019
marco,2018
janeiro,2018
novembro,2017
julho,2017
janeiro,2017
abril,2021
outubro,2020
novembro,2019
junho,2019
marco,2019
marco,2018
janeiro,2018
novembro,2017
julho,2017
janeiro,2017
abril,2021
outubro,2020
novembro,2019
junho,2019
marco,2019
marco,2018
janeiro,2018
novembro,2017
julho,2017
janeiro,2017
abril,2021
outubro,2020
novembro,2019
junho,2019
marco,2019
marco,2018
janeiro,2018
novembro,2017
julho,2017
janeiro,2017
abril,2021
outubro,2020
novembro,2019
junho,2019
marco,2019
marco,2018
janeiro,2018
novembro,2017
julho,2017
janeiro,2017
abril,2021
outubro,2020
novembro,2019
junho,2019
marco,2019
marco,2018
janeiro,2018
novembro,2017
julho,2017
janeiro,2017
abril,2021
outubro,2020
novembro,2019
junho,2019
marco,2019
marco,2018
janeiro,2018
novembro,2017
julho,2017
janeiro,2017
abril,2021
outubro,2020
novembro,2019
junho,2019
marco,2019
marco,2018
janeiro,2018
novembro,2017
julho,2017
janeiro,2017
abril,2021
outubro,2020
novembro,2019
junho,2019
marco,2019
marco,2018
janeiro,2018
novembro,2017
julho,2017
janeiro,2017
abril,2021
outubro,2020
novembro,2019
junho,2019
marco,2019
marco,2018
janeiro,2018
novembro,2017
julho,2017
janeiro,2017
abril,2021
outubro,2020
novembro,2019
junho,2019
marco,2019
marco,2018
janeiro,2018
novembro,2017
julho,2017
janeiro,2017
abril,2021
outubro,2020
novembro,2019
junho,2019
marco,2019
marco,2018
janeiro,2018
novembro,2017
julho,2017
janeiro,2017
"
