mes,ano
dezembro,2021
dezembro,2021
novembro,2021
novembro,2021
novembro,2021
novembro,2021
novembro,2021
novembro,2021
novembro,2021
novembro,2021
novembro,2021
novembro,2021
outubro,2021
outubro,2021
outubro,2021
outubro,2021
outubro,2021
outubro,2021
outubro,2021
outubro,2021
outubro,2021
outubro,2021
outubro,2021
outubro,2021
outubro,2021
outubro,2021
setembro,2021
agosto,2021
setembro,2021
setembro,2021
setembro,2021
setembro,2021
setembro,2021
agosto,2021
setembro,2021
julho,2021
setembro,2021
agosto,2021
agosto,2021
setembro,2021
setembro,2021
setembro,2021
setembro,2021
agosto,2021
agosto,2021
julho,2021
julho,2021
agosto,2021
agosto,2021
agosto,2021
agosto,2021
julho,2021
julho,2021
agosto,2021
agosto,2021
julho,2021
agosto,2021
agosto,2021
dezembro,2020
dezembro,2020
outubro,2020
julho,2020
agosto,2020
dezembro,2021
dezembro,2021
novembro,2021
novembro,2021
novembro,2021
novembro,2021
novembro,2021
novembro,2021
novembro,2021
dezembro,2021
dezembro,2021
novembro,2021
novembro,2021
novembro,2021
novembro,2021
novembro,2021
novembro,2021
novembro,2021
dezembro,2021
dezembro,2021
novembro,2021
novembro,2021
novembro,2021
novembro,2021
novembro,2021
novembro,2021
novembro,2021
dezembro,2021
dezembro,2021
novembro,2021
novembro,2021
novembro,2021
novembro,2021
novembro,2021
novembro,2021
novembro,2021
dezembro,2021
dezembro,2021
novembro,2021
novembro,2021
novembro,2021
novembro,2021
novembro,2021
novembro,2021
novembro,2021
dezembro,2021
dezembro,2021
novembro,2021
novembro,2021
novembro,2021
novembro,2021
novembro,2021
novembro,2021
novembro,2021
dezembro,2021
dezembro,2021
novembro,2021
novembro,2021
novembro,2021
novembro,2021
novembro,2021
novembro,2021
novembro,2021
dezembro,2021
dezembro,2021
novembro,2021
novembro,2021
novembro,2021
novembro,2021
novembro,2021
novembro,2021
novembro,2021
dezembro,2021
dezembro,2021
novembro,2021
novembro,2021
novembro,2021
novembro,2021
novembro,2021
novembro,2021
novembro,2021
dezembro,2021
dezembro,2021
novembro,2021
novembro,2021
novembro,2021
novembro,2021
novembro,2021
novembro,2021
novembro,2021
dezembro,2021
dezembro,2021
novembro,2021
novembro,2021
novembro,2021
novembro,2021
novembro,2021
novembro,2021
novembro,2021
dezembro,2021
dezembro,2021
novembro,2021
novembro,2021
novembro,2021
novembro,2021
novembro,2021
novembro,2021
novembro,2021
dezembro,2021
dezembro,2021
novembro,2021
novembro,2021
novembro,2021
novembro,2021
novembro,2021
novembro,2021
novembro,2021
dezembro,2021
dezembro,2021
novembro,2021
novembro,2021
novembro,2021
novembro,2021
novembro,2021
novembro,2021
novembro,2021
dezembro,2021
dezembro,2021
novembro,2021
novembro,2021
novembro,2021
novembro,2021
novembro,2021
novembro,2021
novembro,2021
dezembro,2021
dezembro,2021
novembro,2021
novembro,2021
novembro,2021
novembro,2021
novembro,2021
novembro,2021
novembro,2021
dezembro,2021
dezembro,2021
novembro,2021
novembro,2021
novembro,2021
novembro,2021
novembro,2021
novembro,2021
novembro,2021
dezembro,2021
dezembro,2021
novembro,2021
novembro,2021
novembro,2021
novembro,2021
novembro,2021
novembro,2021
novembro,2021
dezembro,2021
dezembro,2021
novembro,2021
novembro,2021
novembro,2021
novembro,2021
novembro,2021
novembro,2021
novembro,2021
dezembro,2021
dezembro,2021
novembro,2021
novembro,2021
novembro,2021
novembro,2021
novembro,2021
novembro,2021
novembro,2021
dezembro,2021
dezembro,2021
novembro,2021
novembro,2021
novembro,2021
novembro,2021
novembro,2021
novembro,2021
novembro,2021
dezembro,2021
dezembro,2021
novembro,2021
novembro,2021
novembro,2021
novembro,2021
novembro,2021
novembro,2021
novembro,2021
dezembro,2021
dezembro,2021
novembro,2021
novembro,2021
novembro,2021
novembro,2021
novembro,2021
novembro,2021
novembro,2021
dezembro,2021
dezembro,2021
novembro,2021
novembro,2021
novembro,2021
novembro,2021
novembro,2021
novembro,2021
novembro,2021
dezembro,2021
dezembro,2021
novembro,2021
novembro,2021
novembro,2021
novembro,2021
novembro,2021
novembro,2021
novembro,2021
dezembro,2021
dezembro,2021
novembro,2021
novembro,2021
novembro,2021
novembro,2021
novembro,2021
novembro,2021
novembro,2021
dezembro,2021
dezembro,2021
novembro,2021
novembro,2021
novembro,2021
novembro,2021
novembro,2021
novembro,2021
novembro,2021
dezembro,2021
dezembro,2021
novembro,2021
novembro,2021
novembro,2021
novembro,2021
novembro,2021
novembro,2021
novembro,2021
dezembro,2021
dezembro,2021
novembro,2021
novembro,2021
novembro,2021
novembro,2021
novembro,2021
novembro,2021
novembro,2021
dezembro,2021
dezembro,2021
novembro,2021
novembro,2021
novembro,2021
novembro,2021
novembro,2021
novembro,2021
novembro,2021
dezembro,2021
dezembro,2021
novembro,2021
novembro,2021
novembro,2021
novembro,2021
novembro,2021
novembro,2021
novembro,2021
dezembro,2021
dezembro,2021
novembro,2021
novembro,2021
novembro,2021
novembro,2021
novembro,2021
novembro,2021
novembro,2021
dezembro,2021
dezembro,2021
novembro,2021
novembro,2021
novembro,2021
novembro,2021
novembro,2021
novembro,2021
novembro,2021
dezembro,2021
dezembro,2021
novembro,2021
novembro,2021
novembro,2021
novembro,2021
novembro,2021
novembro,2021
novembro,2021
dezembro,2021
dezembro,2021
novembro,2021
novembro,2021
novembro,2021
novembro,2021
novembro,2021
novembro,2021
novembro,2021
dezembro,2021
dezembro,2021
novembro,2021
novembro,2021
novembro,2021
novembro,2021
novembro,2021
novembro,2021
novembro,2021
dezembro,2021
dezembro,2021
novembro,2021
novembro,2021
novembro,2021
novembro,2021
novembro,2021
novembro,2021
novembro,2021
dezembro,2021
dezembro,2021
novembro,2021
novembro,2021
novembro,2021
novembro,2021
novembro,2021
novembro,2021
novembro,2021
dezembro,2021
dezembro,2021
novembro,2021
novembro,2021
novembro,2021
novembro,2021
novembro,2021
novembro,2021
novembro,2021
dezembro,2021
dezembro,2021
novembro,2021
novembro,2021
novembro,2021
novembro,2021
novembro,2021
novembro,2021
novembro,2021
dezembro,2021
dezembro,2021
novembro,2021
novembro,2021
novembro,2021
novembro,2021
novembro,2021
novembro,2021
novembro,2021
dezembro,2021
dezembro,2021
novembro,2021
novembro,2021
novembro,2021
novembro,2021
novembro,2021
novembro,2021
novembro,2021
dezembro,2021
dezembro,2021
novembro,2021
novembro,2021
novembro,2021
novembro,2021
novembro,2021
novembro,2021
novembro,2021
dezembro,2021
dezembro,2021
novembro,2021
novembro,2021
novembro,2021
novembro,2021
novembro,2021
novembro,2021
novembro,2021
dezembro,2021
dezembro,2021
novembro,2021
novembro,2021
novembro,2021
novembro,2021
novembro,2021
novembro,2021
novembro,2021
dezembro,2021
dezembro,2021
novembro,2021
novembro,2021
novembro,2021
novembro,2021
novembro,2021
novembro,2021
novembro,2021
dezembro,2021
dezembro,2021
novembro,2021
novembro,2021
novembro,2021
novembro,2021
novembro,2021
novembro,2021
novembro,2021
dezembro,2021
dezembro,2021
novembro,2021
novembro,2021
novembro,2021
novembro,2021
novembro,2021
novembro,2021
novembro,2021
dezembro,2021
dezembro,2021
novembro,2021
novembro,2021
novembro,2021
novembro,2021
novembro,2021
novembro,2021
novembro,2021
dezembro,2021
dezembro,2021
novembro,2021
novembro,2021
novembro,2021
novembro,2021
novembro,2021
novembro,2021
novembro,2021
dezembro,2021
dezembro,2021
novembro,2021
novembro,2021
novembro,2021
novembro,2021
novembro,2021
novembro,2021
novembro,2021
dezembro,2021
dezembro,2021
novembro,2021
novembro,2021
novembro,2021
novembro,2021
novembro,2021
novembro,2021
novembro,2021
dezembro,2021
dezembro,2021
novembro,2021
novembro,2021
novembro,2021
novembro,2021
novembro,2021
novembro,2021
novembro,2021
dezembro,2021
dezembro,2021
novembro,2021
novembro,2021
novembro,2021
novembro,2021
novembro,2021
novembro,2021
novembro,2021
dezembro,2021
dezembro,2021
novembro,2021
novembro,2021
novembro,2021
novembro,2021
novembro,2021
novembro,2021
novembro,2021
dezembro,2021
dezembro,2021
novembro,2021
novembro,2021
novembro,2021
novembro,2021
novembro,2021
novembro,2021
novembro,2021
dezembro,2021
dezembro,2021
novembro,2021
novembro,2021
novembro,2021
novembro,2021
novembro,2021
novembro,2021
novembro,2021
dezembro,2021
dezembro,2021
novembro,2021
novembro,2021
novembro,2021
novembro,2021
novembro,2021
novembro,2021
novembro,2021
dezembro,2021
dezembro,2021
novembro,2021
novembro,2021
novembro,2021
novembro,2021
novembro,2021
novembro,2021
novembro,2021
dezembro,2021
dezembro,2021
novembro,2021
novembro,2021
novembro,2021
novembro,2021
novembro,2021
novembro,2021
novembro,2021
dezembro,2021
dezembro,2021
novembro,2021
novembro,2021
novembro,2021
novembro,2021
novembro,2021
novembro,2021
novembro,2021
dezembro,2021
dezembro,2021
novembro,2021
novembro,2021
novembro,2021
novembro,2021
novembro,2021
novembro,2021
novembro,2021
dezembro,2021
dezembro,2021
novembro,2021
novembro,2021
novembro,2021
novembro,2021
novembro,2021
novembro,2021
novembro,2021
dezembro,2021
dezembro,2021
novembro,2021
novembro,2021
novembro,2021
novembro,2021
novembro,2021
novembro,2021
novembro,2021
dezembro,2021
dezembro,2021
novembro,2021
novembro,2021
novembro,2021
novembro,2021
novembro,2021
novembro,2021
novembro,2021
dezembro,2021
dezembro,2021
novembro,2021
novembro,2021
novembro,2021
novembro,2021
novembro,2021
novembro,2021
novembro,2021
dezembro,2021
dezembro,2021
novembro,2021
novembro,2021
novembro,2021
novembro,2021
novembro,2021
novembro,2021
novembro,2021
dezembro,2021
dezembro,2021
novembro,2021
novembro,2021
novembro,2021
novembro,2021
novembro,2021
novembro,2021
novembro,2021
dezembro,2021
dezembro,2021
novembro,2021
novembro,2021
novembro,2021
novembro,2021
novembro,2021
novembro,2021
novembro,2021
dezembro,2021
dezembro,2021
novembro,2021
novembro,2021
novembro,2021
novembro,2021
novembro,2021
novembro,2021
novembro,2021
dezembro,2021
dezembro,2021
novembro,2021
novembro,2021
novembro,2021
novembro,2021
novembro,2021
novembro,2021
novembro,2021
dezembro,2021
dezembro,2021
novembro,2021
novembro,2021
novembro,2021
novembro,2021
novembro,2021
novembro,2021
novembro,2021
dezembro,2021
dezembro,2021
novembro,2021
novembro,2021
novembro,2021
novembro,2021
novembro,2021
novembro,2021
novembro,2021
dezembro,2021
dezembro,2021
novembro,2021
novembro,2021
novembro,2021
novembro,2021
novembro,2021
novembro,2021
novembro,2021
dezembro,2021
dezembro,2021
novembro,2021
novembro,2021
novembro,2021
novembro,2021
novembro,2021
novembro,2021
novembro,2021
dezembro,2021
dezembro,2021
novembro,2021
novembro,2021
novembro,2021
novembro,2021
novembro,2021
novembro,2021
novembro,2021
dezembro,2021
dezembro,2021
novembro,2021
novembro,2021
novembro,2021
novembro,2021
novembro,2021
novembro,2021
novembro,2021
dezembro,2021
dezembro,2021
novembro,2021
novembro,2021
novembro,2021
novembro,2021
novembro,2021
novembro,2021
novembro,2021
dezembro,2021
dezembro,2021
novembro,2021
novembro,2021
novembro,2021
novembro,2021
novembro,2021
novembro,2021
novembro,2021
dezembro,2021
dezembro,2021
novembro,2021
novembro,2021
novembro,2021
novembro,2021
novembro,2021
novembro,2021
novembro,2021
dezembro,2021
dezembro,2021
novembro,2021
novembro,2021
novembro,2021
novembro,2021
novembro,2021
novembro,2021
novembro,2021
dezembro,2021
dezembro,2021
novembro,2021
novembro,2021
novembro,2021
novembro,2021
novembro,2021
novembro,2021
novembro,2021
dezembro,2021
dezembro,2021
novembro,2021
novembro,2021
novembro,2021
novembro,2021
novembro,2021
novembro,2021
novembro,2021
dezembro,2021
dezembro,2021
novembro,2021
novembro,2021
novembro,2021
novembro,2021
novembro,2021
novembro,2021
novembro,2021
dezembro,2021
dezembro,2021
novembro,2021
novembro,2021
novembro,2021
novembro,2021
novembro,2021
novembro,2021
novembro,2021
dezembro,2021
dezembro,2021
novembro,2021
novembro,2021
novembro,2021
novembro,2021
novembro,2021
novembro,2021
novembro,2021
dezembro,2021
dezembro,2021
novembro,2021
novembro,2021
novembro,2021
novembro,2021
novembro,2021
novembro,2021
novembro,2021
dezembro,2021
dezembro,2021
novembro,2021
novembro,2021
novembro,2021
novembro,2021
novembro,2021
novembro,2021
novembro,2021
dezembro,2021
dezembro,2021
novembro,2021
novembro,2021
novembro,2021
novembro,2021
novembro,2021
novembro,2021
novembro,2021
dezembro,2021
dezembro,2021
novembro,2021
novembro,2021
novembro,2021
novembro,2021
novembro,2021
novembro,2021
novembro,2021
dezembro,2021
dezembro,2021
novembro,2021
novembro,2021
novembro,2021
novembro,2021
novembro,2021
novembro,2021
novembro,2021
dezembro,2021
dezembro,2021
novembro,2021
novembro,2021
novembro,2021
novembro,2021
novembro,2021
novembro,2021
novembro,2021
dezembro,2021
dezembro,2021
novembro,2021
novembro,2021
novembro,2021
novembro,2021
novembro,2021
novembro,2021
novembro,2021
dezembro,2021
dezembro,2021
novembro,2021
novembro,2021
novembro,2021
novembro,2021
novembro,2021
novembro,2021
novembro,2021
dezembro,2021
dezembro,2021
novembro,2021
novembro,2021
novembro,2021
novembro,2021
novembro,2021
novembro,2021
novembro,2021
dezembro,2021
dezembro,2021
novembro,2021
novembro,2021
novembro,2021
novembro,2021
novembro,2021
novembro,2021
novembro,2021
dezembro,2021
dezembro,2021
novembro,2021
novembro,2021
novembro,2021
novembro,2021
novembro,2021
novembro,2021
novembro,2021
dezembro,2021
dezembro,2021
novembro,2021
novembro,2021
novembro,2021
novembro,2021
novembro,2021
novembro,2021
novembro,2021
dezembro,2021
dezembro,2021
novembro,2021
novembro,2021
novembro,2021
novembro,2021
novembro,2021
novembro,2021
novembro,2021
dezembro,2021
dezembro,2021
novembro,2021
novembro,2021
novembro,2021
novembro,2021
novembro,2021
novembro,2021
novembro,2021
dezembro,2021
dezembro,2021
novembro,2021
novembro,2021
novembro,2021
novembro,2021
novembro,2021
novembro,2021
novembro,2021
dezembro,2021
dezembro,2021
novembro,2021
novembro,2021
novembro,2021
novembro,2021
novembro,2021
novembro,2021
novembro,2021
dezembro,2021
dezembro,2021
novembro,2021
novembro,2021
novembro,2021
novembro,2021
novembro,2021
novembro,2021
novembro,2021
dezembro,2021
dezembro,2021
novembro,2021
novembro,2021
novembro,2021
novembro,2021
novembro,2021
novembro,2021
novembro,2021
dezembro,2021
dezembro,2021
novembro,2021
novembro,2021
novembro,2021
novembro,2021
novembro,2021
novembro,2021
novembro,2021
dezembro,2021
dezembro,2021
novembro,2021
novembro,2021
novembro,2021
novembro,2021
novembro,2021
novembro,2021
novembro,2021
dezembro,2021
dezembro,2021
novembro,2021
novembro,2021
novembro,2021
novembro,2021
novembro,2021
novembro,2021
novembro,2021
dezembro,2021
dezembro,2021
novembro,2021
novembro,2021
novembro,2021
novembro,2021
novembro,2021
novembro,2021
novembro,2021
dezembro,2021
dezembro,2021
novembro,2021
novembro,2021
novembro,2021
novembro,2021
novembro,2021
novembro,2021
novembro,2021
dezembro,2021
dezembro,2021
novembro,2021
novembro,2021
novembro,2021
novembro,2021
novembro,2021
novembro,2021
novembro,2021
dezembro,2021
dezembro,2021
novembro,2021
novembro,2021
novembro,2021
novembro,2021
novembro,2021
novembro,2021
novembro,2021
dezembro,2021
dezembro,2021
novembro,2021
novembro,2021
novembro,2021
novembro,2021
novembro,2021
novembro,2021
novembro,2021
dezembro,2021
dezembro,2021
novembro,2021
novembro,2021
novembro,2021
novembro,2021
novembro,2021
novembro,2021
novembro,2021
dezembro,2021
dezembro,2021
novembro,2021
novembro,2021
novembro,2021
novembro,2021
novembro,2021
novembro,2021
novembro,2021
dezembro,2021
dezembro,2021
novembro,2021
novembro,2021
novembro,2021
novembro,2021
novembro,2021
novembro,2021
novembro,2021
dezembro,2021
dezembro,2021
novembro,2021
novembro,2021
novembro,2021
novembro,2021
novembro,2021
novembro,2021
novembro,2021
dezembro,2021
dezembro,2021
novembro,2021
novembro,2021
novembro,2021
novembro,2021
novembro,2021
novembro,2021
novembro,2021
dezembro,2021
dezembro,2021
novembro,2021
novembro,2021
novembro,2021
novembro,2021
novembro,2021
novembro,2021
novembro,2021
dezembro,2021
dezembro,2021
novembro,2021
novembro,2021
novembro,2021
novembro,2021
novembro,2021
novembro,2021
novembro,2021
dezembro,2021
dezembro,2021
novembro,2021
novembro,2021
novembro,2021
novembro,2021
novembro,2021
novembro,2021
novembro,2021
dezembro,2021
dezembro,2021
novembro,2021
novembro,2021
novembro,2021
novembro,2021
novembro,2021
novembro,2021
novembro,2021
dezembro,2021
dezembro,2021
novembro,2021
novembro,2021
novembro,2021
novembro,2021
novembro,2021
novembro,2021
novembro,2021
dezembro,2021
dezembro,2021
novembro,2021
novembro,2021
novembro,2021
novembro,2021
novembro,2021
novembro,2021
novembro,2021
dezembro,2021
dezembro,2021
novembro,2021
novembro,2021
novembro,2021
novembro,2021
novembro,2021
novembro,2021
novembro,2021
dezembro,2021
dezembro,2021
novembro,2021
novembro,2021
novembro,2021
novembro,2021
novembro,2021
novembro,2021
novembro,2021
dezembro,2021
dezembro,2021
novembro,2021
novembro,2021
novembro,2021
novembro,2021
novembro,2021
novembro,2021
novembro,2021
dezembro,2021
dezembro,2021
novembro,2021
novembro,2021
novembro,2021
novembro,2021
novembro,2021
novembro,2021
novembro,2021
dezembro,2021
dezembro,2021
novembro,2021
novembro,2021
novembro,2021
novembro,2021
novembro,2021
novembro,2021
novembro,2021
dezembro,2021
dezembro,2021
novembro,2021
novembro,2021
novembro,2021
novembro,2021
novembro,2021
novembro,2021
novembro,2021
dezembro,2021
dezembro,2021
novembro,2021
novembro,2021
novembro,2021
novembro,2021
novembro,2021
novembro,2021
novembro,2021
dezembro,2021
dezembro,2021
novembro,2021
novembro,2021
novembro,2021
novembro,2021
novembro,2021
novembro,2021
novembro,2021
dezembro,2021
dezembro,2021
novembro,2021
novembro,2021
novembro,2021
novembro,2021
novembro,2021
novembro,2021
novembro,2021
dezembro,2021
dezembro,2021
novembro,2021
novembro,2021
novembro,2021
novembro,2021
novembro,2021
novembro,2021
novembro,2021
dezembro,2021
dezembro,2021
novembro,2021
novembro,2021
novembro,2021
novembro,2021
novembro,2021
novembro,2021
novembro,2021
dezembro,2021
dezembro,2021
novembro,2021
novembro,2021
novembro,2021
novembro,2021
novembro,2021
novembro,2021
novembro,2021
dezembro,2021
dezembro,2021
novembro,2021
novembro,2021
novembro,2021
novembro,2021
novembro,2021
novembro,2021
novembro,2021
dezembro,2021
dezembro,2021
novembro,2021
novembro,2021
novembro,2021
novembro,2021
novembro,2021
novembro,2021
novembro,2021
dezembro,2021
dezembro,2021
novembro,2021
novembro,2021
novembro,2021
novembro,2021
novembro,2021
novembro,2021
novembro,2021
dezembro,2021
dezembro,2021
novembro,2021
novembro,2021
novembro,2021
novembro,2021
novembro,2021
novembro,2021
novembro,2021
dezembro,2021
dezembro,2021
novembro,2021
novembro,2021
novembro,2021
novembro,2021
novembro,2021
novembro,2021
novembro,2021
dezembro,2021
dezembro,2021
novembro,2021
novembro,2021
novembro,2021
novembro,2021
novembro,2021
novembro,2021
novembro,2021
dezembro,2021
dezembro,2021
novembro,2021
novembro,2021
novembro,2021
novembro,2021
novembro,2021
novembro,2021
novembro,2021
dezembro,2021
dezembro,2021
novembro,2021
novembro,2021
novembro,2021
novembro,2021
novembro,2021
novembro,2021
novembro,2021
dezembro,2021
dezembro,2021
novembro,2021
novembro,2021
novembro,2021
novembro,2021
novembro,2021
novembro,2021
novembro,2021
dezembro,2021
dezembro,2021
novembro,2021
novembro,2021
novembro,2021
novembro,2021
novembro,2021
novembro,2021
novembro,2021
dezembro,2021
dezembro,2021
novembro,2021
novembro,2021
novembro,2021
novembro,2021
novembro,2021
novembro,2021
novembro,2021
dezembro,2021
dezembro,2021
novembro,2021
novembro,2021
novembro,2021
novembro,2021
novembro,2021
novembro,2021
novembro,2021
dezembro,2021
dezembro,2021
novembro,2021
novembro,2021
novembro,2021
novembro,2021
novembro,2021
novembro,2021
novembro,2021
dezembro,2021
dezembro,2021
novembro,2021
novembro,2021
novembro,2021
novembro,2021
novembro,2021
novembro,2021
novembro,2021
dezembro,2021
dezembro,2021
novembro,2021
novembro,2021
novembro,2021
novembro,2021
novembro,2021
novembro,2021
novembro,2021
dezembro,2021
dezembro,2021
novembro,2021
novembro,2021
novembro,2021
novembro,2021
novembro,2021
novembro,2021
novembro,2021
dezembro,2021
dezembro,2021
novembro,2021
novembro,2021
novembro,2021
novembro,2021
novembro,2021
novembro,2021
novembro,2021
dezembro,2021
dezembro,2021
novembro,2021
novembro,2021
novembro,2021
novembro,2021
novembro,2021
novembro,2021
novembro,2021
dezembro,2021
dezembro,2021
novembro,2021
novembro,2021
novembro,2021
novembro,2021
novembro,2021
novembro,2021
novembro,2021
dezembro,2021
dezembro,2021
novembro,2021
novembro,2021
novembro,2021
novembro,2021
novembro,2021
novembro,2021
novembro,2021
dezembro,2021
dezembro,2021
novembro,2021
novembro,2021
novembro,2021
novembro,2021
novembro,2021
novembro,2021
novembro,2021
dezembro,2021
dezembro,2021
novembro,2021
novembro,2021
novembro,2021
novembro,2021
novembro,2021
novembro,2021
novembro,2021
dezembro,2021
dezembro,2021
novembro,2021
novembro,2021
novembro,2021
novembro,2021
novembro,2021
novembro,2021
novembro,2021
dezembro,2021
dezembro,2021
novembro,2021
novembro,2021
novembro,2021
novembro,2021
novembro,2021
novembro,2021
novembro,2021
dezembro,2021
dezembro,2021
novembro,2021
novembro,2021
novembro,2021
novembro,2021
novembro,2021
novembro,2021
novembro,2021
dezembro,2021
dezembro,2021
novembro,2021
novembro,2021
novembro,2021
novembro,2021
novembro,2021
novembro,2021
novembro,2021
dezembro,2021
dezembro,2021
novembro,2021
novembro,2021
novembro,2021
novembro,2021
novembro,2021
novembro,2021
novembro,2021
dezembro,2021
dezembro,2021
novembro,2021
novembro,2021
novembro,2021
novembro,2021
novembro,2021
novembro,2021
novembro,2021
dezembro,2021
dezembro,2021
novembro,2021
novembro,2021
novembro,2021
novembro,2021
novembro,2021
novembro,2021
novembro,2021
dezembro,2021
dezembro,2021
novembro,2021
novembro,2021
novembro,2021
novembro,2021
novembro,2021
novembro,2021
novembro,2021
dezembro,2021
dezembro,2021
novembro,2021
novembro,2021
novembro,2021
novembro,2021
novembro,2021
novembro,2021
novembro,2021
dezembro,2021
dezembro,2021
novembro,2021
novembro,2021
novembro,2021
novembro,2021
novembro,2021
novembro,2021
novembro,2021
dezembro,2021
dezembro,2021
novembro,2021
novembro,2021
novembro,2021
novembro,2021
novembro,2021
novembro,2021
novembro,2021
dezembro,2021
dezembro,2021
novembro,2021
novembro,2021
novembro,2021
novembro,2021
novembro,2021
novembro,2021
novembro,2021
dezembro,2021
dezembro,2021
novembro,2021
novembro,2021
novembro,2021
novembro,2021
novembro,2021
novembro,2021
novembro,2021
dezembro,2021
dezembro,2021
novembro,2021
novembro,2021
novembro,2021
novembro,2021
novembro,2021
novembro,2021
novembro,2021
dezembro,2021
dezembro,2021
novembro,2021
novembro,2021
novembro,2021
novembro,2021
novembro,2021
novembro,2021
novembro,2021
dezembro,2021
dezembro,2021
novembro,2021
novembro,2021
novembro,2021
novembro,2021
novembro,2021
novembro,2021
novembro,2021
dezembro,2021
dezembro,2021
novembro,2021
novembro,2021
novembro,2021
novembro,2021
novembro,2021
novembro,2021
novembro,2021
dezembro,2021
dezembro,2021
novembro,2021
novembro,2021
novembro,2021
novembro,2021
novembro,2021
novembro,2021
novembro,2021
dezembro,2021
dezembro,2021
novembro,2021
novembro,2021
novembro,2021
novembro,2021
novembro,2021
novembro,2021
novembro,2021
dezembro,2021
dezembro,2021
novembro,2021
novembro,2021
novembro,2021
novembro,2021
novembro,2021
novembro,2021
novembro,2021
dezembro,2021
dezembro,2021
novembro,2021
novembro,2021
novembro,2021
novembro,2021
novembro,2021
novembro,2021
novembro,2021
dezembro,2021
dezembro,2021
novembro,2021
novembro,2021
novembro,2021
novembro,2021
novembro,2021
novembro,2021
novembro,2021
dezembro,2021
dezembro,2021
novembro,2021
novembro,2021
novembro,2021
novembro,2021
novembro,2021
novembro,2021
novembro,2021
dezembro,2021
dezembro,2021
novembro,2021
novembro,2021
novembro,2021
novembro,2021
novembro,2021
novembro,2021
novembro,2021
dezembro,2021
dezembro,2021
novembro,2021
novembro,2021
novembro,2021
novembro,2021
novembro,2021
novembro,2021
novembro,2021
dezembro,2021
dezembro,2021
novembro,2021
novembro,2021
novembro,2021
novembro,2021
novembro,2021
novembro,2021
novembro,2021
dezembro,2021
dezembro,2021
novembro,2021
novembro,2021
novembro,2021
novembro,2021
novembro,2021
novembro,2021
novembro,2021
dezembro,2021
dezembro,2021
novembro,2021
novembro,2021
novembro,2021
novembro,2021
novembro,2021
novembro,2021
novembro,2021
dezembro,2021
dezembro,2021
novembro,2021
novembro,2021
novembro,2021
novembro,2021
novembro,2021
novembro,2021
novembro,2021
dezembro,2021
dezembro,2021
novembro,2021
novembro,2021
novembro,2021
novembro,2021
novembro,2021
novembro,2021
novembro,2021
dezembro,2021
dezembro,2021
novembro,2021
novembro,2021
novembro,2021
novembro,2021
novembro,2021
novembro,2021
novembro,2021
dezembro,2021
dezembro,2021
novembro,2021
novembro,2021
novembro,2021
novembro,2021
novembro,2021
novembro,2021
novembro,2021
dezembro,2021
dezembro,2021
novembro,2021
novembro,2021
novembro,2021
novembro,2021
novembro,2021
novembro,2021
novembro,2021
dezembro,2021
dezembro,2021
novembro,2021
novembro,2021
novembro,2021
novembro,2021
novembro,2021
novembro,2021
novembro,2021
dezembro,2021
dezembro,2021
novembro,2021
novembro,2021
novembro,2021
novembro,2021
novembro,2021
novembro,2021
novembro,2021
dezembro,2021
dezembro,2021
novembro,2021
novembro,2021
novembro,2021
novembro,2021
novembro,2021
novembro,2021
novembro,2021
dezembro,2021
dezembro,2021
novembro,2021
novembro,2021
novembro,2021
novembro,2021
novembro,2021
novembro,2021
novembro,2021
dezembro,2021
dezembro,2021
novembro,2021
novembro,2021
novembro,2021
novembro,2021
novembro,2021
novembro,2021
novembro,2021
dezembro,2021
dezembro,2021
novembro,2021
novembro,2021
novembro,2021
novembro,2021
novembro,2021
novembro,2021
novembro,2021
dezembro,2021
dezembro,2021
novembro,2021
novembro,2021
novembro,2021
novembro,2021
novembro,2021
novembro,2021
novembro,2021
dezembro,2021
dezembro,2021
novembro,2021
novembro,2021
novembro,2021
novembro,2021
novembro,2021
novembro,2021
novembro,2021
dezembro,2021
dezembro,2021
novembro,2021
novembro,2021
novembro,2021
novembro,2021
novembro,2021
novembro,2021
novembro,2021
dezembro,2021
dezembro,2021
novembro,2021
novembro,2021
novembro,2021
novembro,2021
novembro,2021
novembro,2021
novembro,2021
dezembro,2021
dezembro,2021
novembro,2021
novembro,2021
novembro,2021
novembro,2021
novembro,2021
novembro,2021
novembro,2021
dezembro,2021
dezembro,2021
novembro,2021
novembro,2021
novembro,2021
novembro,2021
novembro,2021
novembro,2021
novembro,2021
dezembro,2021
dezembro,2021
novembro,2021
novembro,2021
novembro,2021
novembro,2021
novembro,2021
novembro,2021
novembro,2021
dezembro,2021
dezembro,2021
novembro,2021
novembro,2021
novembro,2021
novembro,2021
novembro,2021
novembro,2021
novembro,2021
dezembro,2021
dezembro,2021
novembro,2021
novembro,2021
novembro,2021
novembro,2021
novembro,2021
novembro,2021
novembro,2021
dezembro,2021
dezembro,2021
novembro,2021
novembro,2021
novembro,2021
novembro,2021
novembro,2021
novembro,2021
novembro,2021
dezembro,2021
dezembro,2021
novembro,2021
novembro,2021
novembro,2021
novembro,2021
novembro,2021
novembro,2021
novembro,2021
dezembro,2021
dezembro,2021
novembro,2021
novembro,2021
novembro,2021
novembro,2021
novembro,2021
novembro,2021
novembro,2021
dezembro,2021
dezembro,2021
novembro,2021
novembro,2021
novembro,2021
novembro,2021
novembro,2021
novembro,2021
novembro,2021
dezembro,2021
dezembro,2021
novembro,2021
novembro,2021
novembro,2021
novembro,2021
novembro,2021
novembro,2021
novembro,2021
dezembro,2021
dezembro,2021
novembro,2021
novembro,2021
novembro,2021
novembro,2021
novembro,2021
novembro,2021
novembro,2021
dezembro,2021
dezembro,2021
novembro,2021
novembro,2021
novembro,2021
novembro,2021
novembro,2021
novembro,2021
novembro,2021
dezembro,2021
dezembro,2021
novembro,2021
novembro,2021
novembro,2021
novembro,2021
novembro,2021
novembro,2021
novembro,2021
dezembro,2021
dezembro,2021
novembro,2021
novembro,2021
novembro,2021
novembro,2021
novembro,2021
novembro,2021
novembro,2021
dezembro,2021
dezembro,2021
novembro,2021
novembro,2021
novembro,2021
novembro,2021
novembro,2021
novembro,2021
novembro,2021
dezembro,2021
dezembro,2021
novembro,2021
novembro,2021
novembro,2021
novembro,2021
novembro,2021
novembro,2021
novembro,2021
dezembro,2021
dezembro,2021
novembro,2021
novembro,2021
novembro,2021
novembro,2021
novembro,2021
novembro,2021
novembro,2021
dezembro,2021
dezembro,2021
novembro,2021
novembro,2021
novembro,2021
novembro,2021
novembro,2021
novembro,2021
novembro,2021
dezembro,2021
dezembro,2021
novembro,2021
novembro,2021
novembro,2021
novembro,2021
novembro,2021
novembro,2021
novembro,2021
dezembro,2021
dezembro,2021
novembro,2021
novembro,2021
novembro,2021
novembro,2021
novembro,2021
novembro,2021
novembro,2021
dezembro,2021
dezembro,2021
novembro,2021
novembro,2021
novembro,2021
novembro,2021
novembro,2021
novembro,2021
novembro,2021
dezembro,2021
dezembro,2021
novembro,2021
novembro,2021
novembro,2021
novembro,2021
novembro,2021
novembro,2021
novembro,2021
dezembro,2021
dezembro,2021
novembro,2021
novembro,2021
novembro,2021
novembro,2021
novembro,2021
novembro,2021
novembro,2021
dezembro,2021
dezembro,2021
novembro,2021
novembro,2021
novembro,2021
novembro,2021
novembro,2021
novembro,2021
novembro,2021
dezembro,2021
dezembro,2021
novembro,2021
novembro,2021
novembro,2021
novembro,2021
novembro,2021
novembro,2021
novembro,2021
dezembro,2021
dezembro,2021
novembro,2021
novembro,2021
novembro,2021
novembro,2021
novembro,2021
novembro,2021
novembro,2021
dezembro,2021
dezembro,2021
novembro,2021
novembro,2021
novembro,2021
novembro,2021
novembro,2021
novembro,2021
novembro,2021
dezembro,2021
dezembro,2021
novembro,2021
novembro,2021
novembro,2021
novembro,2021
novembro,2021
novembro,2021
novembro,2021
dezembro,2021
dezembro,2021
novembro,2021
novembro,2021
novembro,2021
novembro,2021
novembro,2021
novembro,2021
novembro,2021
dezembro,2021
dezembro,2021
novembro,2021
novembro,2021
novembro,2021
novembro,2021
novembro,2021
novembro,2021
novembro,2021
dezembro,2021
dezembro,2021
novembro,2021
novembro,2021
novembro,2021
novembro,2021
novembro,2021
novembro,2021
novembro,2021
dezembro,2021
dezembro,2021
novembro,2021
novembro,2021
novembro,2021
novembro,2021
novembro,2021
novembro,2021
novembro,2021
dezembro,2021
dezembro,2021
novembro,2021
novembro,2021
novembro,2021
novembro,2021
novembro,2021
novembro,2021
novembro,2021
dezembro,2021
dezembro,2021
novembro,2021
novembro,2021
novembro,2021
novembro,2021
novembro,2021
novembro,2021
novembro,2021
dezembro,2021
dezembro,2021
novembro,2021
novembro,2021
novembro,2021
novembro,2021
novembro,2021
novembro,2021
novembro,2021
dezembro,2021
dezembro,2021
novembro,2021
novembro,2021
novembro,2021
novembro,2021
novembro,2021
novembro,2021
novembro,2021
dezembro,2021
dezembro,2021
novembro,2021
novembro,2021
novembro,2021
novembro,2021
novembro,2021
novembro,2021
novembro,2021
dezembro,2021
dezembro,2021
novembro,2021
novembro,2021
novembro,2021
novembro,2021
novembro,2021
novembro,2021
novembro,2021
dezembro,2021
dezembro,2021
novembro,2021
novembro,2021
novembro,2021
novembro,2021
novembro,2021
novembro,2021
novembro,2021
dezembro,2021
dezembro,2021
novembro,2021
novembro,2021
novembro,2021
novembro,2021
novembro,2021
novembro,2021
novembro,2021
dezembro,2021
dezembro,2021
novembro,2021
novembro,2021
novembro,2021
novembro,2021
novembro,2021
novembro,2021
novembro,2021
dezembro,2021
dezembro,2021
novembro,2021
novembro,2021
novembro,2021
novembro,2021
novembro,2021
novembro,2021
novembro,2021
dezembro,2021
dezembro,2021
novembro,2021
novembro,2021
novembro,2021
novembro,2021
novembro,2021
novembro,2021
novembro,2021
dezembro,2021
dezembro,2021
novembro,2021
novembro,2021
novembro,2021
novembro,2021
novembro,2021
novembro,2021
novembro,2021
dezembro,2021
dezembro,2021
novembro,2021
novembro,2021
novembro,2021
novembro,2021
novembro,2021
novembro,2021
novembro,2021
dezembro,2021
dezembro,2021
novembro,2021
novembro,2021
novembro,2021
novembro,2021
novembro,2021
novembro,2021
novembro,2021
dezembro,2021
dezembro,2021
novembro,2021
novembro,2021
novembro,2021
novembro,2021
novembro,2021
novembro,2021
novembro,2021
dezembro,2021
dezembro,2021
novembro,2021
novembro,2021
novembro,2021
novembro,2021
novembro,2021
novembro,2021
novembro,2021
dezembro,2021
dezembro,2021
novembro,2021
novembro,2021
novembro,2021
novembro,2021
novembro,2021
novembro,2021
novembro,2021
dezembro,2021
dezembro,2021
novembro,2021
novembro,2021
novembro,2021
novembro,2021
novembro,2021
novembro,2021
novembro,2021
dezembro,2021
dezembro,2021
novembro,2021
novembro,2021
novembro,2021
novembro,2021
novembro,2021
novembro,2021
novembro,2021
dezembro,2021
dezembro,2021
novembro,2021
novembro,2021
novembro,2021
novembro,2021
novembro,2021
novembro,2021
novembro,2021
dezembro,2021
dezembro,2021
novembro,2021
novembro,2021
novembro,2021
novembro,2021
novembro,2021
novembro,2021
novembro,2021
dezembro,2021
dezembro,2021
novembro,2021
novembro,2021
novembro,2021
novembro,2021
novembro,2021
novembro,2021
novembro,2021
dezembro,2021
dezembro,2021
novembro,2021
novembro,2021
novembro,2021
novembro,2021
novembro,2021
novembro,2021
novembro,2021
dezembro,2021
dezembro,2021
novembro,2021
novembro,2021
novembro,2021
novembro,2021
novembro,2021
novembro,2021
novembro,2021
dezembro,2021
dezembro,2021
novembro,2021
novembro,2021
novembro,2021
novembro,2021
novembro,2021
novembro,2021
novembro,2021
dezembro,2021
dezembro,2021
novembro,2021
novembro,2021
novembro,2021
novembro,2021
novembro,2021
novembro,2021
novembro,2021
dezembro,2021
dezembro,2021
novembro,2021
novembro,2021
novembro,2021
novembro,2021
novembro,2021
novembro,2021
novembro,2021
dezembro,2021
dezembro,2021
novembro,2021
novembro,2021
novembro,2021
novembro,2021
novembro,2021
novembro,2021
novembro,2021
dezembro,2021
dezembro,2021
novembro,2021
novembro,2021
novembro,2021
novembro,2021
novembro,2021
novembro,2021
novembro,2021
dezembro,2021
dezembro,2021
novembro,2021
novembro,2021
novembro,2021
novembro,2021
novembro,2021
novembro,2021
novembro,2021
dezembro,2021
dezembro,2021
novembro,2021
novembro,2021
novembro,2021
novembro,2021
novembro,2021
novembro,2021
novembro,2021
dezembro,2021
dezembro,2021
novembro,2021
novembro,2021
novembro,2021
novembro,2021
novembro,2021
novembro,2021
novembro,2021
dezembro,2021
dezembro,2021
novembro,2021
novembro,2021
novembro,2021
novembro,2021
novembro,2021
novembro,2021
novembro,2021
dezembro,2021
dezembro,2021
novembro,2021
novembro,2021
novembro,2021
novembro,2021
novembro,2021
novembro,2021
novembro,2021
dezembro,2021
dezembro,2021
novembro,2021
novembro,2021
novembro,2021
novembro,2021
novembro,2021
novembro,2021
novembro,2021
dezembro,2021
dezembro,2021
novembro,2021
novembro,2021
novembro,2021
novembro,2021
novembro,2021
novembro,2021
novembro,2021
dezembro,2021
dezembro,2021
novembro,2021
novembro,2021
novembro,2021
novembro,2021
novembro,2021
novembro,2021
novembro,2021
dezembro,2021
dezembro,2021
novembro,2021
novembro,2021
novembro,2021
novembro,2021
novembro,2021
novembro,2021
novembro,2021
dezembro,2021
dezembro,2021
novembro,2021
novembro,2021
novembro,2021
novembro,2021
novembro,2021
novembro,2021
novembro,2021
dezembro,2021
dezembro,2021
novembro,2021
novembro,2021
novembro,2021
novembro,2021
novembro,2021
novembro,2021
novembro,2021
dezembro,2021
dezembro,2021
novembro,2021
novembro,2021
novembro,2021
novembro,2021
novembro,2021
novembro,2021
novembro,2021
dezembro,2021
dezembro,2021
novembro,2021
novembro,2021
novembro,2021
novembro,2021
novembro,2021
novembro,2021
novembro,2021
dezembro,2021
dezembro,2021
novembro,2021
novembro,2021
novembro,2021
novembro,2021
novembro,2021
novembro,2021
novembro,2021
dezembro,2021
dezembro,2021
novembro,2021
novembro,2021
novembro,2021
novembro,2021
novembro,2021
novembro,2021
novembro,2021
dezembro,2021
dezembro,2021
novembro,2021
novembro,2021
novembro,2021
novembro,2021
novembro,2021
novembro,2021
novembro,2021
dezembro,2021
dezembro,2021
novembro,2021
novembro,2021
novembro,2021
novembro,2021
novembro,2021
novembro,2021
novembro,2021
dezembro,2021
dezembro,2021
novembro,2021
novembro,2021
novembro,2021
novembro,2021
novembro,2021
novembro,2021
novembro,2021
dezembro,2021
dezembro,2021
novembro,2021
novembro,2021
novembro,2021
novembro,2021
novembro,2021
novembro,2021
novembro,2021
dezembro,2021
dezembro,2021
novembro,2021
novembro,2021
novembro,2021
novembro,2021
novembro,2021
novembro,2021
novembro,2021
dezembro,2021
dezembro,2021
novembro,2021
novembro,2021
novembro,2021
novembro,2021
novembro,2021
novembro,2021
novembro,2021
dezembro,2021
dezembro,2021
novembro,2021
novembro,2021
novembro,2021
novembro,2021
novembro,2021
novembro,2021
novembro,2021
dezembro,2021
dezembro,2021
novembro,2021
novembro,2021
novembro,2021
novembro,2021
novembro,2021
novembro,2021
novembro,2021
dezembro,2021
dezembro,2021
novembro,2021
novembro,2021
novembro,2021
novembro,2021
novembro,2021
novembro,2021
novembro,2021
dezembro,2021
dezembro,2021
novembro,2021
novembro,2021
novembro,2021
novembro,2021
novembro,2021
novembro,2021
novembro,2021
dezembro,2021
dezembro,2021
novembro,2021
novembro,2021
novembro,2021
novembro,2021
novembro,2021
novembro,2021
novembro,2021
dezembro,2021
dezembro,2021
novembro,2021
novembro,2021
novembro,2021
novembro,2021
novembro,2021
novembro,2021
novembro,2021
dezembro,2021
dezembro,2021
novembro,2021
novembro,2021
novembro,2021
novembro,2021
novembro,2021
novembro,2021
novembro,2021
dezembro,2021
dezembro,2021
novembro,2021
novembro,2021
novembro,2021
novembro,2021
novembro,2021
novembro,2021
novembro,2021
dezembro,2021
dezembro,2021
novembro,2021
novembro,2021
novembro,2021
novembro,2021
novembro,2021
novembro,2021
novembro,2021
dezembro,2021
dezembro,2021
novembro,2021
novembro,2021
novembro,2021
novembro,2021
novembro,2021
novembro,2021
novembro,2021
dezembro,2021
dezembro,2021
novembro,2021
novembro,2021
novembro,2021
novembro,2021
novembro,2021
novembro,2021
novembro,2021
dezembro,2021
dezembro,2021
novembro,2021
novembro,2021
novembro,2021
novembro,2021
novembro,2021
novembro,2021
novembro,2021
dezembro,2021
dezembro,2021
novembro,2021
novembro,2021
novembro,2021
novembro,2021
novembro,2021
novembro,2021
novembro,2021
dezembro,2021
dezembro,2021
novembro,2021
novembro,2021
novembro,2021
novembro,2021
novembro,2021
novembro,2021
novembro,2021
dezembro,2021
dezembro,2021
novembro,2021
novembro,2021
novembro,2021
novembro,2021
novembro,2021
novembro,2021
novembro,2021
dezembro,2021
dezembro,2021
novembro,2021
novembro,2021
novembro,2021
novembro,2021
novembro,2021
novembro,2021
novembro,2021
dezembro,2021
dezembro,2021
novembro,2021
novembro,2021
novembro,2021
novembro,2021
novembro,2021
novembro,2021
novembro,2021
dezembro,2021
dezembro,2021
novembro,2021
novembro,2021
novembro,2021
novembro,2021
novembro,2021
novembro,2021
novembro,2021
dezembro,2021
dezembro,2021
novembro,2021
novembro,2021
novembro,2021
novembro,2021
novembro,2021
novembro,2021
novembro,2021
dezembro,2021
dezembro,2021
novembro,2021
novembro,2021
novembro,2021
novembro,2021
novembro,2021
novembro,2021
novembro,2021
dezembro,2021
dezembro,2021
novembro,2021
novembro,2021
novembro,2021
novembro,2021
novembro,2021
novembro,2021
novembro,2021
dezembro,2021
dezembro,2021
novembro,2021
novembro,2021
novembro,2021
novembro,2021
novembro,2021
novembro,2021
novembro,2021
dezembro,2021
dezembro,2021
novembro,2021
novembro,2021
novembro,2021
novembro,2021
novembro,2021
novembro,2021
novembro,2021
dezembro,2021
dezembro,2021
novembro,2021
novembro,2021
novembro,2021
novembro,2021
novembro,2021
novembro,2021
novembro,2021
dezembro,2021
dezembro,2021
novembro,2021
novembro,2021
novembro,2021
novembro,2021
novembro,2021
novembro,2021
novembro,2021
dezembro,2021
dezembro,2021
novembro,2021
novembro,2021
novembro,2021
novembro,2021
novembro,2021
novembro,2021
novembro,2021
dezembro,2021
dezembro,2021
novembro,2021
novembro,2021
novembro,2021
novembro,2021
novembro,2021
novembro,2021
novembro,2021
dezembro,2021
dezembro,2021
novembro,2021
novembro,2021
novembro,2021
novembro,2021
novembro,2021
novembro,2021
novembro,2021
dezembro,2021
dezembro,2021
novembro,2021
novembro,2021
novembro,2021
novembro,2021
novembro,2021
novembro,2021
novembro,2021
dezembro,2021
dezembro,2021
novembro,2021
novembro,2021
novembro,2021
novembro,2021
novembro,2021
novembro,2021
novembro,2021
dezembro,2021
dezembro,2021
novembro,2021
novembro,2021
novembro,2021
novembro,2021
novembro,2021
novembro,2021
novembro,2021
dezembro,2021
dezembro,2021
novembro,2021
novembro,2021
novembro,2021
novembro,2021
novembro,2021
novembro,2021
novembro,2021
dezembro,2021
dezembro,2021
novembro,2021
novembro,2021
novembro,2021
novembro,2021
novembro,2021
novembro,2021
novembro,2021
dezembro,2021
dezembro,2021
novembro,2021
novembro,2021
novembro,2021
novembro,2021
novembro,2021
novembro,2021
novembro,2021
dezembro,2021
dezembro,2021
novembro,2021
novembro,2021
novembro,2021
novembro,2021
novembro,2021
novembro,2021
novembro,2021
dezembro,2021
dezembro,2021
novembro,2021
novembro,2021
novembro,2021
novembro,2021
novembro,2021
novembro,2021
novembro,2021
dezembro,2021
dezembro,2021
novembro,2021
novembro,2021
novembro,2021
novembro,2021
novembro,2021
novembro,2021
novembro,2021
dezembro,2021
dezembro,2021
novembro,2021
novembro,2021
novembro,2021
novembro,2021
novembro,2021
novembro,2021
novembro,2021
dezembro,2021
dezembro,2021
novembro,2021
novembro,2021
novembro,2021
novembro,2021
novembro,2021
novembro,2021
novembro,2021
dezembro,2021
dezembro,2021
novembro,2021
novembro,2021
novembro,2021
novembro,2021
novembro,2021
novembro,2021
novembro,2021
dezembro,2021
dezembro,2021
novembro,2021
novembro,2021
novembro,2021
novembro,2021
novembro,2021
novembro,2021
novembro,2021
dezembro,2021
dezembro,2021
novembro,2021
novembro,2021
novembro,2021
novembro,2021
novembro,2021
novembro,2021
novembro,2021
dezembro,2021
dezembro,2021
novembro,2021
novembro,2021
novembro,2021
novembro,2021
novembro,2021
novembro,2021
novembro,2021
dezembro,2021
dezembro,2021
novembro,2021
novembro,2021
novembro,2021
novembro,2021
novembro,2021
novembro,2021
novembro,2021
dezembro,2021
dezembro,2021
novembro,2021
novembro,2021
novembro,2021
novembro,2021
novembro,2021
novembro,2021
novembro,2021
dezembro,2021
dezembro,2021
novembro,2021
novembro,2021
novembro,2021
novembro,2021
novembro,2021
novembro,2021
novembro,2021
dezembro,2021
dezembro,2021
novembro,2021
novembro,2021
novembro,2021
novembro,2021
novembro,2021
novembro,2021
novembro,2021
dezembro,2021
dezembro,2021
novembro,2021
novembro,2021
novembro,2021
novembro,2021
novembro,2021
novembro,2021
novembro,2021
dezembro,2021
dezembro,2021
novembro,2021
novembro,2021
novembro,2021
novembro,2021
novembro,2021
novembro,2021
novembro,2021
dezembro,2021
dezembro,2021
novembro,2021
novembro,2021
novembro,2021
novembro,2021
novembro,2021
novembro,2021
novembro,2021
dezembro,2021
dezembro,2021
novembro,2021
novembro,2021
novembro,2021
novembro,2021
novembro,2021
novembro,2021
novembro,2021
dezembro,2021
dezembro,2021
novembro,2021
novembro,2021
novembro,2021
novembro,2021
novembro,2021
novembro,2021
novembro,2021
dezembro,2021
dezembro,2021
novembro,2021
novembro,2021
novembro,2021
novembro,2021
novembro,2021
novembro,2021
novembro,2021
dezembro,2021
dezembro,2021
novembro,2021
novembro,2021
novembro,2021
novembro,2021
novembro,2021
novembro,2021
novembro,2021
dezembro,2021
dezembro,2021
novembro,2021
novembro,2021
novembro,2021
novembro,2021
novembro,2021
novembro,2021
novembro,2021
dezembro,2021
dezembro,2021
novembro,2021
novembro,2021
novembro,2021
novembro,2021
novembro,2021
novembro,2021
novembro,2021
dezembro,2021
dezembro,2021
novembro,2021
novembro,2021
novembro,2021
novembro,2021
novembro,2021
novembro,2021
novembro,2021
dezembro,2021
dezembro,2021
novembro,2021
novembro,2021
novembro,2021
novembro,2021
novembro,2021
novembro,2021
novembro,2021
dezembro,2021
dezembro,2021
novembro,2021
novembro,2021
novembro,2021
novembro,2021
novembro,2021
novembro,2021
novembro,2021
dezembro,2021
dezembro,2021
novembro,2021
novembro,2021
novembro,2021
novembro,2021
novembro,2021
novembro,2021
novembro,2021
dezembro,2021
dezembro,2021
novembro,2021
novembro,2021
novembro,2021
novembro,2021
novembro,2021
novembro,2021
novembro,2021
dezembro,2021
dezembro,2021
novembro,2021
novembro,2021
novembro,2021
novembro,2021
novembro,2021
novembro,2021
novembro,2021
dezembro,2021
dezembro,2021
novembro,2021
novembro,2021
novembro,2021
novembro,2021
novembro,2021
novembro,2021
novembro,2021
dezembro,2021
dezembro,2021
novembro,2021
novembro,2021
novembro,2021
novembro,2021
novembro,2021
novembro,2021
novembro,2021
dezembro,2021
dezembro,2021
novembro,2021
novembro,2021
novembro,2021
novembro,2021
novembro,2021
novembro,2021
novembro,2021
dezembro,2021
dezembro,2021
novembro,2021
novembro,2021
novembro,2021
novembro,2021
novembro,2021
novembro,2021
novembro,2021
dezembro,2021
dezembro,2021
novembro,2021
novembro,2021
novembro,2021
novembro,2021
novembro,2021
novembro,2021
novembro,2021
dezembro,2021
dezembro,2021
novembro,2021
novembro,2021
novembro,2021
novembro,2021
novembro,2021
novembro,2021
novembro,2021
dezembro,2021
dezembro,2021
novembro,2021
novembro,2021
novembro,2021
novembro,2021
novembro,2021
novembro,2021
novembro,2021
dezembro,2021
dezembro,2021
novembro,2021
novembro,2021
novembro,2021
novembro,2021
novembro,2021
novembro,2021
novembro,2021
dezembro,2021
dezembro,2021
novembro,2021
novembro,2021
novembro,2021
novembro,2021
novembro,2021
novembro,2021
novembro,2021
dezembro,2021
dezembro,2021
novembro,2021
novembro,2021
novembro,2021
novembro,2021
novembro,2021
novembro,2021
novembro,2021
dezembro,2021
dezembro,2021
novembro,2021
novembro,2021
novembro,2021
novembro,2021
novembro,2021
novembro,2021
novembro,2021
dezembro,2021
dezembro,2021
novembro,2021
novembro,2021
novembro,2021
novembro,2021
novembro,2021
novembro,2021
novembro,2021
dezembro,2021
dezembro,2021
novembro,2021
novembro,2021
novembro,2021
novembro,2021
novembro,2021
novembro,2021
novembro,2021
dezembro,2021
dezembro,2021
novembro,2021
novembro,2021
novembro,2021
novembro,2021
novembro,2021
novembro,2021
novembro,2021
dezembro,2021
dezembro,2021
novembro,2021
novembro,2021
novembro,2021
novembro,2021
novembro,2021
novembro,2021
novembro,2021
dezembro,2021
dezembro,2021
novembro,2021
novembro,2021
novembro,2021
novembro,2021
novembro,2021
novembro,2021
novembro,2021
dezembro,2021
dezembro,2021
novembro,2021
novembro,2021
novembro,2021
novembro,2021
novembro,2021
novembro,2021
novembro,2021
dezembro,2021
dezembro,2021
novembro,2021
novembro,2021
novembro,2021
novembro,2021
novembro,2021
novembro,2021
novembro,2021
dezembro,2021
dezembro,2021
novembro,2021
novembro,2021
novembro,2021
novembro,2021
novembro,2021
novembro,2021
novembro,2021
dezembro,2021
dezembro,2021
novembro,2021
novembro,2021
novembro,2021
novembro,2021
novembro,2021
novembro,2021
novembro,2021
dezembro,2021
dezembro,2021
novembro,2021
novembro,2021
novembro,2021
novembro,2021
novembro,2021
novembro,2021
novembro,2021
dezembro,2021
dezembro,2021
novembro,2021
novembro,2021
novembro,2021
novembro,2021
novembro,2021
novembro,2021
novembro,2021
dezembro,2021
dezembro,2021
novembro,2021
novembro,2021
novembro,2021
novembro,2021
novembro,2021
novembro,2021
novembro,2021
dezembro,2021
dezembro,2021
novembro,2021
novembro,2021
novembro,2021
novembro,2021
novembro,2021
novembro,2021
novembro,2021
dezembro,2021
dezembro,2021
novembro,2021
novembro,2021
novembro,2021
novembro,2021
novembro,2021
novembro,2021
novembro,2021
dezembro,2021
dezembro,2021
novembro,2021
novembro,2021
novembro,2021
novembro,2021
novembro,2021
novembro,2021
novembro,2021
dezembro,2021
dezembro,2021
novembro,2021
novembro,2021
novembro,2021
novembro,2021
novembro,2021
novembro,2021
novembro,2021
dezembro,2021
dezembro,2021
novembro,2021
novembro,2021
novembro,2021
novembro,2021
novembro,2021
novembro,2021
novembro,2021
dezembro,2021
dezembro,2021
novembro,2021
novembro,2021
novembro,2021
novembro,2021
novembro,2021
novembro,2021
novembro,2021
dezembro,2021
dezembro,2021
novembro,2021
novembro,2021
novembro,2021
novembro,2021
novembro,2021
novembro,2021
novembro,2021
dezembro,2021
dezembro,2021
novembro,2021
novembro,2021
novembro,2021
novembro,2021
novembro,2021
novembro,2021
novembro,2021
dezembro,2021
dezembro,2021
novembro,2021
novembro,2021
novembro,2021
novembro,2021
novembro,2021
novembro,2021
novembro,2021
dezembro,2021
dezembro,2021
novembro,2021
novembro,2021
novembro,2021
novembro,2021
novembro,2021
novembro,2021
novembro,2021
dezembro,2021
dezembro,2021
novembro,2021
novembro,2021
novembro,2021
novembro,2021
novembro,2021
novembro,2021
novembro,2021
dezembro,2021
dezembro,2021
novembro,2021
novembro,2021
novembro,2021
novembro,2021
novembro,2021
novembro,2021
novembro,2021
dezembro,2021
dezembro,2021
novembro,2021
novembro,2021
novembro,2021
novembro,2021
novembro,2021
novembro,2021
novembro,2021
dezembro,2021
dezembro,2021
novembro,2021
novembro,2021
novembro,2021
novembro,2021
novembro,2021
novembro,2021
novembro,2021
dezembro,2021
dezembro,2021
novembro,2021
novembro,2021
novembro,2021
novembro,2021
novembro,2021
novembro,2021
novembro,2021
dezembro,2021
dezembro,2021
novembro,2021
novembro,2021
novembro,2021
novembro,2021
novembro,2021
novembro,2021
novembro,2021
dezembro,2021
dezembro,2021
novembro,2021
novembro,2021
novembro,2021
novembro,2021
novembro,2021
novembro,2021
novembro,2021
dezembro,2021
dezembro,2021
novembro,2021
novembro,2021
novembro,2021
novembro,2021
novembro,2021
novembro,2021
novembro,2021
dezembro,2021
dezembro,2021
novembro,2021
novembro,2021
novembro,2021
novembro,2021
novembro,2021
novembro,2021
novembro,2021
dezembro,2021
dezembro,2021
novembro,2021
novembro,2021
novembro,2021
novembro,2021
novembro,2021
novembro,2021
novembro,2021
dezembro,2021
dezembro,2021
novembro,2021
novembro,2021
novembro,2021
novembro,2021
novembro,2021
novembro,2021
novembro,2021
dezembro,2021
dezembro,2021
novembro,2021
novembro,2021
novembro,2021
novembro,2021
novembro,2021
novembro,2021
novembro,2021
dezembro,2021
dezembro,2021
novembro,2021
novembro,2021
novembro,2021
novembro,2021
novembro,2021
novembro,2021
novembro,2021
dezembro,2021
dezembro,2021
novembro,2021
novembro,2021
novembro,2021
novembro,2021
novembro,2021
novembro,2021
novembro,2021
dezembro,2021
dezembro,2021
novembro,2021
novembro,2021
novembro,2021
novembro,2021
novembro,2021
novembro,2021
novembro,2021
dezembro,2021
dezembro,2021
novembro,2021
novembro,2021
novembro,2021
novembro,2021
novembro,2021
novembro,2021
novembro,2021
"
