Expressao, Frequencia
'jantamos no restaurante', 0.02479683237157745
'hotel', 0.04208544033567765
'Ficamos no hotel', 0.05730775511630671
'restaurante do hotel', 0.06701003597763983
'nao tinham carta', 0.08629049403786315
'estadia cruzamo-nos varias', 0.12036623430279693
'nao', 0.1261613006740323
'Ficamos', 0.12983547300489753
'tempos de Covid', 0.13003614655423995
'jantamos', 0.15555329534082557
'restaurante', 0.15555329534082557
'habito', 0.15555329534082557
'estadia', 0.1576820124448711
'estadia em hotel', 0.1581101293224574
'pessimo', 0.1589469393430652
'nomeadamente', 0.17156917373796646
'responsavel', 0.17156917373796646
'nao tinham', 0.17325152939007912
'estadia cruzamo-nos', 0.17944022506583854
'tinham carta', 0.17955390945187016
'atencao ao detalhe', 0.024947595447269863
'nao', 0.12766820387331995
'detalhe', 0.13939441530126093
'imensa', 0.17461504387987972
'atencao', 0.17461504387987972
'precisam ser reparados', 0.17991887675248733
'cortinas rasgadas', 0.21860899316286667
'rasgadas e banheiras', 0.21860899316286667
'banheiras sem tampao', 0.21860899316286667
'copos', 0.22782019335774759
'piscina', 0.24192462535091674
'qualquer', 0.26697681751058705
'tinham', 0.27590248371355613
'varios chapeus', 0.30357440043979034
'reparados', 0.36001679332598535
'chapeus de sol', 0.36483327206152866
'sol estao', 0.36483327206152866
'estao em mau', 0.36483327206152866
'mau estado', 0.36483327206152866
'estado de conservacao', 0.36483327206152866
'Recomendo este hotel', 0.012571559314626916
'acusticamente irrepreensivel', 0.01859446618045681
'quarenta graus centigrados', 0.072115470298114
'estao quarenta graus', 0.10360454189614123
'Recomendo', 0.11142476118001256
'hotel', 0.11142476118001256
'acusticamente', 0.11142476118001256
'agradavel', 0.11142476118001256
'centro de Beja', 0.13624076804587806
'almoco e regular', 0.14005713113751553
'graus centigrados', 0.14005713113751553
'irrepreensivel', 0.16383273847958243
'Localizacao relativamente proxima', 0.172412864610806
'pequeno almoco', 0.19613242932716538
'piscina importante', 0.19613242932716538
'importante quando estao', 0.19613242932716538
'estao quarenta', 0.19613242932716538
'quarenta graus', 0.19613242932716538
'Localizacao relativamente', 0.23956129807083346
'Beja', 0.24084650495983298
'covid a solta', 0.05399751691895934
'optamos pela idade', 0.05399751691895934
'idade tranquila', 0.08674392660039242
'Beja Parque', 0.09062526387659768
'Beja', 0.13552623598635807
'Parque foi positiva', 0.1537927820614935
'tranquila de Beja', 0.1735381794160605
'semana', 0.1813335958522975
'solta', 0.1813335958522975
'optamos', 0.1813335958522975
'covid', 0.28252437819339554
'idade', 0.28252437819339554
'tranquila', 0.28252437819339554
'Parque', 0.3065634381205956
'escolha do Beja', 0.34061901750286294
'positiva', 0.43479823998462497
'Localizacao', 0.5284777684118839
'faceis', 0.5284777684118839
'Localizacao e parqueamento', 0.5429194122415881
'parqueamento faceis', 0.5429194122415881
'familia', 0.1884916597737887
'Hotel', 0.31155049070357954
'ferias', 0.3247519457904158
'super', 0.33476742050489094
'escolha', 0.3469610500916027
'Hotel acolhedor', 0.36093819397663596
'tranquilas em familia', 0.37386550229622273
'acolhedor', 0.42563369685040997
'confortavel', 0.42563369685040997
'multidoes', 0.42563369685040997
'Pequeno almoco', 0.48355027139760925
'Pequeno', 0.5191523503741804
'atenciosos', 0.5191523503741804
'super atenciosos', 0.5327798451472039
'Pequeno almoco bufet', 0.563402401131741
'ferias em familia', 0.5685725524994275
'Excelentes', 0.5864387404820173
'excelente', 0.5864387404820173
'Sentimos', 0.6016523290033401
'seguros', 0.6016523290033401
'Hotel Francis', 0.005284473686465452
'ficamos habitualmente', 0.016739850081232802
'hotel', 0.04671709411967789
'Francis', 0.05626093531780557
'amplas areas comuns', 0.05946467794743422
'Optamos', 0.11218833721946396
'habitualmente', 0.11218833721946396
'encerrado', 0.11218833721946396
'amplas areas', 0.12874974070448283
'espaco verde', 0.12874974070448283
'ficamos', 0.14675537191026278
'areas comuns', 0.16258826093205128
'pois o isolamento', 0.22173203852414858
'rua muito movimentada', 0.22173203852414858
'isolamento acustico', 0.2763749867010409
'acustico da janela', 0.2763749867010409
'janela nao', 0.2763749867010409
'Pequeno almoco', 0.29323232743029704
'regime de bufet', 0.29323232743029704
'agradavel', 0.30501210345782837
'pequeno almoco incluido', 0.004903466921627081
'contactar diretamente', 0.028209931878679217
'casal com pequeno', 0.028209931878679217
'pequeno almoco', 0.028209931878679217
'almoco incluido', 0.028209931878679217
'Ovibeja', 0.047890044177456174
'Maio', 0.06002034449456592
'evento', 0.06171589098118857
'semana', 0.11054084948464152
'Anteontem', 0.12115845344030039
'hotel', 0.1258715260933792
'informaram-me', 0.14296424990544623
'preco', 0.15054576997935756
'contactar', 0.16563805471630605
'diretamente', 0.16563805471630605
'casal', 0.16563805471630605
'pequeno', 0.16563805471630605
'almoco', 0.16563805471630605
'incluido', 0.16563805471630605
'coincide', 0.1679053019330226
'sido avisado aquando', 0.0048523401310389324
'Chegando ao hotel', 0.021388284225156495
'aquando da reserva', 0.021388284225156495
'hotel deparei-me', 0.028017440906627965
'sido avisado', 0.028017440906627965
'avisado aquando', 0.028017440906627965
'exteriores no mesmo', 0.06164513418348387
'mesmo', 0.07736974543299531
'porta Aberta', 0.09136162306353408
'resultado', 0.09163805223703009
'Chegando', 0.1268443372981131
'reserva', 0.1268443372981131
'Fiz check', 0.15811868759048342
'conhecimento do sucedido', 0.15811868759048342
'hotel', 0.16508742399977733
'deparei-me', 0.16508742399977733
'exteriores', 0.16508742399977733
'sido', 0.16508742399977733
'avisado', 0.16508742399977733
'aquando', 0.16508742399977733
'localizado e simples', 0.021762429403395896
'simples para entrar', 0.021762429403395896
'entrar e sair', 0.021762429403395896
'Hotel bem localizado', 0.09124376969584404
'estacionamento', 0.11569374806658807
'Salas de reuniao', 0.1316813687136331
'reuniao e confortavel', 0.1316813687136331
'Hotel', 0.1352549386317407
'Hotel simpatico', 0.13786755955455882
'localizado', 0.14594147219416645
'simples', 0.14594147219416645
'entrar', 0.14594147219416645
'sair', 0.14594147219416645
'simpatia dos funcionarios', 0.27392701447098616
'Salas', 0.31242226030905795
'confortavel', 0.31242226030905795
'Precisa melhorar', 0.3572425992825249
'imagem exterior', 0.3572425992825249
'reuniao', 0.3724416104719924
'prestaveis', 0.3983166344420951
'limpo e simpatico', 0.016319241240300607
'Acolhedor', 0.044640837099902006
'hotel', 0.12646708868970258
'limpo', 0.1267170072292734
'simpatico', 0.1267170072292734
'jardim Pequeno almoco', 0.13453671814894386
'canais por cabo', 0.16402531768853654
'varanda espacosa', 0.16402531768853654
'espacosa com cadeiras', 0.16402531768853654
'Aconselho o hotel', 0.16672536985915715
'funcional Servico', 0.18142022774266478
'Servico de bar', 0.18142022774266478
'jardim Pequeno', 0.18142022774266478
'Pequeno almoco', 0.18142022774266478
'lcd com canais', 0.21483131527157806
'Aconselho', 0.2473382530038803
'almoco muito variado', 0.27809117162950836
'tipo de situacao', 0.27809117162950836
'Servico', 0.2988009397997225
'Pequeno', 0.2988009397997225
'pequeno almoco variado', 0.004737258569048452
'atendimento muito simpatico', 0.012571559314626916
'bufet de pequeno', 0.027581485432184485
'pequeno almoco', 0.027581485432184485
'almoco variado', 0.027581485432184485
'Zona davpiscina fantastica', 0.050585226696829876
'servidas', 0.11142476118001256
'atendimento', 0.11142476118001256
'simpatico', 0.11142476118001256
'qualidade', 0.11142476118001256
'Zona davpiscina', 0.14005713113751553
'davpiscina fantastica', 0.14005713113751553
'refeicoes', 0.16383273847958243
'bufet', 0.16383273847958243
'pequeno', 0.16383273847958243
'almoco', 0.16383273847958243
'variado', 0.16383273847958243
'voltar garantidamente', 0.23956129807083346
'Zona', 0.3033846052649951
'fantastica', 0.3033846052649951
'criancas e conseguimos', 0.022359725071352313
'procura de descansar', 0.02687426252547752
'staff mto simpatico', 0.08143488343403368
'descansar e relaxar', 0.0939515042213252
'relaxar', 0.12489514017895965
'mto', 0.12983606356718755
'conseguimos', 0.13519265078802042
'mto simpatico', 0.1588313751335233
'procura', 0.1617743424360146
'descansar', 0.1617743424360146
'criancas', 0.1617743424360146
'staff mto', 0.18526949316817723
'piscina', 0.18569725527559244
'jardim ideal', 0.19857389479576967
'jardim', 0.2064225466453666
'ideal para relaxar', 0.22269725446982977
'hotel tinha tido', 0.23828423291693013
'broas de Gila', 0.24650496758982154
'hotel', 0.24793647749493403
'mto limpo', 0.2693575005108747
'fica a desejar', 0.05445201648667798
'resto fica', 0.08744701677318294
'desejar', 0.18210367052799784
'resto', 0.28357532992200746
'fica', 0.28357532992200746
'estrelas sem parque', 0.33768507311537527
'coberto para carros', 0.33768507311537527
'estrelas', 0.43607135675834374
'carros', 0.43607135675834374
'parque coberto', 0.5040316684098205
'Sala', 0.5297680815996126
'fraco', 0.5297680815996126
'Sala dos pequenos', 0.5464245830655249
'almocos muito fraco', 0.5464245830655249
'parque', 0.5788958306691199
'coberto', 0.5788958306691199
'piscina', 0.5799489872321658
'Nao voltaremos', 0.5982349580744996
'Nao', 0.6118086049319419
'voltaremos', 0.6118086049319419
'instalacoes sao agradaveis', 0.008214932136613624
'agradaveis e limpas', 0.030313948116700972
'instalacoes sao', 0.039475328926270675
'sao agradaveis', 0.039475328926270675
'limpas', 0.1509792063557894
'qualidade', 0.1872453069166976
'nao', 0.1872453069166976
'instalacoes', 0.19487484628429072
'sao', 0.19487484628429072
'agradaveis', 0.19487484628429072
'buffet de jantar', 0.26355513906750994
'Tinha', 0.26577179677812063
'variedade', 0.27684175359415614
'pratos principais', 0.289203953279431
'ambos muito fracos', 0.289203953279431
'mau', 0.3818026383733308
'baixa', 0.3818026383733308
'nao repetissemos', 0.45570024284860317
'buffet', 0.4567080275497534
'jantar', 0.4567080275497534
'Hotel fica', 0.006617494767424653
'entrada de Beja', 0.006617494767424653
'Beja e oferece', 0.006617494767424653
'fica bem localizado', 0.009856703331486505
'condicoes de estadia', 0.009856703331486505
'pequenos almocos', 0.009856703331486505
'oferece boas condicoes', 0.012571559314626916
'destacar a higiene', 0.012571559314626916
'Hotel', 0.05899937629682816
'Beja', 0.05899937629682816
'tranquilidade e excelente', 0.08209205484639899
'localizado', 0.0875971992647228
'estadia', 0.0875971992647228
'almocos', 0.0875971992647228
'variados', 0.0875971992647228
'fica', 0.11142476118001256
'entrada', 0.11142476118001256
'oferece', 0.11142476118001256
'condicoes', 0.11142476118001256
'destacar', 0.11142476118001256
'entrada de Beja', 0.015158255354408574
'Beja com estacionamento', 0.015158255354408574
'Hotel localizado', 0.02235215878495046
'localizado a entrada', 0.03301832982739116
'Beja', 0.08352027801141719
'Hotel', 0.12229125971027831
'confortavel com varanda', 0.16333823125531258
'localizado', 0.17878189525615976
'entrada', 0.17878189525615976
'estacionamento', 0.17878189525615976
'varanda', 0.3261013256329346
'Pequeno-almoco pouco variado', 0.32723655509245825
'Check-in e check-out', 0.362910692993374
'atendimento com simpatia', 0.362910692993374
'confortavel', 0.43055564085338327
'Check-in', 0.46351849497328923
'simpatia', 0.46351849497328923
'check-out sem problemas', 0.492565508509908
'problemas e atendimento', 0.492565508509908
'Pequeno-almoco', 0.49654285697663225
'coracao de Beja', 0.01568737310610636
'Beja que proporciona', 0.01568737310610636
'Hotel localizado', 0.023471236051477468
'Beja', 0.08441991922186784
'Hotel', 0.12534732762780282
'estadia', 0.12534732762780282
'localizado', 0.18295540329921606
'coracao', 0.18295540329921606
'proporciona', 0.18295540329921606
'pequeno almoco', 0.28746841028153164
'confortaveis', 0.33232220036314214
'relacao preco qualidade', 0.36724230603571967
'preco qualidade', 0.3765338629294372
'almoco', 0.42034297790575054
'qualidade', 0.47053046418402145
'acessos', 0.5035854596652765
'relacao preco', 0.5104711842039809
'Proximo', 0.5273163836963415
'pequeno', 0.5311898266064303
'relacao', 0.5813389119800438
'staff atencioso', 0.055866494477139594
'limpos e staff', 0.0896334870765625
'Hotel agradavel', 0.1392507583149323
'agradavel', 0.18447923409874867
'situado', 0.18447923409874867
'atencioso', 0.18447923409874867
'Pequeno almoco variado', 0.21726193270107147
'limpos', 0.2868104199308153
'staff', 0.2868104199308153
'Beja estavam fechados', 0.31284526514680133
'Hotel', 0.33128422784295786
'Pequeno almoco', 0.34481122922926793
'almoco variado', 0.34481122922926793
'Beja estavam', 0.35824983830971147
'Beja', 0.3933757821838557
'Pequeno', 0.4399777483589691
'variado', 0.4399777483589691
'fechados', 0.5337194364605641
'estavam fechados', 0.5572899701164655
'almoco', 0.5827594987772949
'piscina e baloicos', 0.012127395063758975
'limpeza a simpatia', 0.01601819763021807
'simpatia a qualidade', 0.01601819763021807
'qualidade e diversidade', 0.01601819763021807
'diversidade do pequeno', 0.01601819763021807
'pequeno almoco', 0.01601819763021807
'almoco ao parque', 0.01601819763021807
'parque de lazer', 0.01601819763021807
'criancas com insuflavel', 0.01601819763021807
'insuflavel piscina', 0.01601819763021807
'Adoramos', 0.09542809734758888
'baloicos', 0.09542809734758888
'Adorei e irei', 0.0979682773979528
'hotel', 0.11070677482576644
'irei voltar', 0.12451286160689713
'limpeza', 0.12556138008896928
'simpatia', 0.12556138008896928
'qualidade', 0.12556138008896928
'diversidade', 0.12556138008896928
'pequeno', 0.12556138008896928
'lotacao esgotada', 0.03419969733027349
'humanos suficientes', 0.05582649005076364
'hotel varias', 0.07285708728974548
'hotel nao', 0.07285708728974548
'esgotada', 0.1438116176495284
'hotel', 0.14766448324582995
'fiquei neste hotel', 0.15415904026755364
'fiquei', 0.2299449545753006
'varias', 0.2299449545753006
'agosto', 0.2299449545753006
'sensacao', 0.2299449545753006
'nao', 0.2299449545753006
'humanos', 0.2299449545753006
'suficientes', 0.2299449545753006
'lotacao', 0.2299449545753006
'Piscina com imensa', 0.2308751217696896
'imensa confusao', 0.2308751217696896
'pequeno-almoco caotico', 0.2308751217696896
'Piscina', 0.3684322042113957
'confusao', 0.3684322042113957
'pessoal simpatico', 0.02140921543860024
'Pequeno almoco', 0.03465229800090378
'precos acessiveis', 0.03465229800090378
'acessiveis no bar', 0.03465229800090378
'espaco da piscina', 0.03465229800090378
'piscina e bom,agua', 0.0565406034156422
'Pequeno', 0.1447773057422032
'pessoal', 0.1447773057422032
'simpatico', 0.1447773057422032
'precos', 0.1447773057422032
'bar', 0.1447773057422032
'espaco', 0.1447773057422032
'almoco', 0.23133275159292982
'acessiveis', 0.23133275159292982
'piscina', 0.23133275159292982
'bom,agua', 0.23133275159292982
'fria', 0.23133275159292982
'higienico', 0.3702539456099092
'localizado', 0.3702539456099092
'lugares de estacionamento', 0.38599679376725615
'estrada nacional', 0.038232981176342516
'metros da estrada', 0.05572127834410072
'Hotel localizado', 0.10451978841176741
'nacional', 0.16029037464028098
'Hotel', 0.20594873417441684
'localizado', 0.22973961989516373
'metros', 0.22973961989516373
'estrada', 0.22973961989516373
'estrelas', 0.2716245889826002
'pequeno', 0.29830839613724974
'pequeno alomoco fraco', 0.3487485481437099
'sao bons sendo', 0.34932854673264724
'alomoco fraco', 0.34932854673264724
'pequeno alomoco', 0.43588700571805095
'Piscina', 0.49132677637909633
'sombra', 0.49132677637909633
'sao', 0.508812982965745
'sendo', 0.508812982965745
'alomoco', 0.508812982965745
'fraco', 0.508812982965745
'tipico do Alentejo', 0.01095511415021416
'nao comi', 0.018459617410298886
'beber ou comer', 0.025335449947637863
'deslocar ao interior', 0.025335449947637863
'normal,nada de especial', 0.025335449947637863
'bar aberto', 0.031931001980393704
'comi na sobremesa', 0.031931001980393704
'nao ha bar', 0.044403461682012466
'nao', 0.05151906149950819
'Alentejo', 0.06160331601998813
'estrelas', 0.08626457034667176
'comida normal,nada', 0.08755089407619067
'Desiludido', 0.10719695358962493
'fica a desejar', 0.11695695011994305
'desejar', 0.14046939286262958
'comer', 0.14046939286262958
'interior', 0.14046939286262958
'buffet', 0.14046939286262958
'especial', 0.14046939286262958
'Internet fraca', 0.1508804282958385
'Localizacao', 0.12441325108208869
'Limpeza', 0.12804119924872098
'nao estao disponiveis', 0.13741397439651198
'nao estao', 0.16462292523115715
'nao', 0.16876199183362386
'estao disponiveis', 0.17808908577735835
'hotel', 0.18737641471214403
'semana', 0.2184465970258627
'estao', 0.2446183903101797
'categoria do hotel', 0.24729808508780762
'sala', 0.25465243701387774
'garrafas', 0.25465243701387774
'bar', 0.26650796292686807
'disponiveis', 0.26841170754272414
'Instalacoes', 0.3304284420175693
'criancas nao estao', 0.3905193731312853
'Pequeno-almoco', 0.4182618462633403
'area dos pequenos', 0.4396740671783178
'fundo da sala', 0.45191320217689596
'prateleiras das garrafas', 0.45191320217689596
'Piscina', 0.10909815511827554
'sombrinhas', 0.10909815511827554
'Teto da casa', 0.1278244235492756
'abre e fecha', 0.1278244235492756
'impossivel dormir literalmente', 0.14492087003629855
'casa de banho', 0.1685853064821579
'banho que levanta', 0.1685853064821579
'porta abre', 0.1685853064821579
'Colchao pessimo', 0.17146379706674633
'dormir literalmente', 0.22010868773592726
'Desiludida por completo', 0.27486994961060757
'molas aleijavam', 0.2859226927845332
'aleijavam o corpo', 0.2859226927845332
'corpo foi impossivel', 0.2859226927845332
'impossivel dormir', 0.2859226927845332
'temperatura sozinho', 0.29106528397220843
'Teto', 0.2983957947604909
'fecha', 0.2983957947604909
'conforto nao recomendo', 0.30954088945363706
'nao recomendo', 0.3473497448232059
'entrada da cidade', 0.036128343882787545
'passagem pela regiao', 0.036128343882787545
'cidade', 0.15579322312505062
'ideal', 0.15579322312505062
'regiao', 0.15579322312505062
'limpo e agradavel', 0.18002599397818003
'Situado na entrada', 0.1998459616146394
'Situado', 0.2018676126966644
'entrada', 0.2238133241153676
'passagem', 0.2238133241153676
'estiver de passagem', 0.2306907803129384
'estiver', 0.23698917003387543
'ficamos numa suite', 0.2429116402178109
'devido ao hotel', 0.2429116402178109
'hotel estar lotado', 0.2429116402178109
'claro', 0.2649895444690166
'belo', 0.27542685086357327
'cruzamento rodoviario', 0.3339813921472171
'rodoviario bem movimentado', 0.3339813921472171
'Otimos', 0.3905906308918809
'Hotel bem localizado', 0.03614900445585374
'Hotel', 0.1867828783390848
'localizado', 0.1867828783390848
'termos', 0.26830050395606003
'termos de servico', 0.31252392436046067
'estrelas parece-me', 0.35177767125943227
'estrelas', 0.44373589015920684
'servico', 0.44373589015920684
'aquem em termos', 0.4592044283070564
'Dorme-se', 0.4607536641203337
'Pequeno almoco fraquinho', 0.5177197547784107
'parece-me muito aquem', 0.5242401626854529
'Pequeno', 0.5375097662154787
'fraquinho', 0.5375097662154787
'Pequeno almoco', 0.5679022792518992
'almoco fraquinho', 0.5679022792518992
'parece-me', 0.5864600653839454
'aquem', 0.5864600653839454
'Restaurante', 0.5875077840531142
'razoavel', 0.5875077840531142
'termos de diversoes', 0.03999123054821491
'diversoes', 0.16395060952033721
'Hotel', 0.20922005508224553
'variadade', 0.20922005508224553
'variadade em termos', 0.21671994896609342
'Acho', 0.2183446003309313
'termos', 0.2345427726956302
'pequeno almoco fica', 0.2874523257955026
'Nomeadamente', 0.3150286469639226
'pequeno almoco', 0.36200297755671834
'almoco fica', 0.36200297755671834
'estrelas devia', 0.36200297755671834
'sumos naturais', 0.43426228751991386
'naturais', 0.49806258255200336
'pequeno', 0.5155455503718679
'almoco', 0.5155455503718679
'fica', 0.5155455503718679
'desejar', 0.5155455503718679
'estrelas', 0.5155455503718679
'devia', 0.5155455503718679
'Hotel calmo', 0.019385224860167492
'descanso em familia', 0.019385224860167492
'calmo para passar', 0.026729693835239484
'Hotel', 0.11785922403418424
'familia', 0.11785922403418424
'Piscina para adultos', 0.1454149372948464
'brincar a vontade', 0.1454149372948464
'calmo', 0.16134998560465696
'passar', 0.16134998560465696
'descanso', 0.16134998560465696
'espaco relvado', 0.19109887496487007
'criancas', 0.20588662996713372
'confortaveis e insonorizados', 0.24839690845467835
'Piscina', 0.3169501925943258
'vontade', 0.3169501925943258
'sao confortaveis', 0.3215874471755755
'criancas podem brincar', 0.3755593407388305
'adultos', 0.4005485444770613
'espaco', 0.4005485444770613
'relvado', 0.4005485444770613
'pequeno almoco', 0.011326071590296352
'staff atencioso', 0.011326071590296352
'atencioso e simpatico', 0.011326071590296352
'Hotel', 0.09220612519689587
'almoco', 0.09220612519689587
'staff', 0.09220612519689587
'simpatico', 0.09220612519689587
'piscina agradavel', 0.092410575532421
'espaco exterior', 0.092410575532421
'pequeno', 0.12145861573270843
'atencioso', 0.12145861573270843
'bomba de gasolina', 0.16242925982611942
'facil de acessos', 0.2039811334556561
'Apesar', 0.21291019331330654
'agradavel', 0.26077330546993865
'exterior', 0.26077330546993865
'piscina', 0.3243938762255281
'espaco', 0.3243938762255281
'barulhento', 0.3394787329105206
'gasolina', 0.3394787329105206
'achei super ridiculo', 0.001598887546215584
'barulho super estranho', 0.001934530694763248
'super ridiculo', 0.011986446858915593
'voucher concedido', 0.014232666111005375
'excelente aspecto', 0.014232666111005375
'assustavam imenso', 0.014232666111005375
'barulho super', 0.014467996162215042
'super estranho', 0.014467996162215042
'fazia condensacao', 0.014467996162215042
'achei super', 0.014467996162215042
'familia para desfrutar', 0.01718714722590617
'fazia um barulho', 0.03574594988069145
'chapa e fazia', 0.03574594988069145
'carne porco alentejana', 0.04604129531596064
'comer carne porco', 0.054649198604862864
'simples amouse bouche', 0.054649198604862864
'fazia', 0.05485782338005997
'super', 0.05485782338005997
'gemeos', 0.08727610387709987
'concedido', 0.10795610338226275
'atendimento', 0.16764155103593584
'restaurante', 0.16764155103593584
'excelente', 0.1731829706182737
'mesmo em Abril', 0.1958170025073343
'recepcao', 0.2248205561287091
'pois', 0.22564765455070632
'Excelentes no atendimento', 0.24866002114098396
'pequeno almoco poderia', 0.25410782070203364
'produtos regionais', 0.2603036232711986
'aula', 0.28793546001339737
'Fitness no exterior', 0.31250336638352993
'Abril', 0.3244313980484237
'pequeno almoco', 0.3365672568309044
'almoco poderia', 0.3365672568309044
'entanto e considerado', 0.3365672568309044
'considerado excelente', 0.3526593482871914
'Fitness', 0.37048658381516064
'danca', 0.3947594375725253
'excelente escolha', 0.40553781307540454
'pois nao', 0.40850980148458754
'Hotel confortavel', 0.015465128052409167
'confortavel onde fiquei', 0.02140921543860024
'Hotel', 0.10519328464496844
'confortavel', 0.1447773057422032
'fiquei', 0.1447773057422032
'virado a sul', 0.1588666998905099
'sul torna-se', 0.1588666998905099
'simpatico e disponivel', 0.20785651292262122
'pessoal e simpatico', 0.2704390918235917
'qualidade e diversidade', 0.2754003999271723
'agradavel', 0.2899204041465753
'pequeno-almoco tem qualidade', 0.35553610271667324
'virado', 0.3702539456099092
'sul', 0.3702539456099092
'torna-se', 0.3702539456099092
'quente', 0.3702539456099092
'disponivel', 0.37298424001381364
'diversidade', 0.42163019807883656
'pessoal', 0.4613789858464135
'simpatico', 0.4613789858464135
'existe em Beja', 0.08861623310931388
'nao', 0.1222676410111062
'Beja', 0.12971053410214695
'existe', 0.14711723143865535
'considerar-se', 0.14711723143865535
'canais', 0.2079515731403674
'TDT', 0.21269596503997576
'hotel', 0.22363487280305197
'sendo', 0.23364654505687044
'nao gostei', 0.2919009216542194
'estrelas', 0.3001753720608406
'seculo passado', 0.3270296270388776
'saidas de Beja', 0.3330592217963323
'hoteis', 0.33795066796984874
'mediano', 0.33795066796984874
'hotel e recente', 0.3388553384536115
'estamos no seculo', 0.364460394533313
'comparado', 0.3746416853576739
'parabolica', 0.3845860073222509
'negativos', 0.42650992422373646
'facil acesso', 0.032079628920954194
'hotel esta localizado', 0.0469704137451005
'localizado numa zona', 0.0469704137451005
'zona muito sossegada', 0.0469704137451005
'acesso', 0.14674764539320956
'hotel', 0.21180928212568187
'localizado', 0.21180928212568187
'zona', 0.21180928212568187
'sossegada', 0.21180928212568187
'facil', 0.21180928212568187
'banho tambem sao', 0.2253462490004296
'sao', 0.25005004369392647
'Atendimento muito correto', 0.2763517109768321
'casas de banho', 0.3038664012882646
'banho tambem', 0.3038664012882646
'tambem sao', 0.3182607154003427
'caminho do Algarve', 0.32297364966844105
'Algarve', 0.360829761864087
'agradaveis', 0.3739511294243386
'sao muito agradaveis', 0.42729150629287777
'Agradavel surpresa', 0.02278060898405576
'espaco envolvente', 0.02278060898405576
'epoca alta', 0.02278060898405576
'precos muito convidativos', 0.03363638967973331
'convidativos em epoca', 0.03363638967973331
'visitar Beja', 0.04485332098322115
'Beja', 0.06299338075585773
'cidade de Beja', 0.11734129305612309
'Agradavel', 0.12347017160866493
'gostamos', 0.12347017160866493
'envolvente', 0.12347017160866493
'simpatia', 0.12347017160866493
'empregados', 0.12347017160866493
'alta', 0.12347017160866493
'surpresa a visitar', 0.13794729910849954
'visitar', 0.17036656557017907
'surpresa', 0.1803934615806633
'espaco', 0.1803934615806633
'precos', 0.1803934615806633
'convidativos', 0.1803934615806633
'realcando-se a optima', 0.03815726565040977
'optima localizacao', 0.03815726565040977
'Beja realcando-se', 0.060555429851760205
'opcao em Beja', 0.06803226956111844
'Beja', 0.14891302122427524
'realcando-se', 0.1917154215843025
'optima', 0.1917154215843025
'localizacao', 0.1917154215843025
'Ambiente muito limpo', 0.19669469490696104
'staff afavel', 0.19669469490696104
'opcao', 0.20107092907596796
'Nomeadamente o teto', 0.21603091403773647
'localizacao do hotel', 0.22009664502594461
'limpo e staff', 0.25631207718701265
'hotel', 0.27229257463733875
'Nomeadamente', 0.2984369874079206
'Contudo nao', 0.3297356938499798
'aspectos negativos', 0.3297356938499798
'precisar de manutencao', 0.3297356938499798
'Ambiente', 0.36389284226845453
'estrelas', 0.14736583348825125
'falhas', 0.14736583348825125
'hotel', 0.21263324724027458
'camas feitas', 0.22181423474845052
'chegarmos nao tinhamos', 0.27949182179319354
'nao', 0.28624832240971687
'tinhamos as camas', 0.30589232744556566
'Encontramos uma barata', 0.36873059479405335
'casa de banho', 0.36873059479405335
'feitas', 0.3751056673381035
'chegarmos nao', 0.38327693894145815
'nao tinhamos', 0.38327693894145815
'Encontramos', 0.46654016740743176
'banho', 0.46654016740743176
'enroladas no bide', 0.4790794939523289
'chegarmos', 0.4839835567569255
'tinhamos', 0.4839835567569255
'camas', 0.4839835567569255
'barata na casa', 0.5002169159250673
'bide', 0.5173208199462442
'entradas de Beja', 0.009622702531584596
'facil acesso', 0.020289261461710707
'Agosto', 0.05180018521669449
'Beja', 0.06341974158084175
'piscina', 0.11916730548724455
'hotel possui', 0.1256777515128118
'Localizado', 0.13232120225643523
'acesso', 0.13232120225643523
'entradas', 0.15028425574236762
'facil', 0.15028425574236762
'pequena comparativamente', 0.1517507586097971
'servico e comodidades', 0.1517507586097971
'criancas', 0.15456948682211943
'hotel', 0.1612207923828659
'comparativamente a elevada', 0.16931238710538596
'elevada qualidade', 0.16931238710538596
'qualidade do resto', 0.16931238710538596
'resto do servico', 0.16931238710538596
'quantidade de hospedes', 0.16931238710538596
'Hotel cheio', 0.22755460718446913
'piscina apetitosa', 0.015465128052409167
'Hotel', 0.10519328464496844
'apetitosa', 0.10519328464496844
'edificio bastante moderno', 0.12025258825090053
'vista', 0.1447773057422032
'piscina', 0.1447773057422032
'entrada de Braga.fica', 0.1484997093026544
'Braga.fica a faltar', 0.1484997093026544
'agua de cortesia', 0.20785651292262122
'situado na entrada', 0.2704390918235917
'garrafinha de agua', 0.2704390918235917
'Braga.fica', 0.28024437468318186
'moderno', 0.2899204041465753
'edificio', 0.3702539456099092
'cortesia', 0.37298424001381364
'principalmente', 0.37298424001381364
'situado', 0.4613789858464135
'entrada', 0.4613789858464135
'faltar', 0.4613789858464135
'garrafinha', 0.4613789858464135
'calmo', 0.08378500450054686
'AgradAvel', 0.11636072170058452
'estraga um bocado', 0.17260776118488275
'comida', 0.2302152461969598
'Recomendo mas continuo', 0.3099663804305326
'melhores para visitar', 0.3099663804305326
'frequentam.', 0.3138208915490588
'Castelo', 0.3200517749770242
'continuo a achar', 0.3832976204772339
'achar que beja', 0.3832976204772339
'cidades muito melhores', 0.3832976204772339
'estraga', 0.38366640932476326
'bocado', 0.38366640932476326
'pessoas', 0.38366640932476326
'Restaurante', 0.3998761621125617
'paga.', 0.3998761621125617
'Recomendo', 0.44951500727285
'visitar', 0.44951500727285
'gente', 0.47559945649347063
'continuo', 0.5263931712197196
'Beja Parque Hotel', 0.0019335618408899272
'Parque Hotel passar', 0.001960503971229889
'Beja Parque', 0.009388014224969928
'Parque Hotel', 0.012921796106018225
'Hotel passar', 0.029869632040234018
'Beja', 0.04814896262360397
'Parque', 0.06438836631468753
'Hotel', 0.06604170953011822
'hotel possui', 0.07268632512993707
'serve cozinha regional', 0.07581812665530685
'centro de Beja', 0.07798898652231613
'estacionamento privado gratuito', 0.0901751713573514
'entradas de Beja', 0.0936888613644725
'hotel fica', 0.10138099683518717
'sol gratuitos', 0.11264431045993369
'centro de fitness', 0.11265827145035721
'possui estacionamento privado', 0.12023534617446852
'Acho', 0.1241363877341364
'estrelas', 0.1241363877341364
'bar com esplanada', 0.14042287207183904
'instalacoes principalmente', 0.045246959620407944
'estrelas', 0.08640671324384744
'Hotel mais proximo', 0.12107908611213412
'Hotel', 0.1439385148926695
'criancas', 0.1439385148926695
'proximo', 0.19077036977662565
'instalacoes', 0.20805839527934902
'principalmente', 0.20805839527934902
'campo', 0.3686719582445498
'Proximo da cidade', 0.41607000634098007
'luxos', 0.4596918596988541
'cidade', 0.4771082013778284
'vista', 0.4771082013778284
'Ideal', 0.5104403470276165
'piscinas', 0.5706990660829261
'pausa', 0.6196480298289209
'hotel revela-se amplo', 0.1028655627824302
'hotel', 0.13056700108954553
'Ficamos', 0.13310830429813844
'casal', 0.13310830429813844
'espacos interiores', 0.16658039919239445
'suite', 0.16704892819545086
'criancas', 0.16830226372399737
'hotel revela-se', 0.19163490516999476
'revela-se amplo', 0.20273199640698
'amplo nos espacos', 0.20273199640698
'piscina e demasiado', 0.20273199640698
'demasiado pequena', 0.20273199640698
'encontrava-se sobrelotada', 0.20273199640698
'hotel e encontrava-se', 0.2979476575434391
'pequeno almoco', 0.33991600771708075
'interiores', 0.3478023460252438
'suja', 0.3478023460252438
'pessoal foi simpatico', 0.37052837460669724
'revela-se', 0.41056007705795283
'amplo', 0.41056007705795283
'imensas areas', 0.049254569566741825
'Hotel muito agradavel', 0.051062918617326196
'areas para criancas', 0.07525588725160001
'Piscina muito agradavel', 0.14023293533373302
'Hotel', 0.15039420348518426
'agradavel com imensas', 0.1579018284550257
'agradavel', 0.16151610247953088
'criancas', 0.16151610247953088
'imensas', 0.21666204073461234
'areas', 0.21666204073461234
'zonas ajardinadas', 0.22931304231870608
'criancas e adultos', 0.27641537204956207
'Parque infantil', 0.380421349794848
'insuflaveis e baloicos', 0.380421349794848
'Piscina', 0.38072432164860126
'adultos', 0.38072432164860126
'ajardinadas', 0.38072432164860126
'Parque', 0.47249284090427734
'baloicos', 0.47249284090427734
'zonas', 0.4899543810571469
'visita Beja', 0.010250312797335326
'preco muito convidativo', 0.023690904623927984
'escolha segura', 0.02907821165589413
'Beja', 0.06035989418497316
'Hotel agradavel', 0.07456699604953958
'acolhedor', 0.1089215704521928
'Hotel', 0.12600855004734832
'agradavel', 0.13767438481359776
'convidativo', 0.13767438481359776
'preco', 0.1680968809446568
'escolha', 0.1680968809446568
'segura', 0.1680968809446568
'visita', 0.1680968809446568
'Funcionarios prestaveis', 0.17246608321541923
'prestaveis e disponiveis', 0.17246608321541923
'gratuito', 0.274871709385306
'LCD', 0.2848664932077103
'nao desmerecem', 0.2918382591948871
'Funcionarios', 0.35670278255476073
'disponiveis', 0.35670278255476073
'Comodidade e servicos', 0.013784437454882689
'servicos de excelencia', 0.013784437454882689
'destacando-se a simpatia', 0.013784437454882689
'simpatia do staff', 0.013784437454882689
'exposicoes da Ovibeja', 0.0622698075188547
'Comodidade', 0.09927137196013912
'excelencia', 0.09927137196013912
'destacando-se', 0.09927137196013912
'staff', 0.09927137196013912
'Localizacao junto', 0.1090934922889914
'minutos do centro', 0.1090934922889914
'servicos', 0.13696809108329627
'simpatia', 0.13696809108329627
'centro da cidade', 0.1445099069107937
'parque de exposicoes', 0.1445099069107937
'Ovibeja', 0.16496949802696798
'Aconselhado para viagens', 0.18970645222564492
'sobretudo em familia', 0.18970645222564492
'viagens romanticas', 0.24745631075091173
'romanticas e sobretudo', 0.24745631075091173
'excelentes condicoes.O pequeno', 0.0010606143890052174
'desconhecendo o Hotel', 0.005157590407455398
'Hotel e localizacao,fiquei', 0.007743432063478832
'dotado de excelentes', 0.00899321792126428
'condicoes.O pequeno', 0.00899321792126428
'localizacao,fiquei muito satisfeito', 0.013527995261974615
'excelentes condicoes.O', 0.013527995261974615
'Hotel', 0.06650965107397505
'Considerando', 0.0771485953923296
'desconhecendo', 0.0771485953923296
'acessivel', 0.0771485953923296
'dotado', 0.0771485953923296
'pequeno', 0.0771485953923296
'almoco', 0.0771485953923296
'bom.Recomendo', 0.0771485953923296
'estadia', 0.1155310835876123
'localizacao,fiquei', 0.1155310835876123
'satisfeito', 0.1155310835876123
'excelentes', 0.1155310835876123
'condicoes.O', 0.1155310835876123
'Fiquei hospedado', 0.026717708106993837
'hotel', 0.06511805835867285
'preco super acessivel', 0.10788592404895704
'hospedado neste hotel', 0.10845603363897911
'entrada de Beja', 0.13095358790997402
'Beja', 0.13361984491798895
'Fiquei', 0.1442328480758062
'conhecia', 0.1442328480758062
'hospedado', 0.1804197052606233
'preco super', 0.18737811204908997
'zona de Beja', 0.1944269635563211
'super', 0.21370054513919495
'super acessivel', 0.22727339884007278
'super limpo', 0.24490550876577216
'qualidade do Hotel', 0.24983722791222007
'excelente colchao', 0.26881333863300116
'check', 0.27251084423388794
'cliente de Verao', 0.2820984588388975
'Inverno e pretendo', 0.2820984588388975
'Beja e necessitar', 0.31717239660711305
'piscina horrivelmente profissional', 0.002443951659311048
'quase gelados nenhum', 0.003971147946995029
'havia quase gelados', 0.005835492844452269
'nao havia quase', 0.00952704503190897
'horrivelmente profissional', 0.01780391481372526
'agua e imperial', 0.01780391481372526
'sol da piscina', 0.02051310647202981
'piscina horrivelmente', 0.02051310647202981
'chapeus de sol', 0.023388803537909855
'oferta possivel', 0.023388803537909855
'quase gelados', 0.025191204310214817
'gelados nenhum', 0.025191204310214817
'nao havia mesmo', 0.02827833054571109
'nao havia', 0.029678088258196754
'estrelas no bar', 0.03193876101205828
'havia quase', 0.0340720833580744
'bar nao', 0.04055800789296024
'possivel no bar', 0.04146521367385212
'havia mesmo modo', 0.04519209118162805
'Hotel bem localizado', 0.04617847749204906
'agradavel e tranquilo', 0.027186480430039336
'entrada de Beja', 0.10124451687925695
'tranquilo', 0.14741439585688748
'cumpre', 0.14741439585688748
'promete', 0.14741439585688748
'agradavel', 0.17954106446957865
'qualidade', 0.18673958518165332
'Hotel', 0.19146830713245133
'centro historico', 0.19334291817816482
'parque de estacionamento', 0.19334291817816482
'estacionamento gratuito', 0.19334291817816482
'Beja', 0.21290371393539287
'localizado a entrada', 0.22921100898109517
'minutos do centro', 0.22921100898109517
'Piscina', 0.23667841934321174
'Hotel bastante agradavel', 0.25882669828530885
'qualquer', 0.27996119641073497
'bar', 0.29886705679724973
'eficiente e simpatico', 0.3248489191205328
'Bufet do pequeno', 0.34276495386940775
'semana no Alentejo', 0.012493001487882523
'Alentejo', 0.06429311408667385
'Reserva efectuada', 0.1850722898750957
'conforme programado', 0.1850722898750957
'semana', 0.19191560969485716
'recepcao muito gentil', 0.23304797986243067
'pessoal afavel', 0.3111106107228381
'apesar da idade', 0.3111106107228381
'Reserva', 0.34550422913301404
'programado', 0.34550422913301404
'unico reparo', 0.367281879801212
'afavel e disponivel', 0.4243195631644211
'casa de banho', 0.4243195631644211
'banho bem consercada', 0.4243195631644211
'consercada apesar', 0.4243195631644211
'recepcao', 0.4347430854655816
'gentil', 0.4347430854655816
'pessoal', 0.4347430854655816
'idade', 0.4347430854655816
'efectuada', 0.452004946441507
'Hotel', 0.11797671014185607
'um.hipermercado', 0.11797671014185607
'simpatico e atencioso', 0.1539412127363319
'localizado', 0.17286683788205306
'sao muito confortaveis', 0.21489669178785997
'staff muito simpatico', 0.21489669178785997
'Sem.duvida para repetir', 0.25874337996204355
'conhecer a cidade', 0.26176225393615005
'atencioso', 0.3171947781126727
'pequeno almoco', 0.359016783205622
'almoco bastante agradavel', 0.359016783205622
'ficar em.negocios', 0.359016783205622
'cidade', 0.4036310100959565
'sao', 0.4205766817284309
'confortaveis', 0.4205766817284309
'staff', 0.4205766817284309
'simpatico', 0.4205766817284309
'Sem.duvida', 0.4533838267348932
'repetir', 0.4533838267348932
'pequeno', 0.5139785153975659
'Hotel bem localizado', 0.020818845797234226
'estacionamento privativo', 0.020818845797234226
'Espacoso e arejado', 0.11186783262129249
'canais tdt', 0.11186783262129249
'Hotel', 0.11797671014185607
'privativo', 0.11797671014185607
'localizado', 0.17286683788205306
'estacionamento', 0.17286683788205306
'agradaveis com wi-fi', 0.21489669178785997
'televisao a oferecer', 0.21489669178785997
'improprio na madrugada', 0.26176225393615005
'Pequeno almoco variado', 0.3150852412230448
'Espacoso', 0.3171947781126727
'arejado', 0.3171947781126727
'qualidade', 0.3171947781126727
'canais', 0.3171947781126727
'tdt', 0.3171947781126727
'Pequeno almoco', 0.34393543650132563
'sala agradavel', 0.34393543650132563
'levou a ruido', 0.359016783205622
'estrelas com piscina', 0.05194530326821712
'turismo com sucesso', 0.05194530326821712
'apostado no turismo', 0.0835659328934431
'Alentejo', 0.11214080917656077
'estrelas', 0.17781408754083983
'sucesso', 0.17781408754083983
'Hotel', 0.2544716583230479
'piscina', 0.27770708619018897
'apostado', 0.27770708619018897
'turismo', 0.27770708619018897
'Restaurante', 0.3049109418668802
'vinhos alentejanos', 0.3249655798286392
'Restaurante do hotel', 0.3452827311862465
'Beja', 0.34616751609264973
'hotel serve', 0.4104584360592057
'alentejanos', 0.4289367820041599
'serve bons vinhos', 0.4857697508169343
'decoracao', 0.5225209448250385
'especial decoracao', 0.5270052715365914
'serve', 0.5717938470127345
'agradavel surpresa', 0.016626316719119922
'impressao nao', 0.022988213374765323
'surpresa', 0.10909815511827554
'impressao', 0.149905405948569
'nao', 0.149905405948569
'melhor', 0.149905405948569
'passar', 0.149905405948569
'agradavel', 0.149905405948569
'Excelente pequeno almoco', 0.17456224721620994
'nivel de limpeza', 0.2859226927845332
'Excelente pequeno', 0.29106528397220843
'pequeno almoco', 0.29106528397220843
'espacosos', 0.2983957947604909
'ruido da rua', 0.3473497448232059
'apontar', 0.3825795769824884
'Excelente', 0.4316155337083156
'almoco', 0.4316155337083156
'melhorar', 0.4643342181116837
'almofadas', 0.4643342181116837
'ruido', 0.4643342181116837
'espacosas zonas comuns', 0.0023136656189003115
'Hotel agradavel', 0.011189445364643204
'situado na entrada', 0.015465128052409167
'entrada da cidade', 0.015465128052409167
'zonas comuns', 0.015465128052409167
'espacosas zonas', 0.02140921543860024
'Hotel', 0.10519328464496844
'agradavel', 0.10519328464496844
'situado', 0.10519328464496844
'cidade', 0.10519328464496844
'comuns', 0.10519328464496844
'Restaurante e bar', 0.12025258825090053
'entrada', 0.1447773057422032
'espacosas', 0.1447773057422032
'zonas', 0.1447773057422032
'optima varanda', 0.20785651292262122
'decorado e limpo', 0.20785651292262122
'espacoso e moderno', 0.2704390918235917
'preco e localizacao', 0.2754003999271723
'relacao qualidade preco', 0.2788008642596101
'Hotel bem localizado', 0.015380821171891606
'entradas da cidade', 0.015380821171891606
'instalacoes bastante aceitaveis', 0.015380821171891606
'face ao preco', 0.015380821171891606
'aceitaveis face', 0.02570861714399338
'atendimento ao contrario', 0.02570861714399338
'contrario da recepcao', 0.02570861714399338
'recepcao que podiam', 0.02570861714399338
'podiam ter mostrado', 0.02570861714399338
'mostrado mais simpatia', 0.02570861714399338
'Hotel', 0.09568045026443411
'cidade', 0.09568045026443411
'instalacoes', 0.09568045026443411
'preco', 0.09568045026443411
'bar', 0.09568045026443411
'chek-out', 0.09568045026443411
'localizado', 0.15831692877998726
'entradas', 0.15831692877998726
'aceitaveis', 0.15831692877998726
'face', 0.15831692877998726
'Preco acessivel', 0.06659412780351075
'Decoracao pobre', 0.13316120892766228
'acessivel', 0.13767502426178768
'portas de varanda', 0.17238829682720902
'nao fecham', 0.17238829682720902
'reformulacao profunda', 0.17238829682720902
'hotel em Beja', 0.19941681120388777
'Preco', 0.21342668215658436
'varanda que nao', 0.2254703166612755
'Pequeno almoco', 0.22918666178841102
'Beja', 0.2902347837824982
'Decoracao', 0.34280173800315455
'pobre', 0.34280173800315455
'estimados', 0.34280173800315455
'portas', 0.34280173800315455
'fecham', 0.34280173800315455
'necessita', 0.34280173800315455
'profunda', 0.34280173800315455
'atento', 0.34280173800315455
'produtos regionais disponiveis', 0.36307280082841437
'ideia nao seja', 0.002166379050996218
'nao seja passar', 0.002166379050996218
'dormir bem,boa casa', 0.002166379050996218
'euros vale', 0.011014165913781458
'barbtambem e razoavel', 0.011014165913781458
'curta estadia', 0.016509325859149028
'ideia nao', 0.016509325859149028
'nao seja', 0.016509325859149028
'seja passar', 0.016509325859149028
'passear e dormir', 0.016509325859149028
'dormir bem,boa', 0.016509325859149028
'bem,boa casa', 0.016509325859149028
'casa de banho,boa', 0.016509325859149028
'banho,boa cama', 0.016509325859149028
'cama boas instalacoes', 0.016509325859149028
'preco do barbtambem', 0.016509325859149028
'Hotel', 0.08287033290305683
'euros', 0.08548410859164804
'razoavel', 0.08548410859164804
'conforto', 0.12744094586816573
'Hotel bem localizado', 0.02126088262878146
'localizado e pratico', 0.02126088262878146
'pequeno almoco', 0.10829035883059379
'Hotel', 0.1264656102328077
'pratico', 0.1264656102328077
'pequeno almoco terem', 0.15366359966346832
'esteja mais atento', 0.15733197948471225
'localizado', 0.1646160394161725
'almoco terem manchas', 0.19485707318262488
'necessita', 0.19718408352692127
'staff esteja', 0.1977315349731768
'pequeno', 0.21096452600148047
'almoco', 0.21096452600148047
'necessita de atencao', 0.22934828219160866
'terem manchas realizadas', 0.2483722084522862
'almoco terem', 0.2668784877256091
'tambem necessita', 0.2769446930639749
'sabonete na casa', 0.33204531044454566
'casa de banho', 0.33204531044454566
'dispensador de sabao', 0.33204531044454566
'Recepcao adequada', 0.011465139411412592
'limpo e apresentavel', 0.013234528709994047
'Recepcao', 0.10646680230261739
'adequada', 0.10646680230261739
'varanda', 0.10646680230261739
'apresentavel', 0.10646680230261739
'casa de banho', 0.1196520505826893
'espacoso', 0.1226829721908938
'limpo', 0.1226829721908938
'funcionaram na normalidade', 0.18464215699929273
'estacionamento', 0.23918577553217307
'pequena', 0.29269877015402523
'normaidade', 0.29269877015402523
'produtos da regiao', 0.29467037264627977
'casa', 0.3269027191635475
'banho', 0.3269027191635475
'saientar que tinham', 0.3288337282922578
'tinham variedade', 0.3288337282922578
'variedade e produtos', 0.3288337282922578
'piscina muito limpa', 0.36850281960084597
'Adoramos a acessibilidade', 0.012571559314626916
'pessoal muito atencioso', 0.01859446618045681
'necessidades dos hospedes', 0.01859446618045681
'atencioso e disponivel', 0.027581485432184485
'Excelente piscina exterior', 0.050585226696829876
'Adoramos', 0.11142476118001256
'acessibilidade', 0.11142476118001256
'pessoal', 0.11142476118001256
'hospedes', 0.11142476118001256
'Excelente piscina', 0.14005713113751553
'piscina exterior', 0.14005713113751553
'climatizados e arejados', 0.14005713113751553
'atencioso', 0.16383273847958243
'disponivel', 0.16383273847958243
'necessidades', 0.16383273847958243
'tipica cozinha alentejana', 0.172412864610806
'Refeicoes bem confeccionadas', 0.23956129807083346
'cozinha alentejana', 0.23956129807083346
'Excelente', 0.3033846052649951
'exterior', 0.3033846052649951
'nao sao confortaveis', 0.01195309555645605
'sao confortaveis', 0.02539508431734936
'reconsiderar as almofadas', 0.037400338477538764
'deviam reconsiderar', 0.0722747637762293
'nao sao', 0.08582476847028804
'Hotel', 0.13043491345148592
'confortaveis', 0.13043491345148592
'nao', 0.13876088726031066
'nao tinhamincluido almoco', 0.14142886566910481
'limpo mas deviam', 0.15060444153834457
'deviam', 0.1774949604072728
'check out', 0.18161421399516514
'fosse estar atento', 0.18161421399516514
'almoco da vespera', 0.18161421399516514
'Deviam tambem', 0.18947849729892408
'limpo', 0.18987359516957233
'reconsiderar', 0.18987359516957233
'almofadas', 0.18987359516957233
'sao', 0.18987359516957233
'almofadas que nao', 0.21749154524846728
'areas comuns', 0.07406362534895461
'Pessoal simpatico', 0.08593157505370286
'simpatico', 0.10384610560881044
'pequeno almoco agradavel', 0.1045393704440813
'hotel simpatico', 0.11664379403055347
'espacosos e confortaveis', 0.14184594679536275
'piscina', 0.14440353967456926
'hotel', 0.16765075590294867
'confortaveis', 0.17682083541250018
'comuns', 0.1795199256053956
'espacosos', 0.1795199256053956
'area', 0.19205795596895642
'almoco agradavel', 0.19690616167078226
'espreguicadeiras confortaveis', 0.20076544723055262
'pequeno almoco', 0.2126194010046234
'pessoas', 0.2699555628806377
'nao', 0.2801657904575011
'area exterior', 0.3192946643249441
'espacos relvados', 0.3305179222303708
'prestavel e pequeno', 0.35085187517327104
'associacoes de futebol', 0.03029512834024757
'torneio de inter', 0.04442255875091114
'inter associacoes', 0.04442255875091114
'hotel durante', 0.08090260444385484
'Fiquei', 0.1425763482088496
'durante', 0.1425763482088496
'futebol', 0.1425763482088496
'Fiquei neste hotel', 0.1556079167011967
'devido', 0.20623561369847407
'torneio', 0.20623561369847407
'inter', 0.20623561369847407
'associacoes', 0.20623561369847407
'Espaco bem situado', 0.21014445547441377
'super mercados', 0.21014445547441377
'hotel', 0.26248135350821167
'situado junto', 0.29032015911852416
'junto a estrada', 0.29032015911852416
'estrada principal', 0.29032015911852416
'comida agradavel', 0.35049323926518106
'staff muito atencioso', 0.35049323926518106
'hotel relativamente recente', 0.0038390764423194435
'entrada de Beja', 0.013270847680197805
'relativamente recente', 0.021605014754401988
'hotel relativamente', 0.029730546344811294
'serve perfeitamente', 0.05439632465450019
'Beja', 0.07707853816973384
'comuns sao amplas', 0.08558687232703924
'areas comuns sao', 0.11469921337833648
'recente', 0.12446060395599318
'lazer', 0.12446060395599318
'serve', 0.15180847969571257
'sao amplas', 0.15920702365248166
'jardins muitos agradaveis', 0.15920702365248166
'hotel', 0.16991810150085523
'relativamente', 0.16991810150085523
'entrada', 0.16991810150085523
'perfeitamente', 0.16991810150085523
'areas comuns', 0.208694724613944
'comuns sao', 0.208694724613944
'piscina pequena', 0.208694724613944
'viaturas a passar', 0.022643469603737042
'algum ruido', 0.031131699878327774
'ruido de fundo', 0.031131699878327774
'fundo das viaturas', 0.031131699878327774
'piscina pequena', 0.031131699878327774
'Tipico hotel', 0.041038754081469654
'hotel de cidade', 0.12199313591830081
'Tipico', 0.1274307901036871
'passar', 0.1274307901036871
'refrescar', 0.1274307901036871
'hotel', 0.1546759880026472
'cidade', 0.1737578156272008
'algum', 0.1737578156272008
'ruido', 0.1737578156272008
'fundo', 0.1737578156272008
'viaturas', 0.1737578156272008
'piscina', 0.1737578156272008
'pequena', 0.1737578156272008
'almoco', 0.21286154071075483
'servico de pequeno', 0.21678538615470416
'localizacao', 0.21392440447660868
'ficar em Beja', 0.24300408301528645
'Ambiente cuidado', 0.28114928062065825
'Beja', 0.3113425162196888
'melhor', 0.3325894182787558
'confortavel', 0.3769111248463981
'Atendimento no restaurante', 0.43858000333730485
'Ambiente', 0.4684557993654717
'cuidado', 0.4684557993654717
'Excelente sitio', 0.48377009778474184
'bocado a desejar', 0.48377009778474184
'Excelente', 0.5192420090617799
'desejar', 0.5192420090617799
'Atendimento', 0.5521504159471377
'restaurante', 0.5521504159471377
'nao', 0.5521504159471377
'almoco', 0.5755166631958928
'sitio', 0.6279174965423335
'ficar', 0.6279174965423335
'simpatia', 0.6279174965423335
'facil estacionamento', 0.05548791506373929
'estacionamento', 0.18384650468629668
'localizado', 0.28594977825011264
'facil', 0.28594977825011264
'Media', 0.3804377098288575
'Empregados simpaticos', 0.3961384770606322
'espacoso', 0.43894036702943906
'corredores', 0.43894036702943906
'silencioso', 0.43894036702943906
'corredores enormes', 0.4390611617932783
'Empregados', 0.5326712604883735
'simpaticos', 0.5326712604883735
'Pequeno', 0.5827863432271063
'normal', 0.5827863432271063
'sala', 0.5827863432271063
'Preco', 0.6145737782483399
'Piscina', 0.6368253392678804
'traseiras', 0.6368253392678804
'enorme sala', 0.6809214960628158
'enormes', 0.6950887306631456
'Hotel moderno', 0.015465128052409167
'estacionamento bem localizado', 0.015465128052409167
'moderno e simpatico', 0.02140921543860024
'simpatico com estacionamento', 0.02140921543860024
'Hotel', 0.10519328464496844
'localizado', 0.10519328464496844
'espaco circundante', 0.12025258825090053
'moderno', 0.1447773057422032
'simpatico', 0.1447773057422032
'estacionamento', 0.1447773057422032
'piscina exterior', 0.1588666998905099
'exterior e espaco', 0.1588666998905099
'limpo com varanda', 0.20785651292262122
'Pequeno almoco variado', 0.20983282000510095
'espacoso limpo', 0.2704390918235917
'qualidade de sono', 0.2704390918235917
'sono cama', 0.2704390918235917
'Pequeno almoco', 0.2754003999271723
'tipicos do alentejo', 0.2754003999271723
'circundante', 0.2899204041465753
'Hotel pequeno', 0.04596318052117667
'cama enorme', 0.1212797662872539
'Hotel', 0.12365183833006424
'facil de estacionar', 0.15153273849331744
'pequeno almoco', 0.1737589182936571
'agradavel', 0.17623808175807487
'pequeno', 0.1776900472960827
'acessivel e facil', 0.19061514353114034
'Tranquilo', 0.2539037997129153
'serve refeicoes rapidas', 0.2915249328804486
'estacionar', 0.3288797874107566
'espacoso', 0.3288797874107566
'cama', 0.3288797874107566
'enorme', 0.3288797874107566
'refeicoes rapidas', 0.33987493671090957
'servir outras pessoas', 0.33987493671090957
'acessivel', 0.40012252352624206
'facil', 0.40012252352624206
'aula de ginastica', 0.40432167421842
'almoco', 0.4165576365466753
'fiquei neste hotel', 0.015418725392839942
'questoes de limpeza', 0.015418725392839942
'ate muito agradavel', 0.015418725392839942
'ficado um bocado', 0.018005531135716377
'tinha ficado', 0.03668603167756949
'tinham mesmo melhorado', 0.06950498686437068
'hotel', 0.1141761530308695
'atras', 0.1141761530308695
'limpeza', 0.1141761530308695
'estadia', 0.1141761530308695
'agradavel', 0.1141761530308695
'mesmo melhorado', 0.12250401002429441
'melhorado', 0.12487031658925384
'tinha tido', 0.13157800007809087
'fiquei', 0.13299272956092043
'ficado', 0.13299272956092043
'bocado', 0.13299272956092043
'questoes', 0.13299272956092043
'ate', 0.13299272956092043
'tinha', 0.13304409220201377
'parque de estacionamento', 0.022756135458291887
'estacionamento gratuito', 0.028444667933528345
'Hotel', 0.04479446127740731
'parque', 0.10432050725050714
'estacionamento', 0.10432050725050714
'ginasio do hotel', 0.10880863457914862
'gratuito', 0.13256236740720834
'hotel e aberto', 0.15456334764954427
'localizado', 0.15605615807258139
'interior do Hotel', 0.15683992487512083
'pois o ginasio', 0.1568633119304104
'aberto ao publico', 0.1568633119304104
'circular por Beja', 0.17431752037410464
'estacionamento pode ficar', 0.18065686735200184
'possivel chegar rapidamente', 0.21516882450958008
'agradavel', 0.23546900970440304
'Hall de entrada', 0.26552825855843076
'espacos comerciais', 0.2670890093084
'Beja', 0.27789714953662736
'possivel chegar', 0.3049003749818637
'pude trabalhar sossegadamente', 0.014754599188220027
'pude trabalhar', 0.057625497513358236
'trabalhar sossegadamente', 0.057625497513358236
'espaco do hotel', 0.14133480867817905
'hotel', 0.14623340726105694
'sossegadamente no espaco', 0.23066741500873333
'pude', 0.23342178605055275
'trabalhar', 0.23342178605055275
'sossegadamente', 0.23342178605055275
'alem disso', 0.23717973302929607
'agradavel para passar', 0.3590259390453561
'disso', 0.37298875481161287
'usufrui', 0.37298875481161287
'piscina', 0.37298875481161287
'espaco', 0.45079755916013814
'espacos', 0.45079755916013814
'alem', 0.5139833378573802
'lazer', 0.5139833378573802
'agradavel', 0.5139833378573802
'passar', 0.5139833378573802
'agradavel estadia', 0.01635341855727616
'estadia', 0.11445445899563907
'confortavel e limpo', 0.12643513471229129
'pequeno almoco equilibrado', 0.1353888693006134
'agradavel', 0.14058244208808812
'ficar em Beja', 0.21305427683896982
'Staff muito simpatico', 0.21812437882780988
'almoco equilibrado', 0.21812437882780988
'resto', 0.22442969278401326
'simpatico e disponivel', 0.2580036209787172
'pequeno almoco', 0.2580036209787172
'limpo', 0.3098139456738741
'Beja', 0.31356558300764975
'antiga e destoa', 0.3397252680733069
'confortavel', 0.36229356873743684
'Staff', 0.395403598588814
'equilibrado', 0.395403598588814
'lenta', 0.4448988374588852
'simpatico', 0.4528683345307422
'disponivel', 0.4528683345307422
'passa', 0.11674488546882494
'estrelas', 0.1399783945688547
'limite minimo', 0.14313198705266475
'pois nao', 0.14313198705266475
'hotel', 0.1598989840976793
'empregados simpaticos', 0.19135275770653545
'casamentos e batizados', 0.24473846804475427
'minimo', 0.3146248508074336
'pois', 0.3146248508074336
'condicoes exteriores', 0.3169811719106582
'exteriores com piscina', 0.3169811719106582
'piscina e espaco', 0.3169811719106582
'espaco verde', 0.3169811719106582
'verde para casamentos', 0.3169811719106582
'limite', 0.39796721928538276
'nao', 0.39796721928538276
'atendimento', 0.40077181881561696
'empregados', 0.40077181881561696
'simpaticos', 0.40077181881561696
'batizados', 0.40077181881561696
'haver algum casamento', 0.003469853724036919
'tranquilo,servico profissional', 0.010159422250580143
'situado e equipado', 0.015099935621315529
'refeicoes no restaurante', 0.015099935621315529
'restaurante a evitar', 0.015099935621315529
'unico senao', 0.015099935621315529
'instalacoes do hotel', 0.015099935621315529
'marcar pergunte', 0.02249651976012989
'pergunte se durante', 0.02249651976012989
'estadia vai haver', 0.02249651976012989
'haver algum', 0.02249651976012989
'algum casamento', 0.02249651976012989
'casamento nas instalacoes', 0.02249651976012989
'tranquilo', 0.05899937629682816
'equipado', 0.10028582371075691
'tranquilo,servico', 0.10028582371075691
'profissional', 0.10028582371075691
'pequeno-almoco', 0.10028582371075691
'refeicoes', 0.10028582371075691
'evitar', 0.10028582371075691
'estrelas mais proximo', 0.018305613689262187
'casas de banho', 0.018305613689262187
'entrada de brja', 0.02403774993306624
'brja de facil', 0.02403774993306624
'facil acesso', 0.02403774993306624
'presisar de alguma', 0.02403774993306624
'alguma atencao', 0.02403774993306624
'atencao na manutencao', 0.02403774993306624
'manutencao principalmente', 0.02403774993306624
'principalmente das casas', 0.02403774993306624
'estrelas', 0.11733220490486339
'banho', 0.11733220490486339
'Preco razoavel', 0.1388037545742638
'entrada', 0.15321063871178164
'brja', 0.15321063871178164
'facil', 0.15321063871178164
'acesso', 0.15321063871178164
'proximo', 0.15321063871178164
'presisar', 0.15321063871178164
'alguma', 0.15321063871178164
'apresentacao dos funcionarios', 0.005380746843605012
'estavam sempre limpinhos', 0.005380746843605012
'muita sombra', 0.005380746843605012
'pensar novamente', 0.005380746843605012
'hotel muito lindo', 0.00717258304785508
'lindo o espaco', 0.00717258304785508
'espaco exterior', 0.00717258304785508
'proximas ferias', 0.00717258304785508
'funcionarios', 0.06341998722529081
'simpaticos', 0.06341998722529081
'limpinhos', 0.06341998722529081
'decorados', 0.06341998722529081
'sombra', 0.06341998722529081
'novamente', 0.06341998722529081
'apresentacao', 0.08438900089923473
'estavam', 0.08438900089923473
'hotel', 0.08438900089923473
'lindo', 0.08438900089923473
'espaco', 0.08438900089923473
'exterior', 0.08438900089923473
'ligacao WiFi', 0.02647267473940104
'funcionava porque indicaram', 0.02647267473940104
'nao funcionava', 0.04876063515245618
'nao tinha qualidade', 0.04931529893987862
'imagem nao tinha', 0.06574511750444646
'ultimos', 0.11727734907338086
'imagem nao', 0.13067718075977855
'nao tinha', 0.13067718075977855
'tinha qualidade', 0.14422120608705913
'nao', 0.14475639702951865
'ligacao', 0.16059248391596775
'WiFi', 0.16059248391596775
'funcionava', 0.16059248391596775
'indicaram', 0.16059248391596775
'televisao para alem', 0.18957370212977243
'antiga a imagem', 0.18957370212977243
'chuva', 0.22798592199981768
'especial a apontar', 0.24648440379301018
'qualidade', 0.3157372066547484
'televisao', 0.3992026065895332
'estrelas', 0.16818694650269536
'nao', 0.17551853202685075
'hospedada', 0.2255015774006746
'compara', 0.2255015774006746
'hospedada neste hotel', 0.23228425598758623
'hotel', 0.23668337995703856
'rachas nas paredes', 0.26169837729703793
'deitados na cama', 0.26169837729703793
'minimo', 0.283509781198666
'funcionarias', 0.32922796197070875
'permite uma visualizacao', 0.3383208568914631
'visualizacao correta', 0.3383208568914631
'correta se estivermos', 0.3383208568914631
'estivermos deitados', 0.3383208568914631
'paredes', 0.412535400606103
'televisao', 0.412535400606103
'cama', 0.412535400606103
'Existe um ginasio', 0.4311061562010485
'aulas e medonho', 0.4311061562010485
'rachas', 0.5027872579977755
'simpatica e acolhedora', 0.036648279012151626
'gente simpatica', 0.04592358740531942
'Alentejo', 0.07844974803844405
'hotel', 0.1346066457444508
'nao', 0.14740048851935056
'natureza uma regiao', 0.15643811214400752
'regiao de gente', 0.15643811214400752
'regiao', 0.16582855441949262
'acolhedora', 0.16871520716092414
'natureza', 0.2095404752634505
'gente', 0.2095404752634505
'simpatica', 0.2095404752634505
'nao deixa ficar', 0.2846535871386355
'deixa ficar', 0.2983191119220421
'hotel nao deixa', 0.34106310334384493
'fama da regiao', 0.35750535080609874
'nao deixa', 0.39396873887282313
'funcionarios idem', 0.40896495371155744
'hotel nao', 0.4651099424150462
'deixa', 0.4793467792263389
'Funcionarios super simpaticos', 0.048126642155733264
'amorosos e pacientes', 0.10206780541426201
'casa', 0.11186654715268884
'Funcionarios super', 0.13329355853485683
'super simpaticos', 0.13329355853485683
'fosse', 0.15353084316509127
'camas individuais', 0.17857797960742874
'enorme onde cabem', 0.2289290869692944
'Piscinas otimas', 0.23810919972613268
'Comida caseira', 0.28562571817967686
'sol ou sombra', 0.3023251102451721
'Funcionarios', 0.30432682192804345
'simpaticos', 0.30432682192804345
'amorosos', 0.30432682192804345
'pacientes', 0.30432682192804345
'super', 0.3864795434492178
'cabem', 0.3892555301516025
'camas', 0.3892555301516025
'individuais', 0.3892555301516025
'apanhar sol', 0.3893050044576674
'entrada principal cheios', 0.0042542192213185686
'condicionado demasiado ruidoso', 0.0042542192213185686
'Canteiros logo junto', 0.013797198203993007
'Ninguem ajuda', 0.015380821171891606
'ajuda a carregar', 0.02570861714399338
'carregar as malas', 0.02570861714399338
'junto a entrada', 0.02570861714399338
'entrada principal', 0.02570861714399338
'principal cheios', 0.02570861714399338
'cheios de beatas', 0.02570861714399338
'beatas e garrafas', 0.02570861714399338
'garrafas vazias', 0.02570861714399338
'vazias Ar condicionado', 0.02570861714399338
'condicionado demasiado', 0.02570861714399338
'demasiado ruidoso', 0.02570861714399338
'ruidoso As empregadas', 0.02570861714399338
'empregadas da recepcao', 0.02570861714399338
'Canteiros', 0.08596317751626563
'Ninguem', 0.09568045026443411
'sorridentes', 0.09568045026443411
'Hotel recente', 0.07248127608561676
'recente', 0.1414324950172356
'razoaveis', 0.1414324950172356
'agradavel', 0.14587403346736671
'quantidade e variedade', 0.1967232578650901
'Hotel', 0.2389224246844117
'funcionarios', 0.2723052784468705
'profissionais possivel', 0.32978061160384403
'confecionada', 0.36391655615958884
'variedade', 0.36391655615958884
'notava-se a escassez', 0.4236673028656441
'alimentacao', 0.45171047575405315
'quantidade', 0.45171047575405315
'possivel', 0.4546078219723644
'lamentar', 0.5053199642867494
'evitavam ser incomodados', 0.5092028065473302
'incomodados', 0.5383340420770655
'atendimento', 0.545516911455266
'notava-se', 0.545516911455266
'escassez', 0.545516911455266
'surpresa agradavel', 0.0243232841157239
'imaginei que Beja', 0.12111683146919729
'Beja tivesse', 0.12111683146919729
'mim', 0.12762544885024293
'agradavel', 0.12762544885024293
'hotel moderno', 0.17523027550857964
'surpresa', 0.18605780169822753
'tivesse um hotel', 0.24355831154277052
'Beja', 0.24410980733606844
'Funcionarios muito simpaticos', 0.29242757577644707
'Restaurante com comida', 0.29556773978679457
'moderno', 0.33691300306840244
'comida caseira', 0.4037852554850812
'Restaurante', 0.4253750521094019
'precos', 0.4253750521094019
'imaginei', 0.44255617012398485
'tivesse', 0.44255617012398485
'hotel', 0.44255617012398485
'almoco era fraco', 0.458624670128347
'Funcionarios', 0.4756703201763729
'Beja Parque hotel', 0.0004132962119088212
'andar atras deles', 0.0018680583894860102
'preciso andar atras', 0.0022612505182693136
'lhes pedimos alguma', 0.0036307758016514255
'Beja Parque', 0.003803727653810647
'Parque hotel', 0.006649239275822091
'familia no Beja', 0.008018281906887728
'simplesmente esquecem-se', 0.011648136726793141
'atras deles', 0.014060801910272787
'pois refugiam-se', 0.014060801910272787
'refugiam-se na cozinha', 0.014060801910272787
'funcionarios afectos', 0.016981588204310304
'afectos a restauracao', 0.016981588204310304
'restauracao fogem', 0.016981588204310304
'refeicoes e preciso', 0.016981588204310304
'preciso andar', 0.016981588204310304
'andar atras', 0.016981588204310304
'finalmente os encontramos', 0.016981588204310304
'encontramos e lhes', 0.016981588204310304
'lhes pedimos', 0.027051929613360157
'Nao tem wi-fi', 0.05651645111903128
'estrelas', 0.0919503506300542
'Hotel', 0.1762218293755926
'Nao', 0.18556036332872616
'inadmissivel num Hotel', 0.22816293933300996
'wi-fi', 0.2882792642411684
'inadmissivel', 0.2882792642411684
'qualidade', 0.3320847844164923
'Preco', 0.5355033214559366
'Preco elevado', 0.562261142921601
'colchao', 0.5845018259173318
'fraca', 0.5845018259173318
'Pequeno-almoco', 0.5855509997472361
'rudimentar', 0.5855509997472361
'caseiros', 0.5855509997472361
'fraca qualidade', 0.6345433290618187
'elevado', 0.6720820110020387
'qualidade do Hotel', 0.6795510591682153
'servico', 0.7152391996661452
'produtos', 0.7152391996661452
'pequeno almoco razoavel', 0.003514423847087336
'garcaons super simpaticos', 0.005113608588049102
'razoavel super basico', 0.008609642519225203
'almoco razoavel super', 0.008609642519225205
'feira absurdo', 0.019140227991962366
'pequeno almoco', 0.019140227991962366
'super simpaticos', 0.027529859354796064
'semana e falaram', 0.03180378063984036
'almoco razoavel', 0.03180378063984036
'razoavel super', 0.04599466760263314
'super basico', 0.04599466760263314
'garcaons super', 0.04599466760263314
'feito', 0.10697254906238414
'passei', 0.10697254906238414
'arrumar', 0.10697254906238414
'absurdo', 0.10697254906238414
'pequeno', 0.10697254906238414
'simpaticos', 0.10697254906238414
'super', 0.12522965991288681
'problemas', 0.17556616280527482
'Relacao qualidade preco', 0.052138802728218935
'Relacao qualidade', 0.062216103928351287
'qualidade preco excelente', 0.13989200631630716
'Relacao', 0.1947766394634909
'excelente', 0.21375572530733933
'qualidade preco', 0.23230989057521192
'qualidade', 0.3007135942367646
'preco excelente', 0.36612904287478726
'visitei na regiao', 0.3763810397684005
'servico excelente', 0.41423300814036534
'Recomendo', 0.45559637311532936
'regiao', 0.4565526938858652
'Restaurante', 0.5503553408136956
'melhor', 0.5989604502725279
'visitei', 0.5989604502725279
'Pequeno', 0.5999980997739773
'fenomenal', 0.5999980997739773
'preco', 0.6268948535845288
'precos', 0.6268948535845288
'Hotel', 0.6313037983901716
'hotel esta cansado', 0.046832390545904753
'cansado', 0.17745364393317176
'melhor', 0.25097199725826597
'hotel', 0.2521066218708336
'finas e duras', 0.30040841000729657
'Moveis', 0.3451150779523213
'toalhas sao finas', 0.35561871304858167
'Tapetes gastos', 0.3743534686571006
'toalhas sao', 0.4101835573174892
'sao finas', 0.4101835573174892
'COVID', 0.4128934924056885
'Beja', 0.4128934924056885
'duras', 0.4283324889812126
'causa do COVID', 0.44800553762444056
'opcao em Beja', 0.44800553762444056
'Tapetes', 0.521905302584567
'gastos', 0.521905302584567
'toalhas', 0.539325929134185
'sao', 0.539325929134185
'finas', 0.539325929134185
'consultas hospitalares', 0.012685537948357042
'chuveiros sao antiquados', 0.04196110955849797
'jardins sao agradaveis', 0.04196110955849797
'Ficar', 0.0994110944871128
'hospitalares', 0.0994110944871128
'reforma e ampliacao', 0.1018876087768281
'tranquilo ou pacifico', 0.1018876087768281
'tendo dito', 0.1018876087768281
'prestativos e atenciosos', 0.1018876087768281
'sao antiquados', 0.10576399576889195
'sao agradaveis', 0.10576399576889195
'sao', 0.11504616190985491
'nao e tranquilo', 0.125274470409084
'pessoalmente o classificaria', 0.125274470409084
'area da piscina', 0.125274470409084
'conveniente', 0.12600837925967248
'consultas', 0.12600837925967248
'funcionarios sao', 0.13014571944272604
'chuveiros sao', 0.13014571944272604
'jardins sao', 0.13014571944272604
'volta para Faro', 0.01441558220865492
'hotel no caminho', 0.030803441134664936
'caminho de volta', 0.030803441134664936
'Faro', 0.08220620270100175
'Caiu', 0.11797671014185607
'estabelecimento muito profissional', 0.1539412127363319
'provavelmente usado', 0.1539412127363319
'conferencias de negocios', 0.1539412127363319
'hotel', 0.17286683788205306
'caminho', 0.17286683788205306
'volta', 0.17286683788205306
'feliz', 0.17286683788205306
'etc', 0.20717186494652254
'usado para conferencias', 0.21489669178785997
'jardins encantadores', 0.26176225393615005
'profissional', 0.3171947781126727
'provavelmente', 0.3171947781126727
'negocios', 0.3171947781126727
'altura do verao', 0.34393543650132563
'vale a pena', 0.34393543650132563
'Convenientemente Situado', 0.011792424780444464
'Situado na extremidade', 0.01604407583486375
'extremidade do reboque', 0.03891041645527183
'reboque este hotel', 0.05756442451225365
'Situado', 0.0815940084055813
'hotel nao poderia', 0.11426863071676313
'hotel', 0.1406285339514595
'Convenientemente', 0.14284117771690907
'bem-vindo', 0.14284117771690907
'hotel nao', 0.18120535783655004
'nao', 0.1818113228653938
'extremidade', 0.19352803597705948
'reboque', 0.19352803597705948
'paragem', 0.19352803597705948
'Estavamos viajando', 0.1999678208529887
'acolhedor e util', 0.1999678208529887
'viajando com pessoas', 0.2604569274323193
'pessoas idosas', 0.2604569274323193
'idosas com deficiencia', 0.2604569274323193
'deficiencia membros', 0.2604569274323193
'Moderno hotel localizado', 0.0031727926065944706
'Moderno hotel', 0.01859446618045681
'centro da cidade', 0.01859446618045681
'hotel localizado', 0.027581485432184485
'curta distancia', 0.027581485432184485
'distancia do centro', 0.027581485432184485
'Moderno', 0.11142476118001256
'cidade', 0.11142476118001256
'Acesso a internet', 0.14005713113751553
'oferecido no lobby', 0.14005713113751553
'hotel', 0.16383273847958243
'localizado', 0.16383273847958243
'curta', 0.16383273847958243
'distancia', 0.16383273847958243
'centro', 0.16383273847958243
'internet e oferecido', 0.19613242932716538
'equipe e amistosa', 0.23956129807083346
'Acesso', 0.3033846052649951
'lobby', 0.3033846052649951
'amistosa', 0.3881970960906714
