Expressao, Frequencia
'referencias em revistas', 0.015182204378765869
'revistas e teria', 0.015182204378765869
'Conhecia', 0.09639203558869255
'parecia', 0.09639203558869255
'Finalmente visitei', 0.09667870557746086
'mesmo assim surpreendeu', 0.09667870557746086
'visitei e mesmo', 0.11899639845920473
'referencias', 0.12229125971027831
'revistas', 0.12229125971027831
'teria', 0.12229125971027831
'pecas de design', 0.1695260809619809
'arquitectonica e natural', 0.1695260809619809
'atencao e educacao', 0.1695260809619809
'beleza arquitectonica', 0.2062405690335538
'ultimo a atencao', 0.2062405690335538
'rocar a perfeicao', 0.22630503838095226
'Finalmente', 0.2703328680552898
'surpreendeu', 0.2703328680552898
'pensava', 0.2703328680552898
'inesgotaveis', 0.28396041294839813
'Excelente esta unidade', 0.006617494767424653
'parabens ao Francois', 0.009006135945833575
'Receber as pessoas', 0.009006135945833575
'Alentejo demonstrou', 0.013298450721193376
'don natural', 0.027581485432184485
'consegue dar sentimento', 0.027581485432184485
'unico aspecto negativo', 0.050585226696829876
'Excelente', 0.05899937629682816
'Alentejo', 0.08010561870176523
'Francois', 0.08010561870176523
'Receber', 0.08010561870176523
'descansar', 0.11142476118001256
'unidade', 0.11142476118001256
'parabens', 0.11142476118001256
'pessoas', 0.11142476118001256
'palavras', 0.11142476118001256
'unico aspecto', 0.14005713113751553
'aspecto negativo', 0.14005713113751553
'demonstrou', 0.16383273847958243
'don', 0.16383273847958243
'impossivel nao falar', 0.0009892310419049276
'Villa Extramuros', 0.00309162496897636
'guardar como segredo', 0.009230376283656094
'nao falar', 0.009230376283656094
'locais que queremos', 0.011189445364643204
'queremos guardar', 0.011189445364643204
'impossivel nao', 0.011189445364643204
'Villa', 0.055516630689826464
'Extramuros', 0.055516630689826464
'tradicao alentejana', 0.0776473131400514
'segredo', 0.08694429213997827
'falar', 0.08694429213997827
'fusao perfeita', 0.09176722877299731
'respeito pela tradicao', 0.09176722877299731
'locais', 0.10519328464496844
'queremos', 0.10519328464496844
'guardar', 0.10519328464496844
'impossivel', 0.10519328464496844
'nao', 0.10519328464496844
'pequeno-almoco e soberbo', 0.18558613430779206
'atendimento do Francois', 0.015135907143054975
'Alem das instalacoes', 0.03399314500591495
'instalacoes fantasticas', 0.03399314500591495
'espacosas e decoradas', 0.04969726639496457
'impressionante o atendimento', 0.04969726639496457
'Francois', 0.06852515831077567
'Alem', 0.1510913041812426
'fantasticas', 0.1510913041812426
'gosto', 0.1510913041812426
'guiada pela Villa', 0.1884635874201307
'instalacoes', 0.21758763780062237
'espacosas', 0.21758763780062237
'decoradas', 0.21758763780062237
'impressionante', 0.21758763780062237
'atendimento', 0.21758763780062237
'recebem os amigos', 0.23105231946918603
'Alentejo nos oferece', 0.25174367216658394
'Villa', 0.2712686539051791
'visita', 0.2858391663036404
'Faz-nos', 0.30105727786035347
'staff especialmente atencioso', 0.002721452292289981
'especialmente atencioso', 0.018025103280111664
'staff especialmente', 0.021715241486006842
'simpatico e agradavel', 0.08309381403806178
'Villa design', 0.09826293772253668
'atencioso', 0.1214512191956589
'simpatico', 0.1214512191956589
'localizacao', 0.14578652886157534
'staff', 0.14578652886157534
'especialmente', 0.14578652886157534
'Villa', 0.14955871059399461
'design', 0.14955871059399461
'agradavel', 0.14955871059399461
'Piscina e espaco', 0.2356841258748424
'espaco exterior', 0.2734618731621792
'design bastante moderno', 0.2753486592466139
'pequeno almoco tipico', 0.28392366285058385
'exterior muito agradavel', 0.3087824291071821
'agradavel e apresentacao', 0.3087824291071821
'villa muito interessante', 0.3087824291071821
'Projeto e decoracao', 0.01492187976842525
'decoracao com preocupacao', 0.01894172200619551
'Projeto', 0.10783403710065408
'detalhe', 0.10783403710065408
'piscina sao deslumbrantes', 0.10989096090704016
'decoracao', 0.13634369408067007
'preocupacao', 0.13634369408067007
'gosto e beleza', 0.14338522795319342
'beleza estao', 0.14338522795319342
'proprietarios sao atenciosos', 0.18329456299391494
'sao deslumbrantes', 0.18511594014442004
'sao', 0.20579994657154074
'piscina sao', 0.22366506752189874
'sol na piscina', 0.245649967229599
'proprietarios sao', 0.25566789471883383
'sao atenciosos', 0.25566789471883383
'servico e impecavel', 0.26891870470088725
'atraves de mimos', 0.26891870470088725
'reservas de restaurantes', 0.26891870470088725
'restaurantes e passeios', 0.26891870470088725
'Adoramos a Arquitectura', 0.008004343826365995
'gosto da decoracao', 0.017198297680814843
'pecas lindas', 0.017198297680814843
'lindas de design', 0.022604942915998162
'design e artesanato', 0.022604942915998162
'artesanato local escolhidas', 0.022604942915998162
'Arquitectura', 0.06982826610626978
'escolhidas pelos proprietarios', 0.10001840910324653
'Proprietario Francois', 0.10305167268890571
'Adoramos', 0.11371874902852068
'decoracao', 0.11371874902852068
'pecas', 0.11371874902852068
'pequeno almoco', 0.13171194294164676
'sabores regionais', 0.13171194294164676
'gosto', 0.14867836053388048
'lindas', 0.14867836053388048
'design', 0.14867836053388048
'artesanato', 0.14867836053388048
'escolhidas', 0.14867836053388048
'limpeza impecavel', 0.22651300759417387
'tinha tido conhecimento', 0.002409002778437335
'magnifica casa atraves', 0.0067324096069412
'tinha tido', 0.017703522091319895
'tido conhecimento', 0.017703522091319895
'conhecimento desta magnifica', 0.017703522091319895
'desejei poder vir', 0.017703522091319895
'vir a ficar', 0.017703522091319895
'magnifica casa', 0.04829887017780725
'casa atraves', 0.04829887017780725
'revista', 0.11155538600635428
'envolvencia da propriedade', 0.1288303123088086
'propriedade', 0.131290407688227
'tinha', 0.13189222653675423
'tido', 0.13189222653675423
'conhecimento', 0.13189222653675423
'magnifica', 0.13189222653675423
'atraves', 0.13189222653675423
'desejei', 0.13189222653675423
'vir', 0.13189222653675423
'ficar', 0.13189222653675423
'Linda propriedade', 0.008070822553693024
'integrada a natureza', 0.00999655547789841
'natureza e decorada', 0.012387422852185196
'vilarejo de Arraiolos', 0.04782740014424065
'Linda', 0.08947740433569534
'propriedade', 0.08947740433569534
'integrada', 0.08947740433569534
'gosto', 0.08947740433569534
'terreno ha oliveiras', 0.10010491111446085
'oliveiras centenarias', 0.10010491111446085
'hotel e possivel', 0.10010491111446085
'possivel avistar', 0.10010491111446085
'avistar o vilarejo', 0.10010491111446085
'natureza', 0.11061578629340411
'decorada', 0.11061578629340411
'hospedagem no Alentejo', 0.11749473866205867
'sao muito confortaveis', 0.147154689624167
'manha e delicioso', 0.147154689624167
'Arraiolos', 0.1513130489501207
'atendimento e personalizado', 0.1753515542820386
'vista de Arraiolos', 0.007732908535387047
'arquitetura e decoracao', 0.011326071590296352
'adora arquitetura', 0.014973081153661923
'gosto dos proprietario', 0.014973081153661923
'proprietario deixa', 0.014973081153661923
'paisagem cercada', 0.014973081153661923
'cercada de oliveiras', 0.014973081153661923
'oliveiras centenarias', 0.014973081153661923
'horizonte a vista', 0.014973081153661923
'Arraiolos', 0.06317847011367385
'Imperdivel', 0.09220612519689587
'decoracao', 0.09220612519689587
'lindo', 0.09220612519689587
'alem', 0.09220612519689587
'castelo', 0.09220612519689587
'atendidos e recebidos', 0.092410575532421
'sentimos em casa', 0.11760737401357556
'super bem atendidos', 0.11760737401357556
'adora', 0.12145861573270843
'arquitetura', 0.12145861573270843
'donos sao simpatiquissimos', 0.004737258569048452
'almoco e excelente', 0.01859446618045681
'design fantastico', 0.027581485432184485
'pequeno almoco', 0.027581485432184485
'donos sao', 0.027581485432184485
'sao simpatiquissimos', 0.027581485432184485
'gosto', 0.11142476118001256
'excelente', 0.11142476118001256
'prestaveis', 0.11142476118001256
'Mesmo estando', 0.14005713113751553
'casa', 0.16383273847958243
'design', 0.16383273847958243
'fantastico', 0.16383273847958243
'pequeno', 0.16383273847958243
'almoco', 0.16383273847958243
'donos', 0.16383273847958243
'sao', 0.16383273847958243
'simpatiquissimos', 0.16383273847958243
'estando a chover', 0.19613242932716538
'chover torrencialmente', 0.19613242932716538
'Simplesmente apaixonados', 0.014140430646284372
'sao extremamente simpaticos', 0.05095451746390382
'proprietarios sao extremamente', 0.06451515140235725
'Simplesmente', 0.11003459567390252
'Villa', 0.1123969154849169
'sao extremamente', 0.12648574797184445
'extremamente simpaticos', 0.12648574797184445
'apaixonados', 0.12671711803943575
'proprietarios sao', 0.1575071206885791
'tempo se pudessemos', 0.1946518043935165
'proprietarios', 0.20304326085048563
'ficariamos mais tempo', 0.21839374974771747
'recomendacoes de Francois', 0.22982756056872888
'regiao do Alentejo', 0.22982756056872888
'espacos muito agradaveis', 0.2587197195804169
'voce possa aproveitar', 0.26550792578648896
'simpaticos e atenciosos', 0.2953727112354492
'paisagem natural', 0.30973284550269886
'Francois', 0.3321035378462279
'Alentejo', 0.3321035378462279
'Villa Extramuros', 0.0036387827006907837
'agradavelmente envolvidos', 0.02138122263578156
'belissimo olival', 0.02138122263578156
'olival que rodeia', 0.02138122263578156
'rodeia a elegante', 0.02138122263578156
'elegante e moderna', 0.02138122263578156
'moderna arquitectura', 0.02138122263578156
'chegar a Villa', 0.02375998972339877
'arquitectura da Villa', 0.02375998972339877
'Villa', 0.03233148494050001
'Extramuros', 0.056069029512758044
'pecas tradicionais alentejanas', 0.07340472609136332
'paz do Alentejo', 0.11929790777951761
'espacos comuns', 0.12234247139209384
'brilhantemente decorados', 0.12971122634617585
'design internacional', 0.12971122634617585
'imediatamente nos acolhem', 0.12971122634617585
'sentir em casa', 0.12971122634617585
'chegar', 0.14468460839322575
'agradavelmente', 0.14468460839322575
'escolha para familias', 0.012616617356585095
'familias pequenas', 0.012616617356585095
'pequenas ou casais', 0.012616617356585095
'Excelente escolha', 0.025383770585926106
'Alentejo', 0.04988693933336864
'simpatico e educado', 0.09058283656781448
'proprietario e hiper', 0.10168251343275153
'hiper simpatico', 0.10168251343275153
'escolha', 0.11162177924469503
'familias', 0.11162177924469503
'pequenas', 0.11162177924469503
'casais', 0.11162177924469503
'desafogadas vistas', 0.15958509386630484
'sao um espectaculo', 0.17794500208790268
'excelentes e desafogadas', 0.19129039780800067
'caseiros e regionais', 0.21356559668213207
'Excelente', 0.22177917002992373
'excelentes', 0.22177917002992373
'pequeno almoco', 0.23729407632931918
'alta qualidade', 0.23729407632931918
'Localizacao privilegiada', 0.010724434075187554
'arquitectura e decoracao', 0.012726969891275183
'decoracao de extremo', 0.01510902188629545
'extremo bom gosto', 0.02797954321139139
'gosto irrepreensivel.O pequeno', 0.05270752249521088
'irrepreensivel.O pequeno almoco', 0.09616112564713783
'gosto irrepreensivel.O', 0.10144644850428419
'Localizacao', 0.10300796549666437
'privilegiada', 0.10300796549666437
'arquitectura', 0.10300796549666437
'gosto', 0.11154865052630741
'consegue-se relaxar', 0.1185107328159084
'relaxar e descansar', 0.1185107328159084
'descansar em profunda', 0.1185107328159084
'profunda paz', 0.1185107328159084
'paz e harmonia', 0.1185107328159084
'decoracao', 0.12200056201755945
'extremo', 0.12200056201755945
'deram-nos optimas sugestoes', 0.15389987340973452
'muitissimo agradaveis', 0.15616487297005952
'pequeno paraiso mesmo', 0.005853962749970537
'encosta de Arraiolos', 0.01089044910448558
'Villa Extramuros', 0.023473144488113912
'look Mad Men', 0.024207813359209095
'encontra-se este pequeno', 0.025123192806434803
'pequeno paraiso', 0.03166741264172437
'paraiso mesmo', 0.03166741264172437
'mesmo na encosta', 0.03166741264172437
'Men o Villa', 0.047694310027202765
'Mad Men', 0.04845480132758135
'Lisboa', 0.06149010889110277
'Arraiolos', 0.06149010889110277
'look Mad', 0.10043250490477279
'Villa', 0.10587866025534223
'Extramuros', 0.10587866025534223
'encontra-se', 0.1398821625483334
'Alentejo', 0.15688671040331204
'Alentejo profundo', 0.16502131186815372
'sitio', 0.16565293894200028
'pequeno', 0.17520094093110516
'rodeada de serenidade', 0.01911893411113409
'casa soberba', 0.03107735477427921
'ambiente muito acolhedor', 0.050888965170882816
'acolhedor numa casa', 0.050888965170882816
'soberba', 0.13696809108329627
'rodeada', 0.13696809108329627
'serenidade', 0.13696809108329627
'excelente', 0.19677146788549632
'musica suave', 0.21339268578732606
'suave sempre presente', 0.21339268578732606
'ambiente', 0.2200560909321288
'acolhedor', 0.2200560909321288
'casa', 0.2200560909321288
'definitivamente', 0.26303348124903125
'voltaremos', 0.26303348124903125
'perfeito para recarregar', 0.32441639786848336
'recarregar baterias', 0.32441639786848336
'baterias ao som', 0.32441639786848336
'som da natureza', 0.32441639786848336
'musica', 0.3553358554145339
'eram tao espacosos', 0.041966913911065176
'banho eram tao', 0.04691524030729456
'sentimento do Alentejo', 0.10265454954508924
'tao', 0.10533558651817752
'tao espacosos', 0.10604779609865257
'nao podiamos pedir', 0.10893303899520487
'incrivel', 0.11143714591331216
'cores soberbas', 0.11251876621897443
'eram tao', 0.11773980906877961
'periodo tao cobicoso', 0.12407114537441108
'pequenos-almocos maravilhosos', 0.12500485097819447
'maravilhosos com cores', 0.12500485097819447
'casas de banho', 0.12500485097819447
'banho eram', 0.12500485097819447
'varanda privada', 0.12500485097819447
'privada e optima', 0.12500485097819447
'tao cobicoso', 0.17454737197845097
'durante', 0.18220705051198888
'periodo tao', 0.18976540036088757
'beleza', 0.19065477772553502
'Escondida no campo', 0.012045781246665235
'perfeito para relaxar', 0.016626316719119922
'deslumbrante vila', 0.022988213374765323
'Escondida', 0.10909815511827554
'campo', 0.10909815511827554
'relaxar', 0.10909815511827554
'Hospitalidade maravilhosa', 0.1278244235492756
'deslumbrante', 0.149905405948569
'vila', 0.149905405948569
'perfeito', 0.149905405948569
'maravilhosa dos proprietarios', 0.1685853064821579
'proprietarios e funcionarios', 0.1685853064821579
'Arte interessante', 0.22010868773592726
'interessante e espacos', 0.2859226927845332
'espacos com curadoria', 0.2859226927845332
'Area da piscina', 0.29106528397220843
'piscina foi incrivel', 0.29106528397220843
'Hospitalidade', 0.2983957947604909
'Recomendaria', 0.3568200533666425
'maravilhosa', 0.3798215915560938
'Francois e Jean', 0.030703341111557324
'pormenores sao perfeitos', 0.03823995162875082
'muitas espreguicadeiras confortaveis', 0.04762385507999226
'Christophe foram anfitrioes', 0.05516562411511788
'proprio Francois', 0.06566067838063985
'Perfeicao', 0.0735213235525295
'sao perfeitos', 0.09854859012088862
'oliveiras antigas', 0.09854859012088862
'arquitectura e interior', 0.09854859012088862
'almocos ea piscina', 0.09854859012088862
'piscina azul', 0.09854859012088862
'aninhada entre flores', 0.09854859012088862
'estadia memoravel', 0.09854859012088862
'deliciosos pequenos', 0.11276552341372703
'pequenos lugares', 0.11276552341372703
'pormenores sao', 0.12125096453347652
'localizacao e central', 0.12125096453347652
'central mas tranquila', 0.12125096453347652
'tranquila e escondida', 0.12125096453347652
'escondida entre oliveiras', 0.12125096453347652
'Villa Extremura', 0.004687317237959923
'favoritos na Europa', 0.00926458445593811
'lista de refugios', 0.025264111118808684
'refugios favoritos', 0.025264111118808684
'Europa', 0.05847722793148557
'Villa', 0.06830409064894848
'Extremura', 0.06830409064894848
'Devido ao toque', 0.15315162694926732
'lista', 0.15697631639850676
'refugios', 0.15697631639850676
'favoritos', 0.15697631639850676
'convidado pessoal', 0.15706533234182632
'pessoal', 0.17282293414247804
'nice', 0.19438099057863348
'nice piscina', 0.1989071366963095
'nice atmosfera', 0.1989071366963095
'jantar', 0.2148062962203144
'estao em Evora', 0.23893800362112663
'precisa', 0.24804685754303113
'restaurantes', 0.2544228452736539
'casa principal', 0.015339911175814095
'casa', 0.04700193642078531
'Cabanon olhava', 0.059365818316453906
'principal e ambos', 0.061283288637617964
'superior na casa', 0.0661665355431511
'casa tinha', 0.0756759709043068
'principal', 0.07800226704502894
'apreciamos', 0.12926141390037393
'fantastica da cidade', 0.14586462974717646
'superior', 0.1468794050653276
'ambos', 0.1468794050653276
'cabanons', 0.14975788931168454
'Cabanon', 0.14975788931168454
'tinha uma vista', 0.1628227583219413
'vista fantastica', 0.1628227583219413
'surpreendentes', 0.16403407816893315
'pastries portugueses surpreendentes', 0.21037103078706812
'patio', 0.21200196384655298
'principal e impressionante', 0.21319446372903977
'sala da casa', 0.22444399037112295
'estadia foi fantastica', 0.022118018904565998
'setembro por tres', 0.027930688692761472
'Villa Extramuros', 0.030691253946971538
'hospedaram no Villa', 0.03849039577941397
'area circundante deslumbrante', 0.07527629839855018
'Extramuros em setembro', 0.09822943054777958
'Villa', 0.11242450667663739
'Extramuros', 0.1286031838181902
'fantastica', 0.13127628384430268
'ambiente relaxante', 0.13438594756940914
'circundante deslumbrante', 0.16276612404935864
'arquitetura e design', 0.16276612404935864
'discreto e bonito', 0.16276612404935864
'cafe da manha', 0.16276612404935864
'manha delicioso', 0.16276612404935864
'tipo resposta', 0.16276612404935864
'resposta a consultas', 0.16276612404935864
'amigo', 0.16483859575044682
'hospedaram', 0.16483859575044682
'setembro', 0.16483859575044682
'casa elegante gerido', 0.012164019732225138
'generosos e amaveis', 0.03107735477427921
'experiencia maravilhosa', 0.050888965170882816
'maravilhosa nesta casa', 0.050888965170882816
'casa elegante', 0.050888965170882816
'elegante gerido', 0.050888965170882816
'gerido por anfitrioes', 0.050888965170882816
'anfitrioes generosos', 0.050888965170882816
'amaveis', 0.13696809108329627
'ambiente tranquilo', 0.21339268578732606
'tratamento especial', 0.21339268578732606
'experiencia', 0.2200560909321288
'maravilhosa', 0.2200560909321288
'casa', 0.2200560909321288
'elegante', 0.2200560909321288
'gerido', 0.2200560909321288
'anfitrioes', 0.2200560909321288
'generosos', 0.2200560909321288
'servico impecavel sao', 0.23882781063487385
'servico impecavel', 0.32441639786848336
'Extramuros no inicio', 0.012531387818048996
'Villa Extramuros', 0.01821098332112328
'inicio de julho', 0.0310850079352391
'Extramuros', 0.07127913496357591
'hospedaram no Villa', 0.10101815513355096
'Francois e Jaques', 0.125132681878713
'Villa', 0.12545939907768666
'estadia incrivelmente decepcionante', 0.1302165294912457
'sao', 0.14336512042280433
'principalmente decepcionante', 0.17154623514071643
'decepcionante', 0.17354210725897257
'hospedaram', 0.17363139527071225
'inicio', 0.17363139527071225
'julho', 0.17363139527071225
'saco misto', 0.18243566784017465
'estadia', 0.1981196410608836
'incrivelmente decepcionante', 0.24435399967628946
'hipoteses', 0.24907497468939868
'atitudes de Francois', 0.2666253188562292
'villa por recomendacao', 0.2814313699822108
'NAO PODERAMOS AMAR', 0.00017713493838676932
'NAO PODERAMOS', 0.003144849167800419
'PODERAMOS AMAR', 0.003144849167800419
'AMAR ESTE HOTEL', 0.003144849167800419
'NAO', 0.05599098228110866
'PODERAMOS', 0.05599098228110866
'AMAR', 0.05599098228110866
'HOTEL', 0.05599098228110866
'Suite Junior', 0.12367032739250149
'Ficamos na Suite', 0.1837350518023308
'Junior e adorei', 0.20428837857865104
'visitam Portugal', 0.2720379784107373
'Portugal para aproveitar', 0.2720379784107373
'privacidade extra', 0.31446574989086057
'lua neste pitoresco', 0.32141789982940316
'pitoresco wonderland', 0.32141789982940316
'wonderland e totalmente', 0.32141789982940316
'totalmente o bar', 0.32141789982940316
'bar muito alta', 0.32141789982940316
'Suite', 0.33175180840688223
'Despretenciosamente elegante', 0.01905505769278067
'museu moderno', 0.01905505769278067
'nao minimo', 0.03958929754193497
'pecas de designer', 0.07028791653393975
'elegante com pecas', 0.0856198878771995
'pecas coletivas', 0.08639343440475322
'nao', 0.10276146940600497
'Evora e Estremoz', 0.11339865530392043
'minutos para Monsaraz', 0.1187524329873463
'pecas', 0.12099306290499173
'Despretenciosamente', 0.12352772285927241
'designer', 0.12352772285927241
'moderno', 0.12352772285927241
'minimo', 0.12352772285927241
'nao podiam pagar', 0.12576499938604094
'minutos para Evora', 0.1349797239962671
'Linhas retas', 0.14378353697867652
'elegante', 0.15137291827123017
'hospedar', 0.15137291827123017
'museu', 0.15137291827123017
'tempo atras', 0.016678680463619082
'oportunidade perfeita', 0.016678680463619082
'revista um tempo', 0.020109296235572813
'lua de mel', 0.020109296235572813
'mel parecia', 0.020109296235572813
'nao iria atende-los', 0.052436803944912784
'estadia nao iria', 0.062098765055433144
'expectativas eram tao', 0.06756504363429464
'eram tao altas', 0.06756504363429464
'queria ficar', 0.10958794832910271
'atras', 0.11684305094213061
'perfeita', 0.11684305094213061
'iria atende-los', 0.12860779115262846
'estadia nao', 0.13935723729446226
'nao iria', 0.13935723729446226
'visitar', 0.14040257836425749
'revista', 0.14040257836425749
'tempo', 0.14040257836425749
'lua', 0.14040257836425749
'mel', 0.14040257836425749
'ninguem o encontre', 0.03464100665488207
'fica muito ocupado', 0.03464100665488207
'mesmo escrever', 0.05061932443055151
'escrever um comentario', 0.05061932443055151
'quase nao', 0.054625623779456026
'nao fica', 0.054625623779456026
'nao', 0.11798658051932141
'nao quero mesmo', 0.11952193227539508
'encontre', 0.15253353555298518
'ocupado', 0.15253353555298518
'mundo merece saber', 0.16664692256079802
'quase', 0.21950048290078902
'mesmo', 0.21950048290078902
'escrever', 0.21950048290078902
'comentario', 0.21950048290078902
'esperanca', 0.21950048290078902
'ninguem', 0.21950048290078902
'fica', 0.21950048290078902
'merece saber', 0.23466627666566495
'casa', 0.3049019405460039
'acomodacao nesta area', 0.009453991537004078
'diferente de qualquer', 0.010635352958381862
'qualquer outra acomodacao', 0.010635352958381862
'Exclusivamente elegante', 0.07934310685534558
'simples e contemporanea', 0.07934310685534558
'curiosidades modernas', 0.07934310685534558
'esquisitices retro', 0.07934310685534558
'livros e revistas', 0.07934310685534558
'longa estrada sinuosa', 0.08533315792429295
'serie de curiosidades', 0.08785568664734834
'pedacos de kitsch', 0.08785568664734834
'montanha de livros', 0.08785568664734834
'area', 0.09129562558536022
'diferente', 0.10258378302146942
'qualquer', 0.10258378302146942
'acomodacao', 0.10258378302146942
'sul de Arraiolos', 0.10942908260437034
'nao tao clara', 0.11391803440266018
'caminho levemente inclinado', 0.11391803440266018
'levemente inclinado ate', 0.11391803440266018
'Villa Extramuros', 0.0045100635517991575
'ficar no Villa', 0.009226825982974956
'semanas em Portugal', 0.009226825982974956
'Optamos por ficar', 0.014395443814846464
'Jean Christophe conseguiram', 0.04179312112361497
'Villa', 0.06700607587675565
'Extramuros', 0.06700607587675565
'Portugal', 0.06700607587675565
'Jean Christophe', 0.0764774911191869
'Christophe conseguiram combinar', 0.07840990368578939
'Optamos', 0.10400839859327805
'duvida', 0.10400839859327805
'Francois e Jean', 0.10942026917812715
'Christophe conseguiram', 0.13432767489010267
'ficar', 0.1364424029250214
'semanas', 0.1364424029250214
'alto', 0.1364424029250214
'estamos conversando', 0.14356279467680186
'amigos e sonhando', 0.14356279467680186
'retorno algum', 0.14356279467680186
'Villa Extramuros', 0.00284651155767288
'hospedaram no Villa', 0.005707461641020025
'Extramuros por tres', 0.005707461641020025
'arvores locais suavizar', 0.02382146522201667
'vidro deslizantes permitem', 0.03166009013843228
'deslizantes permitem luz', 0.03166009013843228
'permitem luz natural', 0.03166009013843228
'luz natural suave', 0.03166009013843228
'natural suave inundar', 0.03166009013843228
'Estremoz nas proximidades', 0.0393782563559885
'marmore de Estremoz', 0.0458868539446717
'Villa', 0.053276936176764794
'Extramuros', 0.053276936176764794
'materiais locais', 0.07147019535197056
'arvores locais', 0.07147019535197056
'locais suavizar', 0.07147019535197056
'propriedade cumprimentou-nos', 0.07147019535197056
'proximidades e usado', 0.07279365416544123
'Produtos de Esopo', 0.08364689154375403
'absolutamente linda', 0.0852784351857843
'Vivendo a vida', 0.09668610395388985
'feito', 0.1084143596526802
'Voce', 0.13544308859984494
'Mobiliar uma casa', 0.16972184862240514
'Aproveitando as ferias', 0.2266954148908828
'visao incrivelmente meticulosa', 0.23674546918392625
'produtos Aesop', 0.27316475267583
'Cafe da manha', 0.2841717641845336
'Vivendo', 0.2969209626229941
'vida', 0.2969209626229941
'Voce pode sentir', 0.3034033037882059
'incrivelmente meticulosa', 0.30888587115383676
'tornou realidade', 0.30888587115383676
'Voce se sente', 0.3501846440539134
'arte viva', 0.3506326934173784
'cuidadosamente selecionado', 0.3506326934173784
'visao incrivelmente', 0.3518388561920984
'Aesop', 0.3601542488401837
'Cafe', 0.36704748967587086
'Mobiliar', 0.3809145621142221
'bela casa concebida', 0.005413740714169542
'ficamos na bela', 0.03009332691598295
'bela casa', 0.03009332691598295
'casa concebida', 0.03009332691598295
'concebida e organizada', 0.03009332691598295
'nao intrusivos', 0.06986647032152991
'anfitrioes muito atenciosos', 0.138904769991526
'atenciosos', 0.14007391423043777
'intrusivos', 0.14007391423043777
'nao', 0.15540346813166755
'ficamos', 0.17092154689028619
'bela', 0.17092154689028619
'casa', 0.17092154689028619
'concebida', 0.17092154689028619
'organizada', 0.17092154689028619
'organizada de anfitrioes', 0.1709855937364065
'tranquilo cercado', 0.1775246555917701
'plantas e sol', 0.1775246555917701
'alem de plantas', 0.21079682702944144
'cafe', 0.22653237689574052
'Villa Extramuros', 0.003348430900840231
'estadia no Villa', 0.00643125916026842
'lua de mel', 0.00999655547789841
'passamos duas semanas', 0.012387422852185196
'semanas viajando', 0.012387422852185196
'Portugal', 0.057768991064631174
'Villa', 0.057768991064631174
'Extramuros', 0.057768991064631174
'Herdade do Esperao', 0.07125499188540944
'mel', 0.08947740433569534
'magico', 0.08947740433569534
'favorita', 0.08947740433569534
'marido', 0.11061578629340411
'passamos', 0.11061578629340411
'semanas', 0.11061578629340411
'viajando', 0.11061578629340411
'lua', 0.11061578629340411
'estadia', 0.11061578629340411
'cinha Herdade', 0.1362918321823388
'tambem recomendamos verificar', 0.1384412176338418
'adorar Villa Extramuros', 0.003274280193054963
'Villa Extramuros', 0.011356086890569389
'voce gosta', 0.015642549756850307
'frescos e elegantes', 0.016626663530959117
'projetado com interiores', 0.019692246621293888
'interiores frescos', 0.019692246621293888
'adorar Villa', 0.021147259229243466
'voce vai adorar', 0.03838917367397989
'voce', 0.055414521539399964
'escarpada paisagem alentejana', 0.06567835393256002
'cidade de Arraiolos', 0.07014662119939179
'Villa', 0.07451138616173568
'Extramuros', 0.07451138616173568
'Arraiolos', 0.09124348447761939
'vista de Arraiolos', 0.1004506639425011
'elegantes', 0.11768755428949126
'minutos da cidade', 0.12831010588051728
'sentir que estao', 0.12831010588051728
'gosta', 0.13896744554397933
'projetado', 0.13896744554397933
'pequeno hotel boutique', 0.0028540848524711625
'Extremamente elegante', 0.015453588566204018
'pequeno hotel', 0.01859939795191133
'hotel boutique', 0.022399709903408446
'zona rural', 0.03851206640396595
'medieval de Arraiolos', 0.06980342681649351
'arquitetura moderna crua', 0.07817161662448731
'boutique na zona', 0.09157907106488541
'Alentejo', 0.10413913019911114
'Extremamente', 0.12336291795651434
'elegante', 0.12336291795651434
'pequeno', 0.12336291795651434
'zona', 0.13371209572616372
'rural', 0.13371209572616372
'proprietarios', 0.13769829283573456
'pais ao redor', 0.14095595061650867
'azeite de paisagem', 0.14095595061650867
'paisagem arvores', 0.14095595061650867
'rebanhos de ovelhas', 0.14095595061650867
'realmente magico', 0.14095595061650867
'recomendar-lhe excelentes restaurantes', 0.0041955032148492145
'proprietarios estao', 0.02547591130157266
'melhor para ajuda-lo', 0.02547591130157266
'ajuda-lo e recomendar-lhe', 0.02547591130157266
'recomendar-lhe excelentes', 0.02547591130157266
'excelentes restaurantes', 0.02547591130157266
'restaurantes e butiques', 0.02547591130157266
'butiques em torno', 0.02547591130157266
'torno da area', 0.02547591130157266
'Portugal', 0.11014701473870797
'casa', 0.11499421270918335
'proprietarios', 0.15761666443703867
'estao', 0.15761666443703867
'melhor', 0.15761666443703867
'ajuda-lo', 0.15761666443703867
'recomendar-lhe', 0.15761666443703867
'excelentes', 0.15761666443703867
'restaurantes', 0.15761666443703867
'butiques', 0.15761666443703867
'torno', 0.15761666443703867
'Villa Extramuros', 0.0807481923953516
'voltar', 0.10516031222876314
'voce', 0.12890260710932594
'Alentejo regiao', 0.18915668588226167
'Extramuros', 0.20547376049884536
'lugares', 0.21264193658399175
'favoritos em Portugal', 0.22648555314168112
'querer voltar', 0.2478790488434022
'Alentejo', 0.28535982698053003
'ferias maravilhosas', 0.2991347730030464
'Portugal', 0.31309889770476723
'lugares favoritos', 0.33480637206815494
'gostaria de voltar', 0.36132810043925595
'Villa', 0.3636234826533836
'nao e turistico', 0.39179561092279114
'gostaria', 0.4136369643033274
'vila', 0.4463197555999489
'regiao de localizacao', 0.4508048224634711
'localizacao ainda nao', 0.4508048224634711
'estao bem concebidos', 0.4508048224634711
'criaram uma Villa', 0.008051754916858684
'Villa extraordinaria', 0.008051754916858684
'Francois e Jean-Christophe', 0.014141888544800129
'Jean-Christophe criaram', 0.017078576361381152
'extraordinaria em Arraiolos', 0.055671820293911614
'Villa', 0.061639504290496694
'Arraiolos', 0.0886416605482551
'Francois', 0.10761185284682846
'casa de amigos', 0.11186098921626592
'Jean-Christophe', 0.12958316397041053
'criaram', 0.12958316397041053
'extraordinaria', 0.12958316397041053
'ambiente acolhedor', 0.13143025556514612
'sensacao relaxante', 0.13143025556514612
'hospedar na casa', 0.13143025556514612
'vila de Arraiolos', 0.19251924931408274
'design que recolheram', 0.1944821120390203
'gosto requintado', 0.226391488307819
'requintado e visivel', 0.226391488307819
'detalhes das pecas', 0.226391488307819
'Villa Extramuros', 0.007371732635078371
'experiencia extraordinaria', 0.011655483247185704
'conjunto arquitectonico pedaco', 0.029667374637515724
'high end design', 0.03447886618377996
'hospedar no Villa', 0.03727396541880126
'paisagens do Alentejo', 0.05117647549971771
'Extramuros', 0.05658939429758045
'Villa', 0.0646568844774754
'especial de luxo', 0.08335895547138578
'hospitalidade calorosa', 0.08395464082808922
'Arraiolos', 0.08652939225449613
'conjunto arquitectonico', 0.09315398687915162
'arquitectonico pedaco', 0.09494156477057084
'high end', 0.09494156477057084
'design e estetica', 0.09494156477057084
'combina modernos parisiense', 0.09625854818767543
'modernos parisiense chique', 0.09625854818767543
'materiais locais autenticos', 0.09625854818767543
'extraordinaria', 0.09993598799023355
'hospedes uma combinacao', 0.10750892570332135
'Villa Extramuros', 0.008710715381020834
'Extramuros e gostariamos', 0.009369134608332795
'passamos uma semana', 0.022012505858159646
'gostariamos de voltar', 0.022012505858159646
'semana no Villa', 0.03638046412382764
'Villa', 0.045511705820077346
'Extramuros', 0.06324742096252621
'Jean-Christophe sao anfitrioes', 0.07741166879104062
'sao anfitrioes maravilhosos', 0.0884533441274976
'sao', 0.1260344753034812
'jantar no Villa', 0.13404129010122068
'Francois e Jean-Christophe', 0.14435594975106186
'comida foi excelente', 0.14435594975106186
'Villa e absolutamente', 0.14458882410642263
'passamos', 0.146759639822092
'semana', 0.146759639822092
'gostariamos', 0.146759639822092
'voltar', 0.146759639822092
'patio sao maravilhosos', 0.15805240001713625
'absolutamente deslumbrante', 0.16259632762417736
'incrivel decoracao privado', 0.002763906175516089
'decoracao privado cantos', 0.002763906175516089
'entao o incrivel', 0.01570978748648174
'descobrir o jardim', 0.01570978748648174
'vou comecar', 0.019377081797019954
'calorosas boas-vindas', 0.019377081797019954
'incrivel decoracao', 0.019377081797019954
'decoracao privado', 0.019377081797019954
'privado cantos', 0.019377081797019954
'cantos para ocultar', 0.019377081797019954
'ocultar e ler', 0.019377081797019954
'Acordar para degustacao', 0.06376004426365225
'Excelente', 0.08820873618144039
'pequeno-almoco', 0.09564541015664502
'exercitos', 0.11218219134297468
'entao', 0.11218219134297468
'seguida', 0.11218219134297468
'descobrir', 0.11218219134297468
'pao e queijo', 0.12222183171336795
'vou', 0.13787221524751178
'Villa Extramuros tao', 0.00039609791099588635
'Extramuros tao adoravel', 0.0007552765593849689
'proprietarios grandiosas Francois', 0.0007552765593849692
'Riri e Toto', 0.002384867282930897
'Villa Extramuros', 0.003502070339191797
'Francois e Jean-Christophe', 0.005214719689688285
'torna o Villa', 0.005214719689688285
'esquecer o Lulu', 0.005477968594580131
'grandiosas Francois', 0.006642178482439947
'Extramuros tao', 0.006642178482439947
'natureza fantastica', 0.0077714077955500045
'arquitetura e design', 0.0077714077955500045
'combinacao de ambiente', 0.00990562185523976
'adoravel e unica', 0.00990562185523976
'cheiro e sabor', 0.012633289381638341
'carinho incrivel', 0.012633289381638341
'proprietarios grandiosas', 0.012633289381638341
'tao adoravel', 0.012633289381638341
'nao poderia imaginar', 0.021286572659726825
'nao esquecer', 0.021744273422440615
'Extramuros e Entes', 0.01302954474620989
'Villa Extramuros', 0.029626280648199516
'Entes', 0.0637153331423639
'prestado por Francois', 0.07378930622721286
'Francois foi acolhedor', 0.07378930622721286
'Recentemente', 0.09372484346988794
'Extramuros', 0.10093299868344471
'passei', 0.11573910346889801
'acolhedor e descontraido', 0.12655924194863327
'Pequeno-almoco foi feita', 0.13022760636447486
'Villa', 0.1385525227939577
'edificio moderno', 0.14839619610841934
'servico prestado', 0.14839619610841934
'ingredientes frescos locais', 0.1583117413433977
'Francois', 0.19116520235198747
'servidos especialmente preparado', 0.20602343547714694
'especialmente', 0.21839373093209197
'fora Lisboa', 0.23903538282144743
'Lisboa e vale', 0.23903538282144743
'feita com ingredientes', 0.25369124410896066
'villa Extramuros contemporaneos', 0.005044130006252338
'bonitas villa Extramuros', 0.006451796446095501
'Extramuros contemporaneos', 0.009401617440329437
'villa Extramuros', 0.03596745942590102
'Extramuros', 0.07113987023952166
'bonitas villa', 0.08724071511858549
'Passamos', 0.09965189669899167
'contemporaneos', 0.130925882647876
'Francois sao anfitrioes', 0.14693528032757006
'bonitas', 0.1644155651949214
'Francois sao', 0.16879257075034348
'Jean Christophe', 0.19048641570055475
'arquitetura', 0.21876142701459447
'sao', 0.23289008508741663
'sao fas', 0.23317882540169607
'villa', 0.24401728116879437
'design', 0.2530488446113251
'design interior', 0.25858172765712867
'Voce', 0.26055448744080995
'arquitetura pecas sobressalentes', 0.2745426289579484
'simplesmente adorei', 0.01825846830501834
'maravilhoso e simplesmente', 0.02160593487236768
'adorei', 0.1232995477579695
'maravilhoso', 0.14542692717316383
'simplesmente', 0.14542692717316383
'Villa', 0.14770510185224955
'feito e decorados', 0.16008513213861608
'jantar', 0.26507798528623044
'locais', 0.26966867312682086
'diferentes e gostamos', 0.27238343443019436
'Camas confortaveis', 0.2771610572967056
'bonitas casas', 0.29590933704917877
'cidade de Arraiolos', 0.3453126378424068
'feito', 0.3714758362088623
'decorados', 0.3714758362088623
'gosto', 0.3714758362088623
'facil de lidar', 0.3747437310321657
'proprietarios sao rapazes', 0.3788560675209404
'sao rapazes descontraidos', 0.3788560675209404
'Pequeno-almoco', 0.3894989194577773
'mundial da UNESCO', 0.006777457038632164
'patrimonio mundial', 0.012722489632138765
'redor dos fios', 0.0167935311323158
'fios citys', 0.0167935311323158
'Villa Extramuros', 0.0393506845369694
'UNIC', 0.0401219746920957
'Evora', 0.052381588697674585
'UNESCO', 0.052381588697674585
'Monsaraz', 0.052381588697674585
'Castelo', 0.052381588697674585
'Arraiolos', 0.09775230943124207
'bonito', 0.09775230943124207
'patrimonio', 0.09775230943124207
'design requintado', 0.10205108435002959
'redor', 0.1285152379216541
'fios', 0.1285152379216541
'citys', 0.1285152379216541
'mundial', 0.1285152379216541
'magnifico sabor', 0.12957921353471913
'excelente architecture', 0.12957921353471913
'Vila Extramuros traz', 0.014135083411686802
'Villa Extramuros', 0.016590520161561317
'estao muito satisfeitos', 0.022283369238289618
'Extramuros', 0.04688724374901197
'Extramuros traz', 0.055782240476465475
'Extramuros e estao', 0.07050446316656717
'Villa', 0.11415833247549396
'Vila', 0.11415833247549396
'vila de Arraiolos', 0.12324403893642245
'passamos', 0.1270549612173602
'estadia', 0.1270549612173602
'padrao de servico', 0.1443217905783619
'estao', 0.1476402529198048
'satisfeitos', 0.1476402529198048
'carro de Lisboa', 0.15962195827798648
'carro de Evora', 0.15962195827798648
'origem portuguesa', 0.16426415875001493
'portuguesa e tenham', 0.16426415875001493
'tenham viajado', 0.16426415875001493
'viajado em torno', 0.16426415875001493
'Portugal', 0.06681989661835722
'Simplesmente o melhor', 0.14296773810412025
'Simplesmente', 0.14304235280260377
'Conceito de maravilhoso', 0.1556307393432343
'bem-vindo agradavel', 0.1556307393432343
'melhores dicas', 0.1556307393432343
'relaxante e refrescante', 0.1556307393432343
'melhor', 0.23512686876352976
'Nao poderia', 0.35225409640587485
'recommend to otheres', 0.35225409640587485
'Conceito', 0.36697640984004337
'maravilhoso', 0.36697640984004337
'bem-vindo', 0.36697640984004337
'agradavel', 0.36697640984004337
'melhores', 0.36697640984004337
'dicas', 0.36697640984004337
'relaxante', 0.36697640984004337
'refrescante', 0.36697640984004337
'Nao', 0.4578813060887922
'otheres', 0.4578813060887922
