mes,ano
fevereiro,2020
julho,2019
agosto,2019
setembro,2018
agosto,2019
julho,2019
maio,2019
maio,2019
setembro,2018
agosto,2017
junho,2017
abril,2017
janeiro,2017
junho,2016
novembro,2015
maio,2015
marco,2016
novembro,2015
outubro,2015
agosto,2015
agosto,2015
julho,2015
julho,2015
julho,2014
maio,2014
maio,2013
marco,2019
novembro,2018
marco,2018
setembro,2017
janeiro,2014
