mes,ano
setembro,2021
agosto,2021
agosto,2021
maio,2021
setembro,2020
agosto,2020
agosto,2020
agosto,2020
julho,2020
janeiro,2020
fevereiro,2020
fevereiro,2020
fevereiro,2020
agosto,2019
agosto,2019
agosto,2019
outubro,2019
maio,2019
agosto,2019
outubro,2018
agosto,2019
agosto,2019
agosto,2019
julho,2019
julho,2019
julho,2019
junho,2019
junho,2019
junho,2019
maio,2019
maio,2019
maio,2019
maio,2019
abril,2019
abril,2019
abril,2019
junho,2018
marco,2019
marco,2019
fevereiro,2019
fevereiro,2019
marco,2018
fevereiro,2019
janeiro,2019
dezembro,2018
dezembro,2018
novembro,2018
julho,2018
novembro,2018
outubro,2018
outubro,2018
setembro,2018
outubro,2018
setembro,2018
setembro,2018
setembro,2018
setembro,2018
agosto,2018
agosto,2018
julho,2018
julho,2018
setembro,2017
agosto,2018
julho,2018
maio,2018
junho,2018
maio,2018
outubro,2017
junho,2018
junho,2018
junho,2018
maio,2018
maio,2018
abril,2018
abril,2018
abril,2018
abril,2018
abril,2018
marco,2018
marco,2018
abril,2017
fevereiro,2018
fevereiro,2018
fevereiro,2018
fevereiro,2018
janeiro,2018
janeiro,2018
dezembro,2017
dezembro,2017
dezembro,2017
dezembro,2017
dezembro,2017
maio,2017
setembro,2017
maio,2017
agosto,2017
outubro,2017
outubro,2017
outubro,2017
outubro,2017
outubro,2017
setembro,2017
setembro,2017
setembro,2017
setembro,2017
setembro,2017
setembro,2017
setembro,2017
setembro,2017
agosto,2017
agosto,2017
agosto,2017
agosto,2017
agosto,2017
julho,2017
julho,2017
agosto,2017
agosto,2017
agosto,2017
agosto,2017
agosto,2017
julho,2017
agosto,2017
setembro,2016
junho,2017
agosto,2017
agosto,2017
julho,2017
agosto,2017
agosto,2017
julho,2017
setembro,2016
junho,2017
junho,2017
maio,2017
maio,2017
agosto,2016
maio,2017
maio,2017
maio,2017
maio,2017
abril,2017
abril,2017
abril,2017
abril,2017
marco,2017
marco,2017
fevereiro,2017
fevereiro,2017
marco,2017
agosto,2016
fevereiro,2017
fevereiro,2017
fevereiro,2017
julho,2016
dezembro,2016
fevereiro,2017
dezembro,2016
maio,2016
dezembro,2016
dezembro,2016
dezembro,2016
dezembro,2016
outubro,2016
abril,2016
novembro,2016
novembro,2016
novembro,2016
outubro,2016
outubro,2016
outubro,2016
outubro,2016
outubro,2016
outubro,2016
setembro,2016
outubro,2016
outubro,2016
setembro,2016
setembro,2016
julho,2016
agosto,2016
agosto,2016
setembro,2016
agosto,2016
agosto,2016
agosto,2016
agosto,2016
agosto,2016
agosto,2016
agosto,2016
agosto,2016
agosto,2016
dezembro,2015
julho,2016
julho,2016
julho,2016
outubro,2015
julho,2016
julho,2016
julho,2016
julho,2016
junho,2016
junho,2016
junho,2016
maio,2016
agosto,2015
maio,2016
maio,2016
maio,2016
janeiro,2016
agosto,2015
marco,2016
fevereiro,2016
dezembro,2015
dezembro,2015
agosto,2015
marco,2015
novembro,2015
janeiro,2015
agosto,2015
outubro,2015
outubro,2015
setembro,2015
agosto,2015
setembro,2015
maio,2015
agosto,2015
agosto,2015
maio,2015
julho,2015
julho,2015
maio,2015
julho,2015
julho,2015
junho,2015
julho,2015
junho,2015
maio,2015
janeiro,2015
abril,2014
marco,2015
fevereiro,2015
fevereiro,2015
janeiro,2015
dezembro,2014
novembro,2014
novembro,2014
setembro,2014
outubro,2014
julho,2014
outubro,2014
agosto,2014
agosto,2014
agosto,2014
maio,2014
outubro,2013
fevereiro,2014
maio,2014
janeiro,2014
agosto,2013
maio,2013
abril,2014
outubro,2013
setembro,2013
agosto,2013
julho,2013
dezembro,2012
agosto,2012
outubro,2012
maio,2012
agosto,2011
setembro,2011
maio,2012
agosto,2011
setembro,2011
junho,2014
maio,2014
maio,2014
abril,2014
marco,2014
janeiro,2014
setembro,2013
outubro,2013
maio,2013
junho,2013
marco,2013
fevereiro,2013
junho,2012
abril,2012
fevereiro,2012
