mes,anoes
novembro,2021
agosto,2020
fevereiro,2020
abril,2019
outubro,2019
agosto,2019
agosto,2019
fevereiro,2019
julho,2018
maio,2018
abril,2018
setembro,2017
agosto,2017
janeiro,2017
novembro,2016
junho,2016
setembro,2015
setembro,2015
julho,2015
marco,2016
novembro,2015
julho,2015
julho,2015
abril,2015
marco,2014
julho,2014
agosto,2014
novembro,2013
setembro,2013
julho,2012
agosto,2011
setembro,2020
janeiro,2014
novembro,2012
junho,2012
