mes,ano
fevereiro,2020
novembro,2019
agosto,2019
outubro,2019
maio,2019
agosto,2019
setembro,2018
agosto,2019
maio,2019
julho,2019
julho,2019
agosto,2018
maio,2019
junho,2019
maio,2019
fevereiro,2019
fevereiro,2019
dezembro,2018
novembro,2018
novembro,2018
outubro,2018
setembro,2018
setembro,2018
setembro,2018
maio,2018
novembro,2017
abril,2018
agosto,2017
maio,2017
outubro,2017
setembro,2017
setembro,2017
setembro,2017
setembro,2017
setembro,2017
setembro,2017
agosto,2017
agosto,2017
agosto,2017
setembro,2016
agosto,2017
agosto,2017
julho,2017
julho,2017
junho,2017
abril,2017
outubro,2016
novembro,2016
outubro,2016
agosto,2016
agosto,2016
agosto,2016
agosto,2016
agosto,2016
abril,2016
julho,2016
julho,2016
junho,2016
setembro,2015
junho,2016
maio,2016
fevereiro,2016
abril,2016
marco,2016
dezembro,2015
marco,2016
marco,2016
fevereiro,2016
dezembro,2015
novembro,2015
outubro,2015
agosto,2015
julho,2015
agosto,2015
agosto,2015
julho,2015
julho,2015
maio,2015
maio,2015
abril,2015
marco,2015
janeiro,2015
julho,2014
maio,2014
maio,2014
agosto,2013
abril,2014
dezembro,2013
janeiro,2014
marco,2013
