Expressao, Frequencia
"extraordinario para passar", 0.027581485432184485
"Excelentes condicoes", 0.10137279574960871
"descanso", 0.11142476118001256
"extraordinario", 0.16383273847958243
"passar", 0.16383273847958243
"extremamente simpaticos fazendo", 0.24520184199071754
"simpaticos fazendo sentir", 0.24520184199071754
"Excelentes", 0.3033846052649951
"condicoes", 0.3033846052649951
"agradavel", 0.3033846052649951
"funcionarios foram extremamente", 0.3295258815075752
"extremamente simpaticos", 0.3295258815075752
"simpaticos fazendo", 0.3295258815075752
"fazendo sentir", 0.3295258815075752
"sentir cada hospede", 0.3295258815075752
"marcou pela positiva", 0.3295258815075752
"esperamos regressar", 0.3295258815075752
"possivel", 0.3881970960906714
"decorado", 0.4049347717850166
"proprietarios", 0.49784754196738834
"Monte Saraz continua", 0.0008595813167058514
"Monte Saraz", 0.0065509458643926224
"Saraz continua", 0.008079509451015777
"descansarmos em familia", 0.013613081996320563
"oasis de serenidade", 0.016817019078441183
"serenidade para descansarmos", 0.016817019078441183
"pessoas sao extremamente", 0.05306530612172617
"sao extremamente simpaticas", 0.05306530612172617
"Saraz", 0.06232138566691023
"monumentos megaliticos ate", 0.09458817452389298
"Monte", 0.1044314115685781
"familia", 0.1044314115685781
"nao faltam actividades", 0.10671092949324854
"bracos abertos", 0.10825480286987081
"simpaticas e cuidadosas", 0.10825480286987081
"continua", 0.12860359382566744
"oasis", 0.12860359382566744
"serenidade", 0.12860359382566744
"descansarmos", 0.12860359382566744
"acolhe de bracos", 0.12973197178867216
"poderemos descansar", 0.0243232841157239
"descobrir e desfrutar", 0.0243232841157239
"desfrutar em familia", 0.0243232841157239
"conhecer", 0.07603480450132771
"proximo de Monsaraz", 0.09178397028427458
"Monte Saraz", 0.12148357562929275
"procuramos", 0.12762544885024293
"descansar", 0.12762544885024293
"descobrir", 0.12762544885024293
"familia", 0.12762544885024293
"poderemos", 0.18605780169822753
"desfrutar", 0.18605780169822753
"Alentejo", 0.1899598098831226
"Monsaraz", 0.1899598098831226
"Porem", 0.22227708127317464
"encontra-se escondido", 0.24355831154277052
"Saraz", 0.25465524943398554
"Gostei", 0.3610899894313786
"adorei", 0.40786204028476736
"Monte", 0.4253750521094019
"saber", 0.14984959388816974
"Fluvial de Mourao", 0.15738948954374457
"nao me parecia", 0.1684782987259463
"mero monte", 0.1684782987259463
"Monsaraz", 0.1740258081592025
"Praia Fluvial", 0.1780404879333434
"surpresa", 0.18181040944496374
"dono do espaco", 0.2061127776081883
"namorada", 0.22383182826387074
"surpresa comeca", 0.23440086941294058
"hospitalidade do casal", 0.2420561127288023
"estivessemos em casa", 0.2420561127288023
"ambiente", 0.2578759383377194
"Alqueva e desfrutar", 0.2711723299679501
"Alentejo", 0.27335353648548805
"entrar comeco", 0.28575251454724143
"comeco por perceber", 0.28575251454724143
"perceber a enorme", 0.28575251454724143
"enorme hospitalidade", 0.28575251454724143
"ate a Praia", 0.31076128957627447
"estadia muito agradavel", 0.016626316719119922
"agradavel", 0.10909815511827554
"Adoramos a piscina", 0.1278244235492756
"estadia", 0.149905405948569
"Luis Lopes", 0.16061505612000102
"cuidado e bonito", 0.22010868773592726
"pequeno almoco", 0.2859226927845332
"Lopes", 0.29803506557757303
"Adoramos", 0.2983957947604909
"tempos", 0.2983957947604909
"salientar especialmente", 0.3751920553197244
"contacto amavel", 0.3751920553197244
"piscina", 0.3798215915560938
"transporta", 0.3798215915560938
"bonito", 0.3825795769824884
"vontade", 0.4316155337083156
"Luis", 0.4643342181116837
"pequeno", 0.4715382012123803
"almoco", 0.4715382012123803
"maneira", 0.4715382012123803
"Monte Saraz", 0.005446396437301148
"turismo rural", 0.013688602031770756
"excelente qualidade", 0.013688602031770756
"rural de excelente", 0.0180508450793325
"Monsaraz e Mourao", 0.051893528486390415
"Saraz", 0.0534145813657187
"Povoa de Varzim", 0.08869463220931276
"Monte", 0.10141226884569679
"turismo", 0.10141226884569679
"qualidade", 0.10141226884569679
"rural", 0.13315701013346307
"excelente", 0.13315701013346307
"comida tipica alentejana", 0.14094407782448165
"Eugenio Miranda", 0.14515728853628826
"praias fluviais", 0.18901617371970708
"sereno", 0.21395711372475543
"Monsaraz", 0.22211132817412207
"Mourao", 0.22211132817412207
"restaurantes com comida", 0.23650371427377656
"comida tipica", 0.23650371427377656
"antiga villa romana", 0.0019444707003327924
"existem inesperados vestigios", 0.0019444707003327924
"Castelo de Monsaraz", 0.004852967062496279
"rodeada de monumentos", 0.013784437454882689
"monumentos megaliticos", 0.013784437454882689
"villa romana", 0.013784437454882689
"inesperados vestigios", 0.013784437454882689
"antiga villa", 0.01911893411113409
"existem inesperados", 0.01911893411113409
"Alqueva", 0.053822159537056186
"Castelo", 0.06949481646017519
"Monsaraz", 0.06949481646017519
"rodeada", 0.09927137196013912
"megaliticos", 0.09927137196013912
"romana", 0.09927137196013912
"vestigios", 0.09927137196013912
"cortes e atencioso", 0.1090934922889914
"fazendo-nos sentir", 0.1090934922889914
"amigos que clientes", 0.1090934922889914
"localizada", 0.13696809108329627
"avista monsaraz", 0.04707222657974913
"Monte magnifico situado", 0.05904168451313247
"magnifico situado", 0.07599689036923918
"absolutamente deslumbrante", 0.07599689036923918
"monsaraz", 0.1691592295091924
"Monte magnifico", 0.1843857315908624
"passeio pos jantar", 0.2647162065941895
"magnifico", 0.26576170602032767
"situado", 0.26576170602032767
"absolutamente", 0.26576170602032767
"deslumbrante", 0.26576170602032767
"avista", 0.26576170602032767
"Monte", 0.29289485665066106
"pos jantar", 0.29988168301162144
"sao", 0.31931853154184014
"jantar", 0.4142168380550995
"necessario.a piscina", 0.4496879673521608
"piscina no centro", 0.4496879673521608
"romantico para passeio", 0.4496879673521608
"passeio pos", 0.4496879673521608
"estadia maravilhosa", 0.023471236051477468
"Monte Saraz nao", 0.032979992056362414
"Saraz nao desilude", 0.04775499924184103
"Monte Saraz", 0.06251117435145347
"Saraz nao", 0.11870881109609141
"maravilhosa", 0.12534732762780282
"repetir", 0.12534732762780282
"nao desilude", 0.17011459342639978
"oasis de serenidade", 0.17011459342639978
"estadia", 0.18295540329921606
"tao bonito", 0.21460669356157294
"tranquilo e especial", 0.21460669356157294
"verdadeiro oasis", 0.23668230405254048
"Monte", 0.24255603001185266
"Saraz", 0.24255603001185266
"desilude", 0.33232220036314214
"serenidade", 0.33232220036314214
"promete", 0.33232220036314214
"sao muito acolhedores", 0.3765338629294372
"tornando a experiencia", 0.3765338629294372
"Monte Saraz", 0.005022155577969405
"energia do mundo", 0.020818845797234226
"quiser descansar", 0.030803441134664936
"Monte", 0.0607868920252255
"Saraz", 0.08220620270100175
"Joana Gorjao Henriques", 0.08702556301159552
"Henriques e Ricardo", 0.11392019075064246
"mundo", 0.11797671014185607
"ideal", 0.11797671014185607
"Gorjao Henriques", 0.146148877399061
"sitio maravilhoso", 0.1539412127363319
"quiser", 0.17286683788205306
"descansar", 0.17286683788205306
"paz", 0.17286683788205306
"energia", 0.17286683788205306
"Joana Gorjao", 0.19317312829274894
"Ricardo", 0.28639761847540784
"maravilhoso", 0.3171947781126727
"junho", 0.31813151393529204
"Gorjao", 0.35708961922314997
"mesmo estilo rustico", 0.0006400448072512631
"empregados fizeram-nos sentir", 0.0008990471097494833
"campo apos", 0.0065920978564317735
"comodos alojamentos", 0.0065920978564317735
"estilo rustico", 0.0065920978564317735
"paraiso no campo", 0.009239332327148086
"disfruta.mos a mesma", 0.009239332327148086
"mesma calma", 0.009239332327148086
"calma e comodos", 0.009239332327148086
"mesmo estilo", 0.009239332327148086
"pequeno almoco", 0.009239332327148086
"almoco com vista", 0.009239332327148086
"vista para castelo", 0.009239332327148086
"castelo e pao", 0.009239332327148086
"pao acabado", 0.009239332327148086
"dono e empregados", 0.009239332327148086
"empregados fizeram-nos", 0.009239332327148086
"fizeram-nos sentir", 0.009239332327148086
"sentir em familia.", 0.009239332327148086
"Regressamos", 0.06844581806138879
"Monte Saraz", 0.003755430515068652
"energia do mundo", 0.01663122106660718
"quiser descansar", 0.02108275971369094
"Monte", 0.05587371249619158
"Saraz", 0.06696136439151443
"mundo", 0.11384853216981163
"sitio maravilhoso", 0.12816428481621034
"quiser", 0.14369222106294685
"descansar", 0.14369222106294685
"paz", 0.14369222106294685
"energia", 0.14369222106294685
"castelo de Montemor", 0.18630787182008093
"Montemor e simplesmente", 0.18630787182008093
"ideal", 0.1994028885263024
"piscina um balsamo", 0.2921859247910226
"Montemor", 0.30797416794358184
"maravilhoso", 0.3085341188137847
"Aconselho vivamente", 0.333375025855076
"cadeiras e mesa", 0.34877429050765013
"comer um queijo", 0.34877429050765013
"calmo e pacifico", 0.0336822412756927
"sitio otimo", 0.049254569566741825
"otimo para relaxar", 0.049254569566741825
"relaxar durante", 0.049254569566741825
"Monte Saraz", 0.05329889812250933
"Saraz", 0.13873683391130728
"pacifico", 0.15039420348518426
"Monte", 0.1735827860908312
"sitio", 0.21666204073461234
"otimo", 0.21666204073461234
"relaxar", 0.21666204073461234
"durante", 0.21666204073461234
"calmo", 0.21666204073461234
"Contamos regressar", 0.2874146592889428
"primavera futura", 0.380421349794848
"voltavamos", 0.38072432164860126
"Felicidades para Monte", 0.41118119399055414
"Contamos", 0.47249284090427734
"regressar", 0.47249284090427734
"futura", 0.47249284090427734
"paisagem unica", 0.013610235793818967
"Estadia deliciosa", 0.03104922231497386
"Natureza", 0.05530577516948558
"sao belamente decorados", 0.06072605576060081
"Senhor Marc", 0.06220431975168176
"Monte Saraz", 0.10532514940728241
"hospedes sao rodeados", 0.1078392944843678
"deliciosa", 0.11587702344641658
"intercambio", 0.11587702344641658
"paisagem", 0.11587702344641658
"unica", 0.11587702344641658
"alem de serem", 0.12681450026004132
"serem confortaveis", 0.12681450026004132
"Estadia", 0.1299403407766663
"sao belamente", 0.13742966970440787
"decorados em estilo", 0.14737510188384415
"estilo rustico", 0.14737510188384415
"belamente decorados", 0.1486905061104151
"sao", 0.16791359135096284
"hospedes sao", 0.1781064015224065
"lindo Alentejo", 0.007163476363734652
"autentico paraiso", 0.0180508450793325
"paraiso no lindo", 0.0180508450793325
"Alentejo", 0.0534145813657187
"magnifico", 0.10141226884569679
"vive e excelente", 0.10860359404127298
"autentico", 0.13315701013346307
"paraiso", 0.13315701013346307
"lindo", 0.13315701013346307
"calma", 0.2815891253011357
"excelente", 0.2815891253011357
"paz", 0.3478980838128658
"sossego", 0.3478980838128658
"vive", 0.3478980838128658
"Aliado", 0.36348788044697095
"Marc", 0.4117085402914362
"colaboradoras", 0.4117085402914362
"simpatia", 0.43734208412368464
"regressar", 0.44409724385668053
"duvida", 0.5209256537949416
"Grata pela simpatia", 0.023471236051477468
"Excelente sitio", 0.12414879505059265
"especialmente com criancas", 0.12414879505059265
"Grata", 0.12534732762780282
"pessoas", 0.12534732762780282
"simpatia", 0.18295540329921606
"ADORAMOS", 0.2525555216631335
"paisagem rural", 0.28746841028153164
"Excelente", 0.33232220036314214
"sitio", 0.33232220036314214
"voltar", 0.33232220036314214
"especialmente", 0.33232220036314214
"criancas", 0.33232220036314214
"viviam no campo", 0.3765338629294372
"predomina a beleza", 0.3930732007350697
"beleza da paisagem", 0.3930732007350697
"calma e sossego", 0.3930732007350697
"rural", 0.42034297790575054
"descanso", 0.42034297790575054
"destacar as piscinas", 0.4467177871668099
"Marc e restantes", 0.011203079737910855
"restantes colaboradores", 0.018860488496852536
"simpatia do Marc", 0.061445878132173504
"Marc", 0.0712815489498896
"Casa da Fonte", 0.08489232804521081
"colaboradores", 0.11910124500858094
"espetacular para Monsaraz", 0.12924986925481732
"atencao e simpatia", 0.13556963439832276
"Pensamos voltar", 0.14232538085637697
"praticar o descanso", 0.14232538085637697
"passados", 0.1554253718502165
"atencao", 0.1554253718502165
"restantes", 0.1554253718502165
"voltar e aconselhamos", 0.1793024096152567
"queira praticar", 0.1793024096152567
"simpatia", 0.1988231725630718
"Monsaraz", 0.2373708433261857
"Casa", 0.2797311963945018
"Fonte", 0.2797311963945018
"vista espetacular", 0.30293379934873904
"oasis no Alentejo", 0.007917244501964063
"verdadeiro oasis", 0.02038284115389368
"Alentejo", 0.05557742162832507
"verdadeiro", 0.14133534604154555
"oasis", 0.14133534604154555
"Vive-se a calma", 0.18697524555739742
"Nao", 0.21046054854666957
"Respira-se a natureza", 0.2911608696829789
"frescura da agua", 0.2911608696829789
"simpatia", 0.3111450547714011
"Nao dou", 0.32256563369248453
"pretendemos regressar muitas", 0.3518522556917941
"impera", 0.3637313276673188
"gosto", 0.3637313276673188
"Vive-se", 0.39689097658403766
"calma", 0.39689097658403766
"silencio", 0.39689097658403766
"paz", 0.39689097658403766
"voltamos e pretendemos", 0.4076367182929213
"pretendemos regressar", 0.4076367182929213
"relaxar e descansar", 0.014395443814846464
"perfeito para relaxar", 0.018969678899296887
"ambiente rural envolvente", 0.04854744371276116
"Super reservado", 0.08998294109342508
"descansar", 0.10400839859327805
"castelo de Monsaraz", 0.11081334943965924
"decoracao campestre", 0.11334168207298816
"rural envolvente", 0.11334168207298816
"perfeito", 0.1364424029250214
"relaxar", 0.1364424029250214
"habitacao apresentam", 0.14356279467680186
"apresentam uma decoracao", 0.14356279467680186
"total harmonia", 0.14356279467680186
"ambiente rural", 0.14356279467680186
"Excelente vista", 0.19674385642193434
"tranquilo", 0.21873304579817127
"Monsaraz", 0.22453723050766464
"staff sao pessoas", 0.23875640277450325
"simpaticas e acessiveis", 0.26125030021339857
"trato muito familiar", 0.26125030021339857
"Casa do Forno", 0.11405243935791308
"Excelente", 0.12762544885024293
"Forno e fantastica", 0.15754699308346717
"passar", 0.18605780169822753
"Tranquilo", 0.22227708127317464
"acolhedor", 0.22227708127317464
"reservado", 0.22227708127317464
"Casa", 0.31996278791779703
"Forno", 0.31996278791779703
"cuidado", 0.33691300306840244
"Marc", 0.3610899894313786
"Todavia", 0.3680938919269099
"Rosete", 0.3904620527534316
"fantastica", 0.4253750521094019
"pequeno almoco", 0.5239368744456059
"pequeno", 0.5863487364692137
"almoco", 0.5863487364692137
"melhor", 0.6180426404313532
"mesmo", 0.6180426404313532
"simpatia", 0.6180426404313532
"bonito", 0.15070071895518797
"jardins", 0.15070071895518797
"Marc", 0.16098354130781503
"cafe", 0.18639107858908788
"Monsaraz", 0.19059070925966798
"nao", 0.1919421841629116
"Marc localizou", 0.250054607867365
"reserva", 0.2644601396910396
"providenciou", 0.30811250989700084
"toquei a campainha", 0.3429101500069012
"Fica", 0.38128959509533383
"atendido por Marc", 0.3889527296363109
"cheguei e toquei", 0.41108535616287323
"nao lembrava", 0.45095768901679173
"campainha", 0.473090277729872
"proprietario", 0.473090277729872
"Ate", 0.5238837283537291
"humor", 0.5238837283537291
"checou seu livro", 0.5288194611257425
"resolvido na simpatia", 0.5331084693208351
"Imaginar una musica", 0.008656714191361457
"Imaginar una", 0.03465229800090378
"subir em espiral", 0.03465229800090378
"elevando-nos ate", 0.03465229800090378
"ate ao ceu", 0.03465229800090378
"assentes na terra", 0.03465229800090378
"una musica", 0.0565406034156422
"musica a subir", 0.0565406034156422
"pes bem assentes", 0.0565406034156422
"Imaginar", 0.1447773057422032
"espiral", 0.1447773057422032
"elevando-nos", 0.1447773057422032
"ceu", 0.1447773057422032
"terra", 0.1447773057422032
"arvore", 0.1447773057422032
"una", 0.23133275159292982
"musica", 0.23133275159292982
"subir", 0.23133275159292982
"ate", 0.23133275159292982
"pes", 0.23133275159292982
"Maravilhoso", 0.0726772423782132
"Turismo rural", 0.24685590141158925
"rural cinco estrelas", 0.24685590141158925
"pao guloso", 0.2859226927845332
"compotas otimas", 0.2859226927845332
"pequeno almoco delicioso", 0.288949014948939
"sumo laranja natural", 0.288949014948939
"Rosete", 0.32705176562700716
"Parabens Marc", 0.3372091743116105
"Marc e equipa", 0.3372091743116105
"Turismo", 0.3798215915560938
"estrelas", 0.3798215915560938
"espacos verdes", 0.40689615193388323
"imensos recantos", 0.40689615193388323
"vista soberba", 0.40689615193388323
"pequeno almoco", 0.40689615193388323
"almoco delicioso", 0.40689615193388323
"sumo laranja", 0.40689615193388323
"laranja natural", 0.40689615193388323
"espacos verdes lindissimos", 0.44330040077409477
"melhores turismos rurais", 0.015877194161630328
"rurais da regiao", 0.0371056572732552
"nao o melhor", 0.0371056572732552
"melhores turismos", 0.0604047846262897
"turismos rurais", 0.0604047846262897
"castelo de Monsaraz", 0.12552475476938585
"regiao", 0.149905405948569
"melhor", 0.149905405948569
"Monsaraz", 0.21395711372475543
"melhores", 0.2386710978348089
"turismos", 0.2386710978348089
"rurais", 0.2386710978348089
"nao", 0.2386710978348089
"Casa muito bonita", 0.24685590141158925
"Fantastico", 0.3568200533666425
"vista avassaladora", 0.37306711088575134
"Casa", 0.3798215915560938
"relaxante e bonito", 0.40689615193388323
"calmo", 0.4715382012123803
"relaxante", 0.4715382012123803
"vista espetacular", 0.02249651976012989
"castelo de monsaraz.Os", 0.02249651976012989
"monsaraz.Os quarto estao", 0.02249651976012989
"limpos e acolhedores", 0.02249651976012989
"calmo", 0.10028582371075691
"otimo para relaxar", 0.11755105063023073
"vista", 0.14832923246533666
"espetacular", 0.14832923246533666
"castelo", 0.14832923246533666
"monsaraz.Os", 0.14832923246533666
"estao", 0.14832923246533666
"limpos", 0.14832923246533666
"acolhedores", 0.14832923246533666
"preciso", 0.14832923246533666
"relaxar", 0.2790829227183407
"piscinas.E", 0.37689977775222827
"otimo", 0.37689977775222827
"Estamos muito satisfeitos", 0.016626316719119922
"Estamos", 0.10909815511827554
"estadia", 0.10909815511827554
"sitio e fantastico", 0.1278244235492756
"ambiente tranquilo", 0.1278244235492756
"condicoes optimas", 0.1278244235492756
"satisfeitos", 0.149905405948569
"tranquilo e condicoes", 0.1685853064821579
"prestavel e disponivel", 0.17146379706674633
"extremamente simpatico", 0.22010868773592726
"staff era extremamente", 0.2859226927845332
"fantastico", 0.2983957947604909
"ambiente", 0.2983957947604909
"optimas", 0.2983957947604909
"Voltaremos", 0.32705176562700716
"recebidos", 0.3798215915560938
"sitio", 0.3798215915560938
"tranquilo", 0.3798215915560938
"condicoes", 0.3798215915560938
"simpatico", 0.3825795769824884
"Monte Saraz", 0.005434404504970861
"enorme surpresa", 0.02414075901020373
"surpresa que percebemos", 0.02414075901020373
"Monte", 0.0735189185046965
"Saraz", 0.0735189185046965
"Espaco maravilhoso", 0.10206780541426201
"bonito", 0.11186654715268884
"cores", 0.11186654715268884
"Parabens Marc", 0.12136503554072452
"enorme", 0.15353084316509127
"surpresa", 0.15353084316509127
"percebemos", 0.15353084316509127
"vivo", 0.15353084316509127
"destino foi perfeito", 0.2289290869692944
"Marc", 0.3009089091514454
"Espaco", 0.30432682192804345
"maravilhoso", 0.30432682192804345
"gosto", 0.30432682192804345
"queremos voltar", 0.32467660550491106
"Parabens", 0.35967605865318397
"viemos", 0.14078438231419763
"ultimos", 0.14078438231419763
"quase monastico", 0.16726705889050358
"piscina conduz-nos", 0.25859749434209645
"Mark", 0.2703098542392995
"caudais de agua", 0.274558493626282
"passa devagar", 0.274558493626282
"sao o fundo", 0.274558493626282
"fundo perfeito", 0.274558493626282
"bordado pelo canto", 0.274558493626282
"canto dos passaros", 0.274558493626282
"leitura relaxada", 0.274558493626282
"sons dos diversos", 0.3404808550985539
"diversos caudais", 0.3404808550985539
"renovando o tempo", 0.3404808550985539
"tempo que passa", 0.3404808550985539
"jardins estavam melhor", 0.3483136419862156
"refugio", 0.3626795871726954
"plantas selvagens", 0.37205007074963753
"contornando as esquinas", 0.37205007074963753
"hotel rural", 0.03880309302063076
"Descobrir este hotel", 0.0745446459483116
"Castelo de Monseraz", 0.08111582035953824
"agradavel surpresa", 0.10297224759451659
"Descobrir", 0.10533271129795065
"rural", 0.12013927417967499
"acaso", 0.15386293217463526
"hotel", 0.15545980238766982
"optimo anfitriao", 0.18000276749355357
"simpatia do dono", 0.20041861016109042
"dono e inequivoca", 0.20041861016109042
"torna um optimo", 0.20041861016109042
"explicar muita", 0.20041861016109042
"muita da recuperacao", 0.20041861016109042
"Apesar", 0.2530043005190464
"cortar a respiracao", 0.26617690504887925
"respiracao especialmente", 0.26617690504887925
"piscina convida", 0.26617690504887925
"claro que nao", 0.26617690504887925
"nao nos atrevemos", 0.26617690504887925
"inesquecivel", 0.0771485953923296
"sala acolhedora", 0.274558493626282
"pao quentinho", 0.274558493626282
"simpatia das funcionarias", 0.274558493626282
"casa", 0.2948270607118151
"jardins", 0.2948270607118151
"piscina", 0.2948270607118151
"natureza", 0.2948270607118151
"animais", 0.2948270607118151
"pequeno-almoco numa sala", 0.3404808550985539
"confianca e dedicacao", 0.40523267787360356
"partilhado e acarinhado", 0.40895915322815624
"Recomendo", 0.42573692297494947
"acolhedora", 0.4274241643904338
"quentinho", 0.4274241643904338
"funcionarias", 0.4274241643904338
"pena termos", 0.45814339890504235
"termos de regressar", 0.45814339890504235
"regressar tao", 0.45814339890504235
"recebidos", 0.4600823077913033
"regionais e caseiros", 0.018718646087060413
"reconstrucao de casas", 0.018718646087060413
"monte fenomenal", 0.018718646087060413
"pequeno almoco", 0.025826961535478882
"almoco com produtos", 0.025826961535478882
"produtos regionais", 0.025826961535478882
"casas de monte", 0.025826961535478882
"excelente atendimento", 0.061147605557506333
"relaxante", 0.07733821513240483
"Excelente", 0.0921536209562582
"caseiros", 0.11580320378284417
"reconstrucao", 0.11580320378284417
"fenomenal", 0.11580320378284417
"soberba de Monsaraz", 0.13191414452875658
"pequeno", 0.15867174692409788
"almoco", 0.15867174692409788
"produtos", 0.15867174692409788
"regionais", 0.15867174692409788
"casas", 0.15867174692409788
"monte", 0.15867174692409788
"refrescantes e verdes", 0.022972442227442158
"verdes comuns", 0.022972442227442158
"jardins refrescantes", 0.038615667227600445
"lagar tao aprazivel", 0.06522845597598623
"Adoramos os jardins", 0.06922612465566091
"velho lagar tao", 0.08088685039577015
"Adoramos", 0.11890919853729982
"jardins", 0.12405293999712493
"tao aprazivel", 0.13789413600689562
"barulho dos passaros", 0.13789413600689562
"vento nas arvores", 0.13789413600689562
"refrescantes", 0.149855130695345
"verdes", 0.149855130695345
"comuns", 0.149855130695345
"pertencentes", 0.149855130695345
"maravilhosos recantos", 0.16848891316446263
"piscina no velho", 0.16848891316446263
"velho lagar", 0.16848891316446263
"lagar tao", 0.16848891316446263
"agua a correr", 0.16848891316446263
"Monte Saraz", 0.003555481629503348
"altura prometemos regressar", 0.004314125060126584
"estado no Monte", 0.007402041285674528
"tinhamos estado", 0.015474235808291572
"altura prometemos", 0.015474235808291572
"prometemos regressar", 0.03351549828388869
"torrido Alentejo", 0.055662859113266086
"Monte", 0.05952213846198257
"Saraz", 0.05952213846198257
"pequeno Stephano", 0.06973072121767093
"simpatia do Marc", 0.09970708044240553
"sossego das casas", 0.10442295727328121
"bela sesta", 0.10442295727328121
"castelo de Monsaraz", 0.11225954305934714
"autentico oasis", 0.12092995092734127
"oasis no torrido", 0.12092995092734127
"jardins verdejantes", 0.12092995092734127
"recantos para ler", 0.12092995092734127
"ler um livro", 0.12092995092734127
"livro ou dormir", 0.12092995092734127
"ceu incrivelmente estrelado", 0.0014121164122148605
"Monte Saraz sao", 0.008850119581298353
"Monte Saraz", 0.009876314229638495
"coloridos jardins", 0.011685022361106573
"refrescantes fontes", 0.011685022361106573
"incrivelmente estrelado", 0.011685022361106573
"grilos e ras", 0.011685022361106573
"paz absoluta", 0.011685022361106573
"refugio de tranquilidade.Os", 0.01413651664497544
"tranquilidade.Os seus coloridos", 0.01413651664497544
"ceu incrivelmente", 0.01413651664497544
"acompanhado pelo canto", 0.01413651664497544
"canto de grilos", 0.01413651664497544
"conjuga para criar", 0.01413651664497544
"criar um ambiente", 0.01956420690572806
"ambiente magico", 0.046532130204439345
"ambiente de paz", 0.04706881916432983
"sope de Monsaraz", 0.05237900158719678
"margens do Alqueva", 0.05237900158719678
"Saraz sao", 0.059551470468434585
"marido e adorei", 0.10323279270469257
"Passei", 0.12414225433589314
"Nautico do Alqueva", 0.12785568299482797
"Pedro do Corval", 0.12785568299482797
"Centro Nautico", 0.14303525214912402
"marido", 0.14892536725951566
"adorei", 0.15219059580329275
"considero ter tido", 0.16671023484360764
"tido um plano", 0.16671023484360764
"plano de recuperacao", 0.16671023484360764
"semana", 0.198155737394922
"recuperacao excelente", 0.2085290179600274
"permite", 0.21418545371518707
"casa", 0.21930131220044716
"excelente", 0.22823371101060116
"belos jardins", 0.24399526460964013
"agua das fontes", 0.24399526460964013
"passar", 0.24599827282569578
"proprio jardim privativo", 0.25558143781406933
"som da agua", 0.28293973499281927
"memoria tinha ficado", 0.00470683746543141
"tinha sabido ler", 0.00470683746543141
"Monte Saraz", 0.01839621461273629
"maravilhoso Monte Saraz", 0.02257499909623481
"Monte Saraz espera", 0.022574999096234817
"memoria tinha", 0.025991782915537158
"tinha ficado", 0.025991782915537158
"tinha sabido", 0.025991782915537158
"Alentejo quente", 0.028279243270523852
"ficado uma imagem", 0.030661147895482976
"imagem poetica", 0.030661147895482976
"sabido ler", 0.030661147895482976
"ler e sentir", 0.030661147895482976
"sentir um envolvimento", 0.030661147895482976
"alguem que tinha", 0.06112483261515405
"Monte", 0.06824563248308634
"tinha", 0.0734388623297411
"Saraz", 0.08666435964994447
"Alentejo", 0.08666435964994447
"Saraz espera", 0.09765831739522482
"Castelo de Monsaraz", 0.004748624402272153
"historia de Portugal", 0.00976037344383583
"descreve a historia", 0.01859446618045681
"magnificas paisagens", 0.01859446618045681
"Monsaraz", 0.05899937629682816
"Portugal", 0.05899937629682816
"Alqueva", 0.05899937629682816
"Castelo", 0.08010561870176523
"descreve", 0.11142476118001256
"conservado", 0.11142476118001256
"magnificas", 0.11142476118001256
"historia", 0.16383273847958243
"paisagens", 0.16383273847958243
"Gostei", 0.3033846052649951
"monte do saraz", 0.3295258815075752
"imaginario", 0.3881970960906714
"construcao", 0.3881970960906714
"decoracao", 0.3881970960906714
"proprietarios", 0.3881970960906714
"colaboradores", 0.3881970960906714
"vista de Monsaraz", 0.00961004627146306
"vida pura", 0.013784437454882689
"zona calma", 0.01911893411113409
"excelente vista", 0.01911893411113409
"qualidade de vida", 0.01911893411113409
"Portugal", 0.03874456518394107
"Alentejo", 0.053822159537056186
"Monsaraz", 0.06949481646017519
"limpo", 0.09927137196013912
"pura", 0.09927137196013912
"Ideal para recarregar", 0.1090934922889914
"recarregar as baterias", 0.1090934922889914
"zona", 0.13696809108329627
"calma", 0.13696809108329627
"monte", 0.13696809108329627
"excelente", 0.13696809108329627
"vista", 0.13696809108329627
"qualidade", 0.13696809108329627
"vida", 0.13696809108329627
"amigavel e indicado", 0.18970645222564492
"tranquilo", 0.12004491171283793
"descanso", 0.12004491171283793
"simpatia da caseira", 0.14011383788066328
"propriamente simpatico", 0.14011383788066328
"proprietario que nao", 0.1436510515518925
"nao", 0.16428948157302586
"contrario do proprietario", 0.17114384381833464
"cao que nao", 0.184538547028061
"nao parou", 0.184538547028061
"pessima pois alguem", 0.19782977589124004
"pois alguem havia", 0.19782977589124004
"alguem havia levado", 0.19782977589124004
"parou de ladrar", 0.2401246530634669
"sumo", 0.2698936412624221
"nao foi propriamente", 0.2824687981693166
"sono foi pessima", 0.28998966381141017
"pessima pois", 0.28998966381141017
"pois alguem", 0.28998966381141017
"alguem havia", 0.28998966381141017
"havia levado", 0.28998966381141017
"Monte Saraz", 0.0038060988633189185
"permanecer no Monte", 0.008026062391940833
"oportunidade de permanecer", 0.017004114323050365
"Portugal", 0.05329183585034789
"Monte", 0.06157651664659858
"Saraz", 0.06157651664659858
"marido", 0.10737511927099558
"oportunidade", 0.12930509960184844
"permanecer", 0.12930509960184844
"recente", 0.12930509960184844
"proprietario nao poderia", 0.17836879450648682
"Monsaraz incrivel", 0.19544693739799093
"nao", 0.21540581045142038
"limpos e acessiveis", 0.22329448422249834
"maravilhoso para relaxar", 0.2256111751050002
"Pequeno-almoco tambem", 0.24449913791550004
"cenario e inigualavel", 0.2575852431843628
"sao amplos", 0.2575852431843628
"proprietario nao", 0.26029791165393057
"nao poderia", 0.26029791165393057
"Monte Saraz", 0.006805297194567209
"Saraz em Junho", 0.031182610379007384
"Saraz", 0.04147551392583098
"Monte", 0.05359902031339761
"Junho", 0.0672387843321997
"hospedaram no Monte", 0.08595222338173962
"voce sentir-se imediatamente", 0.09819588914167722
"lugares especiais raros", 0.10041505974272928
"casa", 0.10978881356320934
"familia", 0.16200278617999317
"hospedaram", 0.16200278617999317
"Monsaraz a distancia", 0.18167225431557216
"raros que voce", 0.18850695167769713
"voce sentir-se", 0.18850695167769713
"lugares especiais", 0.1924172141075115
"especiais raros", 0.1924172141075115
"sentir-se imediatamente", 0.1924172141075115
"antiga casa", 0.19455678667753512
"voce", 0.1974184809486363
"vistas de Monsaraz", 0.20253735472465756
"Monte Saraz realizada", 0.0010844428743371191
"Monte Saraz", 0.0064583528173228115
"tranquilidade de Monte", 0.013298450721193376
"Saraz realizada", 0.013298450721193376
"Inicialmente pensei", 0.01859446618045681
"sossego e tranquilidade", 0.01859446618045681
"nao quer sair", 0.01859446618045681
"demasiado longo", 0.027581485432184485
"longo para passar", 0.027581485432184485
"passar neste retiro", 0.027581485432184485
"retiro rural", 0.027581485432184485
"feitico e nao", 0.027581485432184485
"Monte", 0.08010561870176523
"Saraz", 0.08010561870176523
"Inicialmente", 0.11142476118001256
"charme", 0.11142476118001256
"sossego", 0.11142476118001256
"sair", 0.11142476118001256
"quaisquer excessos", 0.14005713113751553
"pensei", 0.16383273847958243
"atracoes da regiao", 0.06296981234013826
"retiro campestre", 0.10057748364761229
"regiao", 0.19596178956359103
"locais", 0.2866359757423971
"retiro", 0.30230133922870706
"campestre", 0.30230133922870706
"atracoes", 0.30230133922870706
"governanta", 0.3540498618480706
"tinha", 0.3671861838501942
"maravilhoso pequeno-almoco", 0.38008569995101615
"proprietario", 0.3823305715075712
"maravilhoso", 0.4584238509356684
"iguarias locais", 0.5253310557371769
"experiente", 0.5522202916830516
"cottage", 0.5522202916830516
"exclusivo", 0.5522202916830516
"pequeno-almoco com iguarias", 0.5647607019550862
"pequeno-almoco", 0.6007700439418294
"iguarias", 0.6007700439418294
"novelas", 0.6018061240282468
"bonito num ambiente", 0.018786062239873558
"adoravel rural", 0.018786062239873558
"acolhedora Portugues governanta", 0.07948562459360506
"incrivel bird song", 0.08473955122947277
"Passamos", 0.12099914574630634
"ambiente", 0.12099914574630634
"adoravel", 0.12099914574630634
"Portugues governanta", 0.1257616710592558
"natureza ao sono", 0.141989009627543
"acolhedora Portugues", 0.14892248618407403
"marco", 0.15239490860026197
"hospedar", 0.15239490860026197
"bonito", 0.15239490860026197
"rural", 0.15239490860026197
"compotas caseiras etc", 0.16396400322804802
"pacifica e sons", 0.17338595856564573
"sons da natureza", 0.17338595856564573
"incrivel bird", 0.17338595856564573
"bird song", 0.17338595856564573
"durante o Inverno", 0.2380606921120395
"relaxar na piscina", 0.009145555775475097
"pessoas se hospedar", 0.012122338073675774
"agradavel tempo", 0.012122338073675774
"iria adorar", 0.012122338073675774
"adorar a voltar", 0.012122338073675774
"quente para relaxar", 0.012122338073675774
"equipe e Marc", 0.05718796466376247
"Adoravel equipe", 0.07689846664795487
"tao bem viajado", 0.07689846664795487
"entanto", 0.08280939275679769
"ficamos", 0.08280939275679769
"piscina", 0.08280939275679769
"riqueza de conhecimento", 0.09827342448325681
"conhecimento e tao", 0.09827342448325681
"pessoas", 0.10944015281422888
"hospedar", 0.10944015281422888
"agradavel", 0.10944015281422888
"tempo", 0.10944015281422888
"iria", 0.10944015281422888
"adorar", 0.10944015281422888
"Monte Saraz", 0.007035598757479037
"volta de Portugal", 0.00740880745017158
"duvida o melhor", 0.018734252102175858
"hospedaram no durante", 0.018734252102175858
"ida e volta", 0.018734252102175858
"adoravel proprietario Marc", 0.025830919291228025
"Portugal", 0.054231902309684554
"Outono estadia", 0.06085581672213996
"proprietario Marc", 0.062218923658260004
"Saraz", 0.06515158367848982
"Monte", 0.10723369317709362
"duvida", 0.1356087540900152
"melhor", 0.1356087540900152
"hospedaram", 0.1356087540900152
"durante", 0.1356087540900152
"ida", 0.1356087540900152
"volta", 0.1356087540900152
"descansar e muitas", 0.1420658671886332
"muitas risadas", 0.1420658671886332
"adoravel proprietario", 0.1420658671886332
"villas estao bonito", 0.001970823026528551
"estao bonito", 0.014965769764228844
"villas estao", 0.01666526673977322
"terribly forno", 0.01666526673977322
"doces figos directamente", 0.029937159894644592
"bonito e sereno", 0.03035521230727543
"incluida pao quente", 0.05241942275694916
"bonito", 0.057583827325132966
"forno era doce", 0.06362807879253503
"doces figos", 0.0755933788392158
"chegamos em frente", 0.08990149359431344
"doce e bonito", 0.09309678211753496
"sereno", 0.10395409561193394
"delicias frescas", 0.10741540931902717
"arvores ao redor", 0.10741540931902717
"sao mais feliz", 0.10741540931902717
"perfeita para desfrutar", 0.1148297633657534
"desfrutar de ferias", 0.1148297633657534
"desfrutar", 0.12081907235977633
"remodelada", 0.128031590700153
"velho mundo villa", 0.0032173869679631944
"mundo villa intocada", 0.0032173869679631944
"villa intocada aninhado", 0.0032173869679631944
"aninhado entre olivais", 0.015465128052409167
"vinhas e arvores", 0.015465128052409167
"frutas citricas", 0.015465128052409167
"velho mundo", 0.02140921543860024
"mundo villa", 0.02140921543860024
"villa intocada", 0.02140921543860024
"intocada aninhado", 0.02140921543860024
"arvores de frutas", 0.02140921543860024
"Monte", 0.06997357213356549
"topo vila medieval", 0.07353467526306731
"medieval de Monsaraz", 0.08469502506661468
"Monsaraz aperfeicoa", 0.08469502506661468
"olivais", 0.10519328464496844
"vinhas", 0.10519328464496844
"citricas", 0.10519328464496844
"aperfeicoa a definicao", 0.12025258825090053
"velho", 0.1447773057422032
"encantador hotel boutique", 0.0039280779651928496
"encantador hotel", 0.024400997993479844
"hotel boutique", 0.024400997993479844
"propriedade surpreendentemente renovada", 0.08776554608025974
"surpreendentemente renovada agricolas", 0.08776554608025974
"boutique de Marc", 0.11581850080455176
"paraiso", 0.12602715529458688
"encantador", 0.15433655364116122
"hotel", 0.15433655364116122
"boutique", 0.15433655364116122
"maravilhosa", 0.15651494260786275
"Marc", 0.16677658498879205
"rural de Portugal", 0.17193454177487674
"propriedade surpreendentemente", 0.1771675141219411
"surpreendentemente renovada", 0.1771675141219411
"renovada agricolas", 0.1771675141219411
"agricolas que nao", 0.1771675141219411
"nao poderia", 0.1771675141219411
"paisagem do Alentejo", 0.19762620889491492
"Alentejo os charmosos", 0.19762620889491492
"cidade de Monsaraz", 0.009686588849229853
"verdadeira joia abaixo", 0.011841540488248736
"abaixo da bela", 0.026794694750738937
"bela cidade", 0.026794694750738937
"Monsaraz", 0.0593884074785222
"verdadeira joia", 0.067892045132541
"joia abaixo", 0.067892045132541
"Monte", 0.12122129659387251
"casa", 0.14147978132738062
"lagos e caracteristicas", 0.15188124055466026
"perfeito para relaxamento", 0.15188124055466026
"verdadeira", 0.16154093746704704
"abaixo", 0.16154093746704704
"bela", 0.16154093746704704
"cidade", 0.16154093746704704
"area esculpida", 0.1673412224839383
"Casa Source", 0.16828725921167595
"Source", 0.1696898894057589
"pequenos jardins", 0.17037024289378333
"area", 0.17879396819259516
"segredo bem tratados", 0.009856703331486505
"tesouro escondido", 0.009856703331486505
"arenosos da cidade", 0.009856703331486505
"sublinhou a especialistas", 0.012571559314626916
"especialistas em solos", 0.012571559314626916
"solos arenosos", 0.012571559314626916
"Monte", 0.03874456518394107
"Fragrancia de jasmim", 0.06670052734408041
"palmeiras e laranjeiras", 0.06670052734408041
"aldeias medievais", 0.06670052734408041
"excelentes restaurantes", 0.06670052734408041
"privada e romantico", 0.08209205484639899
"partilhada e aberta", 0.08209205484639899
"monumentos neoliticos", 0.08209205484639899
"tratados", 0.0875971992647228
"escondido", 0.0875971992647228
"cidade", 0.0875971992647228
"romantico mas tambem", 0.10137279574960871
"tambem partilhada", 0.10137279574960871
"neoliticos e hipismo", 0.10137279574960871
"especialmente underfloor aquecido", 0.0036990561011365857
"Monte Saraz", 0.019580054171477238
"tempos romanos", 0.02532605395870836
"conveniencias modernas", 0.02532605395870836
"especialmente underfloor", 0.02532605395870836
"underfloor aquecido", 0.02532605395870836
"mente uma villa", 0.031919334579325866
"villa romana", 0.031919334579325866
"Saraz", 0.07320363825604163
"maio nao Soar", 0.07574410023813345
"inverno voce apreciara", 0.09008404552436912
"Monte", 0.13116860393378124
"nao Soar", 0.13284784490139356
"romanos", 0.140443451825237
"modernas", 0.140443451825237
"especialmente", 0.140443451825237
"aquecido", 0.140443451825237
"Guimaraes e arredores", 0.14841319501443825
"voce apreciara", 0.1625499271207989
"belo Guimaraes", 0.1740595359780296
"voce como passaros", 0.015099935621315529
"Place", 0.05572221155747183
"plantas", 0.05899937629682816
"velho Portugal", 0.06849720811532989
"passaros", 0.10028582371075691
"caminhada", 0.10028582371075691
"voce", 0.14832923246533666
"ambiente", 0.14832923246533666
"Portugal", 0.17008796978057666
"velho", 0.37689977775222827
"Monte Saraz", 0.003466373406756463
"aproximadamente meia", 0.018934911123025353
"refugio perfeito", 0.018934911123025353
"Lisboa", 0.05472462842243762
"Monte", 0.05472462842243762
"cidade de Guimaraes", 0.06300957464660543
"Saraz", 0.06312330058550397
"Reguengos com comodidades", 0.07197603444013399
"supermercados e restaurantes", 0.12217712579370482
"great regional chouricos", 0.12718939425609763
"aproximadamente", 0.13631963489575388
"meia", 0.13631963489575388
"carro", 0.13631963489575388
"refugio", 0.13631963489575388
"perfeito", 0.13631963489575388
"proximo ao Reguengos", 0.14106809130396877
"bela vista", 0.14334196113447734
"adoravel cidade", 0.14334196113447734
"comodidades como supermercados", 0.14334196113447734
"cottage", 0.15199299848166026
