Expressao, Frequencia
"terem sido renovadas", 0.010719351151676434
"relativamente pouco tempo", 0.034405775035048304
"preco bastante agradavel", 0.04689985359111573
"instalacoes tem aspeto", 0.04689985359111573
"aspeto de terem", 0.04689985359111573
"terem sido", 0.04689985359111573
"sido renovadas", 0.04689985359111573
"renovadas ha relativamente", 0.04689985359111573
"tempo", 0.15714741261056964
"esquecer", 0.1602601008548462
"pequeno almoco", 0.16393895649306753
"completamente para esquecer", 0.2075367622761136
"almoco", 0.21025962804484363
"preco", 0.21165726207713062
"agradavel", 0.21165726207713062
"instalacoes", 0.21165726207713062
"aspeto", 0.21165726207713062
"terem", 0.21165726207713062
"sido", 0.21165726207713062
"renovadas", 0.21165726207713062
"hotel", 0.1562296924724324
"localizado", 0.1562296924724324
"renovado", 0.1562296924724324
"decorado", 0.1562296924724324
"razoaveis", 0.1562296924724324
"Limpeza exelente", 0.18088607431001788
"Nao tem piscina", 0.30544220976005976
"Limpeza", 0.3913799434820737
"exelente", 0.3913799434820737
"Precos acessiveis", 0.4743635516775559
"Nao", 0.48371070742859695
"piscina", 0.48371070742859695
"fraquito", 0.534487758716593
"almoco fraquito", 0.5594259898964037
"Precos", 0.5672223868711883
"acessiveis", 0.5672223868711883
"Simpatia dos funcionarios", 0.5858769377244891
"Estacionamento", 0.5903856349982685
"redondezas", 0.5903856349982685
"Simpatia", 0.6078108658332343
"funcionarios sao formidaveis", 0.005497192972026759
"Beja uma otima", 0.014276510743501017
"cafe com amigos", 0.02053656900537108
"amantes do jogo", 0.02053656900537108
"otima opcao", 0.03039516180502021
"opcao para sair", 0.03039516180502021
"sair da mesmice", 0.03039516180502021
"mesmice no periodo", 0.03039516180502021
"periodo noturno", 0.03039516180502021
"tomar um panache", 0.03039516180502021
"funcionarios sao", 0.03039516180502021
"sao formidaveis", 0.03039516180502021
"agradavel com mesa", 0.03039516180502021
"mesa de sinuca", 0.03039516180502021
"bar desse hotel", 0.08085037264223592
"Beja", 0.08195309963546396
"hotel", 0.0995001331258187
"espaco bem agradavel", 0.10447586076060243
"amigos", 0.11716529569858515
"jogo", 0.11716529569858515
"esteticamente sao engracados", 0.0036795331466011826
"sao engracados", 0.021825053676868586
"contam com descanso", 0.021825053676868586
"esteticamente sao", 0.02681581237800976
"isolamento termico", 0.12216633093637416
"termico e acustico", 0.12216633093637416
"engracados", 0.13216898917534342
"descanso", 0.13216898917534342
"vao encontrar", 0.16107070504470083
"esteticamente", 0.16160292053242797
"sao", 0.16160292053242797
"contam", 0.16160292053242797
"pequeno almoco", 0.16575702092083802
"nao o vao", 0.19160924377515406
"termico", 0.20894947038269054
"isolamento", 0.23493285667994904
"acustico", 0.23493285667994904
"pequeno", 0.24948709901372212
"almoco", 0.24948709901372212
"hotel", 0.2523655593826973
"Funcionarios sempre disponiveis", 0.02140921543860024
"Funcionarios", 0.1447773057422032
"disponiveis", 0.1447773057422032
"Pequeno Almoco agradavel", 0.20721163440775167
"sustentabilidade ambiental", 0.23338172234549467
"Pequeno Almoco", 0.2722623505437095
"Almoco agradavel", 0.2722623505437095
"atrativos que Beja", 0.2869291340708172
"condicoes de higiene", 0.35350894161299157
"higiene e sustentabilidade", 0.35350894161299157
"Beja", 0.3693655212169614
"ambiental", 0.3702539456099092
"Localizado em via", 0.38599679376725615
"Almoco", 0.4178540393604482
"Localizado", 0.4613789858464135
"oferecer", 0.4613789858464135
"condicoes", 0.5110573480904945
"higiene", 0.5110573480904945
"sustentabilidade", 0.5110573480904945
"Pequeno", 0.5121371841744414
"ultima renovacao", 0.021897096923229387
"ficou bastante melhor", 0.05139262722579486
"ficou", 0.05964976917621826
"verdadeira simpatia alentejana", 0.08981655468421114
"Gostei", 0.12102666257279926
"renovacao", 0.12102666257279926
"Continua muito limpo", 0.16056327145649474
"dedos de conversa", 0.16056327145649474
"simpatia alentejana", 0.16056327145649474
"acolhedor", 0.16781817241196398
"melhor", 0.17705097305926945
"ultima", 0.17705097305926945
"pessoal muito profissional", 0.22382557528037253
"simpatico.Tem um bar", 0.22382557528037253
"podemos desfrutar", 0.22382557528037253
"verdadeira simpatia", 0.22382557528037253
"bar muito acolhedor", 0.3231163331393752
"acolhedor onde podemos", 0.3231163331393752
"Continua", 0.32350596561652023
"conversa", 0.32350596561652023
"Hotel remodelado recentemente", 0.0032559149605193957
"Hotel remodelado", 0.02541909697430123
"remodelado recentemente", 0.02541909697430123
"staff atencioso", 0.02541909697430123
"optimo bar", 0.02541909697430123
"atencioso e optimo", 0.04188746641162499
"Hotel", 0.12363091320521931
"recentemente", 0.12363091320521931
"minimo", 0.12363091320521931
"frente", 0.12363091320521931
"espacoso", 0.12363091320521931
"pequeno-almoco", 0.12363091320521931
"staff", 0.12363091320521931
"bar", 0.12363091320521931
"exageradamente quente", 0.18075564686791562
"remodelado", 0.2005079697193566
"silencioso", 0.2005079697193566
"atencioso", 0.2005079697193566
"optimo", 0.2005079697193566
"Lamento", 0.32883716426354986
"hotel com imagem", 0.03465229800090378
"pintura por fora", 0.03465229800090378
"imagem renovada", 0.0565406034156422
"necessitar de pintura", 0.0565406034156422
"hotel", 0.1447773057422032
"apesar", 0.1447773057422032
"fora", 0.1447773057422032
"decorrer", 0.1447773057422032
"imagem", 0.23133275159292982
"renovada", 0.23133275159292982
"necessitar", 0.23133275159292982
"pintura", 0.23133275159292982
"pequeno almoco", 0.23338172234549467
"almoco com variedade", 0.23338172234549467
"Excelente relacao qualidade", 0.2637808297160129
"preco", 0.27573389687933125
"Recomendo mesmo", 0.35553610271667324
"limpo", 0.3702539456099092
"pequeno", 0.3702539456099092
"variedade", 0.3702539456099092
"atendimento razoavelmente simpatico", 0.004321630983943496
"razoavelmente simpatico", 0.02335704554173248
"localizado e atendimento", 0.03209355472322652
"atendimento razoavelmente", 0.03209355472322652
"simpatico", 0.12943190558692275
"deixou a desejar", 0.1698921987321515
"pois ainda tinha", 0.1698921987321515
"localizado", 0.17633940797905706
"atendimento", 0.17633940797905706
"razoavelmente", 0.17633940797905706
"exterior", 0.21554385653174854
"limpeza deixou", 0.22229646045635296
"tinha um copo", 0.22229646045635296
"copo de plastico", 0.22229646045635296
"plastico usado", 0.22229646045635296
"desejar", 0.3405254654953293
"pois", 0.3405254654953293
"camas", 0.3405254654953293
"Pequeno almoco agradavel", 0.36329086327667254
"quadro electrico", 0.3706053081053047
"cidade de Beja", 0.00842188436648638
"estrelas na cidade", 0.016281477206089707
"Beja", 0.056275940546084535
"pequeno almoco nao", 0.08593019577959168
"estrelas.No entanto", 0.09597578094972732
"estrelas", 0.10795320618316272
"hotel", 0.11064492200450798
"molas ja estragadas", 0.1255869120426714
"cidade", 0.14840353637699516
"pequeno almoco", 0.16571524955496025
"muita variedade", 0.16571524955496025
"podemos esquecer", 0.16571524955496025
"colchao da cama", 0.16571524955496025
"cama extra", 0.16571524955496025
"almoco nao", 0.1796225924670314
"nao", 0.20193094801009182
"estrelas.No", 0.2959241090540141
"entanto", 0.2959241090540141
"mudado", 0.2959241090540141
"pois", 0.2959241090540141
"actividade profissional", 0.03107735477427921
"atendimento muito simpatico", 0.03107735477427921
"preenchido e variado", 0.03107735477427921
"alojado neste hotel", 0.050888965170882816
"hotel por tres", 0.050888965170882816
"pequeno almoco", 0.050888965170882816
"almoco bem preenchido", 0.050888965170882816
"profissional", 0.13696809108329627
"sendo", 0.13696809108329627
"recebido", 0.13696809108329627
"atendimento", 0.13696809108329627
"servicos", 0.13696809108329627
"variado", 0.13696809108329627
"bar muito agradavel", 0.21339268578732606
"alojado", 0.2200560909321288
"hotel", 0.2200560909321288
"tres", 0.2200560909321288
"ultimos", 0.2200560909321288
"actividade", 0.2200560909321288
"simpatico", 0.2200560909321288
"Hotel Melius", 0.01088632742386566
"vivo em Beja", 0.011790764913878702
"Melius", 0.06042191928176216
"Beja", 0.06922157939437322
"fiquei no Hotel", 0.07163587695451058
"Hotel", 0.0891157687063092
"bar", 0.16117172576115965
"vivo", 0.1683486992638816
"fiquei", 0.1683486992638816
"cidade", 0.2052109979791866
"pessoal", 0.21581802521696627
"servico excelente", 0.21772896139965747
"servico", 0.24638855100351767
"excelente", 0.36283990680949346
"frequentado por hospedes", 0.44884733870943644
"vao tomar", 0.44884733870943644
"simpatico", 0.45345413651800676
"bebida", 0.5205415469466748
"bebidas", 0.5205415469466748
"jogos de futebol", 0.5221127849693401
"ultimo grito", 0.015381021222483056
"hotel de arquitectura", 0.017739905009650638
"arquitectura deslumbrante", 0.017739905009650638
"deslumbrante e ultimo", 0.017739905009650638
"grito", 0.11473578369488299
"espaco de repouso", 0.12019484649589654
"hotel", 0.13202532442907436
"arquitectura", 0.13202532442907436
"deslumbrante", 0.13202532442907436
"ultimo", 0.13202532442907436
"agradavel espaco", 0.13570174981541497
"nao haja cadeiras", 0.16203250227500654
"asseado", 0.16820546439928147
"Nao", 0.16938934697890745
"varanda", 0.18261436988674326
"profissional e solicito", 0.20810618682282297
"nao haja", 0.21307170528663177
"esteja asseado", 0.23216205805222465
"cuidado e asseado", 0.26166780399853456
"facil acesso", 0.2759709952882302
"centro de Beja", 0.008717945164107567
"pessoas em deslocacao", 0.015119865901243819
"servico e negocios", 0.015119865901243819
"fica no centro", 0.018657336061297665
"deslocacao de servico", 0.018657336061297665
"Hotel fica", 0.021837184114631564
"Beja", 0.06386069305046768
"Hotel", 0.0789540076139972
"espanhois", 0.11005755333457826
"pessoas", 0.11005755333457826
"negocios", 0.11005755333457826
"fica", 0.13533519670926492
"centro", 0.13533519670926492
"usado", 0.13533519670926492
"deslocacao", 0.13533519670926492
"servico", 0.13533519670926492
"qualidade e superior", 0.14157600305063775
"agradavel Bar", 0.17931990404107034
"Empregados simpaticos", 0.20498225647342339
"simpaticos e prestaveis", 0.20498225647342339
"Cama confortavel", 0.015248634370867058
"Cama", 0.10374281946485873
"limpo", 0.1447773057422032
"confortavel", 0.1447773057422032
"Cabo e Wifi", 0.2115367348008585
"Pequeno almoco fraco", 0.21278660710470995
"Wifi incluidos Garagem", 0.22351231009246803
"Pressao da agua", 0.23338172234549467
"chuveiro muito fraca", 0.23338172234549467
"Pequeno almoco", 0.2663447655685496
"Garagem propria", 0.2722623505437095
"incluidos Garagem propria", 0.303467823270413
"Pequeno", 0.32302621157633143
"agua no chuveiro", 0.35350894161299157
"Pressao", 0.3702539456099092
"fraca", 0.3702539456099092
"canais por Cabo", 0.3737565631155434
"Wifi incluidos", 0.3737565631155434
"incluidos Garagem", 0.3737565631155434
"sendo mau", 0.38599679376725615
"melhor hotel", 0.03288338664908259
"hotel", 0.07333443401891308
"Beja", 0.10943195159053472
"sol belissima", 0.13553524444194484
"melhor", 0.1447091683661753
"vista pro", 0.1587391152740517
"hotel de Beja", 0.1987702486204963
"cidade apaixonante", 0.23285592635760044
"pessoas educadissimas", 0.23285592635760044
"comida excelente", 0.23285592635760044
"educadissimas e comida", 0.27023544202976113
"agradavel e belo", 0.3075628183371494
"confortavel", 0.3224797742790623
"limpos", 0.3224797742790623
"belissima", 0.3224797742790623
"limpa", 0.3539708838260618
"pra passear", 0.35527735603237715
"bairro muito agradavel", 0.35527735603237715
"manha e simples", 0.3667722538461618
"feito e gostoso", 0.3667722538461618
"pratico e limpo", 0.15191273847690148
"hospedada", 0.15624360179237182
"marido", 0.15624360179237182
"bebe", 0.15624360179237182
"hotel", 0.17772196240336863
"hospedada neste hotel", 0.21226048695517813
"amplas janelas", 0.2591003871759897
"Gostamos", 0.33693657515810405
"amplo", 0.33693657515810405
"limpo", 0.33693657515810405
"Disponibilizaram um berco", 0.3409616473784671
"varanda", 0.3617668801661294
"maravilhoso pao alentejano", 0.38209038655688343
"pratico", 0.3914050769334636
"facilitou na logistica", 0.3999822473382232
"almoco era variado", 0.4056721099537419
"pao alentejano", 0.4056721099537419
"janelas", 0.4254008427565526
"condicionado", 0.4254008427565526
"pequeno almoco", 0.4744274278167972
"razoavel", 0.11163440749541084
"espacosos e silenciosos", 0.127683690390025
"pequeno-almoco completo", 0.2200097106982436
"jogos e diversao", 0.2200097106982436
"sala", 0.22917384188475518
"sala bar", 0.2700784653723702
"localizacao", 0.3038319284756053
"silenciosos", 0.3038319284756053
"servico", 0.37266166236690196
"comodidades", 0.37266166236690196
"espacosos", 0.37266166236690196
"pequeno-almoco", 0.3886996940119948
"diversao", 0.3886996940119948
"completo", 0.4639427193580884
"bar", 0.4639427193580884
"espaco", 0.4639427193580884
"jogos", 0.4639427193580884
"equipa sao rapidos", 0.004475036611185165
"contexto profissional", 0.02459381375679433
"pois o servico", 0.02459381375679433
"sao rapidos", 0.02459381375679433
"servico e equipa", 0.031009819722697795
"equipa sao", 0.031009819722697795
"Hotel ideal", 0.03579841917811753
"ideal para estadias", 0.04368672425205406
"Hotel", 0.06642768699148564
"Hotel apresenta", 0.09170792433368798
"estadias no contexto", 0.09740394925978794
"eficazes", 0.10556253920420347
"estadias familiares", 0.11326324179886779
"estadias", 0.12067883433264748
"qualidade", 0.13362189855629014
"Melius", 0.13840632287516444
"profissional", 0.13840632287516444
"pois", 0.13840632287516444
"rapidos", 0.13840632287516444
"qualidade exigida", 0.16761901117811046
"Hotel razoavel", 0.03707366326394944
"Hotel", 0.15782936386333155
"localizacao", 0.15782936386333155
"lencois confortaveis", 0.1840523885872616
"razoavel", 0.22649993905718604
"confortavel com varanda", 0.24811627141518053
"bar", 0.31104834394280795
"fumadores", 0.3457091665528515
"destacar", 0.3942623170280073
"varanda", 0.3942623170280073
"colchao", 0.3942623170280073
"lencois", 0.3942623170280073
"confortaveis", 0.3942623170280073
"almoco foi bom.", 0.40964611342994894
"bom.", 0.48672926393372173
"confortavel", 0.5042140361379939
"muita variedade", 0.5304807634848248
"variedade", 0.5374933013673208
"Aspetos negativos", 0.5432353374257122
"relacao ao pequeno", 0.5539282735813995
"hotel,o pequeno almoco", 0.0015436029094392577
"sao super confortaveis,adorei", 0.0023975221527271886
"super educados", 0.011753163563889002
"hotel,o pequeno", 0.013204911561698557
"pequeno almoco", 0.013204911561698557
"confortaveis,adorei o bar", 0.013204911561698557
"ambiente muito bom,tem", 0.013204911561698557
"bom,tem comercio", 0.013204911561698557
"acessiveis e prestativos", 0.013204911561698557
"super confortaveis,adorei", 0.016409353990939443
"empregados sao", 0.016409353990939443
"sao super", 0.020407082262988666
"almoco e bom,os", 0.040122166980569085
"bom,o seus empregados", 0.040122166980569085
"sao muitos acessiveis", 0.040122166980569085
"prestativos e super", 0.040122166980569085
"sao", 0.07070884280674247
"super", 0.07070884280674247
"bom,os quartos sao", 0.08193832965112924
"Gostei", 0.08214412040932141
"existe em Beja", 0.01467202305374506
"Hotel Melius", 0.02153747393705741
"melhor que existe", 0.047603835762666774
"Beja", 0.06783313368148206
"Melius", 0.09032718885534179
"Hotel", 0.1167056742330829
"Centros Comerciais", 0.13442410781653524
"Hotel tambem fica", 0.15271174716091776
"Hotel tambem", 0.15601772455216986
"melhor", 0.2131682079098158
"existe", 0.2131682079098158
"casa de banho", 0.22280326450836108
"fica", 0.30342298918561056
"Comerciais", 0.31093801773380964
"proximo e Centros", 0.31387420972190877
"banho", 0.3758542649129425
"Centros", 0.381090295848208
"cidade", 0.4673347740098512
"sao", 0.48478087438454154
"casa", 0.48478087438454154
"preco encontro melhor", 0.0007002925421796251
"safou nao vale", 0.0008246052758877181
"encontro melhor", 0.00655881787154621
"simpatia do staff", 0.008725741306731573
"safou nao", 0.008725741306731573
"nao vale", 0.008725741306731573
"colchao era duro", 0.008725741306731573
"espacoso a casa", 0.008725741306731573
"casa de banho", 0.008725741306731573
"acordei varias", 0.008725741306731573
"barulho e adormeci", 0.008725741306731573
"adormeci ao som", 0.008725741306731573
"condicionado dos vizinhos", 0.008725741306731573
"vizinhos o pequeno-almoco", 0.008725741306731573
"pequeno-almoco e simpatico", 0.008725741306731573
"preco encontro", 0.009869310455759768
"preco o colchao", 0.02508509068420672
"vale o preco", 0.025085090684206723
"preco", 0.05253842215124077
"melhor", 0.07006026871821315
"cidade de Beja", 0.010619629275018815
"localizado na cidade", 0.030803441134664936
"zona comercial", 0.030803441134664936
"centro a cerca", 0.030803441134664936
"Beja", 0.0607868920252255
"relacao qualidade", 0.1539412127363319
"localizado", 0.17286683788205306
"cidade", 0.17286683788205306
"zona", 0.17286683788205306
"comercial", 0.17286683788205306
"centro", 0.17286683788205306
"cerca", 0.17286683788205306
"preco", 0.20717186494652254
"servicos sao", 0.21489669178785997
"qualidade", 0.3171947781126727
"almoco e limitado", 0.34393543650132563
"limpeza", 0.4036310100959565
"servicos", 0.4205766817284309
"sao", 0.4205766817284309
"relacao", 0.4205766817284309
"sido remodelado recentemente", 0.002512893666518231
"remodelado recentemente precisava", 0.002512893666518231
"sido remodelado", 0.018201878914810336
"remodelado recentemente", 0.018201878914810336
"recentemente precisava", 0.018201878914810336
"ficamos hospedado tinha", 0.05905279866729467
"Hotel razoavel", 0.059159094067188375
"apesar", 0.10869189612298631
"remodelacao", 0.10869189612298631
"bolor nos azulejos", 0.11585423898942401
"principalmente na zona", 0.11585423898942401
"zona da banheira", 0.11585423898942401
"CRT de tamanho", 0.12613908662338116
"sido", 0.13370300352293296
"remodelado", 0.13370300352293296
"recentemente", 0.13370300352293296
"precisava", 0.13370300352293296
"ficamos hospedado", 0.1386670365245874
"hospedado tinha", 0.1386670365245874
"tinha a casa", 0.1386670365245874
"Sendo cliente", 0.011154056927717123
"cliente do bar", 0.011154056927717123
"gosto de recomendar", 0.011154056927717123
"ambiente descontraido", 0.011154056927717123
"jogar snooker", 0.01552184797949213
"snooker e fumar", 0.01552184797949213
"Sendo", 0.08922538916412363
"bar", 0.08922538916412363
"gosto", 0.08922538916412363
"descontraido", 0.08922538916412363
"servico razoavel", 0.09108482621177338
"variedade de bebidas", 0.12124452117740256
"cliente", 0.12363091320521931
"recomendar", 0.12363091320521931
"amigos", 0.12363091320521931
"alem", 0.12363091320521931
"ambiente", 0.12363091320521931
"jogar", 0.12363091320521931
"snooker", 0.12363091320521931
"fumar", 0.12363091320521931
"chocolate e sumos", 0.008025058930468495
"cheirava a mofo", 0.011154056927717123
"teias de aranha", 0.011154056927717123
"condicionado estava imundo", 0.011154056927717123
"pondo em perigo", 0.011154056927717123
"perigo a saude", 0.011154056927717123
"bebidas do pequeno-almoco", 0.011154056927717123
"dispensadores automaticos", 0.011154056927717123
"tinham sabor", 0.011154056927717123
"qualidade duvidosa", 0.011154056927717123
"cortinas da janela", 0.01552184797949213
"janela estavam", 0.01552184797949213
"varanda estava suja", 0.01552184797949213
"eram de dispensadores", 0.01552184797949213
"sabor e qualidade", 0.01552184797949213
"leite", 0.05899937629682816
"cafe", 0.05899937629682816
"mofo", 0.08922538916412363
"aranha", 0.08922538916412363
"imundo", 0.08922538916412363
"pequeno almoco", 0.03465229800090378
"almoco", 0.1447773057422032
"pequeno", 0.23133275159292982
"simpatica e prestavel", 0.23338172234549467
"sala de refeicoes", 0.35350894161299157
"refeicoes muito simpatica", 0.35350894161299157
"restantes colaboradores", 0.35350894161299157
"colaboradores na recepcao", 0.35350894161299157
"recepcao pouco atenciosos", 0.35350894161299157
"limpeza razoavel", 0.35553610271667324
"Senhora", 0.3702539456099092
"prestavel", 0.3702539456099092
"simpaticos", 0.3702539456099092
"Serve", 0.4613789858464135
"sala", 0.5110573480904945
"refeicoes", 0.5110573480904945
"simpatica", 0.5110573480904945
"restantes", 0.5110573480904945
"colaboradores", 0.5110573480904945
"recepcao", 0.5110573480904945
"hotel agradavel", 0.012571559314626916
"Apesar de necessitar", 0.01859446618045681
"necessitar de renovacao", 0.01859446618045681
"espacosos e limpos", 0.01859446618045681
"Gins Pessoal simpatico", 0.027235831431279132
"Gins Pessoal", 0.05699462036670261
"diversidade de Gins", 0.10378909220852033
"Pessoal simpatico", 0.10378909220852033
"Apesar", 0.11142476118001256
"renovacao", 0.11142476118001256
"hotel", 0.11142476118001256
"agradavel", 0.11142476118001256
"limpos", 0.11142476118001256
"Zona do bar", 0.14005713113751553
"simpatico e disponivel", 0.14005713113751553
"necessitar", 0.16383273847958243
"espacosos", 0.16383273847958243
"Gins", 0.23220979985467174
"Pessoal", 0.23220979985467174
"qualidade", 0.26303348124903125
"Hotel foi remodelado", 0.016626316719119922
"Hotel", 0.10909815511827554
"funcional", 0.10909815511827554
"rede WI-FI lenta", 0.14492087003629855
"remodelado", 0.149905405948569
"WI-FI lenta", 0.22010868773592726
"interferencias e rede", 0.2859226927845332
"rede WI-FI", 0.2859226927845332
"Pequeno almoco", 0.29106528397220843
"almoco e normal", 0.29106528397220843
"especial", 0.2983957947604909
"suficiente", 0.32705176562700716
"sao", 0.3798215915560938
"lenta", 0.3825795769824884
"Pequeno", 0.4316155337083156
"normal", 0.4316155337083156
"destaque", 0.4316155337083156
"opcao se pretender", 0.44562203905683473
"ficar", 0.4643342181116837
"interferencias", 0.4715382012123803
"vantagem", 0.10519328464496844
"casa de banho", 0.12025258825090053
"localizacao", 0.1447773057422032
"confortavel e amplo", 0.1588666998905099
"alguma intervencao nomeadamente", 0.1760687265275561
"intervencao nomeadamente substituicao", 0.1760687265275561
"precisaria de alguma", 0.20785651292262122
"substituicao da televisao", 0.20785651292262122
"alguma intervencao", 0.2704390918235917
"intervencao nomeadamente", 0.2704390918235917
"nomeadamente substituicao", 0.2704390918235917
"Serve perfeitamente", 0.2754003999271723
"perfeitamente o proposito", 0.2754003999271723
"banho", 0.2899204041465753
"confortavel", 0.3702539456099092
"amplo", 0.3702539456099092
"casa", 0.3702539456099092
"antigo", 0.37298424001381364
"precisaria", 0.37298424001381364
"televisao", 0.37298424001381364
"Apesar do edificio", 0.02508132378084732
"edificio antigo", 0.03441469928261599
"Apesar", 0.13414283659394988
"surpreendente", 0.13414283659394988
"hotel", 0.17328807608121588
"edificio", 0.18239992181623244
"antigo", 0.18239992181623244
"espaco", 0.18239992181623244
"tinha um Spa", 0.204939336462239
"Hotel proporciona", 0.22515476806028686
"Gym", 0.23035643135672473
"enorme", 0.26433762331025207
"Spa", 0.2930271997452187
"calor e soalheiros", 0.3038115155541616
"recebido no hotel", 0.34147839270313357
"varanda enorme", 0.38953936171325626
"enorme garagem", 0.38953936171325626
"Soube que tinha", 0.3974282770739271
"nao o frequentar", 0.3974282770739271
"recebido", 0.4365602405900731
"entrada de Beja", 0.010619629275018815
"Beja", 0.0607868920252255
"Staff simpatico pack", 0.08392710482212998
"romantico welcome drink", 0.08392710482212998
"pequeno almoco razoavel", 0.08392710482212998
"simpatico pack romantico", 0.12035209845570627
"pack romantico welcome", 0.12035209845570627
"Staff simpatico", 0.1539412127363319
"welcome drink", 0.1539412127363319
"garrafa de vinho", 0.1539412127363319
"decoracao na cama", 0.1539412127363319
"pequeno almoco", 0.1539412127363319
"entrada", 0.17286683788205306
"simpatico pack", 0.21489669178785997
"pack romantico", 0.21489669178785997
"romantico welcome", 0.21489669178785997
"vinho servida", 0.21489669178785997
"almoco razoavel", 0.21489669178785997
"Bar aconchegador", 0.25874337996204355
"Staff", 0.3171947781126727
"ambiente muito asseado", 0.04496140729020599
"localizado na cidade", 0.0727077595331169
"asseado", 0.16526845793182304
"hotel", 0.24343476896656294
"localizado", 0.2603452569832025
"cidade", 0.2603452569832025
"deparei", 0.2603452569832025
"ambiente", 0.2603452569832025
"Relativamente ao preco", 0.28885735322005285
"preco praticado", 0.28885735322005285
"simples", 0.28949709391790185
"hotel simples", 0.3925533014138698
"Relativamente", 0.4074537787808157
"praticado", 0.4074537787808157
"julgo", 0.4074537787808157
"pretende pernoitar", 0.4337992501472094
"pernoitar a nao", 0.4337992501472094
"nao busca", 0.4337992501472094
"busca grandes servico", 0.4337992501472094
"Pequeno almoco", 0.47168072269827255
"simpatico e amigavel", 0.00899321792126428
"muita estadia", 0.013527995261974615
"estadia a base", 0.013527995261974615
"base de empresas", 0.013527995261974615
"empresas podia", 0.013527995261974615
"podia ter melhores", 0.013527995261974615
"melhores condicoes", 0.013527995261974615
"condicoes em termos", 0.013527995261974615
"termos de pequeno", 0.013527995261974615
"pequeno almoco", 0.013527995261974615
"ginasio que encontra", 0.013527995261974615
"encontra abandonado", 0.013527995261974615
"abandonado Bastante limpo", 0.013527995261974615
"limpo e servico", 0.013527995261974615
"servico simpatico", 0.013527995261974615
"luxos", 0.0771485953923296
"amigavel", 0.0771485953923296
"espaco,mas", 0.1155310835876123
"hotel", 0.1155310835876123
"muita", 0.1155310835876123
"pessoal de servico", 0.0382084628354068
"simpatico", 0.1485012734059423
"pequeno", 0.1878236580507252
"pessoal", 0.19183926447399327
"servico", 0.19183926447399327
"limpos e espacosos", 0.2054860417502868
"decoracao mediana", 0.2054860417502868
"sao", 0.22995345532992523
"sao limpos", 0.2623459194728229
"equipamentos existente sao", 0.2888080583273833
"existente sao", 0.33505362639335495
"numero e obsoletos", 0.34374260905807874
"pequeno ginasio", 0.3589642351127839
"espacosos", 0.37721950668539395
"mediana", 0.37721950668539395
"WIFI gratis", 0.38110112332764223
"WIFI", 0.41482060916862107
"equipamentos existente", 0.4240493378613423
"pequeno numero", 0.44400213919279546
"bar e interessante", 0.4479902029398751
"Hotel relativamente central", 0.0035100318619344043
"Beja e economico", 0.00908270430899394
"cidade de Beja", 0.011443159999203614
"Hotel relativamente", 0.020962621985407708
"relativamente central", 0.026491540282074122
"central a cidade", 0.026491540282074122
"Beja", 0.0704252781325525
"Hotel", 0.12780853080376184
"economico", 0.12780853080376184
"suite", 0.1402478163324102
"tamanho diz respeito", 0.1556372939138753
"suite fantastico", 0.15903601249203894
"relativamente", 0.16064821993762743
"central", 0.16064821993762743
"cidade", 0.16064821993762743
"fantastico", 0.16306140858069532
"Dormiram tres criancas", 0.18906467934884377
"Dormiram tres", 0.264987257440649
"suite modernos", 0.2726234227838249
"Cortinas exteriores electricas", 0.298899894664977
"limpo e arrumado", 0.011428441650575025
"disponiveis e simpaticos", 0.011428441650575025
"luxos mas limpo", 0.0171187237245397
"funcionarios sempre disponiveis", 0.0171187237245397
"negativo apontar", 0.0171187237245397
"cidade de Beja", 0.02190016985112895
"Beja", 0.051397631220164185
"icone nesta cidade", 0.053554992239671535
"centro da cidade", 0.053554992239671535
"cidade", 0.08485980298699083
"arrumado", 0.08709675736324282
"simpaticos", 0.08709675736324282
"pernoitar", 0.08709675736324282
"icone", 0.12973282253640936
"luxos", 0.12973282253640936
"limpo", 0.12973282253640936
"funcionarios", 0.12973282253640936
"disponiveis", 0.12973282253640936
"negativo", 0.12973282253640936
"apontar", 0.12973282253640936
"atendimento simpatico", 0.02377024658593325
"simpatico e prestavel", 0.02377024658593325
"hotel", 0.13057649828870327
"atendimento", 0.13057649828870327
"prestavel", 0.13057649828870327
"espaco", 0.13057649828870327
"Casa de banho", 0.17238829682720902
"simpatico", 0.17781408754083983
"limpo", 0.17781408754083983
"banho muito limpa", 0.2254703166612755
"oferta", 0.27190771365776745
"Casa", 0.34280173800315455
"desactualizada", 0.34280173800315455
"janelas", 0.3734522652667686
"pequeno almoco", 0.3755690584053794
"almoco com muita", 0.3755690584053794
"muita oferta", 0.3969503613179491
"banho", 0.4289367820041599
"limpa", 0.4289367820041599
"produtos", 0.43180309412672657
"funcionarios simpaticos", 0.05374284662129966
"simpaticos", 0.1809006351039637
"bar", 0.1809006351039637
"hotel", 0.2819330146465614
"funcionarios", 0.2819330146465614
"rececao", 0.2819330146465614
"sao pequenos", 0.3991363510485814
"sao", 0.43408098144208557
"limpos", 0.43949537579925646
"limpo", 0.43949537579925646
"fraco", 0.5277502699097213
"frescas", 0.5277502699097213
"automatico", 0.5277502699097213
"almoco fraco", 0.5409523439649944
"bebidas frescas", 0.5409523439649944
"dispensador automatico", 0.5409523439649944
"confortaveis", 0.5769204738419826
"antigo", 0.5769204738419826
"Nao", 0.577974969127779
"pena", 0.577974969127779
"tinha boas condicoes", 0.01576398858418906
"encontrava-se igualmente limpo", 0.03700681227948297
"limpo e tinha", 0.07278096123927758
"igualmente limpo", 0.08657687969230864
"limpo", 0.11142918108339725
"condicoes", 0.11237534841405976
"antiga e remodelada", 0.12257791746425148
"tinha", 0.13810272515595626
"denota uma infraestrutura", 0.1465624764900028
"infraestrutura antiga", 0.1465624764900028
"encontrava-se igualmente", 0.1465624764900028
"avenida principal", 0.2118766997677688
"termina numa rotunda", 0.2118766997677688
"travagens a fundo", 0.2118766997677688
"recta que termina", 0.25075063922255564
"dificil dormir", 0.25075063922255564
"barulho dos carros", 0.25075063922255564
"dispensador automatico", 0.28072755064045163
"bebida quente", 0.2839660249072136
"remodelada", 0.3054099688436418
"Decoracao moderna", 0.02414075901020373
"espacoso e bonito", 0.03889093655881109
"Decoracao", 0.15353084316509127
"moderna", 0.15353084316509127
"bonito", 0.15353084316509127
"espacoso", 0.24382756938246325
"frutas", 0.2897230000969756
"cereais etc", 0.2970552202531645
"bar", 0.3864795434492178
"Funcionarios atenciosos", 0.3893050044576674
"Pequeno almoco", 0.421890725310034
"tipos de pao", 0.421890725310034
"Pequeno almoco variado", 0.4715800740266526
"Pequeno", 0.47856326803063454
"pao", 0.47856326803063454
"cereais", 0.47856326803063454
"etc", 0.47856326803063454
"Funcionarios", 0.5293539928077544
"atenciosos", 0.5293539928077544
"centro", 0.562153894771392
"Beja,com estacionamento privativo", 0.001170599092507011
"Hotel localizado proximo", 0.0023160866321010193
"camas confortaveis.Contra pesa", 0.003469853724036919
"nao possuir frigobar", 0.003469853724036919
"entrada de Beja,com", 0.01143354430345338
"Beja,com estacionamento", 0.01143354430345338
"Hotel localizado", 0.015099935621315529
"estacionamento privativo", 0.015099935621315529
"minusculos e antigos", 0.015099935621315529
"localizado proximo", 0.02249651976012989
"proximo a entrada", 0.02249651976012989
"tamanho e camas", 0.02249651976012989
"camas confortaveis.Contra", 0.02249651976012989
"confortaveis.Contra pesa", 0.02249651976012989
"pesa o fato", 0.02249651976012989
"fato de nao", 0.02249651976012989
"nao possuir", 0.02249651976012989
"possuir frigobar", 0.02249651976012989
"euros", 0.05899937629682816
"Beja,com", 0.07621084492189614
"estrelas", 0.030600055591213506
"hotel", 0.10346459073060413
"bar", 0.18329390897527087
"direito a explicacao", 0.1897735749085785
"variedade de gin", 0.23742850939760865
"Penso", 0.36413719771233966
"preparados", 0.36413719771233966
"explicacao", 0.36413719771233966
"bares de hotel", 0.374132078193473
"otimos funcionarios", 0.3942365223865556
"funcionarios muito simpaticos", 0.3942365223865556
"bares", 0.4380325401672618
"variedade", 0.4380325401672618
"gin", 0.4380325401672618
"direito", 0.4380325401672618
"preco", 0.44767913479958915
"limpos", 0.4548441306487526
"relacao de qualidade", 0.4936987776166719
"reposto", 0.5055581982680307
"pequeno almoco", 0.5119339864636341
"hotel melius", 0.03854999944025621
"preco acessivel", 0.1540003650391519
"cafe da manha", 0.1682463905949227
"hotel", 0.1926630730296859
"melius", 0.1926630730296859
"incluido na diaria", 0.19840291885029876
"cafe", 0.2508849278910201
"manha", 0.2508849278910201
"otimas camas", 0.2626641632306816
"banheiro excelente", 0.2626641632306816
"Visitar Beja", 0.2628726206009985
"manha incluido", 0.294332062322973
"diaria", 0.36530692245741864
"preco", 0.36530692245741864
"acessivel", 0.36530692245741864
"Beja", 0.3855960817576575
"incluido", 0.45319728236455226
"otimas", 0.45609623213871253
"camas", 0.45609623213871253
"banheiro", 0.45609623213871253
"excelente qualidade preco", 0.0019444707003327924
"Hotel Melius", 0.004852967062496279
"simpaticos e acessiveis", 0.009952889074761483
"qualidade preco", 0.013784437454882689
"pequeno almoco", 0.013784437454882689
"excelente qualidade", 0.01911893411113409
"Hotel", 0.06949481646017519
"Melius", 0.06949481646017519
"Gostei da estadia", 0.0829862733277656
"preco", 0.09927137196013912
"limpo", 0.09927137196013912
"pequeno", 0.09927137196013912
"funcionarios", 0.09927137196013912
"simpaticos", 0.09927137196013912
"acessiveis", 0.09927137196013912
"tenciono la voltar.Foi", 0.1090934922889914
"voltar.Foi muito positivo", 0.1090934922889914
"excelente", 0.13696809108329627
"qualidade", 0.13696809108329627
"almoco", 0.13696809108329627
"Ficamos alojados", 0.0504119740964481
"alojados em setembro", 0.07290527604964077
"Ficamos", 0.1841090986122792
"adultos", 0.1841090986122792
"Recepcionistas super prestaveis", 0.1983459473894307
"cama", 0.23373576725222525
"crianca", 0.24998605897555864
"alojados", 0.260674643867799
"setembro", 0.260674643867799
"Recepcionistas super", 0.31901923613813876
"super prestaveis", 0.31901923613813876
"extra", 0.3270514391932822
"cama extra", 0.42363687055433047
"Recepcionistas", 0.43937116947402416
"prestaveis", 0.43937116947402416
"Tinha", 0.5151344415377213
"deram-nos boas indicacoes", 0.5188872586217187
"poderiamos jantar", 0.5188872586217187
"deram-nos", 0.5331066461939559
"jantar", 0.5331066461939559
"ordem profissional", 0.03203461312834642
"razoes de ordem", 0.04167451351901055
"hotel varias", 0.10195127844395178
"Beja", 0.12447965660386494
"pernoitar em Beja", 0.13085003322199817
"hotel", 0.15418416675309968
"profissional", 0.15518722600360682
"hospedado neste hotel", 0.16142911007959493
"razoes", 0.2000180781945587
"ordem", 0.2000180781945587
"hospedado", 0.2000180781945587
"varias", 0.2000180781945587
"sitio para ficar", 0.2210392472928748
"procuro outro sitio", 0.27553216475421927
"excelentes", 0.28969704723443535
"nao", 0.30310308598350405
"ficar", 0.38949270201318453
"pernoitar", 0.46477252288272336
"procuro", 0.46477252288272336
"sitio", 0.46477252288272336
"Tinha agendado", 0.008210125726924299
"acabei por ficar", 0.009942912299130403
"excelente relacao qualidade", 0.028387741692316046
"relacao qualidade", 0.08278684719308892
"Tinha", 0.09024006022253081
"agendado", 0.09024006022253081
"ficar", 0.09024006022253081
"excelente relacao", 0.09774310095967778
"servico prestado", 0.09774310095967778
"acabei", 0.10909815511827554
"Fiquei agradavelmente surpreendida", 0.11318092813938631
"sao limpos", 0.14659290337435413
"agardaveis e espacosos", 0.14659290337435413
"atencioso e simpatico", 0.14659290337435413
"pronto a ajudar", 0.14659290337435413
"Fiquei agradavelmente", 0.1967112146460677
"surpreendida pela positiva", 0.1967112146460677
"agradavelmente surpreendida", 0.22894203058958335
"Staff", 0.2328335480788381
"Efetivamente", 0.25622746116989586
"cheiro esquisito", 0.014756412737175819
"corredores com cheiro", 0.018734252102175858
"esquisito", 0.10723369317709362
"corredores", 0.1356087540900152
"cheiro", 0.1356087540900152
"Pequeno almoco", 0.20089713232294143
"almoco muito fraco", 0.20089713232294143
"ovos", 0.23133111767824574
"Mofo", 0.23458896476447966
"ovos congelados", 0.24610808877074675
"qualidade de maquina", 0.2666285125832434
"dificuldade de ligacao", 0.2666285125832434
"ovos mexidos", 0.2955839249654183
"mexidos de preparacao", 0.32129328208092667
"preparacao esquisita", 0.32129328208092667
"esquisita e mau", 0.32129328208092667
"mau aspecto", 0.32129328208092667
"preparados com muita", 0.32129328208092667
"muita antecedencia", 0.32129328208092667
"condicionado com dificuldade", 0.32129328208092667
"Agradavel surpresa", 0.00999655547789841
"climatizados e confortaveis", 0.06922940835831855
"Staff atencioso", 0.08313897924994312
"atencioso e simpatico", 0.08313897924994312
"agradaveis e espacosos", 0.08313897924994312
"Gin e tonicas", 0.08534764624083109
"Agradavel", 0.08947740433569534
"semanas", 0.08947740433569534
"Bar com especialidades", 0.10066220644566135
"raras de Gin", 0.10066220644566135
"surpresa", 0.11061578629340411
"estadia", 0.11061578629340411
"Parqueamento privativo", 0.12397016970813565
"profundas na materia", 0.147154689624167
"Recomendo vivamente", 0.16736653837782303
"especialidades raras", 0.1753515542820386
"cardapio e funcionarios", 0.1753515542820386
"funcionarios com conhecimento", 0.1753515542820386
"conhecimento e vocacoes", 0.1753515542820386
"vocacoes profundas", 0.1753515542820386
"prontas ajudar", 0.020818845797234226
"variedade de gins", 0.030803441134664936
"pessoas sempre prontas", 0.030803441134664936
"ajudar", 0.11797671014185607
"bar", 0.17286683788205306
"variedade", 0.17286683788205306
"gins", 0.17286683788205306
"pessoas", 0.17286683788205306
"prontas", 0.17286683788205306
"houve um concerto", 0.21489669178785997
"equipado e agradavel", 0.26176225393615005
"Beja", 0.28639761847540784
"ambiente", 0.3171947781126727
"agradavel", 0.4036310100959565
"houve", 0.4205766817284309
"concerto", 0.4205766817284309
"melhor sitios", 0.467597141943779
"sitios para ficar", 0.467597141943779
"equipado", 0.5139785153975659
"melhor", 0.5644591212760287
"grata surpresa procurar", 0.0017603045039559636
"hotel melius", 0.00984572103096125
"grata surpresa", 0.014399761211232822
"surpresa procurar", 0.014399761211232822
"wi-fi e chuveiro", 0.014399761211232822
"chuveiro quente", 0.014399761211232822
"orcamento e ficar", 0.014399761211232822
"ficar numa suite", 0.014399761211232822
"hotel com wi-fi", 0.029336494835876158
"suite no hotel", 0.029336494835876158
"hotel", 0.04848421165911482
"melius", 0.10054538989091054
"cafe da manha", 0.11377994173775052
"grata", 0.1191442467715714
"surpresa", 0.1191442467715714
"procurar", 0.1191442467715714
"wi-fi", 0.1191442467715714
"chuveiro", 0.1191442467715714
"quente", 0.1191442467715714
"orcamento", 0.1191442467715714
"Belo bar", 0.02948941433745132
"Belo", 0.16924744884867676
"bar", 0.16924744884867676
"pessoal", 0.16924744884867676
"muita simpatia", 0.2045899669441801
"simpatia", 0.26588418270004854
"amplos e confortaveis", 0.3001334606528436
"muita", 0.31939094012855074
"confortaveis", 0.41436911990285524
"sao em regular", 0.4500506104555417
"regular amplos", 0.4500506104555417
"Problemas menores", 0.4889911190322514
"resolvidos pelo staff", 0.4889911190322514
"Problemas", 0.5076000699897251
"staff", 0.5076000699897251
"sao", 0.5571076182447637
"regular", 0.5571076182447637
"amplos", 0.5571076182447637
"Pequeno", 0.5581736770571132
"qualidade", 0.5581736770571132
"decorado e limpo", 0.017174499018535214
"enorme", 0.11569374806658807
"limpo", 0.11569374806658807
"Escolhemos um pacote", 0.1316813687136331
"alentejano e bolinhos", 0.1316813687136331
"decorado", 0.14594147219416645
"pacote romantico", 0.1610528354252398
"romantico com direito", 0.1610528354252398
"direito a vinho", 0.1610528354252398
"vinho alentejano", 0.1610528354252398
"hotel", 0.1731641795770193
"hotel tem estacionamento", 0.19978881061477236
"espaco e esplanada", 0.22654666810724944
"Escolhemos", 0.31242226030905795
"bolinhos", 0.31242226030905795
"pequeno almoco", 0.3599667697006583
"pacote", 0.3724416104719924
"romantico", 0.3724416104719924
"direito", 0.3724416104719924
"vinho", 0.3724416104719924
"atencao e simpatia", 0.012722489632138765
"relacionamento dos trabalhadores", 0.012722489632138765
"simpatia profissional", 0.0167935311323158
"profissional no relacionamento", 0.0167935311323158
"Qualidade", 0.06997357213356549
"Belo bar", 0.08078936803685473
"atencao", 0.09775230943124207
"trabalhadores", 0.09775230943124207
"simpatia", 0.1285152379216541
"profissional", 0.1285152379216541
"relacionamento", 0.1285152379216541
"Bonita decoracao", 0.19259156575129546
"espaco envolvente", 0.23754834813203812
"espacoso e funcional", 0.23754834813203812
"Belo", 0.2734050761388029
"bar", 0.2734050761388029
"esplanada", 0.2734050761388029
"tambem", 0.33869541996442376
"Bonita", 0.4018581357385449
"decoracao", 0.4018581357385449
"recepcionista super amigavel", 0.00671416381540266
"recepcionista super", 0.03462516111238967
"super amigavel", 0.03462516111238967
"amigavel no check-in", 0.051445569924355894
"check-in", 0.13372937290471568
"ate tentou reservar", 0.14108269116955877
"Indicou um restaurante", 0.1811842268899976
"cama de casal", 0.1811842268899976
"recepcionista", 0.18293819239194448
"super", 0.18293819239194448
"amigavel", 0.18293819239194448
"Gostei da recepcionista", 0.1953923198519877
"restaurante e ate", 0.23664439059282244
"ate tentou", 0.23664439059282244
"tentou reservar", 0.23664439059282244
"Gostei", 0.25087791276831795
"check-in e passou", 0.25924737353960364
"sala com varanda", 0.30528600090608493
"Indicou", 0.35065259481210614
"casal", 0.35065259481210614
"varanda nao adequada", 0.0034211155622637826
"gerencia precisa ajuda-los", 0.004740623272155452
"varanda nao", 0.02002416563226876
"pediu cadeiras", 0.02002416563226876
"nao adequada", 0.02759428509228818
"adequada para criancas", 0.02759428509228818
"criancas e pediu", 0.02759428509228818
"ocupado no domingo", 0.02759428509228818
"gerencia precisa", 0.02759428509228818
"precisa ajuda-los", 0.02759428509228818
"cafe da manha", 0.048278509885321196
"domingo de manha", 0.06485899795615367
"manha", 0.08229566831576757
"tamanho", 0.11979680479554662
"varanda", 0.11979680479554662
"cadeiras", 0.11979680479554662
"cafe", 0.11979680479554662
"fresco", 0.11979680479554662
"minutos para varios", 0.14941571038533086
"principal da cidade", 0.14941571038533086
"localizacao", 0.19174588109336366
"Nice", 0.23534578975800036
"hospedado em Beja", 0.26671421939148415
"nice bar", 0.270046554102576
"Beja", 0.309219946453146
"Hotel", 0.3529770546665193
"tambem", 0.3529770546665193
"Nice equipe", 0.38835591513016543
"great", 0.4517337827857594
"bar", 0.4517337827857594
"equipe muito simpatica", 0.546004291012971
"equipe", 0.5942821425129331
"simpatica", 0.5942821425129331
"ficamos", 0.6809261666877704
"casamento", 0.6809261666877704
"recomendo", 0.6809261666877704
"voce", 0.6809261666877704
"estiver", 0.6809261666877704
"hospedado", 0.6809261666877704
"estacionamento", 0.7233984240483919
"Hotel foi impecaveis", 0.1920526114096737
"centro da cidade", 0.1920526114096737
"direita estacionamento", 0.2661234995488276
"fora e cerca", 0.2661234995488276
"nao", 0.28767649955506214
"nao delicioso natas", 0.3013478059049967
"delicioso natas", 0.32210447934983916
"Hotel", 0.35141574436563905
"minutos", 0.35141574436563905
"cidade", 0.35141574436563905
"les", 0.35240138275099886
"infelizmente nao delicioso", 0.42749487233990785
"cafe da manha", 0.43882715528404576
"seguinte embora infelizmente", 0.43882715528404576
"natas", 0.4411523056266935
"impecaveis", 0.4584622465305233
"direita", 0.4584622465305233
"estacionamento", 0.4584622465305233
"fora", 0.4584622465305233
"cerca", 0.4584622465305233
"voce visitar Beja", 0.02041038936367183
"fiquei uma semana", 0.02459243599224387
"semana neste hotel", 0.02459243599224387
"hotel durante", 0.02459243599224387
"visitar Beja", 0.04367091639596207
"Beja", 0.05378084471656844
"fiquei", 0.15492631894855144
"semana", 0.15492631894855144
"hotel", 0.15492631894855144
"durante", 0.15492631894855144
"optima escolha", 0.1783226183602407
"escolha para ficar", 0.1783226183602407
"ficar se voce", 0.1783226183602407
"voce visitar", 0.1783226183602407
"centro da cidade", 0.24230860098434281
"principais supermercados", 0.24230860098434281
"area de lazer", 0.24230860098434281
"esportes e area", 0.3013812118600971
"Penso", 0.3187031691411502
"optima", 0.38901926509850665
"hotel", 0.08962123159541444
"rapido acesso wi-fi", 0.09996582116091661
"Gratuito e rapido", 0.15257119997800186
"rapido acesso", 0.19188995815689464
"acesso wi-fi", 0.19188995815689464
"incrivel", 0.20289575367881402
"equipe encantadora", 0.25999390621069607
"pequeno-almoco maravilhoso", 0.25999390621069607
"buffet de pequeno-almoco", 0.32283587714101714
"Gratuito", 0.3299109686590001
"algum gin tonica", 0.39532938110571714
"rapido", 0.4012435310631993
"acesso", 0.4012435310631993
"wi-fi", 0.4012435310631993
"gin tonica", 0.4067776827181014
"equipe", 0.41769262829332365
"maravilhoso", 0.41769262829332365
"encantadora", 0.49401247230077605
"buffet", 0.49401247230077605
"pequeno-almoco", 0.49401247230077605
"amigos no hotel", 0.01859446618045681
"hotel", 0.11142476118001256
"lembrancas de ferias", 0.14005713113751553
"servico amigavel", 0.14005713113751553
"sido sempre limpo", 0.14005713113751553
"amigos", 0.16383273847958243
"barman serve bebidas", 0.24520184199071754
"ferias", 0.3033846052649951
"amigavel", 0.3033846052649951
"limpo", 0.3033846052649951
"barman serve", 0.3295258815075752
"serve bebidas", 0.3295258815075752
"bebidas e delicioso", 0.3295258815075752
"delicioso ao mesmo", 0.3295258815075752
"mesmo tempo", 0.3295258815075752
"nice e falador", 0.3295258815075752
"plus", 0.3881970960906714
"recomendo", 0.3881970960906714
"lembrancas", 0.4049347717850166
"servico", 0.4049347717850166
"Ola", 0.07459883109391804
"sugeriu-me este hotel", 0.2565471085420662
"amigo portugues sugeriu-me", 0.3221599315787427
"hotel", 0.3864795434492178
"amigo portugues", 0.387110231964722
"portugues sugeriu-me", 0.387110231964722
"amigo", 0.5282771639219086
"portugues", 0.5282771639219086
"sugeriu-me", 0.5282771639219086
"engracado", 0.5293539928077544
"calorosas", 0.5293539928077544
"trabalhadores", 0.5293539928077544
"calorosas saudacoes", 0.5452974178867204
"saudacoes dos trabalhadores", 0.5452974178867204
"mim", 0.562153894771392
"sente-se", 0.5853901306928098
"bebida", 0.5853901306928098
"saudacoes", 0.666615133919817
"voce", 0.7151041773553232
"bar", 0.7151041773553232
