Expressao, Frequencia
'melhores situacoes', 0.019943439662486344
'encontrava nas melhores', 0.033100028790236186
'mancha de humidade', 0.033100028790236186
'teto nao', 0.04816043877099025
'nao estava pintado', 0.06562928105097784
'nao se encontrava', 0.10620858116989315
'situacoes', 0.10923981997294611
'visto', 0.10923981997294611
'pintado', 0.10923981997294611
'denunciando', 0.10923981997294611
'nao', 0.12834816870701238
'encontrava', 0.17899586521379354
'melhores', 0.17899586521379354
'teto', 0.17899586521379354
'mancha', 0.17899586521379354
'humidade', 0.17899586521379354
'peq.almoco foi excecional', 0.07796891081290885
'excecional', 0.2005079697193566
'peq.almoco', 0.36073110501666333
'localizacao', 0.6621399683957523
'funcionaria muito profissional', 0.07796891081290885
'profissional', 0.2005079697193566
'funcionaria', 0.36073110501666333
'atendimento', 0.46553351027698087
'Excelente pequeno almoco', 0.008321268142839145
'Excelente pequeno', 0.04940384002065631
'pequeno almoco', 0.04940384002065631
'Excelente', 0.15831692877998726
'almoco', 0.15831692877998726
'pequeno', 0.29736558256021506
'Simpatia do staff', 0.02570861714399338
'Simpatia', 0.15831692877998726
'staff', 0.15831692877998726
'Estabelecimento muito asseado', 0.02570861714399338
'Estabelecimento', 0.15831692877998726
'asseado', 0.15831692877998726
'banho merece melhoramento', 0.016559150827736194
'casa de banho', 0.04940384002065631
'merece melhoramento', 0.04940384002065631
'banho merece', 0.09700399286574239
'casa', 0.15831692877998726
'melhoramento', 0.15831692877998726
'banho', 0.29736558256021506
'merece', 0.29736558256021506
'toque de conforto', 0.015380821171891606
'entanto necessita', 0.02570861714399338
'localizado', 0.09568045026443411
'conforto', 0.09568045026443411
'entanto', 0.15831692877998726
'necessita', 0.15831692877998726
'toque', 0.15831692877998726
'Nao gostei', 0.015380821171891606
'gostei da iluminacao', 0.02570861714399338
'Nao', 0.09568045026443411
'especialmente', 0.09568045026443411
'gostei', 0.15831692877998726
'iluminacao', 0.15831692877998726
'conforto da cama', 0.015380821171891606
'cama', 0.09568045026443411
'silencio', 0.09568045026443411
'conforto', 0.15831692877998726
'localizacao', 0.15831692877998726
'Wifi gratuito', 0.008293207122436794
'Hotel amplo', 0.009239332327148086
'pequeno-almoco e Wifi', 0.013797198203993007
'Wifi', 0.08596317751626563
'Hotel', 0.09568045026443411
'amplo', 0.09568045026443411
'confortavel', 0.09568045026443411
'localizado', 0.09568045026443411
'gratuito', 0.09568045026443411
'pequeno-almoco', 0.15831692877998726
'registar', 0.15831692877998726
'Pequeno almoco excelente', 0.03356262313410168
'almoco excelente nao', 0.06672462416318604
'excelente nao faltava', 0.06672462416318604
'Pequeno almoco', 0.07796891081290885
'almoco excelente', 0.1495930091794576
'excelente nao', 0.1495930091794576
'nao faltava', 0.1495930091794576
'Pequeno', 0.2005079697193566
'almoco', 0.36073110501666333
'excelente', 0.36073110501666333
'nao', 0.36073110501666333
'faltava', 0.36073110501666333
'destacar', 0.46553351027698087
'simpatia', 0.6621399683957523
'colaboradores', 0.6621399683957523
'simpatia dos colaboradores', 0.7807198046783035
'Casa de banho', 0.02570861714399338
'Casa', 0.15831692877998726
'banho', 0.15831692877998726
'Barulho da discoteca', 0.04940384002065631
'proxima do hotel', 0.04940384002065631
'discoteca proxima', 0.09700399286574239
'Barulho', 0.15831692877998726
'hotel', 0.15831692877998726
'discoteca', 0.29736558256021506
'proxima', 0.29736558256021506
'trazer o prato', 0.00899321792126428
'prato', 0.0771485953923296
'pedido', 0.1155310835876123
'trazer', 0.1155310835876123
'Acessibilidade', 0.04491197687864554
'Rececao', 0.04491197687864554
'piscina a varanda', 0.013527995261974615
'espetaculo', 0.0771485953923296
'vista', 0.1155310835876123
'piscina', 0.1155310835876123
'varanda', 0.1155310835876123
'pormenores a melhorar', 0.024942975597323613
'tendo em conta', 0.024942975597323613
'conta tratar-se', 0.03422861767973646
'estrelas', 0.07324399842529526
'Achamos', 0.13377105542552223
'melhorar', 0.13377105542552223
'tendo', 0.13377105542552223
'hotel', 0.13377105542552223
'pormenores', 0.18192249554923495
'conta', 0.18192249554923495
'tratar-se', 0.18192249554923495
'limpa', 0.22072336760481365
'nao', 0.23088048926547666
'limpa durante', 0.2381910394123928
'plastico tambem nao', 0.2643995399542486
'Receber o comando', 0.30250610501692127
'tambem nao', 0.3236026359712953
'estadia', 0.34910358487079446
'produtos regionais alentejanos', 0.3861701657739238
'envolto num plastico', 0.3895317594000318
'acessos locais', 0.0792142629849517
'visitar locais', 0.0792142629849517
'locais de interesse', 0.10481969574931883
'interesse', 0.1497391925531594
'locais', 0.15392083341699683
'locais para visitar', 0.16605370802918226
'localizacao', 0.23843406751375792
'centro', 0.23843406751375792
'acessos', 0.23843406751375792
'visitar', 0.23843406751375792
'hotel e sossegado', 0.2464148712192172
'sossegado', 0.37951425938754646
'insonorizados', 0.37951425938754646
'hotel', 0.5209261917026199
'tinha vista privilegiada', 0.0037183172037308573
'nao influenciou particularmente', 0.007204602490466476
'fazia-se sentir', 0.017920434559769032
'impressao do hotel', 0.017920434559769032
'tinha vista', 0.023539554451314455
'vista privilegiada', 0.023539554451314455
'influenciou particularmente', 0.023539554451314455
'nao influenciou', 0.04488051545551978
'limpeza nao parecer', 0.05776330604956476
'nao', 0.09441111937516516
'Housekeeping teria evitado', 0.098317667050591
'tinham alguns cabelos', 0.108801609675759
'sentir', 0.11608815262061666
'hotel', 0.11608815262061666
'limpeza nao', 0.12169172292639557
'nao parecer', 0.12169172292639557
'sanita nao', 0.12169172292639557
'entanto isso nao', 0.1297662214383484
'deixou pouco impressionados', 0.13634672980752807
'lavados e engomados', 0.13634672980752807
'tinha varanda', 0.01859446618045681
'decentemente espacoso', 0.027581485432184485
'espacoso e tinha', 0.027581485432184485
'varanda', 0.11142476118001256
'bocado na piscina', 0.14005713113751553
'decentemente', 0.16383273847958243
'espacoso', 0.16383273847958243
'tinha', 0.16383273847958243
'espaco exterior', 0.19613242932716538
'imensa variedade', 0.23956129807083346
'cuidado', 0.3033846052649951
'piscina', 0.3033846052649951
'pequeno almoco', 0.3295258815075752
'variedade', 0.3881970960906714
'espaco', 0.4049347717850166
'exterior', 0.4049347717850166
'passamos', 0.4049347717850166
'bocado', 0.4049347717850166
'pequeno', 0.49784754196738834
'almoco', 0.49784754196738834
'Hotel agradavel', 0.01552184797949213
'Hotel', 0.12363091320521931
'agradavel', 0.12363091320521931
'amplo', 0.12363091320521931
'servico', 0.12363091320521931
'pequeno almoco', 0.2766850298235749
'pequeno', 0.46553351027698087
'almoco', 0.46553351027698087
'funcionarios', 0.2606577339217446
'hotel', 0.2915157949258876
'Bar e restaurante', 0.3867394095222266
'multifunctional', 0.4773022384731054
'Bar', 0.5280946721184738
'restaurante', 0.5280946721184738
'Deverao', 0.5841629632403182
'situacoes', 0.5841629632403182
'rececao', 0.5879345929012387
'cadeiras', 0.6662207649813989
'disponiveis', 0.6662207649813989
'piscina', 0.6662207649813989
'nao', 0.6662207649813989
'davam', 0.6662207649813989
'capacidade', 0.6662207649813989
'Deverao rever', 0.6703562054331049
'rever estas situacoes', 0.6703562054331049
'rever', 0.6870091487521112
'cadeiras disponiveis', 0.7980764067952248
'disponiveis na piscina', 0.7980764067952248
'rececionista', 0.4949246952252326
'funcionario do bar', 0.5286731219590494
'bar multiplicou-se', 0.5286731219590494
'funcionario', 0.5880798524606783
'bar', 0.5880798524606783
'multiplicou-se', 0.5880798524606783
'carne nao conseguida', 0.016559150827736194
'Jantei no hotel', 0.02570861714399338
'precos adequados', 0.02570861714399338
'nao conseguida', 0.04940384002065631
'confecao da carne', 0.09700399286574239
'carne nao', 0.09700399286574239
'Jantei', 0.15831692877998726
'hotel', 0.15831692877998726
'precos', 0.15831692877998726
'adequados', 0.15831692877998726
'conseguida', 0.15831692877998726
'confecao', 0.29736558256021506
'carne', 0.29736558256021506
'nao', 0.29736558256021506
'funcionarios simpaticos', 0.02570861714399338
'Hotel muito sossegado', 0.04940384002065631
'pequeno almoco', 0.04940384002065631
'sossegado durante', 0.09700399286574239
'Hotel', 0.15831692877998726
'estadia', 0.15831692877998726
'almoco', 0.15831692877998726
'funcionarios', 0.15831692877998726
'simpaticos', 0.15831692877998726
'sossegado', 0.29736558256021506
'durante', 0.29736558256021506
'pequeno', 0.29736558256021506
'almoco demasiado Industrializado', 0.0036274557725306843
'pequeno almoco demasiado', 0.012164019732225138
'demasiado Industrializado', 0.015530258124008545
'pequeno almoco', 0.050888965170882816
'almoco demasiado', 0.050888965170882816
'Industrializado', 0.06949481646017519
'pequeno', 0.2200560909321288
'almoco', 0.2200560909321288
'demasiado', 0.2200560909321288
'Estacionamento muito dificil', 0.24745631075091173
'praticamente', 0.3553358554145339
'maquina', 0.3553358554145339
'Estacionamento', 0.44538603402402266
'dificil', 0.44538603402402266
'beber', 0.4949246952252326
'hotel nao deveria', 0.13533142301235443
'localizacao', 0.13870665738117263
'Wi-Fi', 0.13870665738117263
'Hotel', 0.14229237894241473
'hotel nao', 0.17599543070971552
'canais', 0.17978976992892315
'Espaco da piscina', 0.18280743114325237
'nomeadamente em melhorias', 0.18348864806959084
'alguma', 0.23862763624931815
'nao deveria permitir', 0.24856229125729157
'alguma modernizacao', 0.2599009681853431
'toalhas', 0.2645376611289265
'algumas pessoas marquem', 0.2718698719647387
'Espaco', 0.29389735609697376
'vao tomar', 0.3091064104523832
'tomar o pequeno-almoco', 0.3091064104523832
'deveria permitir', 0.3091064104523832
'pessoas marquem lugares', 0.31531522268666773
'algumas pessoas', 0.33507344937817307
'ajustes', 0.3586941977550464
'tomar banho', 0.010305734710456966
'ficava a escaldar', 0.014979662163430787
'repente a agua', 0.018486216325001772
'agua diminuia', 0.018486216325001772
'diminuia o caudal', 0.018486216325001772
'caudal e ficava', 0.018486216325001772
'banho', 0.06422845759405629
'tomar', 0.07860696447272811
'escaldar', 0.10954643310639234
'deixavam ficar confortavel', 0.11115164642041893
'repente', 0.13472445564013996
'agua', 0.13472445564013996
'diminuia', 0.13472445564013996
'caudal', 0.13472445564013996
'ficava', 0.13472445564013996
'processo ritmico', 0.14048473798087768
'ritmico que acontecia', 0.14048473798087768
'ficar confortavel', 0.1888095267342517
'utilizar a piscina', 0.20347196021556135
'pois a quantidade', 0.20347196021556135
'centro de Beja', 0.008102673846873939
'hotel daquele tamanho', 0.015465128052409167
'fora do centro', 0.02140921543860024
'Beja', 0.055516630689826464
'Localizacao', 0.10519328464496844
'tamanho', 0.10519328464496844
'esperar', 0.10519328464496844
'staff simpatico', 0.12025258825090053
'pronto a responder', 0.12025258825090053
'fora', 0.1447773057422032
'centro', 0.1447773057422032
'hotel', 0.1447773057422032
'Piscina razoavel', 0.16159836193228425
'excelente ideia', 0.21620770529133224
'pessoas a passar', 0.2754003999271723
'Pequeno-almoco', 0.2899204041465753
'simpatico', 0.2899204041465753
'pronto', 0.2899204041465753
'exigencias', 0.2899204041465753
'som das pessoas', 0.35553610271667324
'funcionarios simpaticos', 0.02541909697430123
'simpaticos', 0.12363091320521931
'estrelas', 0.17881754828257995
'Hotel descuidado', 0.18075564686791562
'localizado', 0.2005079697193566
'funcionarios', 0.2005079697193566
'descuidado com instalacoes', 0.2766850298235749
'instalacoes que nao', 0.2766850298235749
'nao merecem', 0.2766850298235749
'Hotel', 0.32883716426354986
'descuidado', 0.46553351027698087
'instalacoes', 0.46553351027698087
'nao', 0.46553351027698087
'merecem', 0.46553351027698087
'Funcionario do restaurante', 0.04940384002065631
'restaurante nada humilde', 0.04940384002065631
'Funcionario', 0.15831692877998726
'humilde', 0.15831692877998726
'restaurante', 0.29736558256021506
'muita qualidade', 0.025250325627405208
'qualidade', 0.14023419446805124
'hotel com muita', 0.14307236194484696
'Bar', 0.14867386191787169
'muita', 0.17562370830608853
'Destaco a simpatia', 0.18173004033100792
'hotel', 0.1831519870011576
'Senhor', 0.21516075855276934
'irmao', 0.21665440856148563
'empatia do Senhor', 0.225934627294862
'empatia', 0.24279664496937695
'restaurante', 0.2539471656510493
'Senhor do Bar', 0.2604196072024798
'restaurante fecha', 0.3577309490428579
'Destaco', 0.36162720416210736
'conseguimos chegar', 0.3682054109297466
'hotel as 22:30', 0.37597167111797264
'qualquer empatia', 0.41238356974477486
'simpatia', 0.4252529681136017
'demonstrou qualquer empatia', 0.4328086250374127
'Pequeno almoco digno', 0.01655915082773619
'Pequeno almoco', 0.04940384002065631
'almoco digno', 0.09700399286574239
'Pequeno', 0.15831692877998726
'estrelas', 0.15831692877998726
'almoco', 0.29736558256021506
'digno', 0.29736558256021506
'nao', 0.1094114349019858
'limpeza', 0.13302448016044016
'empregada da limpeza', 0.16299473489473112
'cheio', 0.18131673055063932
'ficou tudo igual', 0.1966730798699066
'limpeza nao', 0.2116112941517223
'empregada', 0.21837318972444097
'limpar durante', 0.23308398557818602
'durante a estadia', 0.23308398557818602
'limparam nada ficou', 0.23308398557818602
'nao limparam', 0.23498776402961633
'hotel', 0.28616424100965754
'pois', 0.29454050966297113
'arrogante entao nao', 0.32439467088659274
'entao nao vao', 0.32439467088659274
'nao vao sair', 0.32439467088659274
'pedir desculpa', 0.33009443346015027
'entao nao', 0.339132164166956
'nao vao', 0.339132164166956
'igual', 0.37801541345726336
'rececao super simpatico', 0.005401660759706154
'super simpatico', 0.02541909697430123
'funcionarios da rececao', 0.04188746641162499
'rececao super', 0.04188746641162499
'simpatico', 0.12363091320521931
'ajudou nos imenso', 0.18075564686791562
'funcionarios', 0.2005079697193566
'rececao', 0.2005079697193566
'super', 0.2005079697193566
'atendeu na chegada', 0.2766850298235749
'querida ajudou', 0.2766850298235749
'imenso', 0.32883716426354986
'senhora', 0.46553351027698087
'atendeu', 0.46553351027698087
'chegada', 0.46553351027698087
'querida', 0.46553351027698087
'ajudou', 0.46553351027698087
'Adorei', 0.12363091320521931
'limpeza', 0.32883716426354986
'atendimento', 0.46553351027698087
'simpatia', 0.46553351027698087
'Wifi fraco', 0.01552184797949213
'Wifi', 0.12363091320521931
'fraco', 0.12363091320521931
'chao', 0.46553351027698087
'Ambiente acolhedor', 0.050888965170882816
'Ambiente', 0.2200560909321288
'acolhedor', 0.2200560909321288
'Zona', 0.4949246952252326
'piscina', 0.4949246952252326
'Zona verde', 0.5162806230574593
'verde e piscina', 0.5162806230574593
'Estacionamento facil', 0.5286731219590494
'Estacionamento', 0.5880798524606783
'facil', 0.5880798524606783
'verde', 0.68796622281612
'Toalhas de banho', 0.04940384002065631
'banho muito pequenas', 0.04940384002065631
'Toalhas', 0.15831692877998726
'pequenas', 0.15831692877998726
'banho', 0.29736558256021506
'almofadas e lencois', 0.03204729658866831
'lencois idem', 0.03204729658866831
'Cama otima', 0.075321367390986
'Cama', 0.14667313296139425
'almofadas', 0.14667313296139425
'idem', 0.14667313296139425
'Pequeno almoco variado', 0.15000218428557716
'lencois', 0.21170993090216894
'Pequeno almoco', 0.22011202838828603
'otima', 0.23878077402818998
'Piscina otima', 0.28558704359376086
'almoco variado', 0.30362252881661655
'Pequeno', 0.3738117938830398
'Piscina', 0.46516567734426817
'Regras sanitarias', 0.47573711462585144
'sintamos invadidos', 0.47573711462585144
'almoco', 0.4826041675402049
'variado', 0.4826041675402049
'Regras', 0.5159414169149873
'invadidos', 0.5159414169149873
'zona da piscina', 0.17756077014849755
'agradavel', 0.2200560909321288
'zona', 0.38831292435681075
'piscina', 0.38831292435681075
'Pequeno almoco excelente', 0.40991697689533735
'Pequeno', 0.4949246952252326
'excelente', 0.4949246952252326
'Pequeno almoco', 0.5162806230574593
'almoco excelente', 0.5162806230574593
'almoco', 0.68796622281612
'insonorizacao', 0.7625957055371981
