Expressao, Frequencia
"pessoal super simpatico", 0.004737258569048452
"localizacao e excelente", 0.01859446618045681
"pessoal super", 0.027581485432184485
"super simpatico", 0.027581485432184485
"comida era mto", 0.027581485432184485
"excelente", 0.11142476118001256
"localizacao", 0.16383273847958243
"pessoal", 0.16383273847958243
"super", 0.16383273847958243
"simpatico", 0.16383273847958243
"comida", 0.16383273847958243
"mto", 0.16383273847958243
"Aconselho", 0.26303348124903125
"voltar", 0.4049347717850166
"nao dao muita", 0.014324834009635256
"dao muita atencao", 0.014324834009635256
"estrelas porque acho", 0.03465229800090378
"pareceu a mim", 0.03465229800090378
"acho que nao", 0.0565406034156422
"nao dao", 0.0565406034156422
"dao muita", 0.0565406034156422
"muita atencao", 0.0565406034156422
"atencao ao motivo", 0.0565406034156422
"motivo de estarmos", 0.0565406034156422
"Dou", 0.06997357213356549
"estrelas", 0.1447773057422032
"mim", 0.1447773057422032
"acho", 0.23133275159292982
"nao", 0.23133275159292982
"dao", 0.23133275159292982
"muita", 0.23133275159292982
"atencao", 0.23133275159292982
"motivo", 0.23133275159292982
"estarmos", 0.23133275159292982
"privilegiada de Beja", 0.018253143951356368
"restaurante numa zona", 0.06320982685919768
"zona privilegiada", 0.06320982685919768
"Beja", 0.0735189185046965
"restaurante", 0.24382756938246325
"zona", 0.24382756938246325
"privilegiada", 0.24382756938246325
"calor", 0.3864795434492178
"precos normais", 0.421890725310034
"Aconselho a visita", 0.4620246439700256
"normais", 0.47856326803063454
"esplanada", 0.5282771639219086
"cheio", 0.5293539928077544
"Aconselho", 0.562153894771392
"visita", 0.562153894771392
"comida", 0.6200038627901097
"precos", 0.6200038627901097
"servico", 0.666615133919817
"demorado", 0.666615133919817
"Adorei a experiencia", 0.0222628772898439
"Parque da Cidade", 0.022543893493649526
"Cidade", 0.08729933416282619
"Parque", 0.12354785918930465
"Adorei", 0.12941376359029316
"jantar", 0.12941376359029316
"Comemos no exterior", 0.13113594835685632
"experiencia", 0.16828222093578163
"Localizado no Parque", 0.18407094855303394
"espelho de agua", 0.20528633978957453
"amigos Localizado", 0.2257216820842981
"agua do Parque", 0.2259672515910094
"pratos", 0.2635638232290103
"espetada de polvo", 0.27740922733598544
"Localizado", 0.3309290236960988
"Comemos", 0.34048930758060847
"exterior", 0.34048930758060847
"virados", 0.34048930758060847
"servico e competente", 0.34393214973723996
"bacalhau da casa", 0.34393214973723996
"Paramos para almocar", 0.019765638980433757
"encontramos um ambiente", 0.04242344267504827
"ambiente calmo", 0.04242344267504827
"normas da DGS", 0.10141915236198548
"Empregados super simpaticos", 0.12988452220493746
"Paramos", 0.13922115813581393
"almocar", 0.13922115813581393
"calmo e simpatico", 0.1396121106349305
"DGS", 0.19699135421753192
"encontramos", 0.20173482208108084
"ambiente", 0.20173482208108084
"calmo", 0.20173482208108084
"tempos de espaco", 0.20210867093701454
"cumprindo as normas", 0.20210867093701454
"super simpaticos", 0.20649871705983383
"amplo em tempos", 0.27958141366096106
"simpatico", 0.30500079122110946
"simpaticos", 0.30500079122110946
"Empregados super", 0.33790196951676427
"comida estava divinal", 0.33790196951676427
"Restaurante super limpo", 0.004116265956201597
"normas da DGS", 0.01006403913249465
"limpo e amplo", 0.02071096275598536
"Restaurante super", 0.02333093138963711
"funcionarios eram", 0.02852287671676934
"eram muito simpaticos", 0.02852287671676934
"super limpo", 0.0523128139577283
"DGS", 0.05983202792769765
"Restaurante", 0.07637345480286206
"estrelas", 0.08155831103715849
"pedido ate chegar", 0.10842656801068697
"Relativamente a refeicao", 0.11825120682770618
"amplo", 0.12184503132862928
"cumprindo", 0.12184503132862928
"super rapido", 0.13932873760410663
"super", 0.14926003627496248
"comida estava maravilhosa", 0.15368784946513245
"atendimento", 0.1665289272744402
"funcionarios", 0.1665289272744402
"eram", 0.1665289272744402
"Visitei o restaurante", 0.024925859587129947
"restaurante numa recente", 0.03420559437317446
"recente visita", 0.03420559437317446
"visita a Beja", 0.1102887381477011
"Beja", 0.13153697439970058
"Visitei", 0.13372498691511758
"almoco de casal", 0.1793233329315976
"restaurante", 0.18186332596817822
"recente", 0.18186332596817822
"visita", 0.18186332596817822
"visite Beja", 0.20643170709085307
"otimo almoco", 0.23428166344963974
"face ao Covid", 0.2766034299845883
"comida era otima", 0.30234447699166717
"carne e excelente", 0.30234447699166717
"Covid", 0.34188772725521394
"casal", 0.3490132380875874
"Atendimento simpatico", 0.37483882802717405
"qualidade da carne", 0.38932926777113536
"Adorei as migas", 0.3955723197870788
"visita a Beja", 0.013388015649928907
"Visitamos o restaurante", 0.02541909697430123
"restaurante numa recente", 0.04188746641162499
"recente visita", 0.04188746641162499
"Beja", 0.06588837669267192
"Visitamos", 0.12363091320521931
"Atendimento simpatico", 0.18075564686791562
"simpatico e rapido", 0.18075564686791562
"restaurante", 0.2005079697193566
"recente", 0.2005079697193566
"visita", 0.2005079697193566
"Atendimento", 0.32883716426354986
"rapido", 0.32883716426354986
"comida", 0.32883716426354986
"simpatico", 0.46553351027698087
"ambiente", 0.46553351027698087
"espelho d"agua", 0.0934346755383478
"ultima superou", 0.17756077014849755
"Nao", 0.2200560909321288
"d"agua", 0.2200560909321288
"espelho", 0.38831292435681075
"ultima", 0.38831292435681075
"superou", 0.38831292435681075
"atendimento", 0.4949246952252326
"adequados", 0.5880798524606783
"comida", 0.68796622281612
"precos", 0.7625957055371981
"sao", 0.7625957055371981
"sao adequados", 0.8131286944405928
"precos sao", 1.3897843987848642
"precos sao adequados", 1.6641344268913383
"jantar em familia", 0.01859446618045681
"comida e otima", 0.01859446618045681
"carne e excelente", 0.01859446618045681
"nao tenho palavras", 0.01859446618045681
"otimo jantar", 0.027581485432184485
"qualidade da carne", 0.027581485432184485
"palavras para descrever", 0.027581485432184485
"descrever as migas", 0.027581485432184485
"migas de espinafres", 0.027581485432184485
"divinais", 0.06588837669267192
"Atendimento muito prestavel", 0.10137279574960871
"familia", 0.11142476118001256
"otima", 0.11142476118001256
"excelente", 0.11142476118001256
"nao", 0.11142476118001256
"espargos", 0.11142476118001256
"face ao Covid", 0.13624076804587806
"otimo", 0.16383273847958243
"jantar", 0.16383273847958243
"comida", 0.16383273847958243
"comida muito saborosa", 0.02541909697430123
"saborosa e atendimento", 0.02541909697430123
"mesmo assim atenderam-nos", 0.04188746641162499
"estrelas", 0.05899937629682816
"Chegamos", 0.12363091320521931
"simpatia", 0.12363091320521931
"comida", 0.12363091320521931
"atendimento", 0.12363091320521931
"Staff", 0.19677146788549632
"mesmo", 0.2005079697193566
"atenderam-nos", 0.2005079697193566
"saborosa", 0.2005079697193566
"Parabens", 0.32883716426354986
"rapida por Beja", 0.03584123589510242
"queriamos uma refeicao", 0.04385898894816642
"surpresa ao chegar", 0.04385898894816642
"passagem rapida", 0.048066361241457994
"refeicao rapida", 0.048066361241457994
"Beja", 0.0665118486285985
"agradavel surpresa", 0.1059558087431104
"rapida", 0.11187011332688697
"acabamos", 0.1416380583815529
"restaurante", 0.1416380583815529
"carne Espaco agradavel", 0.15364637035692283
"Espaco agradavel", 0.1825789688699588
"passagem", 0.20497853755709544
"queriamos", 0.20497853755709544
"refeicao", 0.20497853755709544
"passando", 0.20497853755709544
"surpresa", 0.20497853755709544
"chegar", 0.20497853755709544
"Apesar de cheio", 0.20788563136856142
"conseguiram arranjar", 0.20788563136856142
"demorado", 0.10028582371075691
"Sugiro que venham", 0.11755105063023073
"vagar para esperar", 0.11755105063023073
"comida", 0.14832923246533666
"atendimento", 0.14832923246533666
"Sugiro", 0.2790829227183407
"esperar", 0.2790829227183407
"venham", 0.37689977775222827
"tempo", 0.37689977775222827
"vagar", 0.37689977775222827
"Deixa a desejar", 0.01755237711130781
"servico.Entretanto foi-lhe Restaurante", 0.11606011196585925
"foi-lhe Restaurante acima", 0.11606011196585926
"Deixa", 0.13133775363551617
"desejar", 0.13133775363551617
"horario de funcionamento", 0.14527331236696142
"foi-lhe Restaurante", 0.16123282411646594
"Restaurante acima", 0.17285472543376773
"horario", 0.18420300896135672
"horario de abertura", 0.19002814212204072
"estabelecimento", 0.2123516569408034
"tendo sido informado", 0.2156063955437064
"foi-lhe", 0.24029285579072554
"tendo sido", 0.28387777039339585
"nao respeitou", 0.28387777039339585
"pedido que aguada-se", 0.28387777039339585
"pois os funcionarios", 0.28387777039339585
"acima da media", 0.28387777039339585
"Restaurante", 0.2889104848744487
"foi-lhe pedido", 0.3247790801993716
"restaurante", 0.11142476118001256
"alguidar fabulosas", 0.14005713113751553
"regressar", 0.16383273847958243
"servico e sopa", 0.19613242932716538
"sopa de cacao", 0.19613242932716538
"cacao e migas", 0.19613242932716538
"migas de espargos", 0.19613242932716538
"espargos com carne", 0.19613242932716538
"carne de alguidar", 0.19613242932716538
"Aconselho", 0.26303348124903125
"fabulosas", 0.3033846052649951
"servico", 0.4049347717850166
"sopa", 0.4049347717850166
"cacao", 0.4049347717850166
"migas", 0.4049347717850166
"espargos", 0.4049347717850166
"carne", 0.4049347717850166
"alguidar", 0.4049347717850166
"RECOMENDADO por Considerando", 0.004846818540646324
"possivel executar dado", 0.005293741613504959
"opcao foi-lhe sugerido", 0.005293741613504959
"horrendo nao levantei", 0.009330799674986219
"cidade de Beja", 0.011927255179684926
"clientes pretendiam nao", 0.014881524189605798
"Beja nao", 0.020432432338487645
"NAO RECOMENDADO", 0.020432432338487645
"inicial a funcionaria", 0.02066185668034559
"desilusao a funcionaria", 0.02066185668034559
"Apesar da simpatia", 0.02470262544378997
"atendimento horrendo nao", 0.02827778802974742
"simpatia do empregado", 0.029656359855120322
"empregado inicial", 0.029656359855120322
"intitula como chefe", 0.029656359855120322
"chefe de mesas", 0.029656359855120322
"levantei e abandonei", 0.029656359855120322
"pois era domingo", 0.029656359855120322
"oferta na cidade", 0.029656359855120322
"possivel executar", 0.029656359855120322
"Restaurante Espelho D"Agua", 0.001536659754450687
"Restaurante Espelho", 0.008404981530295513
"proposta em Beja", 0.010981376452115343
"Espelho D"Agua", 0.016462557677370277
"excelente proposta", 0.03249356950085711
"servico simpatico", 0.03249356950085711
"espaco agradavel", 0.047144520510864076
"vista agradavel", 0.047144520510864076
"Beja", 0.061229200828983796
"Restaurante", 0.09129581932349395
"Espelho", 0.09129581932349395
"agradavel com comida", 0.1042077586299381
"confeccionada", 0.10818430779536715
"agradavel", 0.12689355643328784
"excelente", 0.1774005791880223
"proposta", 0.1774005791880223
"D"Agua", 0.1774005791880223
"espaco", 0.1774005791880223
"comida", 0.1774005791880223
"servico", 0.1774005791880223
"Entradas fabulosas", 0.012571559314626916
"marisco divinal", 0.01859446618045681
"divinal e vinho", 0.027581485432184485
"Entradas", 0.11142476118001256
"fabulosas", 0.11142476118001256
"marisco", 0.11142476118001256
"divinal", 0.16383273847958243
"vinho", 0.16383273847958243
"carne tenra", 0.19613242932716538
"tenra e suculenta", 0.19613242932716538
"Simpatia e preco", 0.23956129807083346
"Simpatia", 0.3881970960906714
"normalidade", 0.3881970960906714
"carne", 0.4049347717850166
"tenra", 0.4049347717850166
"suculenta", 0.4049347717850166
"apresentacao", 0.4049347717850166
"preco", 0.49784754196738834
"rapido e prestavel", 0.017386682234343812
"servico foi optimo", 0.025507852905700554
"optimo", 0.1307270118629463
"rapido", 0.1307270118629463
"prestavel", 0.1307270118629463
"comida estava incrivel", 0.18228268651744198
"nao sobrou", 0.18228268651744198
"migas estavam", 0.18228268651744198
"servico", 0.19026967628231284
"mesmo cheios", 0.19949901781551133
"mesmo", 0.24237605797278117
"aliado a vista", 0.30671026542383745
"incrivel", 0.3431003426192771
"tao", 0.3431003426192771
"cheios", 0.3431003426192771
"nao", 0.3431003426192771
"estavam", 0.3431003426192771
"vista", 0.43212824916040704
"muitas", 0.43212824916040704
"comida", 0.44936882421953867
"Servico perfeito", 0.03176544073582108
"vista soberba", 0.03176544073582108
"Servico", 0.17546356713584482
"perfeito", 0.17546356713584482
"vista", 0.17546356713584482
"soberba", 0.17546356713584482
"Comida bem servida", 0.2204203164665504
"celestial", 0.3236720330598991
"bacalhau", 0.3535414173310705
"Comida", 0.42498254837802607
"servida", 0.42498254837802607
"Acorda", 0.5184872830921132
"espiritual", 0.5688923825244586
"Acorda bacalhau", 0.5788147260428033
"bacalhau espiritual", 0.6729514949998155
"carne", 0.701132735064015
"porco", 0.701132735064015
"alentejana", 0.701132735064015
"carne de porco", 0.9669052928311884
"porco a alentejana", 0.9669052928311884
"agradavel", 0.1447773057422032
"Comida bem confecionada", 0.1588666998905099
"carne servida", 0.23338172234549467
"Staff muito prestavel", 0.2704390918235917
"Merece uma visita", 0.35553610271667324
"Comida", 0.3702539456099092
"confecionada", 0.3702539456099092
"carne", 0.3702539456099092
"Staff", 0.4613789858464135
"prestavel", 0.4613789858464135
"servida", 0.5110573480904945
"Merece", 0.5121371841744414
"visita", 0.5121371841744414
"envolvente muito bonita", 0.046463069203872644
"zona envolvente", 0.07504836334843568
"excelente localizacao", 0.14937015933887896
"bonita", 0.1680456893904008
"excelente", 0.24593328989525284
"localizacao", 0.26421447795375236
"zona", 0.26421447795375236
"envolvente", 0.26421447795375236
"excelente recepcao", 0.3754814957553365
"Pratos", 0.4122906395087072
"empregados", 0.4122906395087072
"repetir", 0.5054575682917825
"confeccionados", 0.5549916791128103
"recepcao", 0.5549916791128103
"confeccionados e excelente", 0.6669412158995326
"Conforme o proprio", 0.03107735477427921
"refeicoes num espelho", 0.050888965170882816
"espelho de agua", 0.050888965170882816
"torna este restaurante", 0.050888965170882816
"restaurante agradavel", 0.050888965170882816
"Conforme", 0.13696809108329627
"diferente", 0.13696809108329627
"ementa diversificada", 0.21339268578732606
"proprio", 0.2200560909321288
"refeicoes", 0.2200560909321288
"espelho", 0.2200560909321288
"agua", 0.2200560909321288
"torna", 0.2200560909321288
"restaurante", 0.2200560909321288
"agradavel", 0.2200560909321288
"Moderno", 0.3553358554145339
"diversificada", 0.3553358554145339
"ementa", 0.4949246952252326
"deslumbrar vale", 0.5286731219590494
"vale a pena", 0.5286731219590494
"restaurante com comida", 0.03465229800090378
"comida tipica", 0.03465229800090378
"restaurante", 0.1447773057422032
"tipica", 0.1447773057422032
"comida", 0.23133275159292982
"Muita variedade", 0.2704390918235917
"vista fantastica", 0.35350894161299157
"lago", 0.3702539456099092
"Muita", 0.4613789858464135
"variedade", 0.4613789858464135
"vista", 0.5110573480904945
"fantastica", 0.5110573480904945
"atendidos", 0.5121371841744414
"contudo o potencial", 0.013017789211997392
"tinha estado", 0.01608915484116444
"estado neste restaurante", 0.01608915484116444
"restaurante a algum", 0.01608915484116444
"honestamente nao", 0.01608915484116444
"nao me cativou", 0.01608915484116444
"algum tempo", 0.033553839863937895
"decidi voltar novamente", 0.04122567157515434
"feedback decidi voltar", 0.04998622734490873
"cuidado Entradas", 0.0867462872244375
"Sopa de cacao", 0.0867462872244375
"Tira gosto", 0.0867462872244375
"Mousse de chocolate", 0.0867462872244375
"ultimos tempos", 0.09408134994467575
"tempo e honestamente", 0.10111459761968643
"Migas de espargos", 0.10143002100374299
"contudo", 0.10212203382163096
"haver tempo", 0.10404692539577738
"voltar novamente", 0.10421625064942616
"feedback decidi", 0.12497847903250235
"estacionamento no exterior", 0.012722489632138765
"exterior", 0.09775230943124207
"junto ao Tejo", 0.12517599638762167
"estacionamento", 0.1285152379216541
"carne estava deliciosa", 0.12957921353471913
"deixou a desejar", 0.22339975553391492
"desejar Um espaco", 0.22339975553391492
"espaco com explanada", 0.22339975553391492
"explanada muito agradavel", 0.22339975553391492
"vista muito bonita", 0.22339975553391492
"bonita junto", 0.22339975553391492
"toque brasileiro", 0.22339975553391492
"atendimento e simpatico", 0.23754834813203812
"Tejo", 0.26034152605821514
"carne", 0.33869541996442376
"deliciosa", 0.33869541996442376
"sangria", 0.33869541996442376
"confecionada", 0.3540967604664963
"simpatico", 0.4018581357385449
"sobremesa", 0.4273238692211767
"restaurante de Beja", 0.013797198203993007
"Tipico bom restaurante", 0.015380821171891606
"pequeno lago", 0.015380821171891606
"especialidades alentejanas", 0.02570861714399338
"alentejanas em evidencia", 0.02570861714399338
"frequentado dada", 0.02570861714399338
"dada a eficiencia", 0.02570861714399338
"eficiencia do servico", 0.02570861714399338
"Beja", 0.08596317751626563
"Tipico", 0.09568045026443411
"lago", 0.09568045026443411
"restaurante", 0.15831692877998726
"especialidades", 0.15831692877998726
"alentejanas", 0.15831692877998726
"evidencia", 0.15831692877998726
"frequentado", 0.15831692877998726
"dada", 0.15831692877998726
"eficiencia", 0.15831692877998726
"servico", 0.15831692877998726
"vista", 0.15831692877998726
"Otimo atendimento Comida", 0.0028709735794175805
"localizacao Otimo potencial", 0.0034280640082768317
"relacao qualidade preco", 0.006172028049662181
"atendimento Comida", 0.01656992656893927
"Comida bem confeccionada", 0.01656992656893927
"Otimo potencial", 0.018408549954840762
"podia ser melhor", 0.019743941211743603
"melhor explorado", 0.019743941211743603
"Otimo atendimento", 0.03053488592976728
"localizacao Otimo", 0.03053488592976728
"confeccionada Boa relacao", 0.03277825745301808
"relacao qualidade", 0.03277825745301808
"qualidade preco", 0.03277825745301808
"preco Boa localizacao", 0.03277825745301808
"Otimo", 0.08315995013132574
"Comida", 0.09149427881730993
"potencial", 0.10868092541297539
"podia", 0.10868092541297539
"explorado", 0.10868092541297539
"atendimento", 0.1781514608044755
"agradavel surpresa", 0.029193956032876094
"Jantei", 0.14475191755455702
"surpresa", 0.14475191755455702
"T-bone e Tamaoke", 0.1677286762338478
"Tamaoke divinais", 0.1677286762338478
"espaco", 0.19596178956359103
"agradavel", 0.19596178956359103
"excelentes pratos", 0.20215582144184396
"Restaurante", 0.26147475940424136
"excelente vista", 0.2629974649838212
"Tamaoke", 0.31135477757048213
"migas e acorda", 0.34184005813100765
"pratos", 0.3702061335756372
"voltarei concerteza", 0.42264705100019967
"Sobremesas ao nivel", 0.44545529651268045
"excelente", 0.4542363426706641
"excelentes", 0.4542363426706641
"Recomendo", 0.45746691006057966
"vista", 0.4584238509356684
"T-bone", 0.4613280268002667
"passagem por Beja", 0.013918491294420143
"Beja escolhemos", 0.013918491294420143
"Beja", 0.07179076644000301
"restaurante", 0.09884359947605177
"espaco", 0.12184107744687098
"agradavel", 0.13172311480596438
"almocar", 0.16345274261929985
"vista", 0.1697195974961769
"passagem", 0.1912143707699333
"escolhemos", 0.1912143707699333
"restaurante para almocar", 0.20339640486150068
"instalacoes", 0.2203527110423351
"contudo ficou", 0.22290783285141083
"escolhemos este restaurante", 0.2372540862375988
"espaco agradavel", 0.2385303340715011
"aspecto", 0.25585257869124944
"vista prometia", 0.259185048755094
"restaurante normalissimo", 0.27446341968744814
"servico", 0.27753850873079355
"Pratos", 0.30754057780340477
"saida da cidade", 0.03354994751208006
"passeio e descobrimos", 0.04906615468136384
"descobrimos este restaurante", 0.04906615468136384
"restaurante junto", 0.04906615468136384
"parque a saida", 0.04906615468136384
"cidade", 0.15009658177391405
"passeio", 0.21626666037974465
"descobrimos", 0.21626666037974465
"restaurante", 0.21626666037974465
"junto", 0.21626666037974465
"parque", 0.21626666037974465
"saida", 0.21626666037974465
"agradavel surpresa", 0.29892538215928444
"agradavel", 0.30266709513210854
"Comida excelente", 0.37593177922217497
"surpresa", 0.38017485194694417
"Almoco", 0.4719118550126537
"carta de vinhos", 0.4923289070262815
"Comida", 0.5227042958289241
"excelente", 0.5227042958289241
"carne do tacho", 0.013784437454882689
"condimentos equilibrados", 0.013784437454882689
"miga de espargos", 0.01911893411113409
"espargos com carne", 0.01911893411113409
"otimo sabor", 0.01911893411113409
"sabor e condimentos", 0.01911893411113409
"tacho", 0.09927137196013912
"equilibrados", 0.09927137196013912
"espelho de agua", 0.1090934922889914
"inicio de outono", 0.1090934922889914
"miga", 0.13696809108329627
"espargos", 0.13696809108329627
"carne", 0.13696809108329627
"otimo", 0.13696809108329627
"sabor", 0.13696809108329627
"condimentos", 0.13696809108329627
"espaco com calor", 0.1445099069107937
"Servico rapido", 0.1470223116230569
"simpatico e eficaz", 0.1470223116230569
"agua", 0.2768162971845457
"Nao percebo", 0.036279739105930055
"Fantastico", 0.05899937629682816
"catedral da alimentacao", 0.07796891081290885
"Nao", 0.09705179139403544
"alimentacao", 0.2005079697193566
"percebo", 0.36073110501666333
"diga", 0.36073110501666333
"catedral", 0.36073110501666333
"qualidade dos alimentos", 0.4456055016437946
"funcionarios", 0.46553351027698087
"ambiente", 0.46553351027698087
"alimentos", 0.46553351027698087
"qualidade", 0.6621399683957523
"pratos elaborados", 0.028223903738869308
"agua da cidade", 0.04083515298276929
"vista privilegiada", 0.05940704364597842
"espelho de agua", 0.05940704364597842
"Comida excelente", 0.10300054211610622
"Comida", 0.16567794272304986
"pratos", 0.16567794272304986
"elaborados", 0.16567794272304986
"qualidade", 0.16567794272304986
"cidade", 0.16567794272304986
"Ambiente requintado", 0.20779125484965044
"ambiente", 0.21074845972478135
"vista", 0.23680318656574784
"privilegiada", 0.23680318656574784
"espelho", 0.23680318656574784
"agua", 0.23680318656574784
"excelente", 0.28181823835761133
"excelentes vinho", 0.3937174817153966
"requintado", 0.4081699048300206
"Recomendo vivamente", 0.437894788476279
"atencioso e eficaz", 0.01859446618045681
"staff e super", 0.027581485432184485
"super atencioso", 0.027581485432184485
"sobremesas eram excelentes", 0.072115470298114
"eficaz", 0.11142476118001256
"eram excelentes", 0.14005713113751553
"staff", 0.16383273847958243
"super", 0.16383273847958243
"atencioso", 0.16383273847958243
"sobremesas eram", 0.19613242932716538
"Recomendo", 0.26303348124903125
"excelentes", 0.3033846052649951
"comida", 0.4049347717850166
"confeccionada", 0.4049347717850166
"sobremesas", 0.4049347717850166
"eram", 0.4049347717850166
"sorriso para mim", 0.03198602266835285
"mim conta", 0.03198602266835285
"Entrar num restaurante", 0.15110484540572913
"nao", 0.1707023887586745
"sorriso", 0.17605291193534858
"mim", 0.17605291193534858
"conta", 0.17605291193534858
"simpatia", 0.21006036768839415
"servico", 0.21020875227544888
"servico nao", 0.27437045023960976
"receitas Alentejanas", 0.29450906243755437
"excepcao de Migas", 0.29450906243755437
"Experiencia gastronomica", 0.33975974664077546
"Alentejanas", 0.35471486889738685
"Migas", 0.35471486889738685
"Entrar", 0.36231119582040683
"restaurante", 0.36231119582040683
"Carnes provadas", 0.3693018301289232
"insipidas Servico", 0.3796695364656751
"Servico esforcado", 0.3796695364656751
"comida otima", 0.010159422250580143
"amigo Jose", 0.0916308214273787
"Figueirinha que tambem", 0.0916308214273787
"bonito", 0.10028582371075691
"localizado", 0.10028582371075691
"atendimento", 0.10028582371075691
"comida", 0.10028582371075691
"otima", 0.10028582371075691
"Indicacao do amigo", 0.11755105063023073
"tambem vale", 0.165573765898185
"vale a visitacao", 0.165573765898185
"extracao de azeite", 0.165573765898185
"Jose", 0.22271009814206713
"Figueirinha", 0.22271009814206713
"Indicacao", 0.2790829227183407
"vinhos", 0.2790829227183407
"amigo", 0.37689977775222827
"tambem", 0.37689977775222827
"vale", 0.37689977775222827
"visitacao", 0.37689977775222827
"excelente servico", 0.012571559314626916
"carta simples", 0.012571559314626916
"preco justo", 0.08209205484639899
"pretensiosa", 0.0875971992647228
"localizacao e magnifica", 0.10137279574960871
"excelente", 0.11142476118001256
"servico", 0.11142476118001256
"carta", 0.11142476118001256
"simples", 0.11142476118001256
"completa", 0.11142476118001256
"muita qualidade", 0.14537767195616455
"justo", 0.250059511749331
"localizacao", 0.3033846052649951
"magnifica", 0.3033846052649951
"preco", 0.3033846052649951
"qualidade", 0.32696157358477473
"confeccionado", 0.3881970960906714
"muita", 0.3881970960906714
"acolhedor", 0.15646239300870612
"confecionado", 0.15646239300870612
"Espaco muito agradavel", 0.1729355200070319
"Recomendo Espaco", 0.17313162223156836
"atendimento", 0.18017482477632804
"alguidar", 0.22847240496002003
"Recomendo", 0.242309643016358
"comida", 0.25679420061503355
"Pato", 0.2648940481060223
"vista", 0.26927524400887326
"migas com cantor", 0.2792003369081476
"Comi", 0.29815033748281683
"excelente", 0.30425895574421785
"Espaco", 0.3045292152768588
"Funcionarios atenciosos", 0.34088004781521436
"atendimento atencioso", 0.34568032163566265
"espelho de agua", 0.37281323487110224
"Comi migas", 0.38616007882630776
"migas", 0.4671847806521595
"cantor", 0.4671847806521595
"Excelente.Pratos deliciosos.Atendimento", 0.017612971048634917
"parque da Cidade", 0.08763370274885822
"Excelente.Pratos", 0.1315603419321438
"deliciosos.Atendimento", 0.1315603419321438
"Cidade", 0.18692041095073475
"vista maravilhosa", 0.22821097752423883
"lago do parque", 0.22821097752423883
"nao", 0.27297883651590915
"simpatia extrema", 0.29478216886144076
"jantar nao deixa", 0.3322133865097055
"agradavel,pois o ambiente", 0.37985215920041243
"calmo e descontraido,sendo", 0.37985215920041243
"descontraido,sendo os empregados", 0.37985215920041243
"Excelente para levar", 0.38600113704118855
"levar criancas", 0.38600113704118855
"jantar nao", 0.40144500041966236
"nao deixa", 0.40144500041966236
"almoco", 0.4310540980141209
"vista", 0.4310540980141209
"maravilhosa", 0.4310540980141209
"ruido excessivo", 0.00899321792126428
"calmo e tranquilo", 0.00899321792126428
"realizar uma refeicao", 0.013527995261974615
"comida mantem", 0.013527995261974615
"ambiente sem ruido", 0.013527995261974615
"tranquilo consegue", 0.013527995261974615
"atendida", 0.0771485953923296
"excessivo", 0.0771485953923296
"calmo", 0.0771485953923296
"canso", 0.1155310835876123
"realizar", 0.1155310835876123
"refeicao", 0.1155310835876123
"comida", 0.1155310835876123
"mantem", 0.1155310835876123
"nivel", 0.1155310835876123
"habituou", 0.1155310835876123
"ambiente", 0.1155310835876123
"ruido", 0.1155310835876123
"tranquilo", 0.1155310835876123
"consegue", 0.1155310835876123
"empregados sao simpaticos", 0.013261540060553825
"sao simpaticos", 0.04751164547806749
"servico foi rapido", 0.0688277206219944
"empregados sao", 0.0688277206219944
"simpaticos", 0.1787365507567585
"carne", 0.1951732939425657
"porco", 0.2519342886737532
"servico", 0.2537627307542663
"rapido", 0.2537627307542663
"empregados", 0.2537627307542663
"sao", 0.2537627307542663
"alentejana", 0.290122105119142
"carne de porco", 0.3090419487217835
"nao", 0.3269983592405299
"Comemos carne", 0.33699589571853733
"porco alentejana", 0.41316155734792076
"Comemos", 0.43047991277965986
"nao supreendeu", 0.5215010074150621
"supreendeu", 0.5240917680633479
"misto", 0.5415027152909864
"almocar quando vamos", 0.030849758761420296
"vamos de ferias", 0.030849758761420296
"Algarve", 0.06109613541179284
"Paramos", 0.13321064587932305
"Restaurante bem situado", 0.17155953170822835
"almocar", 0.1729928682189794
"vamos", 0.1729928682189794
"ferias", 0.1729928682189794
"Beja", 0.18433832503149752
"entrada de Beja", 0.1947866662528013
"situado com vista", 0.21516343563711432
"Comida", 0.2751643875227964
"Funcionarios experientes", 0.2902218434616247
"Restaurante", 0.34800349192302316
"situado", 0.42079143229694393
"vista", 0.42079143229694393
"lago", 0.42079143229694393
"Funcionarios", 0.43745641253514295
"atenciosos", 0.43745641253514295
"Comida excelente", 0.4508677617258505
"melhores da cidade", 0.019306401661463045
"duvida", 0.12266221174834141
"cidade", 0.12266221174834141
"cheguei ao restaurante", 0.13692290295098794
"melhores", 0.15441368745868103
"ambiente discreto", 0.17731841569659249
"discreto e tranquilo", 0.17731841569659249
"pessoalmente prezo", 0.17731841569659249
"carta relativamente curta", 0.18129403274198416
"estamos em Beja", 0.20621572002062813
"restaurante", 0.21765679173237207
"cheguei", 0.24692042604602527
"relativamente curta", 0.24841600738923655
"confeccao irrepreensivel", 0.24841600738923655
"carta", 0.25122816492320754
"pratos de confeccao", 0.2997894064162138
"Beja", 0.30321820991612924
"carta relativamente", 0.31805622780579584
"simpatico e profissional", 0.32732267170559254
"cuidada", 0.3420017656122006
"OPTIMO", 0.14429984834467185
"Camarao Tigre", 0.16055194186949384
"Vou", 0.18423837248304167
"Camarao", 0.22659863701465016
"Experimentem as Migas", 0.26539109102726854
"Tigre", 0.305255636021054
"Migas", 0.39325391410169463
"Migas de Camarao", 0.4075852690221873
"Experimentem", 0.5333207896362446
"Porco", 0.5834206918267477
"Camarao com Camarao", 0.6301703948444414
"Porco preto", 0.7130359059254354
"preto", 0.7134492831780704
"entrada de Beja", 0.012526965720237631
"desagua uma cascata", 0.02807794267270807
"agradavel com vista", 0.03843884698721771
"lago onde desagua", 0.03843884698721771
"Beja", 0.06430497561510924
"cascata", 0.14195298475879023
"agradavel", 0.19239541269484742
"vista", 0.19239541269484742
"lago", 0.19239541269484742
"desagua", 0.19239541269484742
"entrada", 0.19239541269484742
"empregados competentes", 0.19791977274798608
"servico atempado", 0.19791977274798608
"comida", 0.2728358911677304
"posta de vitelao", 0.33166189649692823
"migas de espargos", 0.33166189649692823
"espargos requentadas", 0.33166189649692823
"competentes", 0.364907822738364
"servico", 0.364907822738364
"Precos simpaticos", 0.3736937793135051
"comida muito saborosa", 0.046463069203872644
"Excelente almoco", 0.06899526417442464
"saborosa e pratos", 0.07504836334843568
"almoco", 0.1680456893904008
"comida", 0.1680456893904008
"decorados", 0.1680456893904008
"Excelente", 0.19203753746278182
"Preco razoavel", 0.20479543003581166
"saborosa", 0.26421447795375236
"pratos", 0.26421447795375236
"Excelente vista", 0.32931692175114763
"Preco", 0.4122906395087072
"razoavel", 0.4122906395087072
"lago", 0.5054575682917825
"vista", 0.6450143698288692
"pos a vontade", 0.29605300273681195
"esposa", 0.3513520874809769
"dirijio a mesa", 0.36648564359957775
"entrada", 0.44018255329984957
"entradas", 0.44018255329984957
"vontade", 0.44108344821955575
"comida ao cafe", 0.45996694872840144
"Abraco", 0.4754922985244127
"dirijio", 0.5178761928631311
"mesa", 0.5178761928631311
"pos", 0.5178761928631311
"restaurante que frequento", 0.5188651749552987
"cafe", 0.524715236333917
"frequento", 0.548342003239871
"comida", 0.6004266039980041
"restaurante", 0.6229938851150403
"Recomendo altamente", 0.030792498953071585
"altamente este restaurante", 0.030792498953071585
"Recomendo", 0.1521617287918924
"restaurante", 0.1521617287918924
"carnes de qualidade", 0.15828275431567837
"qualidade", 0.16864521926005382
"altamente", 0.19632167551944585
"carne", 0.20257459674806685
"carne de vitela", 0.2712937512110883
"mistas de qualidade", 0.271783763732049
"espetadas", 0.2779773866674532
"carne de porco", 0.2885937823384551
"melhor", 0.29417124625747365
"melhor carne", 0.31296743390017207
"tambem sao impressionantes", 0.3167567717605164
"comer carne", 0.3228262484151206
"sao impressionantes", 0.35700715775389485
"Beja", 0.36706621781855897
"servida", 0.3839754206031172
"doses", 0.3839754206031172
"ementa nao desiludiu", 0.0016012214736657916
"ambiente com requinte", 0.00899321792126428
"mesa com vista", 0.013527995261974615
"ementa nao", 0.013527995261974615
"nao desiludiu", 0.013527995261974615
"refeicao foi repleta", 0.013527995261974615
"repleta de pratos", 0.013527995261974615
"pratos saborosos", 0.013527995261974615
"requinte", 0.0771485953923296
"confecionados", 0.0771485953923296
"mesa", 0.1155310835876123
"vista", 0.1155310835876123
"lago", 0.1155310835876123
"ambiente", 0.1155310835876123
"ementa", 0.1155310835876123
"nao", 0.1155310835876123
"desiludiu", 0.1155310835876123
"refeicao", 0.1155310835876123
"repleta", 0.1155310835876123
"pratos", 0.1155310835876123
"Restaurante com bonita", 0.02126162860697299
"patos e cisnes", 0.02126162860697299
"pessoal simpatico", 0.02126162860697299
"bonita vista", 0.029266857061202373
"lago com patos", 0.029266857061202373
"atencioso e eficiente", 0.08602603107943814
"pratos bem confecionados", 0.12096119075955569
"Restaurante", 0.12346261294192541
"cisnes", 0.12346261294192541
"simpatico", 0.12346261294192541
"atencioso", 0.12346261294192541
"eficiente", 0.1528138030188623
"queijos e presuntos", 0.15709274484725655
"bonita", 0.16862581006361538
"vista", 0.16862581006361538
"lago", 0.16862581006361538
"patos", 0.16862581006361538
"pessoal", 0.16862581006361538
"internet eficiente", 0.2051960390234904
"Recomendo as migas", 0.26705553517223307
"comida e regional", 0.19613242932716538
"regional e pessoal", 0.19613242932716538
"simpatico", 0.19677146788549632
"Gostei particularmente", 0.23956129807083346
"pratos de.Porco", 0.23956129807083346
"particularmente dos pratos", 0.3295258815075752
"Gostei", 0.3881970960906714
"de.Porco", 0.3881970960906714
"comida", 0.4049347717850166
"regional", 0.4049347717850166
"pessoal", 0.4049347717850166
"particularmente", 0.49784754196738834
"pratos", 0.49784754196738834
"Empregados sempre simpaticos", 0.0364267657650137
"simpaticos e prestaveis", 0.0364267657650137
"Empregados", 0.15643892070649282
"prestaveis", 0.15643892070649282
"simpaticos", 0.22466591145581996
"carne", 0.3322493374950482
"confeccionados", 0.3917578768498034
"doses a servir", 0.40412449042979987
"Optamos", 0.484106881103557
"servir", 0.484106881103557
"pratos tipicos", 0.4885729770864365
"Migas", 0.5348824346838601
"alentejana", 0.5348824346838601
"tipicos da regiao", 0.5466875617982814
"Prato", 0.5520660135792952
"pratos", 0.5520660135792952
"Ficou", 0.5676117612876774
"voltar", 0.5676117612876774
"tipicos", 0.5945225063172943
"regiao", 0.5945225063172943
"Entradas soberbas", 0.011189445364643204
"migas otimas", 0.015465128052409167
"Entradas", 0.10519328464496844
"soberbas", 0.10519328464496844
"grelhados", 0.10519328464496844
"otimas", 0.10519328464496844
"Sobremesas caseiras", 0.12025258825090053
"muita qualidade", 0.12025258825090053
"migas", 0.1447773057422032
"caseiras de muita", 0.1588666998905099
"serem chatos", 0.20785651292262122
"Estacionamento muito facil", 0.21620770529133224
"vista muito agradavel", 0.2704390918235917
"lago Os empregados", 0.2704390918235917
"empregados muito simpaticos", 0.2704390918235917
"simpaticos sem serem", 0.2704390918235917
"Sobremesas", 0.2899204041465753
"qualidade", 0.2899204041465753
"caseiras", 0.3702539456099092
"muita", 0.3702539456099092
"Restaurante bem decorado", 0.050888965170882816
"simpatica", 0.19677146788549632
"Restaurante", 0.2200560909321288
"decorado", 0.2200560909321288
"vista", 0.4949246952252326
"lago", 0.4949246952252326
"Servico", 0.5880798524606783
"fantastica", 0.5880798524606783
"comida", 0.7625957055371981
"comida fantastica", 0.8131286944405928
"voltassemos a Beja", 0.0094547106784832
"estado a porta", 0.026238543944942603
"viajem e ficou", 0.026238543944942603
"irmos quando voltassemos", 0.026238543944942603
"nao tinhamos reserva", 0.03676714956054588
"tinhamos estado", 0.04835372464905475
"Beja", 0.05857545895364594
"felizmente havia mesa", 0.07212688973015256
"nao tinhamos", 0.09981329029158607
"tinhamos reserva", 0.09981329029158607
"havia mesa", 0.14313198705266475
"tinhamos", 0.14422694033286373
"estado", 0.1598989840976793
"porta", 0.1598989840976793
"viajem", 0.1598989840976793
"ficou", 0.1598989840976793
"ideia", 0.1598989840976793
"irmos", 0.1598989840976793
"voltassemos", 0.1598989840976793
"felizmente havia", 0.1881817374576605
"pessoal simpatico", 0.01859446618045681
"ambiente", 0.11142476118001256
"pessoal", 0.11142476118001256
"dicas"", 0.11142476118001256
"jantar", 0.11142476118001256
"simpatico", 0.16383273847958243
"encheu ficou", 0.19613242932716538
"complicado", 0.3033846052649951
"comida", 0.3881970960906714
"sobremesas", 0.3881970960906714
"encheu", 0.4049347717850166
"ficou", 0.4049347717850166
"Comida razoavel", 0.04188746641162499
"empregados simpaticos", 0.07796891081290885
"conseguirem prestar", 0.1495930091794576
"Comida", 0.2005079697193566
"razoavel", 0.2005079697193566
"empregados", 0.2005079697193566
"servico", 0.2005079697193566
"simpaticos", 0.36073110501666333
"conseguirem", 0.36073110501666333
"prestar", 0.36073110501666333
"melhorar nesse sentido", 0.4456055016437946
"sentido", 0.46553351027698087
"melhorar", 0.6621399683957523
"facilidade de estacionamento", 0.014591717882012084
"estacionamento", 0.1047178437795632
"terras de Beja", 0.11169178068887253
"espelho de agua", 0.11464934431475682
"facilidade", 0.13733917060124257
"vista desafogada", 0.14145386667374885
"climatizacao e conforto", 0.1451799410184723
"conforto nos agradam", 0.1451799410184723
"doses generosas", 0.1604108579326786
"vista", 0.17402435090628451
"alta qualidade", 0.1988728239527017
"pessoal atencioso", 0.1988728239527017
"preco razoavel", 0.1988728239527017
"acompanhamentos e sobremesas", 0.1988728239527017
"tipicas da regiao", 0.1988728239527017
"Beja", 0.22518812462713497
"aliarmos uma cozinha", 0.24853202520426249
"cozinha de alta", 0.24853202520426249
"atencioso e profissional", 0.24853202520426249
"profissional e preco", 0.24853202520426249
"comida tipica", 0.020435055290363522
"pessoal simpatico", 0.020435055290363522
"Sitio agradavel", 0.025122266705129008
"sitio tranquilo", 0.025122266705129008
"tranquilo e pessoal", 0.033892441937102495
"Sitio", 0.06767673667974392
"familias", 0.11060549338282699
"comida", 0.11060549338282699
"qualidade", 0.11060549338282699
"simpatico", 0.11060549338282699
"agradavel", 0.18105634546484617
"tipica", 0.18105634546484617
"tranquilo", 0.18105634546484617
"pessoal", 0.18105634546484617
"esplanada agradavel", 0.028600564526401397
"Restaurante relativamente espacoso", 0.041810158814457
"relativamente espacoso", 0.06708478797818278
"sao", 0.11266598008811994
"doses sao", 0.1313425697045244
"nao conseguimos aproveitar", 0.13591605193961964
"seja fantastica durante", 0.13591605193961964
"vista", 0.1415585716475944
"agradavel", 0.15402229880309878
"ficamos", 0.15402229880309878
"Restaurante", 0.16383383590190628
"relativamente", 0.17412089105526563
"espacoso", 0.180527865030061
"esplanada", 0.180527865030061
"dada a localizacao", 0.20179705240868745
"localizacao privilegiada", 0.20179705240868745
"sao bem servidas", 0.20194800639433777
"Restaurante relativamente", 0.20650745861745493
"relativamente saborosa", 0.22483898659829385
"doses", 0.23081160946002063
"restaurante Espelho D"Agua", 0.00365655559639636
"Espelho D"Agua apresenta", 0.00365655559639636
"restaurante Espelho", 0.017122414018128772
"Espelho D"Agua", 0.017122414018128772
"D"Agua apresenta", 0.042747892324675164
"apresenta uma lista", 0.042747892324675164
"lista variada", 0.042747892324675164
"Espelho", 0.08314269087677477
"pax", 0.10139336722432771
"Apesar", 0.14987897352451293
"barato", 0.14987897352451293
"nao", 0.18108919013512578
"qualidade", 0.18108919013512578
"restaurante", 0.2024732682089611
"D"Agua", 0.2024732682089611
"apresenta", 0.2024732682089611
"lista", 0.2024732682089611
"variada", 0.2024732682089611
"Apesar de nao", 0.20570324460653228
"saborearmos Servico", 0.21485712477734645
"vista excelente", 0.046463069203872644
"Comida", 0.1680456893904008
"excelente", 0.1680456893904008
"vista", 0.26421447795375236
"fica", 0.31840087839888004
"atendimento fica pessimo", 0.3262407771930449
"fica pessimo", 0.3560193628911659
"pessimo", 0.4122906395087072
"nao chegue", 0.4451196252872818
"dica", 0.5054575682917825
"atendimento fica", 0.546598254377463
"nao", 0.5549916791128103
"chegue", 0.5549916791128103
"fechar", 0.5549916791128103
"atendimento", 0.5549916791128103
"Fica a dica", 0.8206729162846331
"Cozinha Portuguesa", 0.00994200110828244
"toque alentejano", 0.021248340299531192
"tambem e possivel", 0.03142433442165886
"possivel desfrutar", 0.03142433442165886
"excelente peixe", 0.04117887774631699
"Portuguesa", 0.08258441204389066
"Cozinha", 0.1192008334966339
"alentejano", 0.1192008334966339
"peixe", 0.1192008334966339
"desfrutar de excelente", 0.1303783527340714
"servico simpatico", 0.1565870030412261
"excelente", 0.1658975107802271
"toque", 0.17454779110930135
"tambem", 0.17454779110930135
"possivel", 0.17454779110930135
"desfrutar", 0.17454779110930135
"localizacao e excelente", 0.3160108111306524
"simpatico", 0.3197366584666406
"localizacao", 0.42343326428770406
"servico", 0.42343326428770406
"cozinha", 0.11142476118001256
"Pratos regionais", 0.14005713113751553
"peixe fresco", 0.14005713113751553
"servico", 0.16383273847958243
"regionais e peixe", 0.19613242932716538
"empregados atenciosos", 0.23956129807083346
"Pratos", 0.3033846052649951
"fresco", 0.3033846052649951
"qualidade", 0.3033846052649951
"carta de vinhos", 0.3295258815075752
"vinhos e empregados", 0.3295258815075752
"atenciosos", 0.3881970960906714
"regionais", 0.4049347717850166
"peixe", 0.4049347717850166
"carta", 0.49784754196738834
"vinhos", 0.49784754196738834
"empregados", 0.49784754196738834
"Beja fica situado", 0.014500417975078922
"fica situado", 0.047603835762666774
"Beja fica", 0.06230830868084007
"situado este restaurante", 0.09420026620039845
"restaurante bastante agradavel", 0.13043373155161464
"entrada de Beja", 0.13407996494148058
"Beja", 0.13757608757732065
"agradavel", 0.14776740576940706
"restaurante", 0.20193094801009176
"entrada", 0.2131682079098158
"fica", 0.2131682079098158
"situado", 0.2131682079098158
"sabores gastronomicos", 0.22280326450836108
"bebemos bom vinho", 0.22280326450836108
"visitar este restaurante", 0.30466207626354336
"vinho e saboreamos", 0.3072108955925792
"visita a Beja", 0.34684820780402137
"Preco simpatico", 0.36695341163671985
"Recheado", 0.3758542649129425
"gastronomicos", 0.3758542649129425
"nao e particularmente", 0.07734045063045603
"atendimento nao", 0.15406916066350246
"cheio", 0.17072508318966848
"desconhecido", 0.17072508318966848
"atendimento", 0.24913056862178484
"especial", 0.24913056862178484
"nao", 0.26793340657225734
"particularmente", 0.26793340657225734
"quantas pessoas sao", 0.2713685748511456
"Ninguem vem perguntar", 0.30436256829758424
"pessoas sao", 0.30436256829758424
"Ninguem", 0.41691282749141556
"sao", 0.41691282749141556
"mesa ou quantas", 0.456140434994554
"quantas pessoas", 0.456140434994554
"atendimento deixa", 0.4783108319883035
"feita", 0.5102174770682899
"desejar", 0.5102174770682899
"perguntar", 0.5596901390231386
"mesa", 0.5596901390231386
"localizacao e agradavel", 0.020818845797234226
"Facil de estacionar", 0.11186783262129249
"agradavel", 0.11797671014185607
"localizacao", 0.17286683788205306
"comida e saborosa", 0.26176225393615005
"Facil", 0.3171947781126727
"estacionar", 0.3171947781126727
"recomenda-se", 0.31813151393529204
"frutos vermelhos", 0.34393543650132563
"saborosa", 0.4036310100959565
"vermelhos", 0.4533838267348932
"sangria de espumante", 0.467597141943779
"comida", 0.5139785153975659
"sangria", 0.5644591212760287
"espumante", 0.5644591212760287
"frutos", 0.5644591212760287
"epoca de Ovibeja", 0.018252558956968843
"Ovibeja nao", 0.018252558956968843
"restaurante disponivel", 0.029213650339032747
"nao foi facil", 0.042876078089465926
"facil encontrar", 0.042876078089465926
"encontrar um restaurante", 0.042876078089465926
"Ovibeja", 0.0884050503634825
"disponivel", 0.13998745415943906
"epoca", 0.20276415113594323
"nao", 0.20276415113594323
"facil", 0.20276415113594323
"encontrar", 0.20276415113594323
"restaurante", 0.20276415113594323
"restantes cheios", 0.20393382496543844
"estavam fechados", 0.2682724851966817
"estavam", 0.2928467904806933
"pessoas", 0.31661203793236
"volta das 14:20", 0.3407642666793462
"Infelizmente", 0.3611545556571034
"fechados", 0.3611545556571034
"carne tem Qualidade", 0.007426667234981082
"Qualidade", 0.053822159537056186
"saborosa", 0.09927137196013912
"Deveria existir", 0.1090934922889914
"vermelhos uma Delicia", 0.11054937241773996
"comida", 0.13696809108329627
"carne", 0.13696809108329627
"existir mais opcoes", 0.1445099069107937
"vista e agradavel", 0.18970645222564492
"Delicia", 0.22350220685283329
"sangria de frutos", 0.24745631075091173
"frutos vermelhos", 0.24745631075091173
"facil estacionar", 0.24745631075091173
"Deveria", 0.2768162971845457
"criancas", 0.2768162971845457
"existir", 0.3553358554145339
"opcoes", 0.3553358554145339
"agradavel", 0.3580186829102008
"sangria", 0.44538603402402266
"frutos", 0.44538603402402266
"rapidamente atendidos", 0.01859446618045681
"disponibilidade total", 0.01859446618045681
"simpatia e disponibilidade", 0.027581485432184485
"entradas nao saberem", 0.10360454189614123
"atendidos", 0.11142476118001256
"total", 0.11142476118001256
"Apesar das entradas", 0.14005713113751553
"aspecto que ostentam", 0.14005713113751553
"tendo uma relacao", 0.14005713113751553
"relacao preco", 0.14005713113751553
"rapidamente", 0.16383273847958243
"simpatia", 0.16383273847958243
"disponibilidade", 0.16383273847958243
"entradas nao", 0.19613242932716538
"nao saberem", 0.19613242932716538
"saberem ao aspecto", 0.19613242932716538
"espetada de tamboril", 0.19613242932716538
"migas a calha", 0.19613242932716538
"calha sao", 0.19613242932716538
"melhor deste restaurante", 0.23956129807083346
"Simplesmente excepcional", 0.009239332327148086
"espelho d"agua", 0.015380821171891606
"vou voltar", 0.015380821171891606
"optima vista", 0.02570861714399338
"Simplesmente", 0.09568045026443411
"excepcional", 0.09568045026443411
"atendimento", 0.09568045026443411
"comida", 0.09568045026443411
"restaurante", 0.09568045026443411
"d"agua", 0.09568045026443411
"vou", 0.09568045026443411
"optima", 0.15831692877998726
"vista", 0.15831692877998726
"espelho", 0.15831692877998726
"voltar", 0.15831692877998726
"Nao e mau", 0.06330335831925653
"mau", 0.16851117595030346
"Nao", 0.17664886849080033
"comid nao", 0.22705858261412007
"ate", 0.2869489644645959
"comid", 0.5237593264835328
"sobrevalorizada ate", 0.546464099104065
"Vale", 0.5568796262214054
"ambiente", 0.5568796262214054
"empregado", 0.5892497270029455
"sobrevalorizada", 0.6157254937077672
"atendimento", 0.6915022296633745
"varia", 0.6915022296633745
"atendimento varia", 0.9163524924094618
"faceis acessos", 0.02678135586249749
"estacionamento e faceis", 0.03495106791263224
"acessos", 0.14193328994411758
"estacionamento", 0.18376818096165615
"faceis", 0.18376818096165615
"benfica foi ideal", 0.190631275115743
"jantar", 0.24248115672162354
"jantar rapido", 0.27033679704313773
"Super", 0.27682689236168484
"vista", 0.30672710197401637
"atenciosos e prestaveis", 0.3203782797975632
"ideal", 0.3648703485807686
"Super atenciosos", 0.41812492009590196
"rapido", 0.43881179737139825
"benfica", 0.43881179737139825
"prestaveis", 0.455629047146921
"divinal", 0.5063493445556412
"posta de vitelao", 0.5139861388440365
"atenciosos", 0.5325412953269085
"super agradavel", 0.5444347059731955
"Comida mediana", 0.022988213374765323
"Comida", 0.149905405948569
"mediana", 0.149905405948569
"patos melhores", 0.37306711088575134
"excepcional", 0.3798215915560938
"abaixo da media", 0.40689615193388323
"media", 0.4715382012123803
"patos", 0.5212518383364516
"melhores", 0.5212518383364516
"cidade", 0.5223302035298336
"melhor na cidade", 0.5265028536993026
"estacionamento", 0.5552083007126032
"ate bem banais", 0.6030568194590986
"banais e abaixo", 0.6030568194590986
"ate", 0.6133447588150343
"banais", 0.6133447588150343
"abaixo", 0.6133447588150343
"facilidade de estacionamento", 0.620050055707572
"melhor", 0.6603253488343742
"unica", 0.6893541063826529
"jantar una bela", 0.009001679881101624
"agradavel experiencia", 0.02541909697430123
"confeccao da refeicao", 0.04188746641162499
"refeicao fizeram", 0.04188746641162499
"jantar una", 0.04188746641162499
"una bela", 0.04188746641162499
"bela e agradavel", 0.04188746641162499
"servico", 0.12363091320521931
"experiencia", 0.12363091320521931
"proprios habitantes", 0.18075564686791562
"confeccao", 0.2005079697193566
"refeicao", 0.2005079697193566
"fizeram", 0.2005079697193566
"jantar", 0.2005079697193566
"una", 0.2005079697193566
"bela", 0.2005079697193566
"agradavel", 0.2005079697193566
"visitantes da cidade", 0.2766850298235749
"Recomendo", 0.32883716426354986
"habitantes", 0.32883716426354986
"espaco estranho.", 0.01911893411113409
"comida", 0.13696809108329627
"espaco", 0.13696809108329627
"estranho.", 0.13696809108329627
"atendimento foi estranho", 0.35487136790899465
"frente dos clientes", 0.35487136790899465
"requinte", 0.3553358554145339
"estranho", 0.44538603402402266
"clientes", 0.44538603402402266
"atendimento", 0.5880798524606783
"simpatia", 0.5880798524606783
"ralharem", 0.5880798524606783
"frente", 0.5880798524606783
"bonita envolvencia exterior", 0.0020450020451576517
"encontramos em Beja", 0.006947613110211653
"Algarve fora", 0.008372321626847702
"Espelho de agua", 0.008824451265610397
"Restaurante Espelho", 0.011054819051579557
"comida bem confeccionada", 0.012373392662179336
"auto estrada", 0.014927229679442487
"mesas com vista", 0.014927229679442487
"envolvencia exterior", 0.014927229679442487
"fora da auto", 0.01801755328761196
"ambiente luminoso", 0.01801755328761196
"luminoso e sofisticado", 0.01801755328761196
"sofisticado no interior", 0.01801755328761196
"interior e bonita", 0.01801755328761196
"bonita envolvencia", 0.01801755328761196
"estacionar o Restaurante", 0.020268094248167782
"Restaurante com ambiente", 0.020268094248167782
"Restaurante", 0.029675240725049366
"refeicao Comi bacalhau", 0.04018955230821443
"agua", 0.04666457775767305
"Reino Unido", 0.004852127247012326
"Moro no Reino", 0.009375817812094211
"ferias a Portugal", 0.009829382188763355
"Espelho de Agua", 0.03857439287326029
"Alentejo", 0.04975657336805779
"Portugal", 0.059577850775356676
"Restaurante Espelho", 0.06189224713597268
"Reino", 0.06948883213073553
"Unido", 0.06948883213073553
"Restaurante", 0.09433628082355563
"Moro", 0.13367224778732303
"restaurante tipico", 0.1621347495948868
"ferias", 0.16337792899445652
"sala atendeu Nao", 0.17479577795710685
"Agua", 0.18034565896889118
"vista", 0.20303549516656452
"Espelho", 0.20594715454026066
"atendeu Nao", 0.20971171494258087
"lago", 0.22636932573248425
"disfrutar a vista", 0.25285657476892204
"varias mesas vazias", 0.005379020341957038
"apesar de varias", 0.022902153987341498
"junto a janela", 0.022902153987341498
"melhor vista", 0.022902153987341498
"varias mesas", 0.02996725639878551
"mesas vazias", 0.02996725639878551
"deram uma junto", 0.02996725639878551
"luz e melhor", 0.02996725639878551
"reserva nao", 0.08541945367977812
"chegamos", 0.13125941205198752
"apesar", 0.13125941205198752
"janela", 0.13125941205198752
"vista", 0.13125941205198752
"nao", 0.15378931092055997
"varias", 0.17057358713025772
"mesas", 0.17057358713025772
"vazias", 0.17057358713025772
"reserva", 0.17057358713025772
"deram", 0.17057358713025772
"junto", 0.17057358713025772
"Espaco agradavel", 0.01859446618045681
"Espaco", 0.11142476118001256
"vista", 0.11142476118001256
"agradavel", 0.16383273847958243
"deixou satisfeito", 0.23956129807083346
"ambiente", 0.3033846052649951
"visito este restaurante", 0.3295258815075752
"restaurante surpreendeu-me", 0.3295258815075752
"surpreendeu-me a qualidade", 0.3295258815075752
"carne que comi", 0.3295258815075752
"nao me deixou", 0.3295258815075752
"satisfeito", 0.3881970960906714
"atendimento", 0.4049347717850166
"visito", 0.49784754196738834
"restaurante", 0.49784754196738834
"surpreendeu-me", 0.49784754196738834
"qualidade", 0.49784754196738834
"carne", 0.49784754196738834
"comi", 0.49784754196738834
"nao", 0.49784754196738834
"excelente servico", 0.015470267700373394
"unico senao sao", 0.057481135500976666
"Inverno e desconfortavel", 0.06021878557749929
"estavamos dirigindo Beja", 0.06760954562105048
"Restaurante", 0.07733852166064471
"Restaurante com excelente", 0.09750433867888805
"Beja ao redor", 0.10794772785935476
"servico", 0.11506635297975154
"apresentacao", 0.11506635297975154
"convidativo", 0.11506635297975154
"personalidade", 0.11506635297975154
"dirigindo Beja", 0.11978962087999995
"excelente", 0.1323982572126367
"unico senao", 0.13635873347410066
"senao sao", 0.13635873347410066
"sao as fracas", 0.13635873347410066
"fracas entradas", 0.13635873347410066
"almoco", 0.16708896953561939
"equipe atenciosa novamente", 0.16986345416272028
"Inverno", 0.18257100898200468
"criancas menores", 0.01859446618045681
"almocando no espelho", 0.01859446618045681
"espelho de gua", 0.01859446618045681
"adultos", 0.06588837669267192
"criancas", 0.11142476118001256
"almocando", 0.11142476118001256
"gua", 0.11142476118001256
"lago artificial", 0.14005713113751553
"criando um ambiente", 0.14005713113751553
"menores", 0.16383273847958243
"espelho", 0.16383273847958243
"parque da cidade", 0.19613242932716538
"ambiente muito descontraido", 0.19613242932716538
"descontraido que ajuda", 0.19613242932716538
"ajuda voce", 0.19613242932716538
"voce a desfrutar", 0.19613242932716538
"bonito", 0.3033846052649951
"artificial", 0.3033846052649951
"criando", 0.3033846052649951
"refeicao", 0.3033846052649951
