Expressao, Frequencia
"restaurante da cidade", 0.01747509953455014
"comida diz respeito", 0.01747509953455014
"melhor restaurante", 0.02414075901020373
"qualidade da comida", 0.02414075901020373
"cidade", 0.11186654715268884
"respeito", 0.11186654715268884
"melhor", 0.15353084316509127
"restaurante", 0.15353084316509127
"qualidade", 0.15353084316509127
"comida", 0.15353084316509127
"satisfacao foi total", 0.1755943382560148
"Secretos com migas", 0.17857797960742874
"sopas de cacao", 0.17857797960742874
"cozido de grao", 0.17857797960742874
"agradavel e saboroso", 0.2289290869692944
"passarmos por Beja", 0.28787381913062204
"Beja com tempo", 0.28787381913062204
"tambem sao", 0.3023251102451721
"sericaia", 0.3332818045696117
"pudim", 0.3332818045696117
"Comida de qualidade", 0.050888965170882816
"tipicamente alentejana", 0.050888965170882816
"ambiente familiar", 0.0934346755383478
"Comida", 0.2200560909321288
"qualidade", 0.2200560909321288
"tipicamente", 0.2200560909321288
"alentejana", 0.2200560909321288
"familiar", 0.2200560909321288
"ambiente", 0.38831292435681075
"Proprietaria", 0.4949246952252326
"atenciosa", 0.4949246952252326
"Proprietaria bastante simpatica", 0.5162806230574593
"simpatica e atenciosa", 0.5162806230574593
"Precos em conta", 0.5286731219590494
"Precos", 0.5880798524606783
"conta", 0.5880798524606783
"simpatica", 0.68796622281612
"voltei a ligar", 0.021755975441539236
"comeco pela simpatia", 0.02476415147377565
"simpatia ao reservar", 0.02476415147377565
"chegada que nao", 0.02476415147377565
"ate eu chegar", 0.02476415147377565
"chegar esteve comigo", 0.02476415147377565
"comigo ao telefone", 0.02476415147377565
"Cozido de Grao", 0.03549816617434016
"reservar mesa", 0.03601475577267445
"Sopas de Cacao", 0.03760956520437362
"mesa reservada trouxe", 0.04586313945471658
"senhora ate", 0.061850632872822796
"Cacao", 0.08453368083853002
"mesa reservada", 0.09553866813435408
"escolhemos Sopas", 0.10867584544463026
"mesa", 0.11181106229997523
"Grao", 0.11781729764639333
"rua", 0.13697194096547013
"voltei", 0.13697194096547013
"indicacoes", 0.13697194096547013
"Espaco pequeno", 0.0565406034156422
"Espaco", 0.23133275159292982
"pequeno", 0.23133275159292982
"acolhedor", 0.23133275159292982
"Staff", 0.5110573480904945
"disponiveis", 0.5110573480904945
"Staff simpaticos", 0.5590489604659448
"simpaticos e disponiveis", 0.5590489604659448
"tipica alentejana", 0.5732105463588063
"Entrada", 0.6036200563782421
"tipica", 0.6036200563782421
"alentejana", 0.6036200563782421
"Prato", 0.6511101154454433
"sal", 0.6511101154454433
"simpaticos", 0.7016498766455139
"principal", 0.8076562869538214
"dose", 0.8076562869538214
"Prato principal", 1.109140327234087
"principal com dose", 1.8761143471562864
"Otima comida", 0.020818845797234226
"comida e atendimento", 0.030803441134664936
"Otima", 0.11797671014185607
"filho", 0.11797671014185607
"Precos justos", 0.1539412127363319
"comida", 0.17286683788205306
"atendimento", 0.17286683788205306
"Muita simpatia", 0.1946260830057487
"Precos", 0.3171947781126727
"qualidade", 0.3171947781126727
"Muita", 0.4036310100959565
"simpatia", 0.4036310100959565
"voltaremos", 0.4036310100959565
"justos", 0.4205766817284309
"Comida saborosa", 0.02140921543860024
"Comida", 0.1447773057422032
"saborosa", 0.1447773057422032
"regional", 0.1447773057422032
"pretensoes", 0.1447773057422032
"perder em Beja", 0.2663447655685496
"Beja", 0.32302621157633143
"cozinha", 0.3702539456099092
"atendimento", 0.3702539456099092
"Profissionalismo e qualidade", 0.38599679376725615
"dis pratos", 0.38599679376725615
"qualidade dis pratos", 0.40521211826724085
"Profissionalismo", 0.4613789858464135
"pratos", 0.4613789858464135
"qualidade dis", 0.5732105463588063
"qualidade", 0.6036200563782421
"dis", 0.6036200563782421
"nao", 0.6511101154454433
"perder", 0.6511101154454433
"nao perder", 0.7359434914074432
"Paramos em Beja", 0.010489929843629883
"estavam divinais", 0.017612026007468955
"arroz de polvo", 0.024127091146517163
"cozido de grao", 0.03313068330727213
"almoco rapido", 0.037498622950795035
"Beja", 0.07890909274560573
"Paramos", 0.13155687347288472
"almoco", 0.13155687347288472
"polvo", 0.13155687347288472
"pratos", 0.13155687347288472
"estavam", 0.13155687347288472
"divinais", 0.13155687347288472
"servico rapido", 0.13534708679489177
"rapido", 0.1373675812404667
"cozido", 0.1790760748515943
"grao", 0.1790760748515943
"arroz", 0.1790760748515943
"Staff super atencioso", 0.18084072068421167
"comer e chorar", 0.22820129520927782
"precos super acessiveis", 0.23843475435231098
"Restaurante no centro", 0.02235215878495046
"anfitrioes simpaticos", 0.02235215878495046
"centro da cidade", 0.03301832982739116
"cidade com anfitrioes", 0.03301832982739116
"Tania fez-nos sentir", 0.06396624550054082
"Tania fez-nos", 0.11546323388748249
"Restaurante", 0.12229125971027831
"simpaticos", 0.12229125971027831
"sentir em casa", 0.16333823125531258
"centro", 0.17878189525615976
"cidade", 0.17878189525615976
"anfitrioes", 0.17878189525615976
"fez-nos sentir", 0.22756345427865793
"Tania", 0.24041367835336527
"Sopa de cacao", 0.2767170467037833
"cacao estava divinal", 0.2767170467037833
"casa", 0.3261013256329346
"selecao de vinhos", 0.362910692993374
"Sopa", 0.4134948298564376
"divinal", 0.4134948298564376
"Restaurante simples", 0.022160458278844265
"sabor maravilhoso", 0.07582795475866964
"Restaurante", 0.1472413634807099
"simples", 0.1472413634807099
"maravilhoso", 0.1472413634807099
"super simpaticos", 0.16350784597007184
"comida", 0.21246738730038223
"cozido de grao", 0.22150801010988677
"sabor", 0.23934628512425354
"Atendimento", 0.25223455792924965
"passado comi", 0.30548403376606126
"comi umas migas", 0.30548403376606126
"migas maravilhosas", 0.30548403376606126
"sopa de cacao", 0.30548403376606126
"cacao e cozido", 0.30548403376606126
"super", 0.37487341324295864
"simpaticos", 0.37487341324295864
"grao", 0.37487341324295864
"aquece a alma", 0.43369531830577174
"delicioso As sobremesas", 0.4784783546531046
"atendimento de excelencia", 0.020818845797234226
"Comida honesta", 0.11186783262129249
"excelencia", 0.11797671014185607
"cuidado", 0.11797671014185607
"sabores genuinos", 0.1539412127363319
"donos deste restaurante", 0.1539412127363319
"atendimento", 0.17286683788205306
"simpatia", 0.17286683788205306
"obrigatoria em Beja", 0.1928330981199027
"nao desiludem", 0.26176225393615005
"Beja", 0.28639761847540784
"verdadeira cozinha alentejana", 0.3150852412230448
"Comida", 0.3171947781126727
"honesta", 0.3171947781126727
"genuinos", 0.3171947781126727
"restaurante", 0.3171947781126727
"cozinha alentejana", 0.34393543650132563
"desiludem", 0.4036310100959565
"sabores", 0.4205766817284309
"donos", 0.4205766817284309
"Adoramos o restaurante", 0.02140921543860024
"Adoramos", 0.1447773057422032
"restaurante", 0.1447773057422032
"estrelas", 0.20717186494652254
"comida deliciosa", 0.23338172234549467
"Recomendo", 0.31813151393529204
"limpo", 0.3702539456099092
"deliciosa", 0.3702539456099092
"atendimento", 0.3702539456099092
"falo das sobremesas", 0.38599679376725615
"sao divinais", 0.38599679376725615
"sobremesas", 0.4613789858464135
"divinais", 0.4613789858464135
"comida", 0.5110573480904945
"falo", 0.6036200563782421
"sao", 0.6036200563782421
"passar por Beja", 0.026233073037508336
"viemos", 0.04491197687864554
"googlar", 0.04491197687864554
"Beja", 0.08596317751626563
"passar", 0.29736558256021506
"pessoas amistosas", 0.021387870197086597
"amistosas e profissionais", 0.021387870197086597
"Adorei as Migas", 0.06502249692387996
"penso", 0.12909598275573358
"donos", 0.12909598275573358
"pessoas", 0.12909598275573358
"profissionais", 0.12909598275573358
"Surpreendentemente Casa simples", 0.14757290063007755
"serviu", 0.1622049546125236
"amistosas", 0.1622049546125236
"Migas", 0.17964307795666648
"Surpreendentemente Casa", 0.1808896997517421
"bocado Trata-se", 0.2537839449520439
"simples", 0.2793514696999089
"comida", 0.2793514696999089
"queijo", 0.28751386084851804
"Casa simples", 0.30130859140198046
"Adorei", 0.3398555555104092
"Trata-se", 0.35010944393250515
"Surpreendentemente", 0.36961896069152406
"Comida tradicional", 0.05359079014714745
"tradicional do melhor", 0.05359079014714745
"Comida", 0.18064162132790837
"melhor", 0.18064162132790837
"Porco preto grelhado", 0.20502400468344079
"migas", 0.2539037997129153
"tomatada", 0.2539037997129153
"tradicional", 0.28157907127516324
"etc", 0.31546419243222956
"Porco preto", 0.3333283735396997
"preto grelhado", 0.3333283735396997
"preco", 0.4095426714242893
"Porco", 0.4336513822302777
"grelhado", 0.4336513822302777
"preto", 0.5764935161049469
"Servico", 0.5775482963168598
"acolhedor", 0.5775482963168598
"qualidade", 0.6094673846402316
"etc etc", 0.6613244752116664
"Servico fantastico", 0.692590130276828
"recomendo uma visita", 0.015380821171891606
"cozinha e ambiente", 0.02570861714399338
"ambiente muito agradavel", 0.02570861714399338
"agradavel grande simpatia", 0.02570861714399338
"clientes recomendo", 0.02570861714399338
"servico", 0.09568045026443411
"visita", 0.09568045026443411
"cozinha", 0.15831692877998726
"ambiente", 0.15831692877998726
"agradavel", 0.15831692877998726
"simpatia", 0.15831692877998726
"clientes", 0.15831692877998726
"recomendo", 0.15831692877998726
"simplesmente divinal", 0.01859446618045681
"trabalha no espaco", 0.01859446618045681
"alem do prato", 0.027581485432184485
"agradecer a simpatia", 0.027581485432184485
"deixar clientes satisfeitos", 0.072115470298114
"Pessoas bastante afaveis", 0.10137279574960871
"divinal", 0.11142476118001256
"espaco", 0.11142476118001256
"clientes satisfeitos", 0.14005713113751553
"alem", 0.16383273847958243
"prato", 0.16383273847958243
"simplesmente", 0.16383273847958243
"agradecer", 0.16383273847958243
"simpatia", 0.16383273847958243
"trabalha", 0.16383273847958243
"claro objetivo", 0.19613242932716538
"objetivo de deixar", 0.19613242932716538
"deixar clientes", 0.19613242932716538
"desejoso de regressar", 0.23956129807083346
"Pessoas", 0.3033846052649951
"feliz acaso encontrar", 0.005401660759706154
"regresso a casa", 0.02541909697430123
"feliz acaso", 0.02541909697430123
"belo restaurante", 0.02541909697430123
"acaso encontrar", 0.04188746641162499
"encontrar este belo", 0.04188746641162499
"casa", 0.12363091320521931
"feliz", 0.12363091320521931
"restaurante", 0.12363091320521931
"preto uma delicia", 0.18075564686791562
"regresso", 0.2005079697193566
"acaso", 0.2005079697193566
"encontrar", 0.2005079697193566
"belo", 0.2005079697193566
"churrasquinho de porco", 0.2766850298235749
"porco preto", 0.2766850298235749
"delicia", 0.32883716426354986
"churrasquinho", 0.46553351027698087
"porco", 0.46553351027698087
"preto", 0.46553351027698087
"Fantastico", 0.09927137196013912
"voltar a Beja", 0.1391502641455504
"Beja voltarei", 0.1391502641455504
"restaurante tambem", 0.18970645222564492
"Beja", 0.2742624966594226
"comida", 0.2768162971845457
"simpatia", 0.2768162971845457
"espaco", 0.2768162971845457
"tambem", 0.3580186829102008
"voltar", 0.44538603402402266
"voltarei", 0.44538603402402266
"restaurante", 0.44538603402402266
"Migas de coentros", 0.03107735477427921
"coentros fantasticas", 0.03107735477427921
"Migas", 0.13696809108329627
"fantasticas", 0.13696809108329627
"paragem em Beja", 0.19230474390773872
"Simpatia e cuidado", 0.21339268578732606
"tempos de covid", 0.21339268578732606
"coentros", 0.2200560909321288
"voltamos", 0.26303348124903125
"Beja", 0.2742624966594226
"cuidado fenomenal", 0.32441639786848336
"fenomenal em tempos", 0.32441639786848336
"Proxima paragem", 0.35487136790899465
"Simpatia", 0.3553358554145339
"covid", 0.3553358554145339
"Proxima", 0.44538603402402266
"cuidado", 0.4949246952252326
"fenomenal", 0.4949246952252326
"tempos", 0.4949246952252326
"paragem", 0.5880798524606783
"Atendimento simpatico.Comida feita", 0.003791020185563224
"Atendimento simpatico.Comida", 0.021426426685824663
"simpatico.Comida feita", 0.02948941433745132
"igualmente generosas.Preco agradavel", 0.08463697890999293
"sao igualmente generosas.Preco", 0.11343907194729265
"Doses generosas.Tem meias", 0.11435788921648743
"generosas.Tem meias doses", 0.11435788921648743
"Atendimento", 0.12394257886850976
"confeccionada", 0.12394257886850976
"generosas.Preco agradavel", 0.15810827866714097
"simpatico.Comida", 0.16924744884867676
"feita", 0.16924744884867676
"generosas.Tem meias", 0.20729462022012973
"sao igualmente", 0.20729462022012973
"igualmente generosas.Preco", 0.20729462022012973
"Doses", 0.2084527472259159
"Doses generosas.Tem", 0.20882845545340087
"meias doses", 0.20882845545340087
"precisar dalguma atencao", 0.26767688531353384
"acolhedor.Merece esse esforco", 0.2686739637997276
"Comida caseira", 0.03107735477427921
"precos muito acessiveis", 0.03107735477427921
"caseira muito saborosa", 0.050888965170882816
"Comida", 0.13696809108329627
"acessiveis", 0.13696809108329627
"Simpatia no atendimento", 0.1445099069107937
"caseira", 0.2200560909321288
"saborosa", 0.2200560909321288
"precos", 0.2200560909321288
"Recomendo vivamente", 0.24745631075091173
"Simpatia", 0.3553358554145339
"atendimento", 0.3553358554145339
"Recomendo", 0.44538603402402266
"vivamente", 0.44538603402402266
"impossivel nao gostar", 0.005610803725192223
"impossivel nao", 0.030803441134664936
"nao gostar", 0.030803441134664936
"gostar dos pratos", 0.030803441134664936
"havondo", 0.11797671014185607
"caseiros", 0.11797671014185607
"confecionados", 0.11797671014185607
"Relevancia especial", 0.1539412127363319
"porco iberico", 0.1539412127363319
"impossivel", 0.17286683788205306
"nao", 0.17286683788205306
"gostar", 0.17286683788205306
"pratos", 0.17286683788205306
"Staff simpatico", 0.1946260830057487
"migas e porco", 0.21489669178785997
"Relevancia", 0.3171947781126727
"iberico", 0.3171947781126727
"Voltaremos", 0.31813151393529204
"Staff", 0.4036310100959565
"simpatico", 0.4036310100959565
"simpatico e caseiro", 0.00899321792126428
"ambiente agradavel", 0.00899321792126428
"bocadinho as doses", 0.00899321792126428
"servico muito simpatico", 0.013527995261974615
"agradavel e refeicoes", 0.013527995261974615
"apresentacao mas acho", 0.013527995261974615
"acho que podiam", 0.013527995261974615
"podiam reduzir", 0.013527995261974615
"reduzir um bocadinho", 0.013527995261974615
"caseiro", 0.0771485953923296
"ambiente", 0.0771485953923296
"doses", 0.0771485953923296
"servico", 0.1155310835876123
"simpatico", 0.1155310835876123
"agradavel", 0.1155310835876123
"refeicoes", 0.1155310835876123
"apresentacao", 0.1155310835876123
"acho", 0.1155310835876123
"podiam", 0.1155310835876123
"reduzir", 0.1155310835876123
"espaco despretensioso", 0.018617044560506814
"simpatico e atento", 0.018617044560506814
"atendimento simpatico", 0.02444040131886091
"acompanhar excelentes bochechas", 0.08795739352414811
"despretensioso", 0.11832839713460025
"atento", 0.11832839713460025
"Chegamos eram cerca", 0.1338042589969077
"linha alentejana", 0.14078287609167653
"bochechas no forno", 0.14078287609167653
"espaco", 0.15445814601779795
"atendimento", 0.15445814601779795
"simpatico", 0.15445814601779795
"Chegamos eram", 0.17136720393261576
"originalidade do pure", 0.17740541611316055
"pure de batata", 0.17740541611316055
"batata doce", 0.17740541611316055
"doce a acompanhar", 0.17740541611316055
"acompanhar excelentes", 0.17740541611316055
"excelentes bochechas", 0.17740541611316055
"existiam mesas vazias", 0.19434924007967816
"Comida tipica", 0.01552184797949213
"preco acessivel", 0.02541909697430123
"Comida", 0.12363091320521931
"tipica", 0.12363091320521931
"saborosa", 0.12363091320521931
"acessivel", 0.12363091320521931
"pessoal muito simpatico", 0.18075564686791562
"migas sao fantasticas", 0.1829003496708144
"preco", 0.2005079697193566
"migas sao", 0.2766850298235749
"sao fantasticas", 0.2766850298235749
"simpatico", 0.32883716426354986
"migas", 0.46553351027698087
"sao", 0.46553351027698087
"fantasticas", 0.46553351027698087
"pessoal", 0.46553351027698087
"equipa", 0.15070071895518797
"restaurante", 0.1675048158394539
"nao", 0.17734825551789837
"renovado", 0.18815352920909262
"quase vazio", 0.20487615226300693
"porco iberico", 0.24241877926497787
"restaurante foi renovado", 0.2476960327872697
"migas", 0.28571211754854514
"porco", 0.28571211754854514
"iberico", 0.28571211754854514
"ambiente nao", 0.31107936537388586
"simpatico e disponivel", 0.3429101500069012
"mau", 0.38128959509533383
"vazio", 0.38128959509533383
"nao e mau", 0.38606001724071154
"Adorooo uma refeicao", 0.3926798300439741
"AVONDO", 0.3962022137919274
"empregado de mesa", 0.41108535616287323
"mesa foi simpatico", 0.41108535616287323
"Adorooo", 0.41914741473224854
"preco", 0.05899937629682816
"restaurantes de Beja", 0.0605689221549672
"Beja na relacao", 0.0605689221549672
"relacao qualidade", 0.07796891081290885
"melhores restaurantes", 0.1495930091794576
"Beja", 0.15831692877998726
"qualidade", 0.2005079697193566
"melhores", 0.36073110501666333
"restaurantes", 0.36073110501666333
"relacao", 0.36073110501666333
"atendimento excelente", 0.4456055016437946
"Pratos", 0.46553351027698087
"excelente", 0.46553351027698087
"confeccionados", 0.6621399683957523
"atendimento", 0.6621399683957523
"confeccionados e atendimento", 0.7807198046783035
"Adoramos", 0.0726772423782132
"Avondo", 0.32705176562700716
"simpaticos", 0.3798215915560938
"Comida", 0.4715382012123803
"farta", 0.4715382012123803
"Vale", 0.5223302035298336
"Vale a pena", 0.5265028536993026
"Preco", 0.5552083007126032
"pena", 0.6603253488343742
"desvio", 0.6603253488343742
"almocar", 0.6603253488343742
"bitoque de frango", 0.23338172234549467
"marido uma feijoada", 0.23338172234549467
"Atendimento", 0.31813151393529204
"comi um bitoque", 0.35350894161299157
"frango", 0.3702539456099092
"feijoada", 0.3702539456099092
"Comer caseiro", 0.38599679376725615
"Comer", 0.4613789858464135
"confeccionada", 0.4613789858464135
"comi", 0.5110573480904945
"bitoque", 0.5110573480904945
"marido", 0.5110573480904945
"repetir", 0.5121371841744414
"caseiro", 0.6036200563782421
"terras do Alentejo", 0.021756641057347488
"perfeito Gaspacho", 0.03136061279551941
"Alentejo", 0.07798991110154684
"Gaspacho", 0.11136995550271982
"acolheu", 0.17441111832452588
"atendimento simpatico", 0.2181746024440784
"centro de Beja", 0.24437806773287205
"terras", 0.27302722330497636
"perfeito", 0.27302722330497636
"Beja", 0.29972579680398914
"Refeicao", 0.35278515565910296
"Recomendo", 0.3679809303548697
"agradavel", 0.42320162466353234
"atendimento", 0.42320162466353234
"simpatico", 0.42320162466353234
"Refeicao agradavel", 0.42571694378040553
"ate", 0.5671031584715324
"ementa", 0.5671031584715324
"beleza", 0.599263854838804
"opcao", 0.6552179024923419
"saborosa", 0.08577003912175124
"Comida", 0.17429588222720582
"confecionada", 0.17429588222720582
"extremamente bem confecionada", 0.18593210289661546
"Pessoal extremamente simpatico", 0.2387748887170429
"extremamente", 0.25144034649041774
"Pessoal extremamente", 0.27019880791178097
"qualidade", 0.2728683653687158
"qualidade e extremamente", 0.30178448110522543
"extremamente simpatico", 0.39772689286341706
"Pessoal", 0.4230062319459499
"simpatico e acolhedor.Entradas", 0.47097944262094726
"simpatico", 0.5658452493032464
"acolhedor.Entradas", 0.5658452493032464
"comi", 0.655037040152484
"melhor", 0.655037040152484
"sopa", 0.655037040152484
"cacao", 0.655037040152484
"ate", 0.655037040152484
"repetir", 0.6994342804214474
"Pedimos um arroz", 0.015380821171891606
"atendimento tambem", 0.015380821171891606
"arroz de polvo", 0.02570861714399338
"polvo uma salada", 0.02570861714399338
"salada de grao", 0.02570861714399338
"alheira frita", 0.02570861714399338
"vou voltar", 0.02570861714399338
"Pedimos", 0.09568045026443411
"divinal", 0.09568045026443411
"atendimento", 0.09568045026443411
"arroz", 0.15831692877998726
"polvo", 0.15831692877998726
"salada", 0.15831692877998726
"grao", 0.15831692877998726
"alheira", 0.15831692877998726
"frita", 0.15831692877998726
"tambem", 0.15831692877998726
"vou", 0.15831692877998726
"voltar", 0.15831692877998726
"Pessoal extremamente simpatico", 0.0073324509242396925
"Pessoal extremamente", 0.03107735477427921
"simpatico e acolhedor", 0.03107735477427921
"extremamente simpatico", 0.050888965170882816
"Recomendo vivamente", 0.07896489415788477
"sobremesas TOP", 0.1135061679988099
"Pessoal", 0.13696809108329627
"acolhedor", 0.13696809108329627
"Entradas", 0.19677146788549632
"TOP", 0.2059622894072478
"Recomendo", 0.2059622894072478
"pratos principais", 0.21339268578732606
"extremamente", 0.2200560909321288
"simpatico", 0.2200560909321288
"Iremos regressar", 0.24745631075091173
"principais e sobremesas", 0.32441639786848336
"pratos", 0.3553358554145339
"vivamente", 0.3553358554145339
"Iremos", 0.44538603402402266
"regressar", 0.44538603402402266
"Comida", 0.11142476118001256
"confeccionada", 0.11142476118001256
"Ambiente familiar", 0.14005713113751553
"Precos acessiveis", 0.23956129807083346
"simpaticos e profissionais", 0.23956129807083346
"Ambiente", 0.3033846052649951
"acolhedor", 0.3033846052649951
"acessiveis e empregados", 0.3295258815075752
"empregados muito simpaticos", 0.3295258815075752
"Precos", 0.3881970960906714
"profissionais", 0.3881970960906714
"familiar", 0.4049347717850166
"acessiveis", 0.49784754196738834
"empregados", 0.49784754196738834
"simpaticos", 0.49784754196738834
"Espaco agradavel Simpatia", 0.000605237666088421
"Simpatia no atendimento", 0.005157590407455398
"agradavel Simpatia", 0.007743432063478832
"cliente Recomendo", 0.007743432063478832
"Recomendo as tradicionais", 0.007743432063478832
"Espaco agradavel", 0.00899321792126428
"espinafres Bom preco", 0.00899321792126428
"tradicionais migas", 0.013527995261974615
"bacalhau com espinafres", 0.013527995261974615
"Simpatia", 0.06650965107397505
"Recomendo", 0.06650965107397505
"Espaco", 0.0771485953923296
"atendimento", 0.0771485953923296
"preco", 0.0771485953923296
"agradavel", 0.1155310835876123
"preocupacao", 0.1155310835876123
"cliente", 0.1155310835876123
"tradicionais", 0.1155310835876123
"migas", 0.1155310835876123
"bacalhau", 0.1155310835876123
"doses bem generosas", 0.01552184797949213
"simplesmente delicioso", 0.02541909697430123
"bacalhau gratinado", 0.04188746641162499
"gratinado e simplesmente", 0.04188746641162499
"alheira com ovo", 0.04188746641162499
"delicioso", 0.12363091320521931
"doses", 0.12363091320521931
"generosas", 0.12363091320521931
"comi", 0.12363091320521931
"Recomendo", 0.17881754828257995
"bacalhau", 0.2005079697193566
"gratinado", 0.2005079697193566
"simplesmente", 0.2005079697193566
"alheira", 0.2005079697193566
"ovo", 0.2005079697193566
"melhor", 0.2005079697193566
"Excelente comida alentejana", 0.01342417043126017
"Excelente comida", 0.0838790498975163
"comida alentejana", 0.0838790498975163
"Excelente", 0.14682043081810747
"alentejana", 0.14682043081810747
"Recomendo as migas", 0.20923988526622112
"migas com poejo", 0.20923988526622112
"comida", 0.2635458554325498
"pratos", 0.3046273849991123
"qualidade", 0.31581467461746043
"Eramos um gurpo", 0.349428662634212
"jantar ja tardio", 0.349428662634212
"Recomendo", 0.37408719915209854
"poejo", 0.37408719915209854
"voltar a Beja", 0.4385527062040388
"Beja", 0.4435814336703337
"migas", 0.4625505081865173
"Eramos", 0.46545835840304156
"pessoas", 0.46545835840304156
"tardio", 0.46545835840304156
"bom,atendimento simpatico preco", 0.005401660759706154
"espaco mandamos vir", 0.009001679881101624
"mandamos vir bacalhau", 0.009001679881101624
"vir bacalhau gratinado,vitela", 0.009001679881101624
"bacalhau gratinado,vitela estufada,bife", 0.009001679881101624
"qualidade excelente", 0.01552184797949213
"simpatico preco", 0.02541909697430123
"espaco mandamos", 0.04188746641162499
"mandamos vir", 0.04188746641162499
"vir bacalhau", 0.04188746641162499
"bacalhau gratinado,vitela", 0.04188746641162499
"gratinado,vitela estufada,bife", 0.04188746641162499
"estufada,bife de frango", 0.04188746641162499
"frango com natas", 0.04188746641162499
"natas e salada", 0.04188746641162499
"salada de polvo", 0.04188746641162499
"bom,atendimento simpatico", 0.04188746641162499
"Gostei", 0.12363091320521931
"preco", 0.12363091320521931
"qualidade", 0.12363091320521931
"Excelente comida alentejana", 0.003417028178002057
"Excelente comida", 0.025299738274895688
"comida alentejana", 0.025299738274895688
"confeccionada de modo", 0.025299738274895688
"modo artesanal", 0.025299738274895688
"Excelente", 0.13018743405097755
"alentejana", 0.13018743405097755
"confeccionada", 0.13018743405097755
"artesanal", 0.13018743405097755
"porco iberico sao", 0.17337052194040678
"iberico sao divinais", 0.17337052194040678
"iscas sao tambem", 0.17337052194040678
"tambem de referencia", 0.18104854984110938
"comida", 0.1895379218712782
"modo", 0.1895379218712782
"sao", 0.24167763776977466
"migas com porco", 0.2513705777820816
"porco iberico", 0.2513705777820816
"iberico sao", 0.2765458397460429
"sao divinais", 0.2765458397460429
"comida tipica", 0.01747509953455014
"procura de comida", 0.02414075901020373
"tipica", 0.11186654715268884
"procura", 0.15353084316509127
"comida", 0.15353084316509127
"porco preto grelhados", 0.15458172585418603
"bela tomatada", 0.2289290869692944
"preto grelhados", 0.2289290869692944
"acompanhar uns lagartos", 0.2970552202531645
"lagartos de porco", 0.2970552202531645
"porco preto", 0.2970552202531645
"agua na boca", 0.3023251102451721
"encontrei", 0.30432682192804345
"otima tambem", 0.3604885713046308
"tomatada", 0.3892555301516025
"grelhados", 0.3892555301516025
"correr agua", 0.3893050044576674
"maravilha", 0.43853939425135546
"boca", 0.43853939425135546
"sobremesa era otima", 0.4620246439700256
"Simpatia no atendimento", 0.01552184797949213
"calor da epoca", 0.02541909697430123
"climatizacao face", 0.04188746641162499
"face ao calor", 0.04188746641162499
"Simpatia", 0.12363091320521931
"atendimento", 0.12363091320521931
"comida", 0.12363091320521931
"epoca", 0.12363091320521931
"climatizacao", 0.2005079697193566
"face", 0.2005079697193566
"calor", 0.2005079697193566
"situado a nivel", 0.2766850298235749
"nivel geografico", 0.2766850298235749
"geografico com estacionamento", 0.2766850298235749
"situado", 0.46553351027698087
"nivel", 0.46553351027698087
"geografico", 0.46553351027698087
"estacionamento", 0.46553351027698087
"melhorou", 0.08087677087229068
"gerencia", 0.10695849507378294
"nivel de eficacia", 0.11534632051779999
"atendimento pessoal", 0.14146251795895165
"saliento o porco", 0.20007971295249155
"sopa de cacao", 0.20007971295249155
"preco muito justo", 0.20007971295249155
"porco preto", 0.24255981329610257
"Nao esquecer", 0.26558066314168427
"eficacia", 0.29376776694699563
"esquecer a sobremesa", 0.320056844130645
"sobremesa o leite", 0.320056844130645
"leite creme", 0.320056844130645
"gaspacho com carapaus", 0.320056844130645
"carapaus fritos", 0.320056844130645
"atendimento", 0.3520382589103602
"pessoal", 0.3520382589103602
"simpatico", 0.3520382589103602
"nivel", 0.3520382589103602
"saliento", 0.377348118123622
"Comida caseira", 0.0565406034156422
"servico rapido", 0.0565406034156422
"Comida", 0.23133275159292982
"caseira", 0.23133275159292982
"servico", 0.23133275159292982
"rapido", 0.23133275159292982
"Economico", 0.27573389687933125
"Atendimento simpatico", 0.35350894161299157
"Atendimento", 0.5110573480904945
"simpatico", 0.5110573480904945
"estacionar", 0.5110573480904945
"Facil", 0.6511101154454433
"acesso", 0.6511101154454433
"Facil acesso", 0.7359434914074432
"Espaco", 0.13696809108329627
"aspecto", 0.13696809108329627
"vitela estufada", 0.32441639786848336
"conhecer melhor", 0.35487136790899465
"melhor", 0.44538603402402266
"prato", 0.4949246952252326
"vitela", 0.4949246952252326
"estufada", 0.4949246952252326
"jantar para conhecer", 0.5286731219590494
"jantar", 0.5880798524606783
"conhecer", 0.5880798524606783
"jantar em Beja", 0.013951077006583169
"pesquisa no Tripadviser", 0.018710052038413794
"Tripadviser para jantar", 0.018710052038413794
"Apos pesquisa", 0.03029352458153456
"Beja", 0.06671719810823788
"Tripadviser", 0.0890576985793267
"Apos", 0.14257254406587305
"decidimos", 0.14257254406587305
"espaco", 0.14257254406587305
"pratos sao batata", 0.1981931507685959
"sao batata frita", 0.1981931507685959
"pesquisa", 0.20623051956853788
"jantar", 0.20623051956853788
"restaurante alentejano", 0.210135279302867
"frita e salada", 0.210135279302867
"Esperava-se alguma rapidez", 0.237053920088477
"Nao", 0.2815030875503744
"adequa a restaurante", 0.29030790392431133
"acompanhamentos dos pratos", 0.29030790392431133
"pratos sao", 0.29030790392431133
"gerencia", 0.12229125971027831
"casa foi remodelada", 0.16333823125531258
"sao muito simpaticos", 0.2767170467037833
"comida continua excelente", 0.3105318585552895
"remodelada", 0.3261013256329346
"fresco", 0.3261013256329346
"tomatada estava espectacular", 0.362910692993374
"funcionarios sao", 0.37884047162054735
"comida continua", 0.37884047162054735
"continua excelente", 0.37884047162054735
"simpaticos", 0.4134948298564376
"saborosa", 0.4134948298564376
"casa", 0.43055564085338327
"espectacular", 0.46351849497328923
"Penso", 0.49654285697663225
"funcionarios", 0.5241688074772614
"sao", 0.5241688074772614
"comida", 0.5241688074772614
"continua", 0.5241688074772614
"excelente", 0.5241688074772614
"Teem que experimentar", 0.015099935621315529
"Teem", 0.10028582371075691
"fantastico parabens", 0.11755105063023073
"experimentar", 0.14832923246533666
"comi sapas", 0.165573765898185
"sapas de cacao", 0.165573765898185
"suficiente daria", 0.165573765898185
"parabens", 0.2790829227183407
"comi", 0.37689977775222827
"sapas", 0.37689977775222827
"cacao", 0.37689977775222827
"confeccionado", 0.37689977775222827
"quantidade", 0.37689977775222827
"suficiente", 0.37689977775222827
"daria", 0.37689977775222827
"pessoas", 0.37689977775222827
"fantastico", 0.37689977775222827
"tempos era impecavel.", 0.02541909697430123
"melhores visitas", 0.04188746641162499
"Nao", 0.12363091320521931
"restaurante", 0.12363091320521931
"impecavel.", 0.12363091320521931
"melhores", 0.2005079697193566
"visitas", 0.2005079697193566
"tempos", 0.2005079697193566
"triste", 0.32883716426354986
"perdeu", 0.32883716426354986
"qualidade", 0.32883716426354986
"restaurantes de Beja", 0.015530258124008545
"melhores restaurantes", 0.050888965170882816
"Beja", 0.06949481646017519
"sofrivel", 0.13696809108329627
"tempo de espera", 0.21339268578732606
"qualidade da comida", 0.21339268578732606
"melhores", 0.2200560909321288
"restaurantes", 0.2200560909321288
"ultima", 0.2200560909321288
"nao repetir", 0.35487136790899465
"espera", 0.3553358554145339
"comida", 0.3553358554145339
"repetir", 0.44538603402402266
"tempo", 0.4949246952252326
"qualidade", 0.4949246952252326
"nao", 0.5880798524606783
"servico e pessimo", 0.015099935621315529
"comida ate", 0.02249651976012989
"confecionada", 0.10028582371075691
"pessimo", 0.10028582371075691
"verdade", 0.14832923246533666
"comida", 0.14832923246533666
"ate", 0.14832923246533666
"servico", 0.14832923246533666
"preciso ser dinamico", 0.165573765898185
"regressem", 0.2790829227183407
"preciso", 0.37689977775222827
"dinamico", 0.37689977775222827
"clientes", 0.37689977775222827
"Pessimo atendimento", 0.01984585111858601
"ementa muito fraca", 0.02541909697430123
"simpaticos Nao recomendo", 0.05826333872220701
"Pessimo", 0.09705179139403544
"Nao recomendo", 0.09816034707053119
"fraca", 0.12363091320521931
"simpaticos Nao", 0.14487691114143314
"Empregados lentos", 0.18075564686791562
"atendimento", 0.2005079697193566
"ementa", 0.2005079697193566
"Nao", 0.2718250226855089
"Empregados", 0.32883716426354986
"recomendo", 0.32883716426354986
"lentos", 0.46553351027698087
"simpaticos", 0.46553351027698087
"Recomendo", 0.08087858033141468
"Doses generosas", 0.19906748307366448
"preco acessivel", 0.19906748307366448
"Doses", 0.4074537787808157
"generosas", 0.4074537787808157
"comida", 0.4074537787808157
"confessionada", 0.4074537787808157
"preco", 0.4074537787808157
"acessivel", 0.4074537787808157
"Podia", 0.5004584409057034
"alentejanos", 0.5004584409057034
"gaspacho", 0.5004584409057034
"tipicos alentejanos", 0.5435052454413113
"pratos", 0.6404223906996382
"pratos tipicos alentejanos", 0.687976994005051
"tipicos", 0.7036028850078063
"tipico", 0.7036028850078063
"pratos tipicos", 0.8201775327086887
"relacao preco", 0.03107735477427921
"qualidade", 0.06588837669267192
"preco", 0.13696809108329627
"Restaurante simples", 0.21339268578732606
"relacao", 0.2200560909321288
"Empregados bastante simpaticos", 0.24745631075091173
"pretende boa comida", 0.32441639786848336
"Restaurante", 0.3553358554145339
"preciosismos", 0.3553358554145339
"Empregados", 0.44538603402402266
"simpaticos", 0.44538603402402266
"simples", 0.4949246952252326
"pretende", 0.4949246952252326
"comida", 0.4949246952252326
"Estavamos de visita", 0.023724158718428947
"queriamos experimentar", 0.031024788883564303
"experimentar a gastronomia", 0.031024788883564303
"visita a Beja", 0.1280396711578458
"Beja e queriamos", 0.1280396711578458
"Estavamos", 0.13359432338131513
"Beja", 0.1636724933977202
"Tentamos outro restaurante", 0.17238255331741073
"visita", 0.17346819674564165
"queriamos", 0.17346819674564165
"experimentar", 0.17346819674564165
"gastronomia", 0.17346819674564165
"Portugues gosta", 0.19517886233452766
"pedimos", 0.20579394247192484
"Beja novamente", 0.22614927931538137
"apesar de saborosa", 0.2377516607859594
"visitar Beja novamente", 0.24334929092268706
"visitar Beja", 0.2635820866744177
"pedimos lombinhos", 0.2690019308504348
"Tipico", 0.2877909468505511
"restaurantes de Beja", 0.009108237309423345
"tornou-se no pior", 0.009239332327148086
"mudar a gerencia", 0.015380821171891606
"melhores restaurantes", 0.02570861714399338
"Beja", 0.057012387690331526
"Infelizmente", 0.09568045026443411
"gerencia", 0.09568045026443411
"tornou-se", 0.09568045026443411
"pior", 0.09568045026443411
"mudar", 0.15831692877998726
"melhores", 0.15831692877998726
"restaurantes", 0.15831692877998726
"bife da vazia", 0.07111896924891487
"Demorou", 0.11126686095650853
"servir", 0.13677956529120425
"bife", 0.15501853905976412
"lulas", 0.15569251277546767
"meias", 0.19130903241286826
"vazia", 0.20082382633231247
"seca", 0.2204982284951257
"bitoques seca", 0.22475284936822926
"Excelente,sem palavras indescritivel", 0.24807674556177184
"meias de cozido", 0.25356688749713624
"pedido", 0.26210472285736586
"mesa", 0.2739198446490687
"seca e dura", 0.27968965725789263
"nao Excelente,sem", 0.28129460173290916
"Excelente,sem palavras", 0.28129460173290916
"Chocos com tinta", 0.284291529725507
"nao Excelente,sem palavras", 0.2870757995211324
"vazia apesar", 0.30415937697680107
"Eramos", 0.30990732673407134
"comida", 0.23133275159292982
"aviadas", 0.5110573480904945
"avondo", 0.5110573480904945
"sao bem aviadas", 0.5590489604659448
"amplo", 0.6036200563782421
"Dai", 0.6511101154454433
"doses", 0.7016498766455139
"sao", 0.7016498766455139
"significa", 0.7016498766455139
"espaco", 0.7740813452640246
"nao", 0.7740813452640246
"telefonar", 0.8076562869538214
"doses sao", 0.9697158139552228
"Dai telefonar", 1.109140327234087
"espaco nao", 1.4950219888008849
"Espaco tipicamente regional", 0.003717543662243431
"Espaco tipicamente", 0.026118440494084287
"tipicamente regional", 0.026118440494084287
"Espaco", 0.13689722732532209
"regional", 0.13689722732532209
"aconchegante", 0.14318522761734812
"sui generis", 0.14438209155701565
"distraido mas divertido", 0.14438209155701565
"tipicamente", 0.18593240955947604
"funcionario que serviu", 0.18641233614667246
"Luis", 0.1899497700930021
"porco preto grelhada", 0.34555390780417633
"serviu", 0.35519851216194104
"sui", 0.35519851216194104
"generis", 0.35519851216194104
"distraido", 0.35519851216194104
"divertido", 0.35519851216194104
"carne de porco", 0.4033501092391252
"porco preto", 0.4033501092391252
"preto grelhada", 0.4033501092391252
"disposicao para esperar", 0.015099935621315529
"muita gente", 0.015099935621315529
"sabor caseiro", 0.015099935621315529
"estiver com disposicao", 0.02249651976012989
"refeicao com pratos", 0.02249651976012989
"pratos de confeccao", 0.02249651976012989
"confeccao e sabor", 0.02249651976012989
"Preco muito equilibrado", 0.08446611338711053
"esperar", 0.10028582371075691
"restaurante", 0.10028582371075691
"gente", 0.10028582371075691
"entao", 0.10028582371075691
"caseiro", 0.10028582371075691
"estiver", 0.14832923246533666
"disposicao", 0.14832923246533666
"muita", 0.14832923246533666
"refeicao", 0.14832923246533666
"pratos", 0.14832923246533666
"confeccao", 0.14832923246533666
"sabor", 0.14832923246533666
"simples e simpatico", 0.01911893411113409
"ambiente agradavel", 0.03107735477427921
"agradavel", 0.13696809108329627
"simples", 0.13696809108329627
"simpatico", 0.13696809108329627
"sobremesas tipicas alentejanas", 0.15074418166153278
"Preco justo", 0.21339268578732606
"tipicas alentejanas", 0.21339268578732606
"ambiente", 0.2200560909321288
"justo e sobremesas", 0.32441639786848336
"sobremesas tipicas", 0.32441639786848336
"Delicioso pao", 0.35487136790899465
"pao de rala", 0.35487136790899465
"Preco", 0.3553358554145339
"alentejanas", 0.3553358554145339
"Delicioso", 0.44538603402402266
"rala", 0.44538603402402266
"justo", 0.4949246952252326
"sobremesas", 0.4949246952252326
"tipicas", 0.4949246952252326
"Restaurante honesto", 0.027025276363816554
"usualmente acabam", 0.04990943779979239
"Restaurante", 0.16221630539327078
"honesto", 0.16221630539327078
"almoco", 0.16221630539327078
"preco", 0.216652956800453
"pratos", 0.21802958044366288
"usualmente", 0.21802958044366288
"acabam", 0.21802958044366288
"excelente", 0.2249324932024804
"peixe para grelhar", 0.2465880701735777
"Beja passamos Qualidade", 0.24932791086500508
"comida", 0.2921598102688044
"carne e peixe", 0.3193101890152073
"Qualidade preco", 0.37757531580311443
"grelhar", 0.4020834199792057
"vamos a Beja", 0.4058547266329368
"Beja passamos", 0.4058547266329368
"passamos Qualidade", 0.4058547266329368
"Beja", 0.42169880162669815
"comida regional alentejana", 0.020406985108843003
"ambiente castico", 0.02278060898405576
"servico competente", 0.03363638967973331
"Restaurante modesto", 0.0439180261431861
"comida regional", 0.0522402644350919
"comida tipica alentejana", 0.05637695156342594
"regional alentejana", 0.06549153349904037
"tipicos do Alentejo", 0.08829084573712019
"nao havendo pratos", 0.09471927037827432
"modesto", 0.12347017160866493
"castico", 0.12347017160866493
"simpatico", 0.12347017160866493
"comida tipica", 0.13537446554057353
"comida", 0.13760672610172295
"alentejana e servico", 0.13794729910849954
"carnes para grelhar", 0.16594053328372657
"nao havendo", 0.16594053328372657
"tipos de confeccao", 0.16594053328372657
"tao tipicos", 0.16594053328372657
"Restaurante", 0.17036656557017907
"Espaco simples", 0.05434490960323097
"Espaco", 0.18192249554923495
"Pasto", 0.2306381514358075
"Casa", 0.23088048926547666
"Casa de Pasto", 0.23271839715577725
"simples", 0.28332817239132485
"Precos bastantes atraentes", 0.506017379877989
"Comida", 0.5294649279106969
"Comida bem confeccionada", 0.5455991754695078
"Precos", 0.5796525154827494
"atraentes", 0.5796525154827494
"confeccionada", 0.6667140855438386
"cheiro", 0.6667140855438386
"confeccionada com cheiro", 0.8002048801519621
"pratos escrito ingles", 0.004636670140991314
"pratos escrito", 0.02719732196147539
"escrito ingles", 0.02719732196147539
"carta e confusa", 0.07168783141362628
"carta", 0.1063091860554315
"confusa", 0.1420671212362249
"portugues", 0.1420671212362249
"comida", 0.16037361081169435
"pratos", 0.16271820022197983
"escrito", 0.16271820022197983
"ingles", 0.16271820022197983
"surpresa na conta", 0.1725179298658319
"Beja", 0.17461740344256926
"carta de vinhos", 0.18919907050226162
"sitios", 0.1965497958364753
"relacao preco qualidade", 0.20381729777487065
"precos", 0.24056041621754157
"sitios que serve", 0.24208474530467333
"clientes Restaurante", 0.2718294674856473
"Restaurante pequeno", 0.2718294674856473
"limpeza precaria Espaco", 0.0009152923094640021
"houve feed back", 0.0024320455317017684
"Espaco muito simples", 0.00677514176901232
"precaria Espaco", 0.008590233940562539
"Chegamos ao restaurante", 0.014023400881740302
"back de nenhum", 0.014023400881740302
"resposta muito rude", 0.014023400881740302
"limpeza precaria", 0.014023400881740302
"empregados olharam", 0.01656454333766193
"mesmo empregado", 0.01656454333766193
"teria mesa", 0.01656454333766193
"houve feed", 0.017814696111190503
"feed back", 0.017814696111190503
"servico rapido", 0.017814696111190503
"teria", 0.061582832918394455
"Espaco", 0.06437768893589613
"empregado se teria", 0.06503436384465151
"Chegamos", 0.10453230362331577
"nenhum", 0.10453230362331577
"perguntar", 0.10453230362331577
"familiar Comida mediterranica", 0.0132885316651317
"Ambiente calmo", 0.01984585111858601
"servico Atendimento rapido", 0.02585322371382544
"Comida mediterranica e,sobretudo", 0.02585322371382544
"familiar Comida", 0.03278451112147437
"servico Atendimento", 0.0605689221549672
"Atendimento rapido", 0.0605689221549672
"Comida mediterranica", 0.0605689221549672
"denotando disponibilidade", 0.07796891081290885
"regional bem cozinhada", 0.07796891081290885
"Ambiente", 0.09705179139403544
"rapido e denotando", 0.1495930091794576
"mediterranica e,sobretudo", 0.1495930091794576
"e,sobretudo a regional", 0.1495930091794576
"Atendimento", 0.15831692877998726
"Comida", 0.15831692877998726
"disponibilidade", 0.2005079697193566
"calmo", 0.2005079697193566
"familiar", 0.2005079697193566
"cozinhada", 0.2005079697193566
"simples e simpatica", 0.060859181979641505
"simpatica", 0.19262387152849178
"Casa simples", 0.2513167817980993
"simples", 0.29782302023742063
"Casa", 0.33718322606620654
"prato", 0.4531348232422823
"iberico", 0.54694198591871
"porco iberico", 0.5951468126600936
"luxo", 0.5956449777640669
"Vinho", 0.5966854293515677
"entrada", 0.6280896859331995
"sobremesas", 0.6280896859331995
"preco", 0.6280896859331995
"presas", 0.6821536204153457
"porco", 0.6821536204153457
"Excelentes", 0.7474051161021599
"excelente", 0.7474051161021599
"belo", 0.7501466132978382
"presunto", 0.7501466132978382
"alentejanas", 0.7501466132978382
"central de Beja", 0.01879672882609821
"nao muito espacosa", 0.04053565059469171
"Beja", 0.07425972513849939
"Casa", 0.1567973745636324
"nao", 0.1567973745636324
"comida alentejana", 0.22685672685634284
"comida", 0.23560994179147574
"servico", 0.23560994179147574
"central", 0.24845137053071667
"espacosa", 0.24845137053071667
"qualidade", 0.24845137053071667
"qualidade na comida", 0.25666031864495353
"rapido e competente", 0.26539575717554814
"Servico rapido", 0.3366459463733048
"competente", 0.39240470458943716
"alentejana", 0.39240470458943716
"rapido", 0.5344823842910187
"Comida excelente", 0.014787292383129409
"excelente bom ambiente", 0.032361484023902806
"ambiente e muita", 0.032361484023902806
"muita simpatia", 0.032361484023902806
"Comida com qualidade", 0.03596089248377166
"Comida", 0.04115146741879234
"Aconselho vivamente", 0.11688928794149621
"precos", 0.12102666257279926
"servida", 0.12102666257279926
"excelente", 0.17705097305926945
"ambiente", 0.17705097305926945
"muita", 0.17705097305926945
"simpatia", 0.17705097305926945
"qualidade", 0.17705097305926945
"Aconselho", 0.32350596561652023
"vivamente", 0.32350596561652023
"avondo", 0.15831692877998726
"encontra no Alentejo", 0.043717133590094125
"tipica alentejana", 0.0565406034156422
"Alentejo", 0.10374281946485873
"Recomendo", 0.20717186494652254
"tipica", 0.23133275159292982
"alentejana", 0.23133275159292982
"pormenor", 0.4037484044059793
"encontra", 0.4037484044059793
"Tribunal", 0.4178540393604482
"junto ao Tribunal", 0.5093939591515064
"barato", 0.6036200563782421
"Fica", 0.6511101154454433
"junto", 0.8076562869538214
"Fica junto", 1.109140327234087
"Sala nao Servico", 0.0020842380866742454
"Franciso e Adelino", 0.004198792334536685
"simpatico casal residente", 0.00917249918528702
"Restaurante bem localisado", 0.009379602988696514
"residente em Beja", 0.012745744487744395
"Sala nao", 0.02465300847003796
"apesar de eficaz", 0.028774664752148557
"nao Servico", 0.03138774013561273
"planos mas foi-nos", 0.039372791297161695
"foi-nos recomendado", 0.039372791297161695
"casal residente", 0.039372791297161695
"simpatico casal", 0.043997430960113715
"simpatico apesar", 0.043997430960113715
"Beja", 0.0646624790126744
"Restaurante", 0.0646624790126744
"Franciso", 0.0646624790126744
"Adelino", 0.0646624790126744
"Matos", 0.0646624790126744
"Sala", 0.0646624790126744
"simpatico", 0.07217623158498004
"peixe espada vinha", 0.0032173869679631944
"espada vinha acompanhado", 0.0032173869679631944
"batatas duvidosas", 0.015465128052409167
"migas estavam", 0.02140921543860024
"peixe espada", 0.02140921543860024
"espada vinha", 0.02140921543860024
"vinha acompanhado", 0.02140921543860024
"Atendimento a despachar", 0.09176722877299731
"duvidosas", 0.10519328464496844
"visto o restaurante", 0.12025258825090053
"restaurante estar cheio", 0.12025258825090053
"migas", 0.1447773057422032
"estavam", 0.1447773057422032
"peixe", 0.1447773057422032
"espada", 0.1447773057422032
"vinha", 0.1447773057422032
"acompanhado", 0.1447773057422032
"batatas", 0.1447773057422032
"Estacionamento a porta", 0.20785651292262122
"porta pago", 0.20785651292262122
"centro de Beja", 0.015530258124008545
"Restaurante localizado", 0.03107735477427921
"Beja", 0.06949481646017519
"Restaurante", 0.13696809108329627
"Simples e acolhedor", 0.21339268578732606
"localizado", 0.2200560909321288
"centro", 0.2200560909321288
"casa de pasto", 0.32441639786848336
"relacao qualidade preco", 0.35136518550240553
"Oferece pratos", 0.35487136790899465
"qualidade preco", 0.35487136790899465
"Simples", 0.3553358554145339
"Oferece", 0.44538603402402266
"preco", 0.44538603402402266
"acolhedor", 0.4949246952252326
"casa", 0.4949246952252326
"pasto", 0.4949246952252326
"relacao qualidade", 0.5286731219590494
"pratos", 0.5880798524606783
"relacao", 0.5880798524606783
"Casa pacata", 0.1095300227511656
"pacata e acolhedora", 0.1095300227511656
"Casa", 0.2386710978348089
"acolhedora", 0.2386710978348089
"Simpatia", 0.28396041294839813
"Comida bem confeccionado", 0.37306711088575134
"pacata", 0.4136131033184686
"Comida", 0.5212518383364516
"confeccionado", 0.5212518383364516
"muita", 0.5212518383364516
"escolha", 0.5212518383364516
"muita opcao", 0.5876889435915774
"opcao de escolha", 0.5876889435915774
"Ideal", 0.6603253488343742
"apontar", 0.6893541063826529
"opcao", 0.710124506004048
"refeicoes", 0.8139183702115408
"Ideal para refeicoes", 1.1619327950348128
"centro de Beja", 0.020681924304232973
"localizado no centro", 0.07504836334843568
"Beja", 0.07669091315471632
"Oferece comida regional", 0.2600523435499845
"localizado", 0.26421447795375236
"centro", 0.26421447795375236
"Oferece comida", 0.29671055212379643
"qualidade", 0.31840087839888004
"Oferece", 0.4122906395087072
"comida regional", 0.4451196252872818
"qualidade oferecida", 0.4746571341433351
"oferecida", 0.5054575682917825
"comida", 0.5549916791128103
"regional", 0.5549916791128103
"precos", 0.6450143698288692
"sao", 0.6450143698288692
"precos sao", 0.7124564310016134
"regional com qualidade", 0.9370099770190693
"casa de pasto", 0.014507516845702754
"sobretudo de locais", 0.014507516845702754
"clientela sobretudo", 0.01694983575101655
"pasto", 0.11076558167581954
"simpatica", 0.11076558167581954
"locais", 0.11076558167581954
"alentejanas tambem sao", 0.1108541240451436
"migas alentejanas tambem", 0.1288058976269797
"casa", 0.12910200343536593
"clientela", 0.12910200343536593
"sobretudo", 0.12910200343536593
"comida alentejana", 0.1402512516269926
"comida", 0.1819742481671969
"migas alentejanas", 0.19313320719719893
"alentejanas tambem", 0.19313320719719893
"passar por Beja.", 0.1957147185134318
"preto e saborosa", 0.19861513144352347
"tirando as batatas", 0.19861513144352347
"batatas fritas", 0.19861513144352347
"sao", 0.21453145082578964
"Comida tipica regional", 0.029771775481658595
"tipica regional", 0.08221459297067203
"Comida tipica", 0.09445629812938722
"Comida", 0.15656141504437954
"atendimento", 0.17629774916208127
"recomendavel", 0.24833214571557993
"tipica", 0.2756244642220877
"regional", 0.2756244642220877
"variavel mas equilibrada", 0.3205149128522623
"equilibrada", 0.4263895408672488
"qualidade numa ementa", 0.4793744605380231
"ementa pouco variavel", 0.4793744605380231
"Sala", 0.5199239357589784
"almoco", 0.5199239357589784
"Sala pequena", 0.520202197443643
"especialmente ao almoco", 0.520202197443643
"qualidade", 0.5692439031488916
"ementa", 0.5692439031488916
"variavel", 0.5692439031488916
"Nao desaponta", 0.5695562118821388
"sobremesa tradicional", 0.01870386365044203
"amigos bejenses", 0.023673749632194555
"oportunidade de confirmar", 0.023673749632194555
"simpatia do servico", 0.023673749632194555
"comidinhas caseiras", 0.023673749632194555
"caseiras e sobremesa", 0.023673749632194555
"Recomendado", 0.120734290063316
"tradicional", 0.120734290063316
"pequeno mas acolhedor", 0.14146761118020515
"amigos", 0.15207322000466608
"bejenses", 0.15207322000466608
"oportunidade", 0.15207322000466608
"confirmar", 0.15207322000466608
"simpatia", 0.15207322000466608
"servico", 0.15207322000466608
"comidinhas", 0.15207322000466608
"caseiras", 0.15207322000466608
"sobremesa", 0.15207322000466608
"restaurante", 0.18907732069107078
"carne", 0.22132041389554946
"Comida tradicional", 0.02732884181692501
"entradas e doces", 0.04380673109914039
"Comida", 0.163100718036698
"tradicional", 0.163100718036698
"doces", 0.163100718036698
"Infelizmente", 0.23125675974693613
"entradas", 0.2573148678482446
"sabia a peixe", 0.28278295899649764
"grelhado", 0.30763159241828736
"provavelmente grelhado", 0.3304032993937922
"nao", 0.4036455166089123
"azar", 0.4036455166089123
"peixe", 0.4036455166089123
"provavelmente", 0.4036455166089123
"porco sabia", 0.4250359431189201
"mesmo grelhado", 0.5060619510202512
"porco", 0.5461348863686317
"sabia", 0.5461348863686317
"mesmo", 0.5461348863686317
"resto", 0.6367766627971104
"Comida bem servida", 0.03239543479005779
"Comida", 0.147473444162939
"servida", 0.21277662433852385
"Adoramos o almoco", 0.24552053075922972
"simpatico Adoramos", 0.3132963739010296
"Vale a pena", 0.3691439035189479
"Adoramos", 0.3808882098537109
"precos comedidos", 0.4212525157487381
"Sobremesas feitas", 0.4347300701622527
"Vale", 0.4667532597696194
"almoco", 0.5175346047147965
"comedidos", 0.5175346047147965
"Sobremesas", 0.5504587001970846
"feitas", 0.5504587001970846
"casa", 0.5504587001970846
"preco", 0.572706176740258
"precos", 0.572706176740258
"pena", 0.5776426393774065
"pessoal", 0.6263182890368166
"simpatico", 0.6263182890368166
"atendimento extremamente simpatico", 0.009001679881101624
"simpatico a atencioso", 0.02541909697430123
"atendimento extremamente", 0.04188746641162499
"extremamente simpatico", 0.04188746641162499
"atencioso", 0.12363091320521931
"visita a repetir", 0.18075564686791562
"atendimento", 0.2005079697193566
"extremamente", 0.2005079697193566
"simpatico", 0.2005079697193566
"repetir", 0.32883716426354986
"visita", 0.46553351027698087
"Comida caseira", 0.03107735477427921
"atendimento simpatico", 0.03107735477427921
"otimus ingredientes", 0.050888965170882816
"melhores em Beja", 0.1135061679988099
"Comida", 0.13696809108329627
"confecionada", 0.13696809108329627
"simpatico", 0.13696809108329627
"Beja", 0.2059622894072478
"caseira", 0.2200560909321288
"otimus", 0.2200560909321288
"ingredientes", 0.2200560909321288
"atendimento", 0.2200560909321288
"Recomendo", 0.26303348124903125
"provavelmente", 0.4949246952252326
"melhores", 0.4949246952252326
"passe por Beja", 0.009517994097410333
"restaurante super simples", 0.04931529893987862
"Beja", 0.05870919847823956
"volto", 0.11727734907338086
"restaurante super", 0.13067718075977855
"super simples", 0.14422120608705913
"comida deliciosa", 0.14422120608705913
"restaurante", 0.14475639702951865
"vou", 0.16059248391596775
"passe", 0.16059248391596775
"precos sao espectaculares", 0.23237238019155382
"hermetico", 0.30082260408300643
"simples", 0.3157372066547484
"deliciosa", 0.3157372066547484
"precos sao", 0.3191796641949718
"sao espectaculares", 0.3191796641949718
"nao Esta casa", 0.3191796641949718
"super", 0.3992026065895332
"luxo", 0.3992026065895332
"comida", 0.3992026065895332
"tendo encontrado inclusivamente", 0.004502376748534882
"nao sao vulgares", 0.005702929447984271
"encontrado inclusivamente pratos", 0.014780543195868693
"inclusivamente pratos populares", 0.014780543195868693
"notaveis Ervilhas Estufadas", 0.023886878793584036
"tendo encontrado", 0.02469242159790979
"encontrado inclusivamente", 0.0311323306459647
"populares que nao", 0.0311323306459647
"nao sao", 0.0311323306459647
"sao vulgares", 0.0311323306459647
"Ervilhas Estufadas", 0.04815840468421044
"Estufadas com Ovos", 0.04815840468421044
"inclusivamente pratos", 0.07796735772938859
"pratos populares", 0.07796735772938859
"notaveis Ervilhas", 0.09947625649569246
"tendo", 0.13868246237198434
"Carne de Porco", 0.14075846152988242
"Doses Restaurante tipico", 0.14333848907837013
"Ovos e Carne", 0.1633653124613961
"Carne", 0.16963455884009304
"casa da mae", 0.015099935621315529
"farta e variada", 0.015099935621315529
"preco bastante acessivel", 0.015099935621315529
"almocar a casa", 0.02249651976012989
"mae", 0.10028582371075691
"comida", 0.10028582371075691
"farta", 0.10028582371075691
"acessivel", 0.10028582371075691
"espaco reduzido", 0.11755105063023073
"almocar", 0.14832923246533666
"casa", 0.14832923246533666
"variada", 0.14832923246533666
"preco", 0.14832923246533666
"unico problema", 0.165573765898185
"reduzido", 0.2790829227183407
"unico", 0.37689977775222827
"problema", 0.37689977775222827
"espaco", 0.37689977775222827
"avondo no Alentejo", 0.0605689221549672
"Alentejo significa", 0.0605689221549672
"significa ja chega.", 0.07796891081290885
"comida de qualidade", 0.07796891081290885
"indica tem avondo", 0.1495930091794576
"mesmo as doses", 0.1495930091794576
"doses sao", 0.1495930091794576
"Alentejo", 0.15831692877998726
"chega.", 0.2005079697193566
"qualidade", 0.2005079697193566
"Valor medio", 0.2766850298235749
"indica", 0.36073110501666333
"avondo", 0.36073110501666333
"significa", 0.36073110501666333
"mesmo", 0.36073110501666333
"doses", 0.36073110501666333
"sao", 0.36073110501666333
"comida", 0.36073110501666333
"Valor", 0.46553351027698087
"medio", 0.46553351027698087
"Alentejano", 0.07874966318381729
"tipica alentejana", 0.2264274167376101
"Comida", 0.25484992883340035
"servico excelente comida", 0.39524687792629554
"excelente comida", 0.412072271891515
"tipica", 0.42967845780873437
"alentejana", 0.42967845780873437
"servico excelente", 0.48764406568343244
"carne", 0.5232761615839367
"servico", 0.5725348862442168
"excelente", 0.5725348862442168
"acessivel", 0.5735922332549855
"recomendavel", 0.6611752979085599
"gosta", 0.6611752979085599
"preco e acessivel", 0.6791533181929391
"preco", 0.7051381514288926
"Comida divinal", 0.06615507282822666
"Comida", 0.10354789399760157
"Ementa tradicional", 0.12145500080286363
"comida tradicional", 0.13398762487123717
"tradicional", 0.14263467473225455
"divinal", 0.14981024437457566
"optimo", 0.14981024437457566
"gosta", 0.18234737819435193
"restaurante", 0.23233468646888347
"gosta de comida", 0.23383621912703598
"fimdesemana Visitei", 0.234351089333431
"qualidade", 0.2705473714793993
"carne", 0.2768661701560168
"Servico", 0.2768661701560168
"tradicional com pratos", 0.2770628367489818
"Visitei", 0.3271449932832136
"Visitei o restaurante", 0.34140775281635477
"comida poderia", 0.3564955119717405
"justificar Comida", 0.3564955119717405
"Comida normal", 0.3564955119717405
"Durante uma estadia", 0.03561957935247194
"almocamos e jantamos", 0.03561957935247194
"jantamos varias", 0.05201096623834521
"Beja", 0.14955442732884322
"estadia em Beja", 0.150930380032426
"Durante", 0.15468607017671576
"almocamos", 0.15468607017671576
"estadia", 0.22235009918735266
"jantamos", 0.22235009918735266
"varias", 0.22235009918735266
"Servico excelente", 0.30063481786767465
"Comida", 0.3885829234967331
"voltarmos a Beja", 0.4614439039333257
"Servico", 0.48077508182519874
"excelente", 0.48077508182519874
"mesmo", 0.49825359603233105
"Maximo de simpatia", 0.5148595977154046
"Maximo", 0.5315612486865856
"pasmar", 0.5643339256278163
"conta", 0.5875393542293696
"comida optima", 0.049934719361286656
"atencioso e comida", 0.08044699864754903
"Sitio acolhedor", 0.11560230367968015
"acolhedor", 0.17429588222720582
"atendimento", 0.17429588222720582
"optima", 0.17429588222720582
"Tipico portugues", 0.2179292914329097
"atencioso", 0.2728683653687158
"comida", 0.2728683653687158
"Tipico", 0.4230062319459499
"portugues", 0.4230062319459499
"omeletes do mundo", 0.5112698694288897
"mundo", 0.5164666904430245
"Sitio", 0.5945247778254522
"sitios", 0.5945247778254522
"melhores", 0.655037040152484
"omeletes", 0.655037040152484
"restantes", 0.6994342804214474
"pratos", 0.6994342804214474
"sao", 0.6994342804214474
"impressionou minimamente", 0.013682429360082151
"estilo tipico", 0.017386682234343812
"tipico e castico", 0.017386682234343812
"castico atraiu-me", 0.017386682234343812
"atraiu-me mas nao", 0.08696573694364552
"nao me impressionou", 0.08696573694364554
"minimamente", 0.10325140300091992
"restaurante vazio", 0.10865855873549304
"estilo", 0.1307270118629463
"tipico", 0.1307270118629463
"castico", 0.1307270118629463
"atraiu-me", 0.1307270118629463
"impressionou", 0.1307270118629463
"lento mesmo", 0.1334242616745852
"nao", 0.14489868101399517
"variedade na ementa", 0.18917451908418467
"comida e simples", 0.229611237723411
"simples e nao", 0.27906598541542665
"nao ha variedade", 0.27906598541542665
"vazio", 0.2856570680829322
"Espaco agradavel", 0.011154056927717123
"agradavel e limpo", 0.011154056927717123
"pessoas simpaticas", 0.011154056927717123
"comida saborosa", 0.011154056927717123
"existe muita variedade", 0.03520310942691324
"escolhido pois existe", 0.04761981136383764
"pois existe muita", 0.04761981136383764
"Espaco", 0.08922538916412363
"limpo", 0.08922538916412363
"pessoas", 0.08922538916412363
"normal", 0.08922538916412363
"comida", 0.08922538916412363
"servida", 0.08922538916412363
"muita variedade", 0.09108482621177338
"preco e acessivel", 0.12124452117740256
"acessivel e variante", 0.12124452117740256
"variante consoante", 0.12124452117740256
"consoante o escolhido", 0.12124452117740256
"escolhido pois", 0.12124452117740256
"pois existe", 0.12124452117740256
"Sala muito acanhada", 0.03576192676046019
"Sala", 0.16021053822748427
"arejada", 0.16021053822748427
"acanhada", 0.21551122082715385
"pessimos exemplares", 0.2415903079846278
"borrego", 0.276348094566515
"Comida", 0.283766190161909
"jantar", 0.335738202922428
"ambiente", 0.3493310944364255
"exemplares", 0.3985225913207307
"raquiticas e picadas", 0.39991404582498497
"Azeitonas raquiticas", 0.42703567241323753
"regiao", 0.48825674114844325
"azar", 0.48825674114844325
"contemplado", 0.48825674114844325
"pessimos", 0.48825674114844325
"picadas", 0.4911785044173237
"azeitona", 0.5145213392655963
"Azeitonas", 0.5145213392655963
"cheios de gordura", 0.5185314926068286
"casa tipica alentejana", 0.005610803725192223
"tipica alentejana oferece", 0.005610803725192223
"variedades de escolha", 0.020818845797234226
"casa tipica", 0.030803441134664936
"tipica alentejana", 0.030803441134664936
"alentejana oferece", 0.030803441134664936
"oferece pouco variedades", 0.030803441134664936
"escolha", 0.11797671014185607
"pratico num restaurante", 0.1539412127363319
"casa", 0.17286683788205306
"tipica", 0.17286683788205306
"alentejana", 0.17286683788205306
"oferece", 0.17286683788205306
"variedades", 0.17286683788205306
"francamente mau", 0.26176225393615005
"restaurante", 0.3171947781126727
"vinho de jarro", 0.359016783205622
"jarro e francamente", 0.359016783205622
"mau", 0.4036310100959565
"senha", 0.4205766817284309
"casas abertas", 0.11218176767455454
"Domingo", 0.15481572728842236
"abertas", 0.15481572728842236
"pessoas a espera", 0.2404278432455656
"Cheia", 0.2635407980398454
"Bacalhau com broa", 0.30103754703571406
"espera", 0.38881845427838946
"grelos razoaveis", 0.3943497361780843
"Fraquita", 0.44507986289482554
"aguada", 0.44507986289482554
"Cabidela de frango", 0.4678853530717798
"Bacalhau", 0.4810225299599948
"broa", 0.4810225299599948
"pessoas", 0.49850140321688496
"grelos", 0.53180806335824
"razoaveis", 0.53180806335824
"Cabidela", 0.5645776172723435
"frango", 0.5645776172723435
"Servico atencioso", 0.5780768255985664
"apuro", 0.587779547163361
"comida alentejana", 0.03107735477427921
"muita simpatia", 0.03107735477427921
"servico e muita", 0.050888965170882816
"Preco em conta", 0.11118360067254619
"alentejana", 0.13696809108329627
"simpatia", 0.13696809108329627
"localizacao Preco", 0.16193331521250073
"comida", 0.2200560909321288
"servico", 0.2200560909321288
"muita", 0.2200560909321288
"Preco", 0.2815891253011357
"conta", 0.3553358554145339
"Aconselho", 0.44538603402402266
"localizacao", 0.4949246952252326
"Restaurante com empregados", 0.011326071590296352
"empregados dinamicos", 0.011326071590296352
"rapido e nao", 0.011326071590296352
"nao e caro", 0.011326071590296352
"centro de Beja", 0.053515965999109016
"Restaurante", 0.09220612519689587
"dinamicos", 0.09220612519689587
"come-se", 0.09220612519689587
"rapido", 0.09220612519689587
"caro", 0.09220612519689587
"Localizado mesmo", 0.092410575532421
"frente ao tribunal", 0.092410575532421
"mesmo no centro", 0.11760737401357556
"empregados", 0.12145861573270843
"nao", 0.12145861573270843
"Beja", 0.156592010553672
"espaco e pequeno", 0.16242925982611942
"enche depressa", 0.16242925982611942
"torna-se barulhento", 0.16242925982611942
"devido aos clientes", 0.16242925982611942
"ficarem completamente cheias", 0.00317279260659447
"pessoas ficarem completamente", 0.004737258569048452
"Almocei neste restaurante", 0.012571559314626916
"ambiente mais tradicional", 0.01859446618045681
"completamente cheias", 0.01859446618045681
"pessoas ficarem", 0.027581485432184485
"ficarem completamente", 0.027581485432184485
"Almocei", 0.11142476118001256
"restaurante", 0.11142476118001256
"tradicional", 0.11142476118001256
"cheias", 0.11142476118001256
"Comemos secretos", 0.14005713113751553
"porco preto", 0.14005713113751553
"ambiente", 0.16383273847958243
"facto", 0.16383273847958243
"dose", 0.16383273847958243
"pessoas", 0.16383273847958243
"ficarem", 0.16383273847958243
"completamente", 0.16383273847958243
"secretos de porco", 0.19613242932716538
"Restaurante basico", 0.022988213374765323
"sabores alentejanos", 0.0371056572732552
"pratos tipicos", 0.0371056572732552
"comida com sabores", 0.0604047846262897
"Restaurante", 0.149905405948569
"basico", 0.149905405948569
"alentejanos", 0.149905405948569
"tipicos", 0.149905405948569
"comida", 0.2386710978348089
"sabores", 0.2386710978348089
"pratos", 0.2386710978348089
"cozinha e caseira", 0.24685590141158925
"nao deslumbra", 0.24685590141158925
"curta", 0.32705176562700716
"caseira", 0.3798215915560938
"deslumbra", 0.3798215915560938
"sobremesas", 0.4715382012123803
"cozinha", 0.5212518383364516
"nao", 0.5212518383364516
"Carta", 0.5223302035298336
"comida caseira deliciosa.", 0.05179250566077718
"caseira deliciosa.", 0.07562217959903335
"Simpatia", 0.10090956122489841
"deliciosa.", 0.16633957808099542
"comida", 0.2574137269090608
"sobremesas", 0.26589863948185016
"obrigatoria Adoro", 0.2681208194418666
"centro de Beja", 0.27065533274872006
"comida caseira", 0.27811587006985405
"paragem obrigatoria Adoro", 0.2804825147100175
"sobremesas caseiras", 0.2899411474706553
"Beja", 0.32318256966663317
"Adoro", 0.34545796486523234
"comida tipica daqui", 0.3864790313000338
"caseiras de excelencia", 0.3953018756412387
"Adoro a comida", 0.4021564716211173
"excelencia", 0.4093248317990562
"caseira", 0.4226626251146497
"caseiras", 0.4226626251146497
"Recomendo", 0.4427327764417095
"relacao qualidade preco", 0.008656714191361459
"Comida caseira", 0.03465229800090378
"qualidade preco", 0.03465229800090378
"relacao qualidade", 0.0565406034156422
"Comida", 0.1447773057422032
"preco", 0.1447773057422032
"prato e sobremesa", 0.1588666998905099
"pessoas", 0.20717186494652254
"entradas", 0.20717186494652254
"caseira", 0.23133275159292982
"relacao", 0.23133275159292982
"qualidade", 0.23133275159292982
"prato", 0.3702539456099092
"sobremesa", 0.3702539456099092
"unico ponto fraco", 0.38599679376725615
"fraco", 0.4613789858464135
"voltar", 0.4613789858464135
"estavam divinais", 0.500279879713408
"divinais", 0.5121371841744414
"aspeto do restaurante", 0.5732105463588063
"Espaco pequeno", 0.020818845797234226
"pequeno mas acolhedor", 0.020818845797234226
"Espaco", 0.11797671014185607
"acolhedor", 0.11797671014185607
"muita experiencia", 0.1539412127363319
"pequeno", 0.17286683788205306
"empregados de mesa", 0.21489669178785997
"mesa com muita", 0.21489669178785997
"experiencia", 0.3171947781126727
"preco qualidade", 0.359016783205622
"qualidade e adequado", 0.359016783205622
"casa", 0.4036310100959565
"organizacao", 0.4205766817284309
"empregados", 0.4205766817284309
"mesa", 0.4205766817284309
"muita", 0.4205766817284309
"Doses", 0.4533838267348932
"caseira", 0.4533838267348932
"preco", 0.5139785153975659
"qualidade", 0.5139785153975659
"atendimento", 0.16189757546499386
"vale a pena", 0.188980425464853
"comida", 0.23185090569456435
"Comemos um prato", 0.2420665386197939
"prato", 0.2426909119416883
"vale", 0.26186350337342884
"pena", 0.26186350337342884
"pena experimentar", 0.2662819857569985
"pessoas", 0.35476298024849956
"base de porco", 0.35487360554526437
"porco preto", 0.35487360554526437
"pena conhecer", 0.39946031925767206
"Comemos", 0.401519266096136
"experimentar", 0.401519266096136
"prato inteiro", 0.41507614349151617
"base", 0.5117848885477669
"porco", 0.5117848885477669
"preto", 0.5117848885477669
"conhecer", 0.5450145372228284
"inteiro da tranquilamente", 0.5752954254766408
"Espaco pequeno", 0.04740275061522235
"Espaco", 0.1697603516244247
"quantidade", 0.1697603516244247
"qualidade e quantidade", 0.1784287658982228
"qualidade", 0.24745989045062047
"pequeno", 0.26659596182680106
"pratos", 0.26659596182680106
"relacao preco", 0.30159887479854935
"Recomendo vivamente", 0.3487688943377005
"preco", 0.4152535518555878
"Recomendo", 0.5085107067623793
"vivamente", 0.5085107067623793
"relacao", 0.5580064212301282
"relacao qualidade preco", 0.008656714191361459
"qualidade preco", 0.03465229800090378
"relacao qualidade", 0.0565406034156422
"preco", 0.1447773057422032
"relacao", 0.23133275159292982
"qualidade", 0.23133275159292982
"Restaurante simples", 0.23338172234549467
"atendimento simpatico", 0.23338172234549467
"simples e atendimento", 0.35350894161299157
"Restaurante", 0.3702539456099092
"simpatico", 0.3702539456099092
"comida", 0.4613789858464135
"carta de vinhos", 0.500279879713408
"vinhos bastante razoavel", 0.500279879713408
"simples", 0.5110573480904945
"atendimento", 0.5110573480904945
"carta", 0.5121371841744414
"razoavel", 0.5121371841744414
"vinhos", 0.6511101154454433
"Pousada de Beja", 0.004307660590784608
"Beja", 0.05785862389139481
"Pousada", 0.07413215096361023
"Fica", 0.11393157663316957
"meias-doses sao suficientes", 0.16204194714441483
"espaco e pequeno", 0.18088607431001788
"sao suficientes", 0.2355800564875076
"meias-doses sao", 0.30544220976005976
"Sugiro pratos", 0.3108064155450416
"porco preto", 0.3108064155450416
"apesar da dose", 0.3108064155450416
"tambem estar optima", 0.3108064155450416
"precos agradaveis", 0.33374096660131636
"Bolo de requeijao", 0.3703790783559562
"nao perder", 0.3703790783559562
"espaco", 0.3913799434820737
"pequeno", 0.3913799434820737
"comida", 0.3913799434820737
"suficientes", 0.3941685146518469
"pratos de porco", 0.3999272456481091
"honesta e autentica", 0.057053120839049974
"Comida honesta", 0.09748905863560368
"autentica", 0.11378474292836983
"Comida", 0.19737262265138533
"confeccionada", 0.19737262265138533
"honesta", 0.22502914491474943
"gente honesta", 0.2615361524493514
"Recomenda-se", 0.40395710868227996
"gente", 0.4606417145192375
"Pratos", 0.554427387158102
"regiao", 0.554427387158102
"Pratos tipicos", 0.6176549425962329
"tipicos da regiao", 0.6176549425962329
"tipicos", 0.6886766480541536
"recepcionista do Hotel", 0.01314184481181462
"Avondo por indicacao", 0.01666058725697001
"indicacao da recepcionista", 0.04108588613144175
"Hotel", 0.06529546691710227
"Avondo", 0.08249189269106906
"comida", 0.1615831583997967
"servem pratos tipicos", 0.178135081847768
"indicacao", 0.19865662351270444
"recepcionista", 0.19865662351270444
"otima dica", 0.20935910838157643
"tipicos da regiao", 0.20935910838157643
"caseira", 0.23026803108331917
"centro de Beja", 0.2670544214339226
"caseira e servem", 0.2707571024223422
"servem pratos", 0.2723392702315729
"pratos tipicos", 0.2723392702315729
"comida caseira", 0.28740658719263845
"relacao", 0.3037519453514946
"Beja", 0.3308756225340292
"comida nao pesou", 0.3326993701460124
"Comida caseira", 0.050888965170882816
"preco em conta", 0.050888965170882816
"Comida", 0.2200560909321288
"caseira", 0.2200560909321288
"preco", 0.2200560909321288
"conta", 0.2200560909321288
"Espaco", 0.5880798524606783
"acolhedor", 0.5880798524606783
"localizacao", 0.68796622281612
"mesmo", 0.68796622281612
"centro", 0.68796622281612
"estacionamento", 0.68796622281612
"pequeno", 0.7625957055371981
"Espaco pequeno", 0.8131286944405928
"pequeno nas acolhedor", 0.8131286944405928
"localizacao mesmo", 0.8986050855370177
"mesmo no centro", 0.8986050855370177
"centro com estacionamento", 0.8986050855370177
"comida Alentejana", 0.016806575801141126
"pessoal simpatico", 0.02140921543860024
"Alentejana", 0.07145025265006083
"pessoal", 0.1447773057422032
"simpatico", 0.1447773057422032
"precos", 0.1447773057422032
"comida", 0.23133275159292982
"Doses super", 0.23338172234549467
"vinho da casa", 0.23338172234549467
"sao uma delicia", 0.2704390918235917
"super bem servidas", 0.35350894161299157
"Doses", 0.3702539456099092
"casa", 0.3702539456099092
"prato preferido", 0.38599679376725615
"secretos de porco", 0.38599679376725615
"porco preto", 0.38599679376725615
"preferido", 0.4613789858464135
"secretos", 0.4613789858464135
"preto", 0.4613789858464135
"sao", 0.4613789858464135
"cozinha tradicional genuina", 0.0038333358286435524
"tradicional genuina portuguesa", 0.0038333358286435524
"Google Maps", 0.003920273361690211
"atraves do Google", 0.010455154645797887
"restaurante despretensioso", 0.024013987533667742
"despretensioso onde pudessemos", 0.024013987533667742
"pudessemos desfrutar", 0.024013987533667742
"desfrutar de cozinha", 0.024013987533667742
"cozinha tradicional", 0.024013987533667742
"tradicional genuina", 0.024013987533667742
"genuina portuguesa", 0.024013987533667742
"portuguesa e selecionamos", 0.024013987533667742
"selecionamos isso atraves", 0.024013987533667742
"Maps", 0.057794020234274004
"Google", 0.06756693540701081
"acabamos simplesmente pedindo-lhes", 0.08588725249335057
"Estavamos a procura", 0.13587900232080136
"interpretar o menu", 0.14670589574610207
"procura", 0.1531366689248431
"restaurante", 0.1531366689248431
"simpatico", 0.12109278216414597
"Comida sao", 0.12653484507219265
"voce paga", 0.14584930113912953
"aconchegante", 0.15791541408731877
"servico", 0.15791541408731877
"sao muito deliciosos", 0.15859429907663325
"sao", 0.1735284435225015
"voce recebe", 0.18359990212118568
"voce", 0.1966445939280323
"proprietarios sao", 0.20333882486880714
"sao muito gentis", 0.20333882486880714
"Comida", 0.32364197379182136
"paga", 0.32364197379182136
"deliciosos e voce", 0.35191967558374504
"deliciosos", 0.39441690208002234
"recebe", 0.39441690208002234
"educada", 0.4107781379554829
"proprietarios", 0.4868909622895101
"gentis", 0.4868909622895101
