Expressao, Frequencia
"Decoracao tipica", 0.02235215878495046
"Decoracao", 0.12229125971027831
"gosto", 0.12229125971027831
"Ve-se que pertence", 0.16333823125531258
"tipica", 0.17878189525615976
"pertence ou pertenceu", 0.22756345427865793
"Comida saborosa", 0.2767170467037833
"saborosa bem confecionada", 0.2767170467037833
"Ve-se", 0.3261013256329346
"arbitro", 0.3261013256329346
"Staff simpatico", 0.362910692993374
"simpatico e profissional", 0.362910692993374
"Comida", 0.4134948298564376
"confecionada", 0.4134948298564376
"alentejana", 0.4134948298564376
"pertence", 0.43055564085338327
"pertenceu", 0.43055564085338327
"Staff", 0.46351849497328923
"profissional", 0.46351849497328923
"voltar", 0.49654285697663225
"Experiencia", 0.15255355746343044
"Experiencia a nao", 0.16231317291064554
"qualidade", 0.17608247153461995
"servico mau", 0.2148608883774794
"comida", 0.23389423059206993
"nao", 0.25305533352022314
"repetir", 0.25305533352022314
"eram", 0.29578042227011886
"nao repetir", 0.3443534598323245
"pessoas que estavamos", 0.358437327438502
"estavamos a mesa", 0.358437327438502
"delas chegou", 0.358437327438502
"acabar de comer", 0.358437327438502
"Nao vou repetir", 0.38071682204879836
"mau", 0.3846933364834815
"restantes estavam", 0.44175423881795917
"estavam a acabar", 0.44175423881795917
"fraca", 0.4597440876793742
"servico", 0.4597440876793742
"qualidade media", 0.4675132964583015
"qualidade da alimentacao", 0.0934346755383478
"ambiente e excelente", 0.17756077014849755
"excelente qualidade", 0.17756077014849755
"alimentacao", 0.2200560909321288
"ambiente", 0.38831292435681075
"excelente", 0.38831292435681075
"qualidade", 0.38831292435681075
"confeccao", 0.4949246952252326
"Precos acessiveis", 0.5286731219590494
"Precos", 0.5880798524606783
"acessiveis", 0.5880798524606783
"lento", 0.5880798524606783
"rendimento", 0.7625957055371981
"rendimento algo lento", 0.8131286944405928
"Sopa de cacao", 0.020818845797234226
"cacao incrivel", 0.030803441134664936
"Super bem servida", 0.11186783262129249
"Sopa", 0.11797671014185607
"cacao", 0.17286683788205306
"incrivel", 0.17286683788205306
"saborosa", 0.17286683788205306
"visita a Beja", 0.1928330981199027
"Beja", 0.28639761847540784
"Super", 0.3171947781126727
"servida", 0.3171947781126727
"Gostamos", 0.4036310100959565
"repetir na proxima", 0.467597141943779
"proxima visita", 0.467597141943779
"repetir", 0.5644591212760287
"proxima", 0.5644591212760287
"visita", 0.5644591212760287
"burrego TOP", 0.010722405245351528
"doses generosas", 0.02216221073515605
"TOP", 0.0720466338245492
"servido", 0.14724705908851674
"doses", 0.14724705908851674
"generosas", 0.14724705908851674
"atendimento", 0.14724705908851674
"burrego", 0.14724705908851674
"vinho", 0.14724705908851674
"Beja", 0.28829011060236315
"voltar", 0.3005420243005562
"recomendo", 0.3748840432180225
"duvidas", 0.3748840432180225
"voltar a Beja", 0.3795942277581074
"voltar sem duvidas", 0.5200249888156663
"costeleta de novilho", 0.015592183183204707
"ideia mal formada", 0.023977567222838052
"Restaurante o Arbitro", 0.03795566343081561
"merecido cartao amarelo", 0.06683119470697273
"novilho", 0.06860408089063898
"serviram nao correspondia", 0.08489822074658994
"atribuida ao Restaurante", 0.08772658826813882
"costeleta", 0.11020230092372683
"eram duas costeletazinhas", 0.13850743247294703
"cartao amarelo", 0.13850743247294703
"devo", 0.15302322035526417
"ideia", 0.15302322035526417
"formada", 0.15302322035526417
"serviram nao", 0.1730773135157578
"nao correspondia", 0.1730773135157578
"jus a classificacao", 0.17460608026492858
"classificacao atribuida", 0.17460608026492858
"merecido cartao", 0.17460608026492858
"Arbitro", 0.17481143904972238
"nao", 0.1913374381180143
"costeletinhas pesavao", 0.04940384002065631
"gramas o senhor", 0.04940384002065631
"sorte e saude", 0.04940384002065631
"refeicao disse", 0.09700399286574239
"pesavao", 0.15831692877998726
"gramas", 0.15831692877998726
"saude", 0.15831692877998726
"costeletinhas", 0.29736558256021506
"senhor", 0.29736558256021506
"refeicao", 0.29736558256021506
"disse", 0.29736558256021506
"sorte", 0.29736558256021506
"Refeicoes tipicamente regionais", 0.15074418166153278
"qualidade", 0.19677146788549632
"Refeicoes tipicamente", 0.21339268578732606
"conta preco", 0.21339268578732606
"tipicamente regionais", 0.32441639786848336
"regionais bem confeccionadas", 0.32441639786848336
"confeccionadas e tendo", 0.32441639786848336
"tendo em conta", 0.32441639786848336
"Recomendo a carne", 0.35487136790899465
"doce da casa", 0.35487136790899465
"Refeicoes", 0.3553358554145339
"preco", 0.3553358554145339
"Recomendo", 0.44538603402402266
"casa", 0.44538603402402266
"tipicamente", 0.4949246952252326
"regionais", 0.4949246952252326
"confeccionadas", 0.4949246952252326
"tendo", 0.4949246952252326
"conta", 0.4949246952252326
"carne de porco", 0.5286731219590494
"Recomendo", 0.06588837669267192
"preco", 0.19677146788549632
"Comida", 0.4949246952252326
"qualidade", 0.4949246952252326
"Comida tipica", 0.5162806230574593
"relacao qualidade", 0.5162806230574593
"descatou", 0.5880798524606783
"tipica", 0.68796622281612
"regiao", 0.68796622281612
"relacao", 0.68796622281612
"simpatia", 0.7625957055371981
"trabalha", 0.7625957055371981
"tambem", 0.7625957055371981
"tambem se descatou", 0.8131286944405928
"tipica da regiao", 0.8986050855370177
"trabalha tambem", 1.3897843987848642
"passam o Arbitro", 0.009123752040204384
"ENORME simpatia", 0.009123752040204384
"recebidos num espaco", 0.019339430705074847
"espaco acolhedor", 0.019339430705074847
"Arbitro nao", 0.023606500786653342
"quantidades extremamente generosas", 0.05158913507876928
"pratos tipicamente alentejanos", 0.0640932803577231
"Arbitro", 0.06563970410584091
"ENORME", 0.06563970410584091
"opcao", 0.10897582377881283
"trabalha", 0.10897582377881283
"Oferecem uma inumera", 0.11904743664444409
"extremamente generosas", 0.11904743664444409
"nao sair satisfeito", 0.12366174203563769
"passam", 0.13774074597817995
"entramos", 0.13774074597817995
"recebidos", 0.13774074597817995
"espaco", 0.13774074597817995
"acolhedor", 0.13774074597817995
"simpatia", 0.13774074597817995
"Almoco de passagem", 0.022988213374765323
"durante a semana", 0.022988213374765323
"Nao tinhamos reserva", 0.12324197102871123
"Almoco", 0.149905405948569
"passagem", 0.149905405948569
"durante", 0.149905405948569
"semana", 0.149905405948569
"Nao tinhamos", 0.24685590141158925
"tinhamos reserva", 0.24685590141158925
"dono", 0.32705176562700716
"Nao", 0.3798215915560938
"reserva", 0.3798215915560938
"entao", 0.3798215915560938
"sentar", 0.3798215915560938
"Doses sao", 0.40689615193388323
"sao bem servidas", 0.40689615193388323
"Doses", 0.4715382012123803
"servidas", 0.4715382012123803
"tinhamos", 0.5212518383364516
"esperar", 0.5212518383364516
"Nao", 0.13236614111425515
"cheio", 0.13421014187947852
"entao", 0.13421014187947852
"arbitro", 0.13421014187947852
"escolha,mas", 0.18248633676141038
"secretos", 0.23135079273699063
"carne alentejana", 0.23564992477999544
"nao gostei", 0.26682341248531877
"senhora nao", 0.26682341248531877
"crianca", 0.34996391902298324
"devia ter dito", 0.39146340558449694
"dito na altura", 0.39146340558449694
"nao foi sincera", 0.4040728848176238
"comida", 0.43670275244745627
"carne", 0.43670275244745627
"alentejana", 0.43670275244745627
"porco", 0.43670275244745627
"adultos", 0.43670275244745627
"saude", 0.4395810129414639
"secretos de porco", 0.4687457909768527
"Nao", 0.11142476118001256
"cheio", 0.11142476118001256
"doses muito generosas", 0.14005713113751553
"escolha", 0.16383273847958243
"restaurante", 0.16383273847958243
"Recomendo vivamente", 0.17743606560321915
"recebidos com muita", 0.19613242932716538
"muita simpatia", 0.19613242932716538
"comida regional", 0.19613242932716538
"preco razoavel", 0.19613242932716538
"razoavel com doses", 0.19613242932716538
"generosas", 0.3033846052649951
"Recomendo", 0.3881970960906714
"vivamente", 0.3881970960906714
"recebidos", 0.4049347717850166
"muita", 0.4049347717850166
"simpatia", 0.4049347717850166
"comida", 0.4049347717850166
"regional", 0.4049347717850166
"preco", 0.4049347717850166
"proporciona comida caseira", 0.012164019732225138
"Carlos recebe", 0.022825776323124266
"elevada qualidade", 0.03107735477427921
"recebe com simpatia", 0.050888965170882816
"simpatia e proporciona", 0.050888965170882816
"proporciona comida", 0.050888965170882816
"comida caseira", 0.050888965170882816
"caseira de elevada", 0.050888965170882816
"Carlos", 0.10141226884569679
"qualidade", 0.13696809108329627
"precos em conta", 0.21339268578732606
"recebe", 0.2200560909321288
"simpatia", 0.2200560909321288
"proporciona", 0.2200560909321288
"comida", 0.2200560909321288
"caseira", 0.2200560909321288
"elevada", 0.2200560909321288
"variedade e precos", 0.32441639786848336
"conta", 0.3553358554145339
"Voltarei", 0.44538603402402266
"Nao conhecia", 0.0934346755383478
"agradavel surpresa", 0.0934346755383478
"conhecia este restaurante", 0.17756077014849755
"Nao", 0.2200560909321288
"surpresa", 0.2200560909321288
"Comida caseira", 0.32441639786848336
"conhecia", 0.38831292435681075
"restaurante", 0.38831292435681075
"agradavel", 0.38831292435681075
"Comida", 0.4949246952252326
"caseira", 0.4949246952252326
"doses", 0.4949246952252326
"acessivel", 0.4949246952252326
"doses abundantes", 0.5162806230574593
"preco acessivel", 0.5162806230574593
"repetir", 0.5880798524606783
"abundantes", 0.68796622281612
"preco", 0.68796622281612
"abundantes e preco", 0.8986050855370177
"comida alentejana", 0.09572834516753458
"comida", 0.1638528849948441
"restaurante", 0.1697603516244247
"jus a comida", 0.19673757773940442
"jus", 0.26659596182680106
"alentejana", 0.26659596182680106
"tivesse em casa", 0.30159887479854935
"Paragem obrigatoria", 0.3487688943377005
"casa", 0.4152535518555878
"Paragem", 0.5085107067623793
"obrigatoria", 0.5085107067623793
"atendimento", 0.5580064212301282
"tivesse", 0.5580064212301282
"restaurante simples", 0.023288625241399193
"Restaurante de Topo", 0.06483769267560985
"economicas da Regiao", 0.06500585231056603
"restaurante", 0.08041322076859427
"saborosa", 0.10271229261799411
"fico do passado", 0.11552949980839326
"qualidade da alimentacao", 0.11552949980839326
"simples", 0.14151036557581065
"comida", 0.14151036557581065
"casal de proprietarios", 0.15279530507573624
"proprietarios sao", 0.15279530507573624
"sao muito simpaticos", 0.15279530507573624
"simpaticos e atenciosos", 0.15279530507573624
"devido as conjunturas", 0.15279530507573624
"conjunturas economicas", 0.15279530507573624
"passado a simpatia", 0.15279530507573624
"Topo", 0.16765694841013823
"Regiao", 0.16765694841013823
"fico", 0.2844676781804108
"alimentacao", 0.2844676781804108
"zona Norte", 0.010960006421352924
"Famalicao", 0.04512679089646418
"Norte", 0.0615629932481368
"almocei em Beja", 0.10753312937641774
"internautas a almocar", 0.16948691781635297
"carne de porco", 0.16948691781635297
"porco alentejana", 0.16948691781635297
"zona", 0.17609908763122675
"Ate", 0.18556080033056033
"restaurante", 0.21513151641590234
"unico que recomendo", 0.22178101074782652
"recomendo vivamente", 0.22178101074782652
"sabor da comida", 0.22178101074782652
"simpatia", 0.22596416624501398
"Beja", 0.22788726951836036
"jantar", 0.24807675889816705
"familia", 0.34015379464566786
"almocar", 0.34015379464566786
"carne", 0.34015379464566786
"alentejana", 0.34015379464566786
"migas", 0.1182396670028897
"estavam deliciosas", 0.11877489184413395
"Pedi", 0.16760253321065038
"estavam", 0.2247718239075703
"Pedi umas migas", 0.234444596419605
"Adoro migas", 0.24166977539373174
"muita", 0.27514048304251315
"comer", 0.2829961367990575
"muita gordura", 0.29274579390263344
"migas e estavam", 0.31679129682336765
"deliciosa carne", 0.3322304283099262
"nao gosto", 0.3364419349034535
"Adoro", 0.411521982834657
"gordura", 0.411521982834657
"costumo", 0.411521982834657
"pao", 0.411521982834657
"deliciosas", 0.47232405335478345
"deliciosa", 0.47232405335478345
"alentejana", 0.5017414883357556
"nao", 0.5017414883357556
"Restaurante de aspeto", 0.01859446618045681
"aspeto modesto", 0.01859446618045681
"comida saborosa", 0.027581485432184485
"Restaurante", 0.11142476118001256
"modesto", 0.11142476118001256
"confecionada", 0.11142476118001256
"Comemos carne", 0.14005713113751553
"aspeto", 0.16383273847958243
"comida", 0.16383273847958243
"saborosa", 0.16383273847958243
"carne de porco", 0.19613242932716538
"porco a alentejana", 0.19613242932716538
"alentejana e pezinhos", 0.19613242932716538
"pezinhos de coentrada", 0.19613242932716538
"coentrada e estavam", 0.19613242932716538
"estavam realmente", 0.19613242932716538
"Recomendo", 0.26303348124903125
"Comemos", 0.3033846052649951
"carne", 0.4049347717850166
"porco", 0.4049347717850166
"porco alentejana espetacular", 0.005401660759706154
"alentejana espetacular", 0.02541909697430123
"comida,a canjinha", 0.04188746641162499
"carne de porco", 0.04188746641162499
"porco alentejana", 0.04188746641162499
"espetacular", 0.12363091320521931
"atendimento", 0.12363091320521931
"caseiro mas agradavel", 0.18075564686791562
"comida,a", 0.2005079697193566
"canjinha", 0.2005079697193566
"carne", 0.2005079697193566
"porco", 0.2005079697193566
"alentejana", 0.2005079697193566
"tipo caseiro", 0.2766850298235749
"Restaurante", 0.32883716426354986
"agradavel", 0.32883716426354986
"tipo", 0.46553351027698087
"caseiro", 0.46553351027698087
"restaurante de referencia", 0.03107735477427921
"doses generosas", 0.03107735477427921
"referencia", 0.13696809108329627
"come-se", 0.13696809108329627
"doses", 0.13696809108329627
"confeccionadas", 0.13696809108329627
"restaurante", 0.2200560909321288
"generosas", 0.2200560909321288
"zona historica", 0.35487136790899465
"verao", 0.3553358554145339
"Fica", 0.44538603402402266
"historica", 0.44538603402402266
"condicionado", 0.4949246952252326
"permite ter estacionamento", 0.5286731219590494
"castelo", 0.5880798524606783
"permite", 0.5880798524606783
"estacionamento", 0.5880798524606783
"zona", 0.5880798524606783
"Restaurante pequeno", 0.04188746641162499
"comida mediterranea", 0.07796891081290885
"sobretudo alentejano", 0.07796891081290885
"excelente qualidade", 0.07796891081290885
"servico e comida", 0.1495930091794576
"alentejano de excelente", 0.1495930091794576
"Restaurante", 0.2005079697193566
"pequeno", 0.2005079697193566
"agradavel", 0.2005079697193566
"mediterranea", 0.2005079697193566
"sobretudo", 0.2005079697193566
"qualidade", 0.2005079697193566
"servico", 0.36073110501666333
"comida", 0.36073110501666333
"alentejano", 0.36073110501666333
"excelente", 0.36073110501666333
"repetir", 0.46553351027698087
"centro de Beja", 0.01984585111858601
"Beja com comida", 0.01984585111858601
"Pequeno restaurante", 0.02541909697430123
"excelente sabor", 0.02541909697430123
"restaurante no centro", 0.04188746641162499
"comida feita", 0.04188746641162499
"Beja", 0.09705179139403544
"Pequeno", 0.12363091320521931
"sabor", 0.12363091320521931
"alentejana que comi", 0.18075564686791562
"restaurante", 0.2005079697193566
"centro", 0.2005079697193566
"comida", 0.2005079697193566
"feita", 0.2005079697193566
"excelente", 0.2005079697193566
"duvida a melhor", 0.2766850298235749
"melhor carne", 0.2766850298235749
"carne a alentejana", 0.2766850298235749
"comi", 0.32883716426354986
"duvida", 0.46553351027698087
"tradicao alentejana", 0.02541909697430123
"carne de porco", 0.04188746641162499
"porco grelhada", 0.04188746641162499
"grelhada e sobremesas", 0.04188746641162499
"sobremesas de tradicao", 0.04188746641162499
"sabores do Alentejo", 0.10084113441901119
"alentejana", 0.12363091320521931
"Alentejo", 0.19677146788549632
"carne", 0.2005079697193566
"porco", 0.2005079697193566
"grelhada", 0.2005079697193566
"sobremesas", 0.2005079697193566
"tradicao", 0.2005079697193566
"aposta e recomendo", 0.2766850298235749
"apreciar os sabores", 0.2766850298235749
"aposta", 0.46553351027698087
"recomendo", 0.46553351027698087
"apreciar", 0.46553351027698087
"sabores", 0.46553351027698087
"sopa de cacao", 0.0604047846262897
"sopa", 0.2386710978348089
"cacao", 0.2386710978348089
"esperavamos", 0.4715382012123803
"otimas", 0.5223302035298336
"cerejas otimas", 0.5265028536993026
"Resultado", 0.5552083007126032
"carne de porco", 0.6030568194590986
"porco alentejana", 0.6030568194590986
"carne", 0.6133447588150343
"porco", 0.6133447588150343
"alentejana", 0.6133447588150343
"nao", 0.6133447588150343
"cerejas", 0.6603253488343742
"qualidade oferecida Recomendo", 0.001488913964133022
"atendimento Comida saborosa", 0.002263175936744087
"Preco aceitavel", 0.009108237309423345
"oferecida Recomendo", 0.009108237309423345
"atendimento Comida", 0.013797198203993007
"Comida saborosa", 0.013797198203993007
"bitoque de novilho", 0.015380821171891606
"confecionada de destacar", 0.02570861714399338
"destacar o bitoque", 0.02570861714399338
"qualidade oferecida", 0.02570861714399338
"Preco", 0.057012387690331526
"Recomendo", 0.057012387690331526
"Comida", 0.08596317751626563
"novilho", 0.09568045026443411
"comi", 0.09568045026443411
"atendimento", 0.15831692877998726
"saborosa", 0.15831692877998726
"confecionada", 0.15831692877998726
"destacar", 0.15831692877998726
"bitoque", 0.15831692877998726
"descoberta feliz", 0.050888965170882816
"Beja", 0.06949481646017519
"elevada simpatia", 0.21339268578732606
"descoberta", 0.2200560909321288
"feliz", 0.2200560909321288
"dono bastante afavel", 0.32441639786848336
"afavel sempre disponivel", 0.32441639786848336
"comer cacao", 0.35487136790899465
"simpatia", 0.3553358554145339
"cacao", 0.44538603402402266
"restaurante", 0.4949246952252326
"dono", 0.4949246952252326
"afavel", 0.4949246952252326
"disponivel", 0.4949246952252326
"elevada", 0.4949246952252326
"proxima xs espero", 0.5286731219590494
"espero la voltar", 0.5286731219590494
"proxima", 0.5880798524606783
"espero", 0.5880798524606783
"voltar", 0.5880798524606783
"Recomendado por amigos", 0.03107735477427921
"altura da recomendacao", 0.03107735477427921
"amigos experimentei", 0.050888965170882816
"experimentei este pequeno", 0.050888965170882816
"pequeno restaurante", 0.050888965170882816
"Recomendado", 0.13696809108329627
"recomendacao", 0.13696809108329627
"Atendimento simpatico", 0.1445099069107937
"amigos", 0.2200560909321288
"experimentei", 0.2200560909321288
"pequeno", 0.2200560909321288
"restaurante", 0.2200560909321288
"altura", 0.2200560909321288
"Atendimento", 0.3553358554145339
"simpatico", 0.3553358554145339
"comida", 0.3553358554145339
"confecionada", 0.3553358554145339
"convem cruzar informacoes", 0.0035251525386402714
"convem cruzar", 0.020767469033298947
"estamos a procura", 0.02721700613461516
"procura de sitio", 0.02721700613461516
"sitio para almocar", 0.02721700613461516
"cruzar informacoes", 0.02721700613461516
"Google", 0.05930663508604842
"Tripadvisor", 0.07278894473049363
"almocar ou jantar", 0.10402656263869581
"convem", 0.12498781483113341
"experimentar jantar", 0.1261969220178343
"jantar", 0.13900234734079414
"estamos", 0.16277551392792444
"procura", 0.16277551392792444
"sitio", 0.16277551392792444
"almocar", 0.16277551392792444
"cruzar", 0.16277551392792444
"informacoes", 0.16277551392792444
"restaurante", 0.1776410686103633
"optamos por experimentar", 0.1939825012256229
"agradavel o menu", 0.015099935621315529
"nao me recordo", 0.02249651976012989
"recordo-me que gostei", 0.02249651976012989
"Castelo de Beja", 0.0521883172778223
"menu", 0.10028582371075691
"almocei", 0.10028582371075691
"motivo para visita", 0.11755105063023073
"agradavel", 0.14832923246533666
"nao", 0.14832923246533666
"recordo", 0.14832923246533666
"recordo-me", 0.14832923246533666
"gostei", 0.14832923246533666
"Castelo", 0.22271009814206713
"Beja", 0.22271009814206713
"escondido", 0.2790829227183407
"visita", 0.2790829227183407
"ambiente", 0.37689977775222827
"motivo", 0.37689977775222827
"Atendimento razoavel", 0.012045781246665235
"Atendimento", 0.10909815511827554
"razoavel", 0.10909815511827554
"directo", 0.10909815511827554
"delongas", 0.10909815511827554
"Ambiente pequeno", 0.1278244235492756
"parto principal saborosos", 0.19321176704060536
"Entrada e parto", 0.22010868773592726
"adequado a oferta", 0.22010868773592726
"Convem fazer reserva", 0.27486994961060757
"parto principal", 0.2859226927845332
"principal saborosos", 0.2859226927845332
"saborosos e preco", 0.2859226927845332
"preco adequado", 0.2859226927845332
"Apresentacao do prato", 0.29106528397220843
"prato descuidada", 0.29106528397220843
"Ambiente", 0.2983957947604909
"apertado", 0.2983957947604909
"pequeno", 0.3798215915560938
"Entrada", 0.3825795769824884
"levou ao Arbitro", 0.008975124955451346
"jantar de familia", 0.024340635767973975
"familia inesperado", 0.024340635767973975
"destino nos levou", 0.024340635767973975
"Arbitro", 0.057705377481959245
"Comida alentejana caseira", 0.0943654759829735
"dono do restaurante", 0.14029305704019399
"batata frita caseira", 0.15128227899201507
"jantar", 0.1541500812688865
"familia", 0.1541500812688865
"inesperado", 0.1541500812688865
"destino", 0.1541500812688865
"levou", 0.1541500812688865
"Comida alentejana", 0.1544776899209623
"Carlos", 0.17538544080297117
"atendimento espectacular", 0.17680292000601994
"tratados como amigos", 0.17680292000601994
"sentimos em casa", 0.17680292000601994
"restaurante juntamente", 0.17680292000601994
"caseira", 0.22686883511360892
"acolhedor", 0.2200560909321288
"Restaurante familiar", 0.32441639786848336
"comida caseira", 0.32441639786848336
"Restaurante", 0.4949246952252326
"familiar", 0.4949246952252326
"comida", 0.4949246952252326
"caseira", 0.4949246952252326
"simpatia", 0.4949246952252326
"muita simpatia", 0.5162806230574593
"servico", 0.68796622281612
"mesa", 0.68796622281612
"muita", 0.68796622281612
"servico de mesa", 0.8986050855370177
"mesa com muita", 0.8986050855370177
"Muita simpatia", 0.012571559314626916
"excelente comidinha", 0.01859446618045681
"Pax Julia", 0.04332205697438394
"mama", 0.06588837669267192
"centro de Beja", 0.07806185883062657
"museu e Pax", 0.10378909220852033
"Muita", 0.11142476118001256
"simpatia", 0.11142476118001256
"excelente", 0.11142476118001256
"junto ao museu", 0.14005713113751553
"comidinha", 0.16383273847958243
"Beja", 0.17881754828257992
"Julia", 0.17881754828257992
"Pax", 0.23220979985467174
"sopas de cacao", 0.23956129807083346
"localizado", 0.3033846052649951
"junto", 0.3033846052649951
"belas sopas", 0.3295258815075752
"Voltarei", 0.3881970960906714
"cacao", 0.3881970960906714
"Excelente", 0.06997357213356549
"Atendimento", 0.31813151393529204
"Ambiente caseiro", 0.35350894161299157
"Ambiente", 0.5110573480904945
"caseiro", 0.5110573480904945
"comida", 0.5110573480904945
"extrema", 0.5110573480904945
"qualidade extrema", 0.5590489604659448
"duvida", 0.6511101154454433
"qualidade", 0.7016498766455139
"voltar", 0.8076562869538214
"voltar sem duvida", 1.109140327234087
"restaurante tem comida", 0.02249651976012989
"comida tradicional", 0.02249651976012989
"principal da cidade", 0.11755105063023073
"facilidade de estacionamento", 0.11755105063023073
"restaurante", 0.14832923246533666
"comida", 0.14832923246533666
"tradicional", 0.14832923246533666
"servico", 0.14832923246533666
"zona e otima", 0.165573765898185
"monumento principal", 0.165573765898185
"cidade", 0.2790829227183407
"estacionamento", 0.2790829227183407
"zona", 0.37689977775222827
"otima", 0.37689977775222827
"vista", 0.37689977775222827
"monumento", 0.37689977775222827
"principal", 0.37689977775222827
"facilidade", 0.37689977775222827
"restaurante tem comida", 0.02249651976012989
"comida tradicional", 0.02249651976012989
"principal da cidade", 0.11755105063023073
"facilidade de estacionamento", 0.11755105063023073
"restaurante", 0.14832923246533666
"comida", 0.14832923246533666
"tradicional", 0.14832923246533666
"servico", 0.14832923246533666
"zona e otima", 0.165573765898185
"monumento principal", 0.165573765898185
"cidade", 0.2790829227183407
"estacionamento", 0.2790829227183407
"zona", 0.37689977775222827
"otima", 0.37689977775222827
"vista", 0.37689977775222827
"monumento", 0.37689977775222827
"principal", 0.37689977775222827
"facilidade", 0.37689977775222827
"Sopa cacao Migas", 0.0012089197967110022
"comemos Sopa cacao", 0.002263175936744087
"carne frita Acorda", 0.002263175936744087
"frita Acorda bacalhau", 0.002263175936744087
"comemos Sopa", 0.013797198203993007
"Sopa cacao", 0.013797198203993007
"cacao Migas", 0.013797198203993007
"Migas com carne", 0.013797198203993007
"frita Acorda", 0.013797198203993007
"Acorda bacalhau", 0.013797198203993007
"nao e elevado", 0.015380821171891606
"pratos que comemos", 0.02570861714399338
"carne frita", 0.02570861714399338
"confeccionado e saboroso", 0.02570861714399338
"saboroso O preco", 0.02570861714399338
"preco nao", 0.02570861714399338
"Sopa", 0.08596317751626563
"Migas", 0.08596317751626563
"Acorda", 0.08596317751626563
"elevado", 0.09568045026443411
"Restaurante antigo", 0.01552184797949213
"comidinha caseira", 0.02541909697430123
"preco em conta", 0.02541909697430123
"caseira e preco", 0.04188746641162499
"familiar", 0.05899937629682816
"Restaurante", 0.12363091320521931
"antigo", 0.12363091320521931
"comidinha", 0.12363091320521931
"conta", 0.12363091320521931
"caseira", 0.2005079697193566
"preco", 0.2005079697193566
"ementa nao", 0.2766850298235749
"ementa", 0.46553351027698087
"nao", 0.46553351027698087
"variada", 0.46553351027698087
"pratos", 0.46553351027698087
"Castelo de beja", 0.01193363544633938
"Castelo", 0.08717750236307487
"beja", 0.1352746169433193
"Comida tipica alentejana", 0.13972541116068632
"Comida tipica", 0.19280439704676608
"tipico", 0.19642056113018055
"alentejana", 0.25485980658809815
"tipica alentejana", 0.3055440795852945
"Destaco o ensopado", 0.3232871184903737
"Comida", 0.35204381139790514
"qualidade", 0.35204381139790514
"alentejana se qualidade", 0.40676868566091273
"ensopado de borrego", 0.4403869799028676
"carne de porco", 0.4403869799028676
"Destaco", 0.4418314983408768
"tipica", 0.45914619378225674
"ensopado", 0.552939533465861
"borrego", 0.552939533465861
"carne", 0.552939533465861
"porco", 0.552939533465861
"Pratos cheios", 0.01859446618045681
"sabor e suculentos", 0.01859446618045681
"cheios de sabor", 0.027581485432184485
"Nao complicam", 0.10137279574960871
"Pratos", 0.11142476118001256
"suculentos", 0.11142476118001256
"preocupacoes esteticas", 0.14005713113751553
"cheios", 0.16383273847958243
"sabor", 0.16383273847958243
"familiar e descontraido", 0.23956129807083346
"Nao", 0.3033846052649951
"complicam", 0.3033846052649951
"esteticas", 0.3033846052649951
"comida em ambiente", 0.3295258815075752
"ambiente familiar", 0.3295258815075752
"Ideal", 0.3881970960906714
"descontraido", 0.3881970960906714
"comidinha", 0.4049347717850166
"preocupacoes", 0.4049347717850166
"gosta", 0.49784754196738834
"pessoal muito simpatico", 0.011952723664711083
"atraccoes da cidade", 0.019743941211743603
"restaurante simples", 0.02852135633678732
"possivel parar", 0.03277825745301808
"parar o carro", 0.03277825745301808
"principais atraccoes", 0.03277825745301808
"restaurante e visitar", 0.10514656598600668
"simples", 0.10868092541297539
"comida", 0.10868092541297539
"pessoal", 0.10868092541297539
"simpatico", 0.10868092541297539
"cidade", 0.10868092541297539
"restaurante", 0.12757733838039498
"possivel", 0.1781514608044755
"parar", 0.1781514608044755
"carro", 0.1781514608044755
"visitar", 0.1781514608044755
"principais", 0.1781514608044755
"atraccoes", 0.1781514608044755
"Espaco e simples", 0.0222628772898439
"Espaco", 0.12941376359029316
"agradavel", 0.1366517027473363
"zona historica", 0.1634943133809223
"simples", 0.16828222093578163
"Simpatia vale", 0.27740922733598544
"vale pelo resto", 0.27740922733598544
"Carlos", 0.3309290236960988
"historica", 0.34048930758060847
"atencioso e simpatico", 0.36410025603637625
"zona", 0.4127004177311209
"Simpatia", 0.42928245430788814
"resto", 0.42928245430788814
"Visitar", 0.44554623552400985
"simpatico", 0.4796540794282185
"vale", 0.5058802394689046
"Refeicao", 0.5127293394093327
"atencioso", 0.5564761445805448
"batatas serem pre-fritas", 0.0019726475682715263
"Carne de porco", 0.011154056927717123
"pena as batatas", 0.011154056927717123
"nao caseiras", 0.011154056927717123
"porco a alentejana", 0.01552184797949213
"batatas serem", 0.01552184797949213
"serem pre-fritas", 0.01552184797949213
"pre-fritas e nao", 0.01552184797949213
"exelente qualidade preco", 0.026132823011558906
"Carne", 0.08922538916412363
"pena", 0.08922538916412363
"caseiras", 0.08922538916412363
"visitar a zona", 0.09108482621177338
"exelente qualidade", 0.09108482621177338
"qualidade preco", 0.09108482621177338
"quiser comer", 0.12124452117740256
"porco", 0.12363091320521931
"alentejana", 0.12363091320521931
"batatas", 0.12363091320521931
"serem", 0.12363091320521931
"relacao qualidade preco", 0.016701987571227848
"qualidade preco", 0.053188643354743534
"relacao qualidade", 0.08549198287999409
"almoco", 0.17995476918065306
"preco", 0.17995476918065306
"simpatia", 0.24836699376755783
"Excelente simpatia", 0.27362994260926654
"relacao", 0.2806398793267283
"qualidade", 0.2806398793267283
"Excelente", 0.43251032788901067
"sobremesas", 0.5261558022617294
"melhorar nas sobremesas", 0.5366641310820246
"atendimento", 0.5764139711572966
"devem", 0.663757209593614
"melhorar", 0.663757209593614
"devem melhorar", 0.787545349134251
"simples", 0.11797671014185607
"relacao qualidade preco", 0.19961645069515616
"comida caseira", 0.21489669178785997
"qualidade preco", 0.26176225393615005
"servico muito rapido", 0.34393543650132563
"relacao qualidade", 0.359016783205622
"preco", 0.4036310100959565
"comida", 0.4205766817284309
"caseira", 0.4205766817284309
"Simpaticos", 0.4533838267348932
"rapido", 0.4533838267348932
"relacao", 0.5139785153975659
"qualidade", 0.5139785153975659
"servico", 0.5644591212760287
"comida tipica portuguesa", 0.07317841998005452
"tipica portuguesa", 0.07866724036942188
"Restaurante", 0.1870447163128332
"portuguesa", 0.21912248210194538
"Restaurante familiar", 0.2264471006165824
"comida tipica", 0.2820061496838576
"comida", 0.330460067607425
"tipica", 0.3328277181773066
"zona", 0.34426086436322134
"familiar", 0.49356289538480375
"caseira", 0.5867595062907789
"Comida caseira", 0.6334562476261162
"Ambiente", 0.6350482842002942
"proprietario", 0.6350482842002942
"apontar", 0.6651417757092879
"tipicos", 0.6885217287264427
"tipico", 0.6885217287264427
"Restaurante de comida", 0.7289237633799173
"simpatia", 0.755709715532155
"Ambiente tipico", 0.7769707723058258
"Sugestionado pelos comentarios", 0.034588576514408505
"comentarios favoraveis", 0.04223656541052624
"restaurante", 0.11378046658841436
"comida", 0.13591845875452183
"Nao", 0.1450680862504651
"Sugestionado", 0.1660748487607208
"TripAdvisor", 0.1660748487607208
"topo em termos", 0.1890061432681767
"comentarios", 0.20130805123207474
"favoraveis", 0.20130805123207474
"almocar", 0.20130805123207474
"Confesso que esperava", 0.23585947591478643
"topo", 0.2490787594470432
"restaurante de topo", 0.26712771844322364
"melhor", 0.2693087985795212
"parabens a Chef", 0.2723015880275742
"termos", 0.2753316521400657
"comida Vim", 0.2834040579279155
"encontrei", 0.28564737472764135
"comido no Alentejo", 0.3041478288590082
"uso o Tripadvisor", 0.016020262769511826
"melhor classificacao", 0.036869390107103474
"proximo com melhor", 0.05378646735048944
"acabamos por estacionar", 0.05378646735048944
"pratos tipicos alentejanos", 0.056661769443034075
"Tripadvisor", 0.06979222820409692
"Arbitro", 0.06979222820409692
"tipicos alentejanos", 0.07891512651095742
"procuravamos o restaurante", 0.13994633198306686
"pratos tipicos", 0.14012159612108127
"diversos pratos tipicos", 0.14762239789865583
"procuravamos", 0.1573916534836491
"classificacao", 0.1573916534836491
"alentejanos", 0.16046083933435326
"restaurante mais proximo", 0.20311304587331966
"restaurante", 0.20332607570843192
"tipicos", 0.21238131659939397
"uso", 0.22592287289779872
"proximo", 0.22592287289779872
"melhor", 0.22592287289779872
"contribuinte do Tripadvisor", 0.01269870981874179
"tento sempre seguir", 0.028624291378962077
"seguir os rankings", 0.039171270143396025
"Tripadvisor", 0.06458610304507174
"centro de Beja", 0.12050175389976271
"tento", 0.14333019993125976
"fora", 0.14333019993125976
"rankings e experimentar", 0.147876376533795
"jantares de Natal", 0.1658262539140716
"experimentar", 0.16956389213315584
"Beja para experimentar", 0.17989888958930444
"Dinis", 0.1934179524958422
"contribuinte", 0.19415128142805682
"seguir", 0.19415128142805682
"rankings", 0.19415128142805682
"desloquei-me ao centro", 0.2010987972172873
"Beja", 0.23606575151976816
"Natal", 0.2589146987451858
"alternativa Comida", 0.2706396687938784
"Comida tipica", 0.2706396687938784
"Comida bem confeccionada", 0.03107735477427921
"Comida", 0.13696809108329627
"servida", 0.13696809108329627
"Destaco tambem", 0.21339268578732606
"confeccionada", 0.2200560909321288
"tambem a simpatia", 0.32441639786848336
"ambiente familiar", 0.35487136790899465
"Destaco", 0.3553358554145339
"ex-Arbitro", 0.3553358554145339
"familiar", 0.44538603402402266
"tambem", 0.4949246952252326
"simpatia", 0.4949246952252326
"espaco e simpatico", 0.5286731219590494
"espaco", 0.5880798524606783
"simpatico", 0.5880798524606783
"ambiente", 0.5880798524606783
"Arbitro merece", 0.013298450721193376
"saidas da cidade", 0.01859446618045681
"simpatia do pessoal", 0.01859446618045681
"merece uma visita", 0.027581485432184485
"Arbitro", 0.08010561870176523
"Situado", 0.11142476118001256
"cidade", 0.11142476118001256
"pessoal", 0.11142476118001256
"porco preto", 0.14005713113751553
"saidas", 0.16383273847958243
"merece", 0.16383273847958243
"visita", 0.16383273847958243
"sabores", 0.16383273847958243
"simpatia", 0.16383273847958243
"sopa de cacao", 0.19613242932716538
"carne de porco", 0.19613242932716538
"acolhedora e confortavel", 0.23956129807083346
"Recomenda", 0.3033846052649951
"preto", 0.3033846052649951
"investimento na sala", 0.3295258815075752
"excelente qualidade", 0.14234791297518262
"qualidade", 0.18701565543086068
"comida", 0.2902530486602021
"excelente", 0.333153785404378
"Atendimento muito simpatico", 0.407115369666421
"servida", 0.4441140115754415
"Atendimento", 0.5378905270085329
"simpatico", 0.5378905270085329
"sericaia", 0.7171905176675916
"sericaia estava excelente", 1.509236761684882
"Restaurante simples", 0.03465229800090378
"simples com comida", 0.0565406034156422
"comida regional", 0.0565406034156422
"Restaurante", 0.1447773057422032
"preco", 0.1447773057422032
"fabuloso borrego alentejano", 0.1746218571982045
"simples", 0.23133275159292982
"comida", 0.23133275159292982
"regional", 0.23133275159292982
"Fantastica sopa", 0.23338172234549467
"borrego alentejano", 0.23338172234549467
"sopa de cacao", 0.35350894161299157
"cacao e fabuloso", 0.35350894161299157
"fabuloso borrego", 0.35350894161299157
"Fantastica", 0.3702539456099092
"alentejano", 0.3702539456099092
"Optimo para almocos", 0.38599679376725615
"almocos de familia", 0.38599679376725615
"Optimo", 0.4613789858464135
"familia", 0.4613789858464135
"Arbitro em Beja", 0.005022155577969405
"Restaurante O Arbitro", 0.00680383915336335
"almocar no Restaurante", 0.01441558220865492
"Beja", 0.0607868920252255
"Restaurante", 0.08220620270100175
"Arbitro", 0.08220620270100175
"Gostei", 0.11797671014185607
"Espaco muito agradavel", 0.1539412127363319
"almocar", 0.17286683788205306
"gastronomia e excelente", 0.26176225393615005
"Espaco", 0.3171947781126727
"simpatico", 0.3171947781126727
"Recomendo", 0.31813151393529204
"excelente", 0.4036310100959565
"agradavel", 0.4205766817284309
"atendimento", 0.4205766817284309
"gastronomia", 0.5139785153975659
"restaurante fica situado", 0.0016012214736657916
"castelo,restaurante simples serve", 0.0016012214736657916
"metros do castelo,restaurante", 0.00899321792126428
"precos moderados", 0.00899321792126428
"servico de mesas", 0.00899321792126428
"restaurante fica", 0.013527995261974615
"fica situado", 0.013527995261974615
"situado no cimo", 0.013527995261974615
"cimo da cidade", 0.013527995261974615
"castelo,restaurante simples", 0.013527995261974615
"simples serve", 0.013527995261974615
"serve boa comida", 0.013527995261974615
"comida a precos", 0.013527995261974615
"metros", 0.0771485953923296
"moderados", 0.0771485953923296
"mesas", 0.0771485953923296
"restaurante", 0.1155310835876123
"fica", 0.1155310835876123
"situado", 0.1155310835876123
"cimo", 0.1155310835876123
