Expressao, Frequencia
"bairro de Beja", 0.01443076428034033
"Beja encontra-se", 0.01443076428034033
"sala mediana", 0.024364261256665822
"encontra-se este restaurante", 0.03344994050486322
"restaurante com esplanada", 0.03344994050486322
"esplanada e sala", 0.03344994050486322
"Beja", 0.0790704060056347
"mediana", 0.1322043901555232
"Carta com muitas", 0.17596139132706387
"sugestoes de entradas", 0.17596139132706387
"petiscos e especialidades", 0.17596139132706387
"confeccionadas com respeito", 0.17596139132706387
"sabores naturais", 0.17596139132706387
"bairro", 0.1799090260708767
"encontra-se", 0.1799090260708767
"restaurante", 0.1799090260708767
"esplanada", 0.1799090260708767
"sala", 0.1799090260708767
"muitas sugestoes", 0.23001135047880125
"respeito pelos sabores", 0.23001135047880125
"Nao se deixem", 0.03805726965963066
"aspecto do restaurante", 0.03805726965963066
"deixem intimidar", 0.05547209357370051
"intimidar pelo aspecto", 0.05547209357370051
"estrela Michelin", 0.11815316397560571
"Nao", 0.15991986423500107
"restaurante", 0.15991986423500107
"Michelin", 0.20795724184757375
"deixem", 0.2292524052595691
"intimidar", 0.2292524052595691
"aspecto", 0.2292524052595691
"maravilhoso", 0.2398853878542639
"Comida ao nivel", 0.2535031627407125
"sabor", 0.3301068005079626
"Comida", 0.3980044590995652
"sabor maravilhoso", 0.4635956734191084
"confecionada", 0.49063817311508834
"nivel", 0.5081243532578585
"estrela", 0.5081243532578585
"espectaculares", 0.5970740514522174
"sendo individuais", 0.03465229800090378
"pessoas", 0.1447773057422032
"individuais", 0.1447773057422032
"sendo", 0.23133275159292982
"Servico simpatico", 0.23338172234549467
"simpatico e pronto", 0.23338172234549467
"Servico", 0.3702539456099092
"pronto", 0.3702539456099092
"delicia da comida", 0.38599679376725615
"comida", 0.4613789858464135
"Aconselho vivamente", 0.500279879713408
"almocar ou jantar", 0.500279879713408
"simpatico", 0.5110573480904945
"Aconselho", 0.5121371841744414
"jantar", 0.5121371841744414
"espaco nao", 0.5732105463588063
"nao e condizente", 0.5732105463588063
"espaco", 0.6036200563782421
"nao", 0.6036200563782421
"condizente", 0.6036200563782421
"Cozinhar divinamente", 0.01911893411113409
"Cozinhar", 0.13696809108329627
"divinamente", 0.13696809108329627
"arte", 0.13696809108329627
"estrela Michelin", 0.16193331521250073
"Michelin e preco", 0.16193331521250073
"Nivel de estrela", 0.21339268578732606
"preco normal", 0.21339268578732606
"duvida", 0.2200560909321288
"Michelin", 0.2815891253011357
"cultura portuguesa", 0.35487136790899465
"Nivel", 0.3553358554145339
"normal", 0.3553358554145339
"sala", 0.44538603402402266
"portuguesa", 0.44538603402402266
"estrela", 0.4949246952252326
"preco", 0.4949246952252326
"retiraria", 0.5880798524606783
"cultura", 0.5880798524606783
"Jose porque conta", 0.009007233135229678
"produtos de qualidade", 0.010963065720053445
"entradas excepcionais", 0.010963065720053445
"choco frito", 0.010963065720053445
"ementa vasta", 0.016434118269069063
"vasta e recheada", 0.016434118269069063
"recheada de produtos", 0.016434118269069063
"sobremesas ficam", 0.016434118269069063
"biqueirao sao", 0.021463047023419835
"Jose", 0.07020427155623803
"sao", 0.08262379421542325
"Restaurante", 0.08528313199090894
"qualidade", 0.08528313199090894
"vieiras", 0.08528313199090894
"excepcionais", 0.08528313199090894
"frito", 0.08528313199090894
"risotos", 0.08528313199090894
"opcoes", 0.08528313199090894
"ementa", 0.1271550423399998
"vasta", 0.1271550423399998
"agradavel surpresa", 0.04940384002065631
"marmelo top", 0.04940384002065631
"crunble de marmelo", 0.09700399286574239
"surpresa", 0.15831692877998726
"top", 0.15831692877998726
"agradavel", 0.29736558256021506
"epoca", 0.29736558256021506
"crunble", 0.29736558256021506
"marmelo", 0.29736558256021506
"atendidos por Marcelo", 0.021934807525816023
"historicos de Beja", 0.021934807525816023
"Marcelo", 0.07819965199156516
"Beja", 0.07819965199156516
"turisticos e historicos", 0.08147576025641394
"atendidos", 0.2744769100096153
"conhecedor", 0.2744769100096153
"turisticos", 0.2744769100096153
"historicos", 0.2744769100096153
"apresentacao e sabor", 0.31807661288668637
"otima", 0.3243877708055772
"Recomendo", 0.36967840955513276
"sabor", 0.42498254837802607
"carta de vinhos", 0.5164732960995065
"vinhos", 0.5184872830921132
"pratos", 0.5678321621038899
"apresentacao", 0.5678321621038899
"otima apresentacao", 0.5832695739791567
"carta", 0.6568632964380267
"Otima carta", 0.7426364402211607
"Simplesmente top", 0.02140921543860024
"Simplesmente", 0.1447773057422032
"top", 0.1447773057422032
"comida excelente", 0.1588666998905099
"funcionarios muito simpaticos", 0.2704390918235917
"comida", 0.3702539456099092
"excelente", 0.3702539456099092
"funcionarios", 0.4613789858464135
"simpaticos", 0.4613789858464135
"familia ou amigos", 0.500279879713408
"amigos", 0.5121371841744414
"agradavel", 0.6511101154454433
"familia", 0.6511101154454433
"Comida e quantidade", 0.015465128052409167
"quantidade excelente", 0.015465128052409167
"Comida", 0.10519328464496844
"excelente", 0.10519328464496844
"Preco adequado", 0.12025258825090053
"quantidade", 0.1447773057422032
"compensada pelo repasto", 0.20785651292262122
"pena a demora", 0.2704390918235917
"Preco", 0.2899204041465753
"oferecido", 0.2899204041465753
"Recomendo", 0.31813151393529204
"adequado", 0.3702539456099092
"repasto", 0.37298424001381364
"pena", 0.4613789858464135
"demora", 0.4613789858464135
"compensada", 0.4613789858464135
"Comida fabulosa", 0.015182204378765869
"Comida", 0.12229125971027831
"fabulosa", 0.12229125971027831
"oferta gastronomica", 0.16333823125531258
"reseeva foi facil", 0.2767170467037833
"Gostei", 0.3261013256329346
"ambiente", 0.3261013256329346
"servico", 0.3261013256329346
"gastronomica", 0.3261013256329346
"Vou voltar seguramente", 0.3321101540728681
"odor na roupa", 0.362910692993374
"marcacao da reseeva", 0.37884047162054735
"facil", 0.4134948298564376
"oferta", 0.43055564085338327
"Vou voltar", 0.430888748329292
"voltar seguramente", 0.430888748329292
"roupa", 0.46351849497328923
"cozinha tendo saidobcom", 0.4871994462039776
"tendo saidobcom odor", 0.4871994462039776
"pratos demoraram", 0.492565508509908
"surpresa", 0.20096899482830347
"restaurante premium", 0.2275037140810665
"restaurante", 0.2584283306913966
"atendimento a comida", 0.2777718827220025
"Nao se deixem", 0.3357790511488515
"resto e excelente", 0.3357790511488515
"estrelas", 0.3585878400561154
"premium", 0.3585878400561154
"entradas a sobremesa", 0.437579268959645
"sao surpreendentes", 0.437579268959645
"Nao", 0.44888829491232735
"excelente", 0.44888829491232735
"deixem enganar", 0.45685396267025835
"enganar pelo aspecto", 0.45685396267025835
"aspecto normal", 0.45685396267025835
"atendimento", 0.46624853216798795
"comida", 0.46624853216798795
"eleva", 0.46624853216798795
"apresentados sao surpreendentes", 0.47447998276690606
"sobremesa", 0.49954680550073305
"preco muito acessivel", 0.03107735477427921
"acessivel", 0.13696809108329627
"preco", 0.2200560909321288
"garrafeira tambem dispoe", 0.23882781063487385
"visitar Beja voltarei", 0.2629552728800231
"visitar Beja", 0.27187610866074385
"Beja voltarei", 0.27187610866074385
"garrafeira tambem", 0.32441639786848336
"tambem dispoe", 0.32441639786848336
"dispoe de otimos", 0.32441639786848336
"otimos vinhos", 0.32441639786848336
"selecao", 0.3553358554145339
"Beja", 0.36348788044697095
"garrafeira", 0.4949246952252326
"tambem", 0.4949246952252326
"dispoe", 0.4949246952252326
"otimos", 0.4949246952252326
"vinhos", 0.4949246952252326
"voltar a visitar", 0.5286731219590494
"voltar", 0.5880798524606783
"refeicao sensacional", 0.019501942194026487
"fugindo ao padrao", 0.019501942194026487
"padrao da zona", 0.019501942194026487
"pratos reconfortantes", 0.019501942194026487
"ate as sobremesas", 0.019501942194026487
"passando pela vasta", 0.019501942194026487
"carta de vinhos", 0.019501942194026487
"irao desiludir", 0.019501942194026487
"procuram uma refeicao", 0.028897246851087927
"tambem com pratos", 0.028897246851087927
"entradas ate", 0.028897246851087927
"vasta carta", 0.028897246851087927
"nao se irao", 0.04515386715734503
"sensacional", 0.11414255139342976
"fugindo", 0.11414255139342976
"zona", 0.11414255139342976
"reconfortantes", 0.11414255139342976
"visitar", 0.11414255139342976
"sobremesas", 0.11414255139342976
"passando", 0.11414255139342976
"livros pelas capas", 0.04188746641162499
"livros", 0.2005079697193566
"capas", 0.2005079697193566
"Parabens", 0.46553351027698087
"equipa", 0.46553351027698087
"chefe", 0.6621399683957523
"etiqueta do empregados", 0.011631263860918884
"tocou na perfeicao,desde", 0.017416869738890953
"perfeicao,desde a simpatia", 0.017416869738890953
"simpatia e etiqueta", 0.017416869738890953
"oferta dos pratos", 0.017416869738890953
"pratos e principalmente", 0.017416869738890953
"principalmente claro", 0.017416869738890953
"claro a confeccao", 0.017416869738890953
"Divinal", 0.033238390357209636
"mesmo tudo tocou", 0.05455165859421271
"confeccao dos mesmos", 0.05455165859421271
"empregados", 0.0878757573221198
"tocou", 0.13083850849172096
"perfeicao,desde", 0.13083850849172096
"simpatia", 0.13083850849172096
"etiqueta", 0.13083850849172096
"oferta", 0.13083850849172096
"pratos", 0.13083850849172096
"principalmente", 0.13083850849172096
"claro", 0.13083850849172096
"experiencia de sabores", 0.022988213374765323
"vinho", 0.10909815511827554
"experiencia", 0.149905405948569
"sabores", 0.149905405948569
"acompanhamento", 0.149905405948569
"fora nao", 0.1685853064821579
"Staff atencioso", 0.22894203058958335
"enorme garrafeira", 0.2859226927845332
"qualidade diga", 0.2859226927845332
"perde", 0.2983957947604909
"feitos os pratos", 0.3473497448232059
"fora", 0.3798215915560938
"nao", 0.3798215915560938
"Restaurante", 0.3825795769824884
"passagem", 0.3825795769824884
"emprego demonstro saber", 0.409907919621894
"Staff", 0.4316155337083156
"atencioso", 0.4316155337083156
"emprego demonstro", 0.44562203905683473
"demonstro saber", 0.44562203905683473
"agradavel o jantar", 0.050888965170882816
"atendimento", 0.13696809108329627
"Recomendo seriamente", 0.21339268578732606
"seriamente este estabelecimento", 0.21339268578732606
"agradavel", 0.2200560909321288
"jantar", 0.2200560909321288
"Experiencia para repetir", 0.35487136790899465
"Recomendo", 0.3553358554145339
"estabelecimento", 0.3553358554145339
"Experiencia", 0.44538603402402266
"seriamente", 0.4949246952252326
"repetir", 0.5880798524606783
"vou a Beja", 0.00976037344383583
"Intimo e faco-o", 0.013298450721193376
"almocei e jantei", 0.027581485432184485
"jantei varias", 0.027581485432184485
"faco-o quase", 0.027581485432184485
"Beja", 0.05899937629682816
"Intimo", 0.08010561870176523
"almoco ja tardio", 0.14005713113751553
"casa cheia", 0.14005713113751553
"restaurante tem reputacao", 0.14005713113751553
"almocei", 0.16383273847958243
"jantei", 0.16383273847958243
"varias", 0.16383273847958243
"faco-o", 0.16383273847958243
"quase", 0.16383273847958243
"vou", 0.16383273847958243
"tardio", 0.3033846052649951
"cheia", 0.3033846052649951
"reputacao", 0.3033846052649951
"excelente", 0.3033846052649951
"Rute e Marcelo", 0.004748624402272153
"Marcelo se nao", 0.013298450721193376
"Mesmo sem reserva", 0.01859446618045681
"recebidos pelo staff", 0.01859446618045681
"Rute", 0.05899937629682816
"Marcelo", 0.08010561870176523
"restaurante super tranquilo", 0.10360454189614123
"Mesmo", 0.11142476118001256
"staff", 0.11142476118001256
"erro", 0.11142476118001256
"reserva", 0.16383273847958243
"recebidos", 0.16383273847958243
"nao", 0.16383273847958243
"restaurante super", 0.19613242932716538
"super tranquilo", 0.19613242932716538
"estrelas", 0.19677146788549632
"haja piano", 0.23956129807083346
"voltar espero", 0.3295258815075752
"espero que haja", 0.3295258815075752
"piano", 0.3881970960906714
"Beja Vale", 0.00950861230958936
"restaurante em Beja", 0.01984585111858601
"jantar estava incrivel", 0.02541909697430123
"qualidade da comida", 0.02541909697430123
"melhor restaurante", 0.04188746641162499
"pena considerando", 0.04188746641162499
"considerando a qualidade", 0.04188746641162499
"Beja", 0.09705179139403544
"Vale", 0.09705179139403544
"incrivel", 0.12363091320521931
"comida", 0.12363091320521931
"Staff bastante simpatico", 0.18075564686791562
"simpatico e dedicado", 0.18075564686791562
"jantar", 0.2005079697193566
"melhor", 0.2005079697193566
"restaurante", 0.2005079697193566
"pena", 0.2005079697193566
"considerando", 0.2005079697193566
"qualidade", 0.2005079697193566
"Staff", 0.32883716426354986
"Excelente a comida", 0.01859446618045681
"Excelente", 0.11142476118001256
"servico", 0.11142476118001256
"comida", 0.16383273847958243
"Recomendo os chocos", 0.23956129807083346
"tigre e migas", 0.23956129807083346
"chocos fritos", 0.3295258815075752
"carne de porco", 0.3295258815075752
"porco com camarao", 0.3295258815075752
"camarao tigre", 0.3295258815075752
"Recomendo", 0.3881970960906714
"migas", 0.3881970960906714
"chocos", 0.49784754196738834
"fritos", 0.49784754196738834
"carne", 0.49784754196738834
"porco", 0.49784754196738834
"camarao", 0.49784754196738834
"tigre", 0.49784754196738834
"peixe galo", 0.03313312481282493
"arroz de lingueirao", 0.03313312481282493
"galo com arroz", 0.054142070592351293
"sensaborao e fora", 0.054142070592351293
"Comida", 0.06825987338772442
"peixe", 0.14151036557581065
"lingueirao", 0.14151036557581065
"pratos", 0.17712155415572273
"Servico", 0.20283089409810728
"razoavel", 0.20283089409810728
"entradas dos pratos", 0.21755252153009327
"pratos sujos", 0.21755252153009327
"sendo que retirar", 0.22494129312349248
"galo", 0.22663023924152845
"arroz", 0.22663023924152845
"sensaborao", 0.22663023924152845
"fora", 0.22663023924152845
"retirar os talheres", 0.3412363932830227
"talheres das entradas", 0.3412363932830227
"sujos e coloca-los", 0.3412363932830227
"Comida extremamente esmerada", 0.005680794986610537
"Comida extremamente", 0.027295990174080912
"esmerada na confecao", 0.027295990174080912
"extremamente esmerada", 0.04012926550530441
"Comida", 0.1352746169433193
"confecao", 0.1352746169433193
"justica ao Alentejo", 0.16825197025766525
"extremamente", 0.19642056113018055
"esmerada", 0.19642056113018055
"Excelentes entradas", 0.21868532510503513
"atum delicioso", 0.24256800339928478
"lulas divinais", 0.24256800339928478
"Alentejo", 0.2604629737644961
"destacar as vieiras", 0.2671303787756331
"excelente qualidade", 0.29067261176254644
"carne", 0.29474834305549324
"passando pelo peixe", 0.3232871184903737
"entradas", 0.35204381139790514
"biqueiroes", 0.35204381139790514
"carta bastante variada", 0.4403869799028676
"qualquer cafe", 0.013784437454882689
"ambiente acolhedor", 0.013784437454882689
"normal esplanada", 0.01911893411113409
"entrar descobrimos", 0.01911893411113409
"descobrimos um ambiente", 0.01911893411113409
"requintado", 0.06588837669267192
"fora", 0.09927137196013912
"cafe", 0.09927137196013912
"acolhedor", 0.09927137196013912
"porta", 0.09927137196013912
"atendeu", 0.09927137196013912
"jantar foi excelente", 0.1090934922889914
"normal", 0.13696809108329627
"esplanada", 0.13696809108329627
"qualquer", 0.13696809108329627
"entrar", 0.13696809108329627
"descobrimos", 0.13696809108329627
"ambiente", 0.13696809108329627
"simpatia", 0.13696809108329627
"Comida otima", 0.1470223116230569
"Restaurante em Beja", 0.012144316412564459
"Beja com excelente", 0.01984585111858601
"comida e Doses", 0.01984585111858601
"excelente comida", 0.04188746641162499
"Beja", 0.09705179139403544
"Doses", 0.09705179139403544
"Recomendo vivamente", 0.12124452117740256
"Restaurante", 0.12363091320521931
"servidas", 0.12363091320521931
"atendidos", 0.12363091320521931
"excelente", 0.2005079697193566
"comida", 0.2005079697193566
"Recomendo", 0.32883716426354986
"vivamente", 0.32883716426354986
"Comida", 0.1447773057422032
"feita", 0.1447773057422032
"cuidado", 0.1447773057422032
"atendimento e excelente", 0.23338172234549467
"Restaurante com requinte", 0.35553610271667324
"excelente", 0.3702539456099092
"muita simpatia", 0.38599679376725615
"simpatia dos colaboradores", 0.38599679376725615
"muita", 0.4613789858464135
"colaboradores", 0.4613789858464135
"atendimento", 0.5110573480904945
"Restaurante", 0.5121371841744414
"requinte", 0.5121371841744414
"simpatia", 0.6036200563782421
"sincero e atento", 0.015182204378765869
"espaco despretensioso", 0.02235215878495046
"encontramos um staff", 0.02235215878495046
"staff simpatico", 0.02235215878495046
"despretensioso", 0.12229125971027831
"encontramos", 0.12229125971027831
"simpatico", 0.12229125971027831
"sincero", 0.12229125971027831
"atento", 0.12229125971027831
"doses generosas", 0.16333823125531258
"espaco", 0.17878189525615976
"staff", 0.17878189525615976
"comida e optima", 0.22756345427865793
"optima e servida", 0.22756345427865793
"servida em doses", 0.22756345427865793
"opcao em Beja", 0.23932485117039873
"Sobremesas caseiras deliciosas", 0.24712166600183336
"opcoes para bebidas", 0.2767170467037833
"Beja", 0.3184198202990858
"generosas", 0.3261013256329346
"servicos e deliciosos", 0.030930116209995886
"deliciosos", 0.144074601061608
"pratos", 0.20824035684406725
"servicos", 0.20824035684406725
"porco preto", 0.21376993766144414
"Recomendo vivamente", 0.2805297988485621
"migas de espargos", 0.2951608424419207
"espargos com secretos", 0.2951608424419207
"secretos de porco", 0.2951608424419207
"vivamente", 0.2969043628698932
"camarao igualmente saborosos", 0.33423323151584955
"Choco frito", 0.3561650205048713
"igualmente saborosos", 0.3561650205048713
"Recomendo", 0.3689289501355362
"preto", 0.3689289501355362
"Choco", 0.4599660732509075
"saborosos", 0.4599660732509075
"Distanciamento entre mesas", 0.46326580522329214
"super confortavel", 0.46326580522329214
"Recomendamos vivamente", 0.4767799633322794
"clientes habituais", 0.02598463648859588
"fas e clientes", 0.038247367868076594
"sao fas", 0.09385341453666955
"Vim", 0.13195487239048673
"habituais", 0.13195487239048673
"surpresa fabulosa", 0.1851023950852466
"restaurante", 0.19193331179812048
"amigos", 0.19193331179812048
"fas", 0.19193331179812048
"clientes", 0.19193331179812048
"sao", 0.22351701965743442
"estrelas", 0.30200358068221356
"Apesar de parecer", 0.31115807748767194
"doses sao", 0.32276713910880783
"fabulosa", 0.34553004046702135
"parecer ser caro", 0.4243822299106687
"caro as doses", 0.4243822299106687
"Apesar", 0.43477113491762903
"surpresa", 0.4520332189787524
"parecer", 0.5458399541197727
"comida estava maravilhosa", 0.03392803932562475
"maravilhosa", 0.15094559617218273
"saboreei estavam maravilhosos", 0.1620233637581372
"comida", 0.2173942247828982
"estavam maravilhosos", 0.23068837013472998
"Abraco Francisco", 0.29510161501323334
"servico", 0.31399506286760603
"diversos pratos", 0.3177168699560989
"pratos que saboreei", 0.3177168699560989
"saboreei estavam", 0.3177168699560989
"Beja", 0.3423233402454037
"Francisco", 0.38098592554997435
"maravilhosos", 0.38174074733373037
"mesa impecavel", 0.3825632108833762
"impecavel", 0.47356691142342144
"diversos", 0.4910311962992601
"pratos", 0.4910311962992601
"saboreei", 0.4910311962992601
"estavam", 0.4910311962992601
"simpatia", 0.5243606096191218
"facil de estacionar", 0.007585181449914964
"qualquer duvida", 0.01134247187520045
"Excelente localizacao", 0.014872166024234652
"apresentacao excelente", 0.014872166024234652
"simpatia das pessoas", 0.01699230896173741
"pessoas ajuda", 0.01699230896173741
"repetir sem qualquer", 0.01699230896173741
"Excelente", 0.08444827569775508
"localizacao", 0.08676450656909314
"facil", 0.08676450656909314
"estacionar", 0.08676450656909314
"comida", 0.08676450656909314
"confeccionada", 0.08676450656909314
"apresentacao", 0.08676450656909314
"cozinha", 0.08676450656909314
"maravilhoso", 0.08676450656909314
"duvida", 0.08676450656909314
"simpatia", 0.12926095603774682
"pessoas", 0.12926095603774682
"ajuda", 0.12926095603774682
"espaco Intimo", 0.010619629275018815
"Intimo", 0.0607868920252255
"galo com Risoto", 0.08364347851162059
"filetes peixe galo", 0.12035209845570627
"jantar", 0.17286683788205306
"espaco", 0.17286683788205306
"Sangria", 0.18352721478873887
"Risoto", 0.18352721478873887
"filetes peixe", 0.21489669178785997
"peixe galo", 0.21489669178785997
"fora de escala", 0.26176225393615005
"trufas", 0.3171947781126727
"estrela", 0.31813151393529204
"molho tradicional", 0.34393543650132563
"camarao frito", 0.359016783205622
"frito estava fora", 0.359016783205622
"escala", 0.4036310100959565
"filetes", 0.4205766817284309
"peixe", 0.4205766817284309
"galo", 0.4205766817284309
"comida estava divinal", 0.020818845797234226
"divinal", 0.11797671014185607
"risotto excepcionais", 0.1539412127363319
"comida", 0.17286683788205306
"Rute pela simpatia", 0.19317312829274894
"trio de porco", 0.21489669178785997
"porco iberico", 0.21489669178785997
"peixe galo", 0.21489669178785997
"galo com risotto", 0.21489669178785997
"agradecimento a Rute", 0.2524461724762004
"mesa impecavel", 0.26176225393615005
"excepcionais", 0.3171947781126727
"Rute", 0.35708961922314997
"servico de mesa", 0.359016783205622
"impecavel", 0.4036310100959565
"trio", 0.4205766817284309
"porco", 0.4205766817284309
"iberico", 0.4205766817284309
"peixe", 0.4205766817284309
"galo", 0.4205766817284309
"Comida excelente", 0.013784437454882689
"atendimento excepcional", 0.013784437454882689
"excelente e atendimento", 0.01911893411113409
"Comida", 0.09927137196013912
"excepcional", 0.09927137196013912
"excelente", 0.13696809108329627
"atendimento", 0.13696809108329627
"simpatia e disponibilidade", 0.1445099069107937
"Aconselho vivamente", 0.18970645222564492
"atum com ananas", 0.18970645222564492
"vivamente as lulas", 0.24745631075091173
"lulas fritas", 0.24745631075091173
"fritas com batata", 0.24745631075091173
"lombo de atum", 0.24745631075091173
"clientes", 0.2768162971845457
"prezo", 0.3553358554145339
"restaurante", 0.3553358554145339
"simpatia", 0.3553358554145339
"disponibilidade", 0.3553358554145339
"staff", 0.3553358554145339
"Restaurante de qualidade", 0.022988213374765323
"juntando a gastronomia", 0.0371056572732552
"apresentacao e elaboracao", 0.0371056572732552
"gastronomia alentejana", 0.0604047846262897
"alentejana com aposta", 0.0604047846262897
"aposta na apresentacao", 0.0604047846262897
"inovacao", 0.0726772423782132
"Restaurante", 0.149905405948569
"qualidade", 0.149905405948569
"juntando", 0.149905405948569
"elaboracao", 0.149905405948569
"simpatia no atendimento", 0.1685853064821579
"gastronomia", 0.2386710978348089
"alentejana", 0.2386710978348089
"aposta", 0.2386710978348089
"apresentacao", 0.2386710978348089
"maminha recomendamos Esplanada", 0.3059890648910884
"recomendamos Esplanada", 0.326216623336138
"Esplanada", 0.3568200533666425
"opcoes", 0.3798215915560938
"surpresa tao deliciosa", 0.00638695847059065
"tao deliciosa", 0.029479437409998636
"surpresa tao", 0.04325631596899251
"deliciosa", 0.14062814932285397
"carinhoso e atencioso", 0.1511718453510698
"surpresa", 0.20362413533063883
"tao", 0.20362413533063883
"atendimento excepcional", 0.20546444088829627
"simpatico", 0.24224526196275012
"tambem nao desiludiu", 0.31389358627451985
"entrada nota", 0.34316352632069735
"nao desiludiu", 0.34316352632069735
"excepcional", 0.36238096535779063
"carinhoso", 0.36238096535779063
"atencioso", 0.36238096535779063
"ups", 0.36338012768165767
"porco preto iberico", 0.44366074317449217
"preto iberico tambem", 0.44366074317449217
"iberico tambem nao", 0.44366074317449217
"mesmo a cereja", 0.44688837742377796
"Comida otima", 0.0948978465138663
"Comida", 0.19939756108453854
"restaurante", 0.3842685826226348
"melhor atendimento", 0.39090914595779863
"estavam otimas", 0.4296602711451869
"otima", 0.43467324935935947
"otimas", 0.43467324935935947
"atendimento", 0.46380685162064444
"melhor", 0.6059543517012796
"Voltaremos", 0.6069857790784238
"sobremesas estavam otimas", 0.617542009436552
"domingo", 0.6380744806521232
"sobremesas", 0.691400096418369
"estavam", 0.691400096418369
"visitar", 0.7330247894385303
"aberto", 0.758116473738937
"mesmo", 0.758116473738937
"Voltaremos a visitar", 0.8015928264513749
"sobremesas estavam", 0.9158339409073892
"mesmo ao domingo", 0.9369888810417701
"Julho", 0.0607868920252255
"almocei", 0.11797671014185607
"excelente", 0.3171947781126727
"norme gentileza", 0.359016783205622
"comida", 0.4036310100959565
"servico", 0.4036310100959565
"trabalham", 0.4036310100959565
"Espero", 0.4533838267348932
"continue", 0.4533838267348932
"norme", 0.5139785153975659
"gentileza", 0.5139785153975659
"Comida excelente", 0.14005713113751553
"Peceguina branco", 0.17962405995689565
"Comi secretos", 0.23956129807083346
"migas de espargos", 0.23956129807083346
"Comida", 0.3033846052649951
"confecionada", 0.3033846052649951
"Peceguina", 0.30586129229111825
"secretos com migas", 0.3295258815075752
"Comi", 0.3881970960906714
"espargos", 0.3881970960906714
"acompanhada", 0.3881970960906714
"excelente", 0.4049347717850166
"secretos", 0.49784754196738834
"migas", 0.49784754196738834
"branco", 0.49784754196738834
"refeicao estava optima", 0.011189445364643204
"discreto e simples", 0.015465128052409167
"simpatico e acolhedor", 0.015465128052409167
"atendimento simpatico", 0.02140921543860024
"simples", 0.10519328464496844
"acolhedor", 0.10519328464496844
"refeicao", 0.10519328464496844
"optima", 0.10519328464496844
"Entrada de biqueirao", 0.12025258825090053
"biqueirao excelente", 0.12025258825090053
"filete px galo", 0.12025258825090053
"discreto", 0.1447773057422032
"atendimento", 0.1447773057422032
"simpatico", 0.1447773057422032
"galo e mista", 0.1588666998905099
"mista de carne", 0.1588666998905099
"carne e maminha", 0.1588666998905099
"maminha estavam", 0.1588666998905099
"Perfeito", 0.27573389687933125
"Entrada", 0.2899204041465753
"julho", 0.14050999961848576
"cocinha portuguesa demostra", 0.1906967897457508
"namorado", 0.20346559004069997
"Con", 0.23253617481736194
"maminhas con migas", 0.23302566241837058
"con migas", 0.26670054923379805
"cocinha portuguesa", 0.2836899008139736
"portuguesa demostra", 0.2836899008139736
"Probamos as maminhas", 0.342720663862062
"maminhas con", 0.35539530158883104
"valia", 0.3621550217454992
"bon traro", 0.44633024069935184
"Probamos", 0.45271973991459014
"migas", 0.45271973991459014
"lulas", 0.45271973991459014
"estaban deliciosas", 0.46599752473867556
"cocinha", 0.4701017582138018
"portuguesa", 0.4701017582138018
"demostra", 0.4701017582138018
"moi bon traro", 0.4908684026632758
"acolhedor e agradavel", 0.05220136120954127
"restaurante muito acolhedor", 0.08396275639108254
"agradavel", 0.17825708698249676
"generosas Recomendo", 0.24942856032787591
"restaurante", 0.2783147115063819
"acolhedor", 0.2783147115063819
"Recomendo", 0.3019382484111114
"qualidade", 0.34352021962965823
"preco", 0.3741608615394507
"comida", 0.5725348862442168
"doses", 0.6611752979085599
"sao", 0.6611752979085599
"generosas", 0.6611752979085599
"relacao", 0.7051381514288926
"doses sao", 0.7766810509303074
"sao bastantes generosas", 0.7766810509303074
"relacao qualidade", 0.9397077734701775
"Liguei", 0.11553108358761233
"pessoas", 0.11553108358761233
"atendida", 0.11553108358761233
"tinhamos nossa mesa", 0.14066026668792161
"reserva", 0.15831692877998726
"Chegamos", 0.22501140196509825
"simplesmente maravilhosa", 0.24077335514482706
"comida estava simplesmente", 0.31198678886512854
"tinhamos", 0.3120806116026233
"espera", 0.3120806116026233
"alho e azeite", 0.3174236817209446
"entrada pedimos camarao", 0.3526988615723149
"Aserio", 0.3717645211721213
"pecam", 0.3717645211721213
"mesa", 0.3951375787241905
"maravilhosa", 0.397935417859258
"entrada pedimos", 0.4082102554882119
"pedimos camarao", 0.4082102554882119
"camarao ao alho", 0.4082102554882119
"azeite", 0.44751299850933557
"Beja em varias", 0.03110438595247833
"Resolvi procurar", 0.03521608232955607
"varias aplicacoes", 0.05327023501816083
"procurar o melhor", 0.0784376632395212
"Beja", 0.09173536899887062
"restaurante de Beja", 0.09341748362580611
"Resolvi", 0.15380222408934008
"aplicacoes", 0.15380222408934008
"melhor", 0.16441907101126133
"varias", 0.16441907101126133
"melhor restaurante", 0.19278680201953552
"considerado o melhor", 0.19515410031364988
"procurar", 0.2211807949115213
"Intimo era claramente", 0.23786270341420643
"restaurante", 0.24575496053804527
"claramente indicado", 0.32726625911891843
"mesmo considerado", 0.32726625911891843
"Intimo", 0.3869744428122886
"melhores", 0.3869744428122886
"chegada", 0.4790840055339836
"Intimo em face", 0.013298450721193376
"estavam a altura", 0.01859446618045681
"recomendacoes que vimos", 0.027581485432184485
"vimos no TripAdvisor", 0.027581485432184485
"TripAdvisor e estavam", 0.027581485432184485
"Intimo", 0.08010561870176523
"Comida excelente", 0.10137279574960871
"altura", 0.11142476118001256
"visitas a Beja", 0.13624076804587806
"atendimento personalizado", 0.14005713113751553
"face", 0.16383273847958243
"recomendacoes", 0.16383273847958243
"vimos", 0.16383273847958243
"TripAdvisor", 0.16383273847958243
"estavam", 0.16383273847958243
"Beja", 0.24084650495983298
"Comida", 0.3033846052649951
"excelente", 0.3033846052649951
"atendimento", 0.3033846052649951
"simpatico", 0.3033846052649951
"Comida otima", 0.020818845797234226
"nivel de quantidade", 0.020818845797234226
"servido a nivel", 0.030803441134664936
"Comida", 0.11797671014185607
"quantidade", 0.11797671014185607
"Experimentamos o Terra-Mar", 0.1539412127363319
"Terra-Mar e adoramos", 0.1539412127363319
"otima", 0.17286683788205306
"servido", 0.17286683788205306
"nivel", 0.17286683788205306
"Experimentamos", 0.3171947781126727
"adoramos", 0.3171947781126727
"Voltaremos", 0.4036310100959565
"Terra-Mar", 0.4205766817284309
"serviu", 0.4533838267348932
"reforcar a simpatia", 0.467597141943779
"simpatia e disponibilidade", 0.467597141943779
"disponibilidade da pessoa", 0.467597141943779
"reforcar", 0.5644591212760287
"simpatia", 0.5644591212760287
"comida estava deliciosa", 0.01859446618045681
"atendimento super simpatico", 0.10360454189614123
"deliciosa", 0.11142476118001256
"decorado", 0.11142476118001256
"simpatico e profissional", 0.14005713113751553
"comida", 0.16383273847958243
"espaco", 0.16383273847958243
"acolhedor", 0.16383273847958243
"Gostamos imenso", 0.17743606560321915
"atendimento super", 0.19613242932716538
"super simpatico", 0.19613242932716538
"profissional", 0.3033846052649951
"Gostamos", 0.3881970960906714
"imenso", 0.3881970960906714
"atendimento", 0.4049347717850166
"super", 0.4049347717850166
"simpatico", 0.4049347717850166
"RESTAURANTE INTIMO", 0.003982474480142899
"passo em Beja", 0.008102673846873939
"experiencia no RESTAURANTE", 0.010452499650109536
"faco questao", 0.015465128052409167
"Beja", 0.055516630689826464
"INTIMO", 0.055516630689826464
"comida MAGNIFICA", 0.06697560436624513
"Lisboa", 0.07145025265006083
"RESTAURANTE", 0.07145025265006083
"faco", 0.10519328464496844
"passo", 0.1447773057422032
"questao", 0.1447773057422032
"experiencia", 0.1447773057422032
"servico simpatico", 0.1588666998905099
"simpatico e atencioso", 0.1588666998905099
"MAGNIFICA", 0.16953620454250778
"vinhos impar", 0.20785651292262122
"carta de vinhos", 0.2704390918235917
"servico", 0.3702539456099092
"simpatico", 0.3702539456099092
"Visitamos o restaurante", 0.02541909697430123
"restaurante numa recente", 0.04188746641162499
"Beja", 0.06588837669267192
"Visitamos", 0.12363091320521931
"sugestao do Borrego", 0.14487691114143314
"Borrego no forno", 0.14487691114143314
"Atendimento simpatico", 0.18075564686791562
"simpatico pelo colaborador", 0.18075564686791562
"restaurante", 0.2005079697193566
"recente", 0.2005079697193566
"Borrego", 0.2718250226855089
"acabamos por aceitar", 0.2766850298235749
"aceitar a sugestao", 0.2766850298235749
"Atendimento", 0.32883716426354986
"colaborador", 0.32883716426354986
"confecionado", 0.32883716426354986
"simpatico", 0.46553351027698087
"acabamos", 0.46553351027698087
"aceitar", 0.46553351027698087
"sugestao", 0.46553351027698087
"Apos uma longa", 0.013784437454882689
"optamos por deixar", 0.013784437454882689
"pitstop de almoco", 0.013784437454882689
"deixar o TripAdvisor", 0.01911893411113409
"TripAdvisor ditar", 0.01911893411113409
"Invicta", 0.053822159537056186
"Apos", 0.09927137196013912
"optamos", 0.09927137196013912
"almoco", 0.09927137196013912
"posicao no top", 0.1090934922889914
"dada a simpatia", 0.1090934922889914
"longa", 0.13696809108329627
"deixar", 0.13696809108329627
"TripAdvisor", 0.13696809108329627
"ditar", 0.13696809108329627
"pitstop", 0.13696809108329627
"duvida justificada", 0.1445099069107937
"justificada a posicao", 0.1445099069107937
"qualidade da comida", 0.1445099069107937
"frito como entrada", 0.18970645222564492
"Pedi um lombinho", 0.015099935621315529
"lombinho com camarao", 0.015099935621315529
"apresentacao linda", 0.015099935621315529
"espessura do lombo", 0.015099935621315529
"prato veio", 0.02249651976012989
"principio assustei", 0.02249651976012989
"impossivel acertar", 0.02249651976012989
"Pedi", 0.10028582371075691
"camarao", 0.10028582371075691
"linda", 0.10028582371075691
"lombo", 0.10028582371075691
"espesso", 0.10028582371075691
"pensei", 0.10028582371075691
"carne", 0.10028582371075691
"lombinho", 0.14832923246533666
"prato", 0.14832923246533666
"veio", 0.14832923246533666
"apresentacao", 0.14832923246533666
"principio", 0.14832923246533666
"assustei", 0.14832923246533666
"Comida caseira", 0.01408590149732125
"away com Comida", 0.022825776323124266
"Take away", 0.03107735477427921
"excelente qualidade", 0.03107735477427921
"confeccionada de excelente", 0.050888965170882816
"Comida", 0.10141226884569679
"Take", 0.13696809108329627
"caseira", 0.13696809108329627
"qualidade", 0.13696809108329627
"away", 0.2200560909321288
"confeccionada", 0.2200560909321288
"excelente", 0.2200560909321288
"Recomendo vivamente", 0.24745631075091173
"preco", 0.3553358554145339
"Recomendo", 0.44538603402402266
"vivamente", 0.44538603402402266
"doses", 0.4949246952252326
"servidas", 0.4949246952252326
"melhor esparregado", 0.1095300227511656
"esparregado", 0.2386710978348089
"Maravilhoso", 0.28396041294839813
"Carne divinal", 0.37306711088575134
"melhor", 0.4136131033184686
"Carne", 0.5212518383364516
"divinal", 0.5212518383364516
"Espaco", 0.6603253488343742
"tranquilo", 0.6603253488343742
"intimo", 0.6603253488343742
"facto", 0.6603253488343742
"Vale", 0.6893541063826529
"pena", 0.6893541063826529
"duvida", 0.6893541063826529
"Espaco tranquilo", 0.7731425980309733
"intimo de facto", 0.7731425980309733
"Vale a pena", 0.9055207883486219
"ficamos clientes", 0.020818845797234226
"frequentei o restaurante", 0.030803441134664936
"restaurante que ficamos", 0.030803441134664936
"clientes", 0.11797671014185607
"pandemia pudermos usar", 0.12035209845570627
"Felizes que durante", 0.1539412127363319
"take away", 0.1539412127363319
"frequentei", 0.17286683788205306
"restaurante", 0.17286683788205306
"ficamos", 0.17286683788205306
"durante a pandemia", 0.21489669178785997
"pandemia pudermos", 0.21489669178785997
"pudermos usar", 0.21489669178785997
"usar o take", 0.21489669178785997
"servidos e atendidos", 0.26176225393615005
"sugerimos o mesmo", 0.26176225393615005
"qualidade do servico", 0.26176225393615005
"Felizes", 0.3171947781126727
"away", 0.3171947781126727
"mesmo amigos", 0.359016783205622
"sofisticacao francesa", 0.0243232841157239
"fartura portuguesa", 0.03585884949500361
"francesa", 0.12762544885024293
"fartura", 0.18605780169822753
"portuguesa", 0.18605780169822753
"sofisticacao", 0.18605780169822753
"Chef conseguiu", 0.20715038187787727
"experiencias gastronomicas", 0.24355831154277052
"gastronomicas mais inusitadas", 0.24355831154277052
"inusitadas e saborosas", 0.24355831154277052
"pratos incriveis", 0.29556773978679457
"Chef", 0.31996278791779703
"Dignos de restaurantes", 0.38678692672062065
"restaurantes estrelados", 0.38678692672062065
"conseguiu nos surpreendeu", 0.4037852554850812
"surpreendeu com pratos", 0.4037852554850812
"incriveis", 0.4253750521094019
"experiencias", 0.44255617012398485
"gastronomicas", 0.44255617012398485
"inusitadas", 0.44255617012398485
"Vivemos em Beja", 0.006391370819031112
"Beja", 0.05584373469470049
"visitado o Intimo", 0.06689269163676008
"Vivemos", 0.11372413861261109
"tinhamos visitado", 0.1565571639084274
"cabra simplesmente divinal", 0.16505830222999085
"Intimo", 0.1704138978870909
"cabra", 0.20708118019652824
"iremos jantar", 0.22048590301226742
"manteiga de cabra", 0.24553340538386736
"queijo de cabra", 0.26754035379206303
"cabra simplesmente", 0.26754035379206303
"Tornedo fantastico", 0.29169880705751655
"simplesmente divinal", 0.29169880705751655
"fantastico e risotto", 0.3508493419518715
"risotto de abobora", 0.3508493419518715
"abobora e queijo", 0.3508493419518715
"ovelha cuidadosamente empratadas", 0.36624617168085827
"tinhamos", 0.3679195972308731
"visitado", 0.3679195972308731
"chega e sobra", 0.019635946131713315
"sobra", 0.12370366280536488
"Atendimento simpatico", 0.14735386276940096
"simpatico e agradavel", 0.14735386276940096
"ambiente familiar", 0.14735386276940096
"mantenha", 0.15567688581041123
"chega", 0.15567688581041123
"mesmo", 0.22482164721697356
"passada", 0.22814504423774642
"farta", 0.22905958898753817
"Comida farta", 0.235920216599371
"farta mesmo", 0.2594303252806559
"falsos", 0.26481724424410064
"alaridos", 0.26481724424410064
"veio mesmo", 0.3155452837068442
"carne mal passada", 0.3217104118131425
"Atendimento", 0.328985336024588
"agradavel", 0.328985336024588
"ambiente", 0.328985336024588
"pedi minha carne", 0.3315548408949144
"cheguei fiquei", 0.037888979119250266
"duvida nao tinha", 0.11680444556791043
"escolha", 0.13131376587409008
"fiquei com duvidas", 0.15222857671318255
"nao tinha razao", 0.15949478056734404
"passe por Beja", 0.16306076264218816
"atendimento muito simpatico", 0.18362817280437604
"cheguei", 0.19106493974805283
"fiquei", 0.19106493974805283
"duvida nao", 0.19157178591736967
"nao tinha", 0.25483159921791065
"tinha razao", 0.25483159921791065
"simpatico e eficiente", 0.25483159921791065
"eficiente comida", 0.25483159921791065
"Beja", 0.2575073824652725
"atendimento", 0.34426280461682385
"quantidade", 0.34426280461682385
"duvidas", 0.3567610389278986
"duvida", 0.3567610389278986
"entanto a duvida", 0.3639885777462037
"empregada de mesa", 0.041798874333752976
"demonstra a dedicacao", 0.041798874333752976
"dedicacao e gosto", 0.06776707374706457
"gosto empenhados", 0.06776707374706457
"varios aspetos", 0.08199597430065562
"varios", 0.1592610586324978
"positivos", 0.1592610586324978
"mesa", 0.1592610586324978
"chef", 0.1592610586324978
"demonstra", 0.1592610586324978
"pratos", 0.1592610586324978
"aspetos muito positivos", 0.16149623933757054
"inesperada em Beja", 0.22394630712054542
"aspetos", 0.23791799530961416
"atencao", 0.2519249053615113
"empregada", 0.2519249053615113
"dedicacao", 0.2519249053615113
"gosto", 0.2519249053615113
"empenhados", 0.2519249053615113
"Beja", 0.29034550045526186
"doses generosas", 0.027295990174080912
"staff muito simpatico", 0.027295990174080912
"Restaurante", 0.1352746169433193
"generosas", 0.1352746169433193
"simpatico", 0.1352746169433193
"comida", 0.18233371766974754
"doses", 0.19642056113018055
"staff", 0.19642056113018055
"comida portuguesa", 0.2011083803137986
"portuguesa com twist", 0.2671303787756331
"twist moderno", 0.2671303787756331
"Receitas de comida", 0.28923409089824403
"Aconselho", 0.3080830696969742
"Receitas", 0.35204381139790514
"confeccionadas", 0.35204381139790514
"portuguesa", 0.45914619378225674
"twist", 0.45914619378225674
"moderno", 0.45914619378225674
"qualidade e sabor", 0.038712704770480444
"Excelente atendimento", 0.05071272082504947
"excelente qualidade", 0.08303696244858728
"atendimento", 0.1531727145735673
"pratos", 0.1531727145735673
"sabor", 0.1531727145735673
"Excelente", 0.1575511279697302
"servidos", 0.2433193585127945
"qualidade", 0.2433193585127945
"repetir", 0.3858257107143767
"nao conhecia Beja", 0.0017029897080757747
"conhecia Beja", 0.011014713649638047
"agradavel surpresa", 0.016626316719119922
"nao conhecia", 0.022988213374765323
"Beja", 0.0726772423782132
"surpresa", 0.10909815511827554
"Espaco pequeno", 0.1278244235492756
"vegetarianas e vegan", 0.1278244235492756
"familia", 0.149905405948569
"nao", 0.149905405948569
"conhecia", 0.149905405948569
"agradavel", 0.149905405948569
"pequeno e aimples", 0.1685853064821579
"variedade enorme", 0.1685853064821579
"enorme de pratos", 0.1685853064821579
"pratos todos deliciosos", 0.1685853064821579
"opcoes vegetarianas", 0.1685853064821579
"Extrema simpatia", 0.22010868773592726
"simpatia dos colaboradores", 0.22010868773592726
"Sobremesas deliciosas", 0.22894203058958335
"simpatia do staff", 0.020720197448804205
"ate a qualidade", 0.020720197448804205
"qualidade da comida", 0.020720197448804205
"surpresa muito agradavel", 0.028535357329380496
"staff", 0.12187233622811038
"ate", 0.12187233622811038
"comida", 0.12187233622811038
"Beja", 0.13354875146044778
"vegetarianas e vegan", 0.15374509792673677
"agradou a familia", 0.15374509792673677
"Beja voltaremos", 0.15512987703694275
"surpresa", 0.16656434632039416
"agradavel", 0.16656434632039416
"simpatia", 0.16656434632039416
"qualidade", 0.16656434632039416
"restaurante pequenino", 0.20173193764044642
"varias opcoes", 0.20947118935854153
"opcoes vegetarianas", 0.20947118935854153
"opcoes", 0.21135632407234353
"peixe", 0.23576002486810305
"Intimo discreto", 0.01859446618045681
"exuberante qualidade", 0.01859446618045681
"discreto e exuberante", 0.027581485432184485
"Intimo", 0.11142476118001256
"qualidade", 0.11142476118001256
"discreto", 0.16383273847958243
"exuberante", 0.16383273847958243
"chease Cake", 0.17962405995689565
"Cake de frutos", 0.17962405995689565
"Parabens", 0.19677146788549632
"Recomenda-se os lombos", 0.23956129807083346
"frutos vermelhos", 0.23956129807083346
"Cake", 0.30586129229111825
"lombos de salmao", 0.3295258815075752
"salmao confit", 0.3295258815075752
"confit de pato", 0.3295258815075752
"Recomenda-se", 0.3881970960906714
"vermelhos", 0.3881970960906714
"lombos", 0.49784754196738834
"salmao", 0.49784754196738834
"passagem por Beja", 0.011192697903532391
"Beja", 0.06191235450713548
"restaurante", 0.12229125971027831
"sequencia", 0.17878189525615976
"passagem", 0.17878189525615976
"escolha foi feita", 0.22756345427865793
"site", 0.3261013256329346
"Paula", 0.32705176562700716
"profissionalismo no atendimento", 0.37884047162054735
"escolha", 0.43055564085338327
"feita", 0.43055564085338327
"avaliacoes", 0.43055564085338327
"surpreendidos", 0.5241688074772614
"profissionalismo", 0.5241688074772614
"atendimento", 0.5241688074772614
"termos decidido", 0.5817638649779261
"decidido pedir", 0.5817638649779261
"dose de risotto", 0.5817638649779261
"termos", 0.6064605371585696
"decidido", 0.6064605371585696
"entanto lamentamos", 0.009885782629452427
"vive das vendas", 0.009885782629452427
"caridade,nao e aceitavel", 0.009885782629452427
"sentem duas pessoas", 0.009885782629452427
"nao entenda", 0.011454126087959725
"restaurante vive", 0.011454126087959725
"nao de caridade,nao", 0.0288049399346268
"lamentamos que nao", 0.028804939934626808
"vendas e nao", 0.028804939934626808
"pessoas num restaurante", 0.028804939934626808
"nao", 0.05722902858046672
"restaurante", 0.05722902858046672
"comentario", 0.0746496900386444
"visita", 0.0989394289376994
"entanto", 0.0989394289376994
"lamentamos", 0.0989394289376994
"entenda", 0.0989394289376994
"vive", 0.0989394289376994
"vendas", 0.0989394289376994
"caridade,nao", 0.0989394289376994
"ouvir Miles Davis", 0.0002118183689177288
"Chet Baker", 0.0021204931256633805
"Miles Davis", 0.002781546998978996
"Tornedo com molhos", 0.0045668584331772745
"ouvir Miles", 0.004577768164160266
"figo da India", 0.004868251212955228
"molhos de pimentas", 0.0057299005500538605
"perfumes do Tornedo", 0.006391369162263309
"visita ao Intimo", 0.006391369162263309
"molho de mel", 0.008003585091141428
"mel e laranja", 0.00802277035775198
"musica de fundo", 0.011216436611907089
"sabor do peito", 0.011216436611907089
"peito de pato", 0.011216436611907089
"pato com figo", 0.011216436611907089
"Jobin", 0.03252390019200025
"Davis", 0.046000066838758
"Chet", 0.046000066838758
"Baker", 0.046000066838758
"India", 0.046000066838758
"ambiente acolhedor musica", 0.03356262313410168
"acolhedor musica espetacular", 0.03356262313410168
"Excelente surpresa", 0.04188746641162499
"ambiente acolhedor", 0.07796891081290885
"musica espetacular", 0.07796891081290885
"comida diferente", 0.07796891081290885
"diferente e divinal", 0.07796891081290885
"acolhedor musica", 0.1495930091794576
"Excelente", 0.2005079697193566
"surpresa", 0.2005079697193566
"ambiente", 0.2005079697193566
"espetacular", 0.2005079697193566
"comida", 0.2005079697193566
"divinal", 0.2005079697193566
"repetir", 0.2005079697193566
"acolhedor", 0.36073110501666333
"musica", 0.36073110501666333
"diferente", 0.36073110501666333
"muitas", 0.46553351027698087
"Chocolate preto", 0.006946770472235815
"amendoim e Chocolate", 0.00961004627146306
"Simpatia de funcionarios,comida", 0.013784437454882689
"funcionarios,comida muito saborosa", 0.013784437454882689
"adoramos as migas", 0.013784437454882689
"borrego estava divinal", 0.01911893411113409
"parfait de manteiga", 0.01911893411113409
"manteiga de amendoim", 0.01911893411113409
"Chocolate", 0.06949481646017519
"Simpatia", 0.09927137196013912
"saborosa", 0.09927137196013912
"resto", 0.09927137196013912
"adoramos", 0.09927137196013912
"sobremesas", 0.09927137196013912
"preto", 0.09927137196013912
"Experimentamos tambem", 0.1090934922889914
"funcionarios,comida", 0.13696809108329627
"borrego", 0.13696809108329627
"divinal", 0.13696809108329627
"migas", 0.13696809108329627
"Espectacular adorei", 0.009239332327148086
"comida excelente", 0.009239332327148086
"melhor de beja", 0.015380821171891606
"apresentacao dos pratos", 0.015380821171891606
"atendimento muito cuidado", 0.015380821171891606
"experimentar outros sabores", 0.015380821171891606
"Espectacular", 0.09568045026443411
"adorei", 0.09568045026443411
"beja", 0.09568045026443411
"comida", 0.09568045026443411
"excelente", 0.09568045026443411
"apresentacao", 0.09568045026443411
"mesmo", 0.09568045026443411
"cuidado", 0.09568045026443411
"voltarei", 0.09568045026443411
"sabores", 0.09568045026443411
"melhor", 0.15831692877998726
"pratos", 0.15831692877998726
"atendimento", 0.15831692877998726
"experimentar", 0.15831692877998726
"Chefe Neves", 0.005668492848089588
"atendimento do Marcelo", 0.012814744453589658
"pratos Do Chefe", 0.017251124433989087
"Neves", 0.06484876838646524
"Marcelo", 0.06484876838646524
"restaurante de luxo", 0.07948654436181996
"estrelas", 0.08026166054155467
"Chefe", 0.08691826058496352
"dignos", 0.13430340746323932
"pratos", 0.19510940414603561
"luxo", 0.19510940414603561
"atendimento", 0.19510940414603561
"restaurantes de renome", 0.19899916184418995
"Parabens", 0.23258721851169967
"Coloca num chinelo", 0.3197230881934916
"restaurante", 0.37739677163379887
"Coloca", 0.43977869575565837
"renome", 0.43977869575565837
"chinelo muitos restaurantes", 0.478087208680871
"chinelo", 0.5508799901107649
"almoco fora", 0.050888965170882816
"servido", 0.13696809108329627
"parabens ao cozinheiro", 0.1445099069107937
"carnes uma delicia", 0.21339268578732606
"almoco", 0.2200560909321288
"fora", 0.2200560909321288
"Restaurante a repetir", 0.24745631075091173
"delicia", 0.3553358554145339
"parabens", 0.3553358554145339
"cozinheiro", 0.3553358554145339
"Restaurante", 0.44538603402402266
"repetir", 0.44538603402402266
"duvida", 0.44538603402402266
"carnes", 0.4949246952252326
"Servico cheio", 0.04168017339890905
"cheio de atencao", 0.04168017339890905
"optima comida", 0.047966033608137476
"comida", 0.13671915303711016
"Servico", 0.16738912755733323
"atencao", 0.16738912755733323
"optima", 0.16738912755733323
"cheio", 0.23903851000912726
"pessoas e ficamos", 0.2731081359240355
"Setubal", 0.28097549002471184
"choco", 0.28596663552894186
"qualidade", 0.3045120561690243
"quantidade da comida", 0.31305400981380377
"choco em Setubal", 0.35168792010657307
"Partilhamos uma dose", 0.3990771387173389
"Partilhamos", 0.41115140456689797
"pessoas", 0.41115140456689797
"preco", 0.41219810701340126
"doses", 0.4245059417105011
"dose", 0.4245059417105011
"Excelente relacao qualidade-preco", 0.03501557228613928
"relacao qualidade-preco", 0.05445201648667798
"Excelente relacao", 0.1714858598886194
"qualidade-preco", 0.18210367052799784
"otimas doses", 0.23480911309242405
"Excelente", 0.25810286352973355
"relacao", 0.28357532992200746
"Comida excelente", 0.29049331168682496
"adorei", 0.43512358738552465
"Comida", 0.43607135675834374
"otimas", 0.43607135675834374
"doses", 0.43607135675834374
"Funcionario", 0.5297680815996126
"prestavel", 0.5297680815996126
"Funcionario super", 0.5464245830655249
"simpatico e prestavel", 0.5464245830655249
"Restaurante", 0.5799489872321658
"relaxante", 0.5799489872321658
"melhorada", 0.6118086049319419
"super", 0.6669844301596132
"paramos em Beja", 0.007992323823000054
"Beja para almocar", 0.007992323823000054
"regresso a casa", 0.016626316719119922
"Beja", 0.0726772423782132
"Ultimo", 0.10909815511827554
"casa", 0.10909815511827554
"paramos", 0.10909815511827554
"almocar", 0.10909815511827554
"ferias", 0.149905405948569
"regresso", 0.149905405948569
"busca surge", 0.1685853064821579
"surge este restaurante", 0.1685853064821579
"restaurante que acabou", 0.1685853064821579
"Comemos risoto", 0.22010868773592726
"risoto de frango", 0.2859226927845332
"sao muito simpaticos", 0.29106528397220843
"surpresa", 0.2983957947604909
"pessoal sao", 0.3751920553197244
"busca", 0.3798215915560938
"surge", 0.3798215915560938
"agradavel surpresa", 0.023548796830027443
"surpresa", 0.12996433632774446
"Parabens ao Chef", 0.1489970890728377
"qualidade dos alimentos", 0.171051643874684
"agradavel", 0.17702556015875678
"Chef pela confeccao", 0.18623453321678543
"sabores incriveis", 0.289246914367467
"Chef", 0.3012367383279884
"Beja", 0.31772145373322824
"alimentos", 0.34158553339035136
"restaurantes em Beja", 0.34958687496766694
"panoplia de sabores", 0.3729117320575267
"melhores restaurantes", 0.42209074545552955
"comida", 0.42761382206433557
"alem", 0.42761382206433557
"qualidade", 0.42761382206433557
"Parabens", 0.4304779578181314
"incriveis", 0.4304779578181314
"Gostamos", 0.4808716665763878
"restaurante", 0.4917404295573231
"Recomendamos", 0.04099645460068982
"Viemos a aventura", 0.0604047846262897
"Viemos", 0.2386710978348089
"aventura", 0.2386710978348089
"Excelente cozinha", 0.37306711088575134
"Excelente", 0.5212518383364516
"cozinha", 0.5212518383364516
"delicioso", 0.6133447588150343
"Doses", 0.6603253488343742
"guarnecidas", 0.6603253488343742
"Doses bem guarnecidas", 0.7731425980309733
"Convem fazer reserva", 0.012571559314626916
"vinho de qualidade", 0.012571559314626916
"passar em Beja", 0.07806185883062657
"Convem", 0.11142476118001256
"reserva", 0.11142476118001256
"confeccionado", 0.11142476118001256
"vinho", 0.11142476118001256
"qualidade", 0.11142476118001256
"sitio para almocar", 0.14005713113751553
"Vou repetir caso", 0.172412864610806
"Beja", 0.17881754828257992
"pequeno desvio", 0.19613242932716538
"desvio e passar", 0.19613242932716538
"Vou repetir", 0.23956129807083346
"repetir caso passe", 0.24520184199071754
"nacional", 0.3033846052649951
"almocar", 0.3033846052649951
"repetir caso", 0.3295258815075752
"caso passe", 0.3295258815075752
"Vou", 0.3881970960906714
"Comemos choco frito", 0.0073324509242396925
"Comemos choco", 0.03107735477427921
"tomate e cebola", 0.03107735477427921
"choco frito", 0.050888965170882816
"frito com salada", 0.050888965170882816
"salada de tomate", 0.050888965170882816
"Sao deliciosas recomendamos", 0.07242589578524199
"chocolate Sao deliciosas", 0.11228847464109726
"Comemos", 0.13696809108329627
"cebola", 0.13696809108329627
"chocolate Sao", 0.16193331521250073
"Sao deliciosas", 0.16193331521250073
"deliciosas recomendamos", 0.21339268578732606
"choco", 0.2200560909321288
"frito", 0.2200560909321288
"salada", 0.2200560909321288
"tomate", 0.2200560909321288
"Sao", 0.2815891253011357
"trufas de chocolate", 0.32441639786848336
"recomendamos", 0.3553358554145339
"Excelente servico", 0.06147165931585631
"excelente comida", 0.06147165931585631
"servico", 0.13522599445826292
"comida", 0.13522599445826292
"Excelente", 0.14275295086189907
"excelente recomendo lasanha", 0.15651220695267556
"frutos vermelhos", 0.19269076663629203
"pratos fantasticos", 0.19269076663629203
"excelente recomendo", 0.24469326629213428
"recomendo lasanha", 0.2669781998260452
"lasanha a bolonhesa", 0.2669781998260452
"sangria de frutos", 0.2669781998260452
"vermelhos", 0.3519489861207421
"fantasticos", 0.3519489861207421
"recomendo", 0.45904295758955893
"lasanha", 0.45904295758955893
"bolonhesa", 0.45904295758955893
"sangria", 0.45904295758955893
"frutos", 0.45904295758955893
"pratos", 0.45904295758955893
"passagem a Beja", 0.011192697903532391
"agradavel surpresa", 0.03301832982739116
"surpresa numa visita", 0.03301832982739116
"visita de passagem", 0.03301832982739116
"Beja", 0.06191235450713548
"verdadeiro chef", 0.16333823125531258
"qualidade na comida", 0.16333823125531258
"agradavel", 0.17878189525615976
"surpresa", 0.17878189525615976
"visita", 0.17878189525615976
"passagem", 0.17878189525615976
"limpeza fantastica", 0.2767170467037833
"chef", 0.3261013256329346
"comida", 0.3261013256329346
"funcionarios muito atenciosos", 0.362910692993374
"fantastica", 0.4134948298564376
"cozinha", 0.43055564085338327
"verdadeiro", 0.43055564085338327
"qualidade", 0.43055564085338327
"visitar a cidade", 0.430888748329292
"paramos em Beja", 0.007732908535387047
"Beja para meter", 0.007732908535387047
"gasolina e almocar", 0.011326071590296352
"meter gasolina", 0.014973081153661923
"Beja", 0.06317847011367385
"Estavamos", 0.09220612519689587
"almocar", 0.09220612519689587
"Pesquisamos no TripAdvisor", 0.092410575532421
"vasta esplanada", 0.092410575532421
"calor decidimos comer", 0.11048036957669147
"TripAdvisor e seleccionamos", 0.11760737401357556
"seleccionamos este restaurante", 0.11760737401357556
"restaurante meio escondido", 0.11760737401357556
"interesse no exterior", 0.11760737401357556
"exterior apesar", 0.11760737401357556
"paramos", 0.12145861573270843
"meter", 0.12145861573270843
"gasolina", 0.12145861573270843
"calor decidimos", 0.2039811334556561
"decidimos comer", 0.2039811334556561
"apontar aspetos positivos", 0.0019444707003327924
"consigo apontar aspetos", 0.0027080509450578723
"aspetos positivos", 0.013784437454882689
"consigo apontar", 0.01911893411113409
"apontar aspetos", 0.01911893411113409
"positivos", 0.09927137196013912
"atencioso e cuidado", 0.1090934922889914
"rapariga muito simpatica", 0.1090934922889914
"restaurante", 0.13696809108329627
"consigo", 0.13696809108329627
"apontar", 0.13696809108329627
"aspetos", 0.13696809108329627
"atendimento muito atencioso", 0.1445099069107937
"empregada de mesa", 0.1445099069107937
"ambiente muito agradavel", 0.18970645222564492
"Recomendo", 0.22350220685283329
"comida estava otima", 0.24745631075091173
"cuidado", 0.2768162971845457
"simpatica", 0.2768162971845457
"atendimento", 0.3553358554145339
"Cozinha fantastica", 0.022825776323124266
"Srs", 0.06588837669267192
"comida", 0.06588837669267192
"estrelas", 0.06588837669267192
"parabens a equipa", 0.0934346755383478
"Cozinha", 0.10141226884569679
"fantastica", 0.2200560909321288
"equipa", 0.2200560909321288
"Perna de borrego", 0.32441639786848336
"parabens", 0.38831292435681075
"Perna", 0.4949246952252326
"borrego", 0.4949246952252326
"comemos.", 0.4949246952252326
"delicia", 0.5880798524606783
"melhor", 0.68796622281612
"Excelente comida super", 0.005401660759706154
"comida super simpatico", 0.009001679881101624
"Excelente comida", 0.02541909697430123
"simpatico e disponiveis", 0.02541909697430123
"comida super", 0.04188746641162499
"super simpatico", 0.04188746641162499
"Excelente", 0.12363091320521931
"disponiveis", 0.12363091320521931
"fritas com molho", 0.18075564686791562
"batatas doces fritas", 0.1829003496708144
"comida", 0.2005079697193566
"super", 0.2005079697193566
"simpatico", 0.2005079697193566
"perder o choco", 0.2766850298235749
"choco frito", 0.2766850298235749
"batatas doces", 0.2766850298235749
"doces fritas", 0.2766850298235749
"molho", 0.32883716426354986
"perder", 0.46553351027698087
"choco", 0.46553351027698087
"arrastado por amigos", 0.01911893411113409
"restaurante", 0.13696809108329627
"arrastado", 0.13696809108329627
"amigos", 0.13696809108329627
"ambiente muito agradavel", 0.1445099069107937
"sitio espetacular", 0.21339268578732606
"jantar", 0.2200560909321288
"comer e repetir", 0.35487136790899465
"Comida", 0.3553358554145339
"ambiente", 0.3553358554145339
"agradavel", 0.3553358554145339
"espetacular", 0.3553358554145339
"repetir", 0.44538603402402266
"sitio", 0.4949246952252326
"comer", 0.5880798524606783
"trazer qualquer tipo", 0.018539035156256937
"ate virem", 0.04601055359277334
"trazer qualquer", 0.06671392705444824
"qualquer tipo", 0.06671392705444824
"tipo de aperitivo", 0.06671392705444824
"Sento-me", 0.10718523606075592
"ate", 0.17588836915495432
"mesa", 0.18524162267509864
"aperitivo ou bebidas", 0.20507034748488956
"virem", 0.2500830574227219
"trazer", 0.2500830574227219
"qualquer", 0.2500830574227219
"tipo", 0.2500830574227219
"aperitivo", 0.2500830574227219
"virem a mesa", 0.36253788484541005
"bebidas", 0.36672815608884873
"bebida", 0.36672815608884873
"min.", 0.42675645353866737
"Peco um queijo", 0.48371514386014663
"queijo fresco", 0.48371514386014663
"tao exigente visita", 0.008372068257938362
"lamentamos porem", 0.018818151346519908
"resta no entanto", 0.018818151346519908
"esforcassemos nao", 0.031283437983838376
"nao fomos capaz", 0.031283437983838376
"tao exigente", 0.031283437983838376
"entanto esclarecer", 0.031283437983838376
"entrou no restaurante", 0.031283437983838376
"encontrava cheio", 0.031283437983838376
"exigente visita", 0.045131258282199285
"Gostaria", 0.10605034052066013
"espaco", 0.10605034052066013
"lamentamos", 0.10605034052066013
"resta", 0.10605034052066013
"visita", 0.12396765710001131
"agradecer", 0.17416794029942345
"porem", 0.17416794029942345
"esforcassemos", 0.17416794029942345
"nao", 0.17416794029942345
"capaz", 0.17416794029942345
"ficamos deslumbrados", 0.0629036424567295
"BBQ Ribs", 0.092351049457422
"refeicao", 0.11674488546882494
"Provamos o BBQ", 0.13190008329164346
"frito muito saborosas", 0.14313198705266475
"voltamos", 0.1598989840976793
"deslumbrados", 0.1598989840976793
"Ribs da pagina", 0.16638254563487148
"ficamos", 0.1850572902617195
"entradas de cogumelos", 0.1881817374576605
"cogumelos com queijo", 0.1881817374576605
"camarao frito", 0.1881817374576605
"ficamos maravilhados", 0.2218634851722856
"BBQ", 0.2907634427235115
"Ribs", 0.2907634427235115
"saborosas", 0.3146248508074336
"pagina dos especiais", 0.3169811719106582
"entradas", 0.39796721928538276
"cogumelos", 0.39796721928538276
"queijo", 0.39796721928538276
"ambiente acolhedor", 0.02216221073515605
"acesso facil", 0.035823369414816786
"comida saborosa", 0.04122483602779734
"saborosa", 0.13444287560608487
"comida", 0.14724705908851674
"ambiente", 0.14724705908851674
"acolhedor", 0.14724705908851674
"acesso", 0.14724705908851674
"estacionamentos", 0.14724705908851674
"facil", 0.2348735419198309
"mousse de chocolate", 0.3628836306470974
"chocolate com flor", 0.3628836306470974
"flor de sal", 0.3628836306470974
"mousse", 0.5160054651028707
"chocolate", 0.5160054651028707
"flor", 0.5160054651028707
"sal", 0.5160054651028707
"atendimento muito simpatico", 0.03039516180502021
"simpatico e prestavel", 0.03039516180502021
"proprio chefe", 0.03039516180502021
"cumprimentar e perguntar", 0.03039516180502021
"mesa cumprimentar", 0.0359874010830649
"empregados de mesa", 0.08206999075319786
"mesa", 0.10112666618435551
"agradavel", 0.11716529569858515
"atendimento", 0.17175141526611762
"simpatico", 0.17175141526611762
"prestavel", 0.17175141526611762
"empregados", 0.17175141526611762
"proprio", 0.17175141526611762
"chefe", 0.17175141526611762
"cumprimentar", 0.17175141526611762
"perguntar", 0.17175141526611762
"entrada de cogumelos", 0.21254185801731904
"cogumelos com queijo", 0.21254185801731904
"queijo de cabra", 0.21254185801731904
"cabra era maravilhosa", 0.21254185801731904
"jantar em familia", 0.03107735477427921
"doses generosas", 0.03107735477427921
"almoco ou jantar", 0.050888965170882816
"confeccionada e doses", 0.050888965170882816
"Excelente", 0.13696809108329627
"familia", 0.13696809108329627
"amigos", 0.13696809108329627
"comida", 0.13696809108329627
"generosas", 0.13696809108329627
"Recomendo vivamente", 0.1445099069107937
"almoco", 0.2200560909321288
"jantar", 0.2200560909321288
"confeccionada", 0.2200560909321288
"doses", 0.2200560909321288
"Iremos voltar concerteza", 0.22824646536343673
"Iremos voltar", 0.35487136790899465
"voltar concerteza", 0.35487136790899465
"Recomendo", 0.3553358554145339
"vivamente", 0.3553358554145339
"Iremos", 0.44538603402402266
"optimos pratos", 0.023797589805312058
"simpatia do staff", 0.023797589805312058
"estacionamento sem problemas", 0.023797589805312058
"Restaurante", 0.12622472814029334
"pratos", 0.12622472814029334
"vinhos", 0.12622472814029334
"simpatia", 0.12622472814029334
"problemas", 0.12622472814029334
"carta", 0.13520148352167385
"carta de vinhos", 0.1416111915567611
"banal porco preto", 0.14373283023732772
"inusitado na cidade", 0.17207837868882295
"qualidade e variedade", 0.17207837868882295
"acordas sem graca", 0.17207837868882295
"optimos", 0.18415114672608288
"staff", 0.18415114672608288
"estacionamento", 0.18415114672608288
"nao encontra", 0.23932264047316718
"banal porco", 0.23932264047316718
"porco preto", 0.23932264047316718
"simplesmente divinal", 0.018343653490424775
"ate aos pratos", 0.018343653490424775
"pratos principais", 0.018343653490424775
"comida confeccionada", 0.02531877708579109
"confeccionada pelo chef", 0.02531877708579109
"risotos sao magnificos", 0.07435753038695797
"divinal", 0.11463033715045805
"entradas", 0.11463033715045805
"ate", 0.11463033715045805
"principais", 0.11463033715045805
"amor pela cozinha", 0.13883618320266916
"sao magnificos", 0.1491181807279795
"comida", 0.15714186643928887
"confeccionada", 0.15714186643928887
"chef", 0.15714186643928887
"simplesmente", 0.15714186643928887
"pratos", 0.15714186643928887
"sugestoes dadas sao", 0.17751632958944433
"feito com mestria", 0.18268887505013248
"mestria e amor", 0.18268887505013248
"Entradas optimas", 0.02570861714399338
"risottos excelentes", 0.02570861714399338
"atendimento muito atencioso", 0.02570861714399338
"camarao", 0.04491197687864554
"cogumelos", 0.04491197687864554
"pratos diferentes", 0.04940384002065631
"muita qualidade", 0.04940384002065631
"diferentes do habitual", 0.09700399286574239
"Entradas", 0.15831692877998726
"optimas", 0.15831692877998726
"pratos", 0.15831692877998726
"qualidade", 0.15831692877998726
"risottos", 0.15831692877998726
"excelentes", 0.15831692877998726
"atendimento", 0.15831692877998726
"atencioso", 0.15831692877998726
"diferentes", 0.29736558256021506
"habitual", 0.29736558256021506
"muita", 0.29736558256021506
"acolhedor em Beja", 0.022825776323124266
"Beja que apresenta", 0.022825776323124266
"Espaco acolhedor", 0.03107735477427921
"apresenta uma confeccao", 0.050888965170882816
"confeccao formidavel", 0.050888965170882816
"Beja", 0.10141226884569679
"Espaco", 0.13696809108329627
"pratos", 0.13696809108329627
"Recomendo vivamente", 0.21339268578732606
"acolhedor", 0.2200560909321288
"apresenta", 0.2200560909321288
"confeccao", 0.2200560909321288
"formidavel", 0.2200560909321288
"vivamente os risotos", 0.32441639786848336
"Pessoal muito atencioso", 0.35487136790899465
"qualidade apresentada", 0.35487136790899465
"Recomendo", 0.3553358554145339
"cardapio", 0.3553358554145339
"Pessoal", 0.44538603402402266
"apresentada", 0.44538603402402266
"Gostei", 0.11797671014185607
"refeicoes", 0.11797671014185607
"pronto a ajudar", 0.1539412127363319
"recomendo vivamente", 0.25874337996204355
"excelente apresentacao", 0.26176225393615005
"ajudar", 0.3171947781126727
"Parabens", 0.31813151393529204
"pratos sao", 0.359016783205622
"apresentacao", 0.4036310100959565
"staff", 0.4205766817284309
"simpatico", 0.4205766817284309
"pronto", 0.4205766817284309
"recomendo", 0.4533838267348932
"vivamente", 0.4533838267348932
"pratos", 0.5139785153975659
"sao", 0.5139785153975659
"excelente", 0.5139785153975659
"Curto e grosso", 0.01901629844846891
"concelho de Beja", 0.07634907786260456
"Beja", 0.08028767295081411
"cidade de Beja", 0.09407829486335842
"Curto", 0.13660683430833365
"grosso", 0.13660683430833365
"Intimo", 0.25444403170083413
"tres melhores restaurantes", 0.2791708631558946
"melhores restaurantes", 0.33423297915857453
"falar", 0.3546353165743879
"tres melhores", 0.402060089240416
"novilho e divinal", 0.40842768695295717
"tambem", 0.4417451466924317
"concelho", 0.4417451466924317
"mesmo", 0.4417451466924317
"restaurante", 0.46779487543793297
"restaurante no concelho", 0.4807207991962143
"divinal", 0.49524020440327493
"costeleta de novilho", 0.5217688423544232
"tres", 0.5355033214559366
"pratos principais ate", 0.011075204313123217
"unico em Beja", 0.018854165597153916
"volta dum paladar", 0.02286435672738962
"proprio dum chef", 0.02286435672738962
"qualidade excepcional", 0.04071110692596734
"pratos principais", 0.04071110692596734
"chef de excelencia", 0.04071110692596734
"restaurante unico", 0.06606400660937085
"principais ate", 0.06606400660937085
"ate as sobremesas", 0.06606400660937085
"sobremesas tudo gira", 0.06606400660937085
"gira a volta", 0.06606400660937085
"paladar muito proprio", 0.06606400660937085
"Beja", 0.07433690537508139
"volta dum", 0.08191195306604879
"dum paladar", 0.08191195306604879
"proprio dum", 0.08191195306604879
"dum chef", 0.08191195306604879
"dum", 0.15206685088211885
"excepcional", 0.15714186643928887
"tinha comido tao", 0.0042542192213185686
"Comida excelente", 0.009239332327148086
"doses generosas", 0.015380821171891606
"tinha comido", 0.02570861714399338
"comido tao", 0.02570861714399338
"generosas e ambiente", 0.02570861714399338
"ambiente muito agradavel", 0.02570861714399338
"Comida", 0.09568045026443411
"excelente", 0.09568045026443411
"doses", 0.09568045026443411
"atendimento", 0.09568045026443411
"tinha", 0.15831692877998726
"comido", 0.15831692877998726
"tao", 0.15831692877998726
"generosas", 0.15831692877998726
"ambiente", 0.15831692877998726
"agradavel", 0.15831692877998726
"Comecemos pelo melhor", 0.01596275864979965
"Excepcional no tamanho", 0.12414879505059265
"corte e confeccao", 0.12414879505059265
"Comecemos", 0.12534732762780282
"melhor", 0.12534732762780282
"costeleta", 0.12534732762780282
"tambem nao destoavam", 0.23325247253111075
"nao destoavam", 0.28746841028153164
"acompanhavam tambem nao", 0.33066374183009717
"Excepcional", 0.33232220036314214
"tamanho", 0.33232220036314214
"corte", 0.33232220036314214
"confeccao", 0.33232220036314214
"choco frito", 0.3765338629294372
"batatas que acompanhavam", 0.3930732007350697
"acompanhavam tambem", 0.3930732007350697
"tambem nao", 0.3930732007350697
"destoavam", 0.42034297790575054
"frito", 0.47053046418402145
"banal", 0.47053046418402145
"visita a Beja", 0.01920793875938571
"almocar no domingo", 0.06776707374706457
"domingo numa visita", 0.06776707374706457
"Beja", 0.07480779614540375
"Escolhemos", 0.1592610586324978
"Escolhemos este restaurante", 0.16149623933757054
"Comecando pelo inicio", 0.18690498826177038
"restaurante", 0.23791799530961416
"almocar", 0.2519249053615113
"domingo", 0.2519249053615113
"visita", 0.2519249053615113
"restaurante para almocar", 0.2628574851475291
"livro pela capa", 0.2721426961874277
"restaurante merece", 0.3450201544602061
"Comecando", 0.3968281465973205
"inicio", 0.3968281465973205
"reticentes", 0.3968281465973205
"capa", 0.3968281465973205
"opiniao a fachada", 0.40967008890895185
"nao julgamos", 0.40967008890895185
"comida tipicamente alentejana", 0.003745469867411857
"tipicamente alentejana", 0.020747442285711133
"nao perder", 0.020747442285711133
"pretende deliciar-se", 0.030700180363587775
"diferentes da comida", 0.030700180363587775
"comida tipicamente", 0.030700180363587775
"pratos diferentes", 0.06015394382610615
"alentejana", 0.11777198021367995
"perder", 0.11777198021367995
"deliciar-se com pratos", 0.1278778220642074
"Destaca-se o sabor", 0.15350029415692715
"pratos", 0.1643845092711225
"pretende", 0.17258549299654868
"deliciar-se", 0.17258549299654868
"diferentes", 0.17258549299654868
"comida", 0.17258549299654868
"tipicamente", 0.17258549299654868
"nao", 0.17258549299654868
"sabor dos pratos", 0.3104817834397608
"Destaca-se", 0.31676849500916915
"simpatico e acolhedor", 0.03465229800090378
"acolhedor", 0.1447773057422032
"simpatico", 0.23133275159292982
"Qualidade top", 0.23338172234549467
"top da refeicao", 0.23338172234549467
"Servico muito atencioso", 0.2704390918235917
"Qualidade", 0.3702539456099092
"refeicao", 0.3702539456099092
"carne", 0.3702539456099092
"Servico", 0.4613789858464135
"atencioso", 0.4613789858464135
"top", 0.5110573480904945
"entradas", 0.5110573480904945
"repetir", 0.5121371841744414
"paladar da comida", 0.013523990243649827
"apresentacao dos pratos", 0.013523990243649827
"restaurante e continua", 0.017836736894936058
"continua top", 0.017836736894936058
"servico de mesa", 0.017836736894936058
"simpatia na educacao", 0.017836736894936058
"qualidade dos produtos", 0.03694959113255107
"qualidade do paladar", 0.03694959113255107
"qualidade", 0.05580859677770882
"Voltei", 0.0772733603846696
"excelencia", 0.10079806001835534
"comida", 0.10079806001835534
"pratos", 0.10079806001835534
"staff", 0.10079806001835534
"continuar a voltar", 0.10749352347326756
"Voltei e vou", 0.11981388423316447
"restaurante", 0.1323788616434751
"continua", 0.1323788616434751
"top", 0.1323788616434751
"servico", 0.1323788616434751
"pratos e sobremesas", 0.015465128052409167
"sobremesas excelentes", 0.015465128052409167
"entradas", 0.06997357213356549
"atendimento", 0.10519328464496844
"pratos", 0.10519328464496844
"excelentes", 0.10519328464496844
"sobremesas", 0.1447773057422032
"choco frito", 0.20785651292262122
"frito e robalo", 0.2704390918235917
"Acompanhamento de legumes", 0.2754003999271723
"Vieiras", 0.27573389687933125
"Comida", 0.2899204041465753
"confecionada", 0.2899204041465753
"sabor", 0.3702539456099092
"choco", 0.37298424001381364
"Acompanhamento", 0.42163019807883656
"confecionamos", 0.42163019807883656
"frito", 0.4613789858464135
"robalo", 0.4613789858464135
"legumes", 0.5121371841744414
"Servico atento", 0.011189445364643204
"Servico", 0.10519328464496844
"atento", 0.10519328464496844
"descontraido", 0.10519328464496844
"simpatico", 0.10519328464496844
"Excelente comida", 0.12025258825090053
"Qualidade e frescura", 0.20785651292262122
"Beja", 0.22924439282443113
"frescura dos produtos", 0.2704390918235917
"produtos muito acima", 0.2704390918235917
"saborosos e tardios", 0.2754003999271723
"permite almocos saborosos", 0.2788008642596101
"Excelente", 0.2899204041465753
"servida", 0.2899204041465753
"permite almocos", 0.35553610271667324
"almocos saborosos", 0.35553610271667324
"comida", 0.3702539456099092
"Qualidade", 0.37298424001381364
"Aberto", 0.42163019807883656
"tardios", 0.42163019807883656
"otima escolha", 0.02235215878495046
"escolha", 0.12229125971027831
"Comida deliciosa", 0.16333823125531258
"otima", 0.17878189525615976
"Ambiente acolhedor", 0.2736409981269629
"super simpatico", 0.2767170467037833
"Comida", 0.3261013256329346
"apresentada", 0.3261013256329346
"staff e super", 0.37884047162054735
"simpatico", 0.4134948298564376
"deliciosa", 0.43055564085338327
"Saimos muito satisfeitos", 0.430888748329292
"vontade de regressar", 0.430888748329292
"Ambiente", 0.46351849497328923
"acolhedor", 0.46351849497328923
"Saimos", 0.49654285697663225
"regressar", 0.49654285697663225
"staff", 0.5241688074772614
"super", 0.5241688074772614
"satisfeitos", 0.6064605371585696
"Adorei o restaurante", 0.016626316719119922
"restaurante intimo", 0.016626316719119922
"ambiente calmo sossegado", 0.06019363677171637
"Adorei", 0.10909815511827554
"intimo", 0.10909815511827554
"calmo sossegado", 0.1278244235492756
"acompanhamento de musica", 0.1278244235492756
"restaurante", 0.149905405948569
"ambiente calmo", 0.1685853064821579
"simpatico e dinamico", 0.17146379706674633
"staff jovem", 0.22010868773592726
"sossegado", 0.2983957947604909
"musica", 0.2983957947604909
"comida e excelente", 0.3751920553197244
"ambiente", 0.3798215915560938
"calmo", 0.3798215915560938
"jantar", 0.3798215915560938
"acompanhamento", 0.3798215915560938
"jovem", 0.3825795769824884
"simpatico", 0.3825795769824884
"restaurante intimo devido", 0.022093152489801274
"higiene e excelente", 0.02425381903909634
"excelente comida", 0.02425381903909634
"intimo devido", 0.06052068978559116
"Recomendo o Risotto", 0.0674468712808561
"Recomendo", 0.10438595915079257
"restaurante intimo", 0.1124086712431209
"organizacao", 0.13190326374903477
"higiene", 0.13190326374903477
"comida", 0.13190326374903477
"Recomendo o restaurante", 0.14997087807365536
"restaurante", 0.15894165419171352
"intimo", 0.15894165419171352
"restaurante familiar", 0.1590959910411461
"simpatico e amigavel", 0.17529840772815128
"devido", 0.17952171948451756
"excelente", 0.17952171948451756
"Risotto de camarao", 0.18908951527885695
"familiar e acolhedor", 0.22916896463557482
"staff simpatico", 0.22916896463557482
"restaurante Intimo devido", 0.0007331300305906435
"restaurante Intimo", 0.006583700393668164
"Intimo devido", 0.006583700393668164
"recebem os clientes", 0.012122338073675774
"atenciosos e simpaticos", 0.012122338073675774
"Intimo", 0.05976452535305329
"comida e excelente", 0.07689846664795487
"Recomendo", 0.08280939275679769
"staff", 0.08280939275679769
"restaurante", 0.10944015281422888
"devido", 0.10944015281422888
"simpatia", 0.10944015281422888
"recebem", 0.10944015281422888
"clientes", 0.10944015281422888
"atenciosos", 0.10944015281422888
"simpaticos", 0.10944015281422888
"excelente", 0.23871522237376758
"cozinheiro", 0.29913195375393087
"estrelas", 0.29913195375393087
"comida", 0.29913195375393087
"pena visitar muitas", 0.014324834009635256
"vale a pena", 0.0565406034156422
"pena visitar", 0.0565406034156422
"visitar muitas", 0.0565406034156422
"duvida", 0.23133275159292982
"vale", 0.23133275159292982
"pena", 0.23133275159292982
"visitar", 0.23133275159292982
"muitas", 0.23133275159292982
"disposto a ajudar", 0.23338172234549467
"aconselhar o cliente", 0.23338172234549467
"Restaurante", 0.31813151393529204
"estrelas", 0.31813151393529204
"ajudar e aconselhar", 0.35350894161299157
"atencioso", 0.3702539456099092
"disposto", 0.3702539456099092
"cliente", 0.3702539456099092
"Aconselho vivamente", 0.38599679376725615
"parabens ao chefe", 0.38599679376725615
"Aconselho", 0.4613789858464135
"cogumelos Portobello", 0.019375191734342358
"Portobello com queijo", 0.019375191734342358
"adoramos os cogumelos", 0.03189394368291281
"queijo de cabra", 0.03189394368291281
"Entradas otimas", 0.08450031417102977
"Portobello", 0.08997877947447194
"otimas", 0.14631919680679709
"adoramos", 0.14631919680679709
"cabra", 0.14631919680679709
"cogumelos", 0.21123790470070652
"queijo", 0.21123790470070652
"apresentacao espectacular", 0.2192441623915477
"Entradas", 0.26625473343531103
"estavam", 0.2990816781048022
"Comemos risotto", 0.36471882448030973
"Refeicoes", 0.3731494311833475
"espectacular", 0.3731494311833475
"estavam divinais", 0.44549268863364055
"Comemos", 0.4644615078646032
"saborosos", 0.4644615078646032
"Clima muito familiar", 0.01552184797949213
"comida confeccionada", 0.02541909697430123
"confeccionada e apresentada", 0.04188746641162499
"Recomendo vivamente", 0.0691822632239815
"especialidade da casa", 0.12124452117740256
"Clima", 0.12363091320521931
"familiar", 0.12363091320521931
"atencao", 0.12363091320521931
"crianca", 0.12363091320521931
"comida", 0.12363091320521931
"profissional", 0.12363091320521931
"Recomendo", 0.19677146788549632
"confeccionada", 0.2005079697193566
"apresentada", 0.2005079697193566
"escolha recaiu", 0.2766850298235749
"risottos", 0.32883716426354986
"especialidade", 0.32883716426354986
"casa", 0.32883716426354986
"vivamente", 0.32883716426354986
"escolha", 0.46553351027698087
"ambiente acolhedor", 0.010159422250580143
"atendimento muito simpatico", 0.010159422250580143
"Comida", 0.10028582371075691
"confeccionada", 0.10028582371075691
"ambiente", 0.10028582371075691
"acolhedor", 0.10028582371075691
"atendimento", 0.10028582371075691
"simpatico", 0.10028582371075691
"Fiquei muito surpreendida", 0.11755105063023073
"surpreendida pela positiva", 0.11755105063023073
"voltar muitas", 0.165573765898185
"Fiquei", 0.2790829227183407
"positiva", 0.2790829227183407
"surpreendida", 0.37689977775222827
"voltar", 0.37689977775222827
"muitas", 0.37689977775222827
"agradavel", 0.11797671014185607
"staff muito simpatico", 0.1539412127363319
"jantar", 0.17286683788205306
"Musica ambiente", 0.26176225393615005
"futebol a incomudar", 0.26176225393615005
"simpatico", 0.3171947781126727
"gosta de sossego", 0.34393543650132563
"ambiente sem telejornais", 0.359016783205622
"telejornais ou futebol", 0.359016783205622
"Musica", 0.4036310100959565
"incomudar", 0.4036310100959565
"comida", 0.4205766817284309
"staff", 0.4205766817284309
"Aconselho", 0.4533838267348932
"sossego", 0.4533838267348932
"ambiente", 0.5139785153975659
"telejornais", 0.5139785153975659
"futebol", 0.5139785153975659
"gosta", 0.5644591212760287
"cogumelos Portobello", 0.07025260921383479
"espetacular", 0.11447590486780465
"vinhos excepcional", 0.13318660228623766
"entrada de cogumelos", 0.16805559375728477
"espetada de tamboril,lulas", 0.16805559375728477
"lombinhos de porco", 0.16805559375728477
"porco com molho", 0.16805559375728477
"selecao de vinhos", 0.16805559375728477
"Portobello", 0.1730539170607689
"camarao", 0.18224439239302787
"Staff jovem", 0.22889050229623897
"jovem e atencioso", 0.22889050229623897
"criancas tambem", 0.30237228046780956
"excepcional", 0.3098591884542218
"tamboril,lulas e camarao", 0.3120781770397994
"molho de camarao", 0.3120781770397994
"pratos saborosos", 0.3741233717390831
"saborosos e atrativos", 0.3741233717390831
"entrada", 0.37931038173650344
"cogumelos", 0.37931038173650344
"Restaurante excelente", 0.01742742634113608
"comecando pelo staff", 0.01742742634113608
"ajudar o cliente", 0.01742742634113608
"staff jovem", 0.02290157267133047
"jovem e dinamico", 0.02290157267133047
"dinamico sempre disposto", 0.02290157267133047
"disposto a ajudar", 0.02290157267133047
"qualidade imensa seja", 0.08054953346440766
"Restaurante", 0.11447590486780465
"niveis", 0.11447590486780465
"comecando", 0.11447590486780465
"cliente", 0.11447590486780465
"pratos sao", 0.14445569769015418
"excelente", 0.1496289850971556
"staff", 0.1496289850971556
"jovem", 0.1496289850971556
"dinamico", 0.1496289850971556
"disposto", 0.1496289850971556
"ajudar", 0.1496289850971556
"pratos", 0.16638377185196623
"decoracao simples", 0.025847468467008076
"excelencia", 0.15873314152347795
"decoracao", 0.15873314152347795
"simples", 0.15873314152347795
"gosto", 0.15873314152347795
"Restaurante", 0.17504304308660693
"Restaurante de excelencia", 0.21362797780659074
"excelente", 0.23794647224205354
"chefe de cozinha", 0.2504397830000399
"marisco,chocos a Setubalense", 0.25667356112615874
"excelente staff", 0.3171046661364946
"excelente chefe", 0.3171046661364946
"Comi", 0.3214683799832051
"Setubalense", 0.34116356358906913
"cozinha", 0.395883551934395
"rissoto de marisco,chocos", 0.41324901388929114
"restaurante tres", 0.45854499375510077
"rissoto", 0.4884241383279731
"botoque", 0.4884241383279731
"staff", 0.5059097836997044
"definitivamente visitar novamente", 0.0025258761156662004
"qualidade superior definitivamente", 0.0042542192213185686
"superior definitivamente visitar", 0.0042542192213185686
"visitar novamente", 0.015380821171891606
"restaurante que visitei", 0.02570861714399338
"visitei muito feliz", 0.02570861714399338
"equipe de servico", 0.02570861714399338
"simpaticos e comida", 0.02570861714399338
"comida tambem", 0.02570861714399338
"qualidade superior", 0.02570861714399338
"superior definitivamente", 0.02570861714399338
"definitivamente visitar", 0.02570861714399338
"Portugal", 0.08596317751626563
"novamente", 0.09568045026443411
"restaurante", 0.15831692877998726
"visitei", 0.15831692877998726
"feliz", 0.15831692877998726
"equipe", 0.15831692877998726
"servico", 0.15831692877998726
"simpaticos", 0.15831692877998726
"excelente refeicao", 0.009145555775475097
"relaxar e desfrutar", 0.012122338073675774
"agradavel e util", 0.07689846664795487
"comida e deliciosa", 0.07689846664795487
"refeicao", 0.08280939275679769
"material e jovem", 0.09827342448325681
"jovem agradavel", 0.09827342448325681
"relaxar", 0.10944015281422888
"desfrutar", 0.10944015281422888
"excelente", 0.10944015281422888
"util", 0.23871522237376758
"deliciosa", 0.23871522237376758
"material", 0.29913195375393087
"jovem", 0.29913195375393087
"agradavel", 0.29913195375393087
"comida", 0.29913195375393087
"pratos sao preparados", 0.0016012214736657916
"restaurante agradavel", 0.013527995261974615
"pratos sao", 0.013527995261974615
"sao preparados", 0.013527995261974615
"preparados com ingredientes", 0.013527995261974615
"ingredientes frescos", 0.013527995261974615
"frescos a equipe", 0.013527995261974615
"equipe e jovem", 0.013527995261974615
"acolhedor deve visitar", 0.013527995261974615
"restaurante", 0.1155310835876123
"agradavel", 0.1155310835876123
"pratos", 0.1155310835876123
"sao", 0.1155310835876123
"preparados", 0.1155310835876123
"ingredientes", 0.1155310835876123
"frescos", 0.1155310835876123
"equipe", 0.1155310835876123
"jovem", 0.1155310835876123
"acolhedor", 0.1155310835876123
"visitar", 0.1155310835876123
